<svg xmlns="http://www.w3.org/2000/svg" width="21" height="21" viewBox="0 0 21 21">
  <defs>
    <style>
      .cls-1 {
        fill: #e1e1e1;
        fill-rule: evenodd;
      }
    </style>
  </defs>
  <path class="cls-1" d="M1429,660.2l-1.2-1.2-9.3,9.3-9.3-9.3-1.2,1.2,9.3,9.3-9.3,9.3,1.2,1.2,9.3-9.3,9.3,9.3,1.2-1.2-9.3-9.3Z" transform="translate(-1408 -659)" />
</svg>
