<svg width="360" height="471" viewBox="0 0 360 471" fill="none" xmlns="http://www.w3.org/2000/svg">
<mask id="mask0" mask-type="alpha" maskUnits="userSpaceOnUse" x="0" y="0" width="360" height="471">
<rect x="0.5" y="0.5" width="359" height="470" fill="white" stroke="#DCDCDC"/>
</mask>
<g mask="url(#mask0)">
<path d="M332.342 279.3C328.807 279.3 326 276.441 326 272.958C326 269.424 328.859 266.617 332.342 266.617C335.876 266.617 338.683 269.476 338.683 272.958C338.735 276.441 335.876 279.3 332.342 279.3ZM332.342 269.112C330.21 269.112 328.495 270.827 328.495 272.958C328.495 275.089 330.21 276.805 332.342 276.805C334.473 276.805 336.188 275.089 336.188 272.958C336.188 270.827 334.473 269.112 332.342 269.112Z" fill="#C3D2FF"/>
<path d="M332.343 259.339C339.828 259.339 345.91 265.421 345.91 272.906C345.91 273.374 345.91 273.842 345.858 274.258C345.806 274.882 346.326 275.349 346.897 275.297L348.873 274.986C349.289 274.934 349.652 274.57 349.652 274.154C349.704 273.738 349.704 273.322 349.704 272.906C349.704 263.342 341.907 255.545 332.343 255.545C331.615 255.545 330.887 255.597 330.212 255.701C329.692 255.753 329.328 256.273 329.432 256.792L329.744 258.716C329.848 259.183 330.264 259.547 330.783 259.495C331.303 259.391 331.823 259.339 332.343 259.339Z" fill="#C3D2FF"/>
<path d="M332.342 249.567C345.233 249.567 355.681 260.067 355.681 272.906C355.681 273.478 356.149 273.894 356.721 273.842L358.644 273.53C358.956 273.166 359.164 272.958 359.424 272.595C359.268 257.78 347.157 245.72 332.29 245.72C330.991 245.72 329.691 245.824 328.444 245.98C327.924 246.032 327.612 246.552 327.664 247.072L327.976 248.995C328.08 249.463 328.496 249.827 329.015 249.775C330.159 249.671 331.251 249.567 332.342 249.567Z" fill="#C3D2FF"/>
<path d="M332.342 239.795C350.172 239.795 364.726 253.881 365.454 271.555C365.454 272.127 365.974 272.542 366.494 272.439L368.417 272.127C368.885 272.075 369.249 271.659 369.197 271.191C368.261 251.646 352.095 236 332.29 236C330.419 236 328.6 236.156 326.832 236.416C326.312 236.468 326.001 236.988 326.053 237.507L326.364 239.431C326.468 239.951 326.936 240.262 327.404 240.21C329.119 239.899 330.731 239.795 332.342 239.795Z" fill="#C3D2FF"/>
<g opacity="0.61">
<path d="M312.229 43.4869L277.793 20.8189C275.14 19.0723 274.427 15.4955 276.155 12.8708L292.663 -12.207C294.41 -14.8603 297.987 -15.5727 300.611 -13.8449L335.047 8.82305C337.7 10.5696 338.413 14.1464 336.685 16.7712L320.177 41.849C318.43 44.5022 314.882 45.2334 312.229 43.4869ZM298.433 -10.5354C297.634 -11.0613 296.546 -10.837 296.02 -10.0382L279.512 15.0396C278.986 15.8384 279.21 16.9265 280.009 17.4524L314.445 40.1203C315.244 40.6462 316.332 40.422 316.858 39.6231L333.347 14.5739C333.873 13.775 333.648 12.6869 332.85 12.1611L298.414 -10.5069L298.433 -10.5354Z" fill="#E86D6D"/>
<path d="M305.805 15.7862C305.463 15.5608 305.196 15.2213 305.042 14.8338L294.752 -11.5276C294.367 -12.5579 294.843 -13.7165 295.873 -14.1014C296.904 -14.4864 298.062 -14.01 298.447 -12.9796L308.218 12.0585L334.758 11.1268C335.856 11.073 336.799 11.9391 336.834 13.0662C336.888 14.1648 336.022 15.1078 334.913 15.1142L306.982 16.1109C306.565 16.1228 306.148 16.0115 305.805 15.7862Z" fill="#E86D6D"/>
<path d="M276.503 18.8656L278.197 15.2369L277.336 17.0419L276.539 15.2087C277.304 14.8537 292.237 7.26358 302.108 2.27033C303.09 1.77198 304.305 2.16277 304.804 3.1451C305.302 4.12743 304.911 5.34231 303.929 5.84066C303.929 5.84066 297.525 9.10847 291.111 12.329C287.919 13.9486 284.679 15.578 282.289 16.7856C277.377 19.2773 277.377 19.2773 276.503 18.8656Z" fill="#E86D6D"/>
<path d="M314.419 43.8246C313.695 43.1847 313.695 43.1847 314.024 37.7166C314.207 35.0156 314.404 31.424 314.629 27.8512C315.099 20.6771 315.521 13.5127 315.521 13.5127C315.591 12.4133 316.552 11.5741 317.651 11.6434C318.751 11.7128 319.59 12.6742 319.521 13.7735C318.837 24.8141 317.769 41.5315 317.745 42.3747L315.746 42.3674L314.419 43.8246Z" fill="#E86D6D"/>
</g>
<path d="M24.1661 26.8014L-8.86039 40.6747C-11.9005 41.9518 -14.8853 46.3275 -13.5554 49.4933L-5.75233 68.0691C-4.46159 71.1418 0.400639 71.2354 3.44073 69.9584L26.1493 60.4193C26.9324 60.0903 28.2661 62.1043 28.5985 62.8958L29.7524 65.6426C30.2217 66.7599 31.5032 66.7145 32.1342 66.6685C32.4888 66.7387 33.0207 66.8439 33.5734 66.6117C34.0341 66.4182 34.4165 66.0385 34.5364 65.5499L37.0204 57.6601C40.087 56.3171 39.9882 52.4699 38.6975 49.3972L30.8944 30.8214C29.7154 27.7566 27.2062 25.5243 24.1661 26.8014ZM35.6574 50.6742C36.2637 52.1175 36.7387 53.5063 35.5871 53.99L34.3435 54.5125L31.1672 63.0765L29.4658 59.0261C29.1333 58.2347 29.0463 56.7376 28.2633 57.0665L2.56068 67.8634C1.13276 68.4632 -2.01385 68.1966 -2.62011 66.7534L-10.0907 48.969C-10.9708 46.874 -8.52821 45.4646 -7.10029 44.8647L25.9262 30.9914C27.308 30.4109 27.2676 30.7018 27.8739 32.145L35.6574 50.6742Z" fill="#91D3D9"/>
<path d="M26.2746 36.9797C26.5092 37.5384 26.2442 38.1974 25.6914 38.4296L-4.34099 51.0453C-4.89373 51.2775 -5.54992 51.0054 -5.7846 50.4467C-6.01928 49.888 -5.75422 49.229 -5.20148 48.9968L24.8309 36.3812C25.3837 36.149 26.0399 36.421 26.2746 36.9797Z" fill="#91D3D9"/>
<path d="M28.4829 42.2405C28.7176 42.7992 28.4526 43.4582 27.8998 43.6904L-2.13261 56.306C-2.68535 56.5382 -3.34154 56.2662 -3.57622 55.7075C-3.8109 55.1488 -3.54584 54.4898 -2.9931 54.2576L27.0393 41.6419C27.5725 41.3632 28.2287 41.6353 28.4829 42.2405Z" fill="#91D3D9"/>
<path d="M31.5552 49.5497C31.7899 50.1084 31.5248 50.7674 30.9721 50.9996L0.939656 63.6152C0.386912 63.8474 -0.269274 63.5754 -0.503953 63.0167C-0.738632 62.458 -0.473579 61.799 0.0791652 61.5668L30.1116 48.9511C30.6448 48.6724 31.301 48.9445 31.5552 49.5497Z" fill="#91D3D9"/>
</g>
</svg>
