<svg width="360" height="471" viewBox="0 0 360 471" fill="none" xmlns="http://www.w3.org/2000/svg">
<mask id="mask0" mask-type="alpha" maskUnits="userSpaceOnUse" x="0" y="0" width="360" height="471">
<rect x="0.5" y="0.5" width="359" height="470" fill="white" stroke="#DCDCDC"/>
</mask>
<g mask="url(#mask0)">
<path d="M33.1661 205.801L0.139611 219.675C-2.90048 220.952 -5.88527 225.328 -4.55542 228.493L3.24767 247.069C4.53841 250.142 9.40064 250.235 12.4407 248.958L35.1493 239.419C35.9324 239.09 37.2661 241.104 37.5985 241.896L38.7524 244.643C39.2217 245.76 40.5032 245.715 41.1342 245.669C41.4888 245.739 42.0207 245.844 42.5734 245.612C43.0341 245.418 43.4165 245.038 43.5364 244.55L46.0204 236.66C49.087 235.317 48.9882 231.47 47.6975 228.397L39.8944 209.821C38.7154 206.757 36.2062 204.524 33.1661 205.801ZM44.6574 229.674C45.2637 231.117 45.7387 232.506 44.5871 232.99L43.3435 233.512L40.1672 242.076L38.4658 238.026C38.1333 237.235 38.0463 235.738 37.2633 236.067L11.5607 246.863C10.1328 247.463 6.98615 247.197 6.37989 245.753L-1.09074 227.969C-1.97079 225.874 0.471785 224.465 1.89971 223.865L34.9262 209.991C36.308 209.411 36.2676 209.702 36.8739 211.145L44.6574 229.674Z" fill="#91D3D9"/>
<path d="M35.2736 215.98C35.5083 216.538 35.2432 217.197 34.6905 217.43L4.65804 230.045C4.10529 230.277 3.44911 230.005 3.21443 229.447C2.97975 228.888 3.2448 228.229 3.79754 227.997L33.83 215.381C34.3827 215.149 35.0389 215.421 35.2736 215.98Z" fill="#91D3D9"/>
<path d="M37.4839 221.24C37.7186 221.799 37.4535 222.458 36.9008 222.69L6.86837 235.306C6.31562 235.538 5.65944 235.266 5.42476 234.707C5.19008 234.149 5.45513 233.49 6.00788 233.258L36.0403 220.642C36.5735 220.363 37.2297 220.635 37.4839 221.24Z" fill="#91D3D9"/>
<path d="M40.5542 228.55C40.7889 229.108 40.5238 229.767 39.9711 230L9.93868 242.615C9.38594 242.847 8.72975 242.575 8.49507 242.017C8.26039 241.458 8.52544 240.799 9.07819 240.567L39.1106 227.951C39.6438 227.672 40.3 227.944 40.5542 228.55Z" fill="#91D3D9"/>
</g>
</svg>
