<svg width="360" height="471" viewBox="0 0 360 471" fill="none" xmlns="http://www.w3.org/2000/svg">
<mask id="mask0" mask-type="alpha" maskUnits="userSpaceOnUse" x="0" y="0" width="360" height="471">
<rect x="0.5" y="0.5" width="359" height="470" fill="white" stroke="#DCDCDC"/>
</mask>
<g mask="url(#mask0)">
<path d="M332.342 279.3C328.807 279.3 326 276.441 326 272.958C326 269.424 328.859 266.617 332.342 266.617C335.876 266.617 338.683 269.476 338.683 272.958C338.735 276.441 335.876 279.3 332.342 279.3ZM332.342 269.112C330.21 269.112 328.495 270.827 328.495 272.958C328.495 275.089 330.21 276.805 332.342 276.805C334.473 276.805 336.188 275.089 336.188 272.958C336.188 270.827 334.473 269.112 332.342 269.112Z" fill="#C3D2FF"/>
<path d="M332.342 259.339C339.827 259.339 345.909 265.421 345.909 272.906C345.909 273.374 345.909 273.842 345.857 274.258C345.805 274.882 346.324 275.349 346.896 275.297L348.871 274.986C349.287 274.934 349.651 274.57 349.651 274.154C349.703 273.738 349.703 273.322 349.703 272.906C349.703 263.342 341.906 255.545 332.342 255.545C331.614 255.545 330.886 255.597 330.21 255.701C329.691 255.753 329.327 256.273 329.431 256.792L329.743 258.716C329.846 259.183 330.262 259.547 330.782 259.495C331.302 259.391 331.822 259.339 332.342 259.339Z" fill="#C3D2FF"/>
<path d="M332.342 249.567C345.233 249.567 355.681 260.067 355.681 272.906C355.681 273.478 356.149 273.894 356.721 273.842L358.644 273.53C358.956 273.166 359.164 272.958 359.424 272.595C359.268 257.78 347.156 245.72 332.29 245.72C330.99 245.72 329.691 245.824 328.443 245.98C327.923 246.032 327.611 246.552 327.663 247.072L327.975 248.995C328.079 249.463 328.495 249.827 329.015 249.775C330.158 249.671 331.25 249.567 332.342 249.567Z" fill="#C3D2FF"/>
<path d="M332.342 239.795C350.171 239.795 364.726 253.881 365.453 271.555C365.453 272.127 365.973 272.542 366.493 272.439L368.416 272.127C368.884 272.075 369.248 271.659 369.196 271.191C368.26 251.646 352.094 236 332.29 236C330.418 236 328.599 236.156 326.832 236.416C326.312 236.468 326 236.988 326.052 237.507L326.364 239.431C326.468 239.951 326.936 240.262 327.404 240.21C329.119 239.899 330.73 239.795 332.342 239.795Z" fill="#C3D2FF"/>
<g opacity="0.61">
<path d="M312.229 43.4869L277.793 20.8189C275.14 19.0723 274.427 15.4955 276.155 12.8708L292.663 -12.207C294.41 -14.8603 297.987 -15.5727 300.611 -13.8449L335.047 8.82305C337.7 10.5696 338.413 14.1464 336.685 16.7712L320.177 41.849C318.43 44.5022 314.882 45.2334 312.229 43.4869ZM298.433 -10.5354C297.634 -11.0613 296.546 -10.837 296.02 -10.0382L279.512 15.0396C278.986 15.8384 279.21 16.9265 280.009 17.4524L314.445 40.1203C315.244 40.6462 316.332 40.422 316.858 39.6231L333.347 14.5739C333.873 13.775 333.648 12.6869 332.85 12.1611L298.414 -10.5069L298.433 -10.5354Z" fill="#E86D6D"/>
<path d="M305.805 15.7862C305.463 15.5608 305.196 15.2213 305.042 14.8338L294.751 -11.5276C294.366 -12.5579 294.843 -13.7165 295.873 -14.1014C296.904 -14.4864 298.062 -14.01 298.447 -12.9796L308.218 12.0585L334.757 11.1268C335.856 11.073 336.799 11.9391 336.834 13.0662C336.888 14.1648 336.022 15.1078 334.913 15.1142L306.982 16.1109C306.565 16.1228 306.148 16.0115 305.805 15.7862Z" fill="#E86D6D"/>
<path d="M276.503 18.8656L278.196 15.2369L277.335 17.0419L276.538 15.2087C277.304 14.8537 292.237 7.26358 302.107 2.27033C303.09 1.77198 304.305 2.16277 304.803 3.1451C305.301 4.12743 304.911 5.34231 303.928 5.84066C303.928 5.84066 297.524 9.10847 291.111 12.329C287.918 13.9486 284.678 15.578 282.288 16.7856C277.377 19.2773 277.377 19.2773 276.503 18.8656Z" fill="#E86D6D"/>
<path d="M314.419 43.8246C313.695 43.1847 313.695 43.1847 314.024 37.7166C314.207 35.0156 314.404 31.424 314.629 27.8512C315.099 20.6771 315.521 13.5127 315.521 13.5127C315.591 12.4133 316.552 11.5741 317.651 11.6434C318.751 11.7128 319.59 12.6742 319.521 13.7735C318.837 24.8141 317.769 41.5315 317.745 42.3747L315.746 42.3674L314.419 43.8246Z" fill="#E86D6D"/>
</g>
<path d="M28.1661 209.801L-4.86039 223.675C-7.90048 224.952 -10.8853 229.328 -9.55542 232.493L-1.75233 251.069C-0.461588 254.142 4.40064 254.235 7.44073 252.958L30.1493 243.419C30.9324 243.09 32.2661 245.104 32.5985 245.896L33.7524 248.643C34.2217 249.76 35.5032 249.715 36.1342 249.669C36.4888 249.739 37.0207 249.844 37.5734 249.612C38.0341 249.418 38.4165 249.038 38.5364 248.55L41.0204 240.66C44.087 239.317 43.9882 235.47 42.6975 232.397L34.8944 213.821C33.7154 210.757 31.2062 208.524 28.1661 209.801ZM39.6574 233.674C40.2637 235.117 40.7387 236.506 39.5871 236.99L38.3435 237.512L35.1672 246.076L33.4658 242.026C33.1333 241.235 33.0463 239.738 32.2633 240.067L6.56068 250.863C5.13276 251.463 1.98615 251.197 1.37989 249.753L-6.09074 231.969C-6.97079 229.874 -4.52821 228.465 -3.10029 227.865L29.9262 213.991C31.308 213.411 31.2676 213.702 31.8739 215.145L39.6574 233.674Z" fill="#91D3D9"/>
<path d="M30.2741 219.98C30.5088 220.538 30.2437 221.197 29.6909 221.43L-0.341476 234.045C-0.89422 234.277 -1.55041 234.005 -1.78509 233.447C-2.01977 232.888 -1.75471 232.229 -1.20197 231.997L28.8305 219.381C29.3832 219.149 30.0394 219.421 30.2741 219.98Z" fill="#91D3D9"/>
<path d="M32.4839 225.24C32.7186 225.799 32.4535 226.458 31.9008 226.69L1.86837 239.306C1.31562 239.538 0.659437 239.266 0.424757 238.707C0.190078 238.149 0.455132 237.49 1.00788 237.258L31.0403 224.642C31.5735 224.363 32.2297 224.635 32.4839 225.24Z" fill="#91D3D9"/>
<path d="M35.5542 232.55C35.7889 233.108 35.5238 233.767 34.9711 234L4.93868 246.615C4.38594 246.847 3.72975 246.575 3.49507 246.017C3.26039 245.458 3.52544 244.799 4.07819 244.567L34.1106 231.951C34.6438 231.672 35.3 231.944 35.5542 232.55Z" fill="#91D3D9"/>
</g>
</svg>
