<svg width="262" height="150" viewBox="0 0 262 150" fill="none" xmlns="http://www.w3.org/2000/svg">
<mask id="mask0" mask-type="alpha" maskUnits="userSpaceOnUse" x="0" y="0" width="262" height="150">
<rect width="262" height="150" fill="#C4C4C4"/>
</mask>
<g mask="url(#mask0)">
<ellipse rx="69.9064" ry="69.5" transform="matrix(-1 0 0 1 93.9998 119.5)" fill="white"/>
<path d="M48.4465 114.234V124.882C48.4465 129.109 45.0325 132.605 40.7243 132.605H37.8793C37.7167 132.605 37.4728 132.686 37.3103 132.849C37.1477 133.011 37.0664 133.174 37.0664 133.418V133.58H48.3652H67.6301C71.857 133.58 75.3524 130.166 75.3524 125.858V114.234H48.4465Z" fill="#F1F1F1"/>
<path d="M75.4339 125.777V114.234H48.4468L67.7117 133.499C71.9386 133.499 75.4339 130.085 75.4339 125.777Z" fill="#EAEAEA"/>
<path d="M13.0055 43.6772C11.6236 43.6772 10.4043 44.8153 10.4043 46.2784V111.633C10.4043 113.096 11.5423 114.234 13.0055 114.234H114.289C115.752 114.234 116.89 113.096 116.89 111.633V46.2784C116.89 44.8153 115.752 43.6772 114.289 43.6772H13.0055Z" fill="#F2F2F2"/>
<path d="M11.2174 43.6772C9.83551 43.6772 8.61621 44.8153 8.61621 46.2784V111.633C8.61621 113.096 9.75422 114.234 11.2174 114.234H112.5C113.964 114.234 115.102 113.096 115.102 111.633V46.2784C115.102 44.8153 113.964 43.6772 112.5 43.6772H11.2174Z" fill="#353F49"/>
<path d="M109.737 49.0422H14.0625V108.869H109.737V49.0422Z" fill="#ABE0E5"/>
<path d="M99.8201 34.6543H23.8984V108.869H99.8201V34.6543Z" fill="white"/>
<path d="M99.8201 27.0134H23.8984V30.8339H99.8201V27.0134Z" fill="#91D3D9"/>
<path d="M99.8201 30.834H23.8984V34.6545H99.8201V30.834Z" fill="#E6E5E5"/>
<path d="M93.3169 31.9719H30.4824V33.5164H93.3169V31.9719Z" fill="white"/>
<path d="M30.4826 28.9644H23.8984V30.8339H30.4826V28.9644Z" fill="#F68360"/>
<path d="M46.252 28.9644H30.4824V30.8339H46.252V28.9644Z" fill="#E6E5E5"/>
<path d="M29.1821 31.9719H27.6377V33.5164H29.1821V31.9719Z" fill="#CCCBCA"/>
<path d="M26.8247 31.9719H25.2803V33.5164H26.8247V31.9719Z" fill="#CCCBCA"/>
<path d="M98.6006 31.9719H97.0562V33.5164H98.6006V31.9719Z" fill="#CCCBCA"/>
<path d="M96.1621 31.9719H94.6177V33.5164H96.1621V31.9719Z" fill="#CCCBCA"/>
<path d="M80.1485 37.9871H43.6509V42.783H80.1485V37.9871Z" fill="#CCCBCA"/>
<path d="M80.1485 11H43.6509V15.7959H80.1485V11Z" fill="#DC2D22"/>
<path d="M99.8201 52.1309H23.8984V75.135H99.8201V52.1309Z" fill="#C4EDF1"/>
<path d="M44.5448 46.1157H32.5957V47.9853H44.5448V46.1157Z" fill="#91D3D9"/>
<path d="M60.0707 46.1157H48.1216V47.9853H60.0707V46.1157Z" fill="#91D3D9"/>
<path d="M75.5961 46.1157H63.647V47.9853H75.5961V46.1157Z" fill="#91D3D9"/>
<path d="M91.122 46.1157H79.1729V47.9853H91.122V46.1157Z" fill="#91D3D9"/>
<path d="M48.6906 56.1953H33.7339V71.152H48.6906V56.1953Z" fill="#0E67A6"/>
<path d="M90.0656 56.1953H55.4375V58.7152H90.0656V56.1953Z" fill="#91D3D9"/>
<path d="M90.0656 60.5847H55.4375V61.235H90.0656V60.5847Z" fill="white"/>
<path d="M90.0656 62.6982H55.4375V63.3485H90.0656V62.6982Z" fill="white"/>
<path d="M82.0182 64.8118H63.4849V65.4621H82.0182V64.8118Z" fill="white"/>
<path d="M14.9567 79.1995H0V94.1562H14.9567V79.1995Z" fill="#DC2D22"/>
<path d="M12.3555 81.8818H2.60107V83.5076H12.3555V81.8818Z" fill="#ED6D47"/>
<path d="M12.3555 84.6455H2.60107V85.1332H12.3555V84.6455Z" fill="white"/>
<path d="M12.3555 86.3525H2.60107V86.8403H12.3555V86.3525Z" fill="white"/>
<path d="M7.47827 88.0596H2.60107V88.5473H7.47827V88.0596Z" fill="white"/>
<path d="M48.6906 96.3508H33.7339V97.0824H48.6906V96.3508Z" fill="#FFC86D"/>
<path d="M48.6906 98.627H33.7339V99.3585H48.6906V98.627Z" fill="#CCCBCA"/>
<path d="M41.4561 100.822H33.7339V101.553H41.4561V100.822Z" fill="#CCCBCA"/>
<path d="M69.4186 96.3508H54.4619V97.0824H69.4186V96.3508Z" fill="#FFC86D"/>
<path d="M69.4186 98.627H54.4619V99.3585H69.4186V98.627Z" fill="#CCCBCA"/>
<path d="M62.1841 100.822H54.4619V101.553H62.1841V100.822Z" fill="#CCCBCA"/>
<path d="M90.0656 96.3508H75.1089V97.0824H90.0656V96.3508Z" fill="#FFC86D"/>
<path d="M90.0656 98.627H75.1089V99.3585H90.0656V98.627Z" fill="#CCCBCA"/>
<path d="M82.8311 100.822H75.1089V101.553H82.8311V100.822Z" fill="#CCCBCA"/>
<path d="M48.6906 79.1995H33.7339V94.1562H48.6906V79.1995Z" fill="#CCCBCA"/>
<path d="M90.0651 79.1995H75.1084V94.1562H90.0651V79.1995Z" fill="#FFC86D"/>
<path d="M75.1899 94.2375L75.0273 94.0749L89.9841 79.1995L90.1466 79.2807L75.1899 94.2375Z" fill="#FFB959"/>
<path d="M89.9841 94.2375L75.0273 79.2807L75.1899 79.1995L90.1466 94.0749L89.9841 94.2375Z" fill="#FFB959"/>
<path d="M90.1466 94.2375H75.0273V79.1182H90.1466V94.2375ZM75.1899 94.0749H89.9028V79.362H75.1899V94.0749Z" fill="#FFB959"/>
<path d="M69.4186 79.1995H54.4619V94.1562H69.4186V79.1995Z" fill="#ABE0E5"/>
<path d="M54.5434 94.2375L54.3809 94.0749L69.3376 79.1995L69.4189 79.2807L54.5434 94.2375Z" fill="#91D3D9"/>
<path d="M69.3376 94.2375L54.3809 79.2807L54.5434 79.1995L69.4189 94.0749L69.3376 94.2375Z" fill="#91D3D9"/>
<path d="M69.5002 94.2375H54.3809V79.1182H69.5002V94.2375ZM54.5434 94.0749H69.2563V79.362H54.5434V94.0749Z" fill="#91D3D9"/>
<path d="M37.2291 58.6338H36.1724V59.6905H37.2291V58.6338Z" fill="#C4EDF1"/>
<path d="M46.2519 58.6338H37.8794V59.6905H46.2519V58.6338Z" fill="white"/>
<path d="M37.2291 61.0723H36.1724V62.129H37.2291V61.0723Z" fill="#C4EDF1"/>
<path d="M46.2519 61.0723H37.8794V62.129H46.2519V61.0723Z" fill="white"/>
<path d="M43.8132 37.093H43.5693V37.9872H43.8132V37.093Z" fill="#474F59"/>
<path d="M43.8132 35.3046H43.5693V33.435H43.8132V35.3046ZM43.8132 31.5654H43.5693V29.6958H43.8132V31.5654ZM43.8132 27.8262H43.5693V25.9566H43.8132V27.8262ZM43.8132 24.0871H43.5693V22.2175H43.8132V24.0871ZM43.8132 20.4292H43.5693V18.5596H43.8132V20.4292Z" fill="#474F59"/>
<path d="M43.8132 15.7959H43.5693V16.6901H43.8132V15.7959Z" fill="#474F59"/>
<path d="M80.2297 15.7959H79.9858V16.6901H80.2297V15.7959Z" fill="#474F59"/>
<path d="M80.2297 35.3046H79.9858V33.435H80.2297V35.3046ZM80.2297 31.5654H79.9858V29.6958H80.2297V31.5654ZM80.2297 27.8262H79.9858V25.9566H80.2297V27.8262ZM80.2297 24.0871H79.9858V22.2175H80.2297V24.0871ZM80.2297 20.4292H79.9858V18.5596H80.2297V20.4292Z" fill="#474F59"/>
<path d="M80.2297 37.093H79.9858V37.9872H80.2297V37.093Z" fill="#474F59"/>
<path d="M33.7337 79.362H32.5957V79.1182H33.7337V79.362ZM30.8887 79.362H29.1004V79.1182H30.8887V79.362ZM27.3121 79.362H25.5238V79.1182H27.3121V79.362ZM23.8168 79.362H22.0285V79.1182H23.8168V79.362ZM20.2402 79.362H18.4519V79.1182H20.2402V79.362ZM16.7448 79.362H14.9565V79.1182H16.7448V79.362Z" fill="#474F59"/>
<path d="M33.7337 94.3186H32.5957V94.0747H33.7337V94.3186ZM30.8887 94.3186H29.1004V94.0747H30.8887V94.3186ZM27.3121 94.3186H25.5238V94.0747H27.3121V94.3186ZM23.8168 94.3186H22.0285V94.0747H23.8168V94.3186ZM20.2402 94.3186H18.4519V94.0747H20.2402V94.3186ZM16.7448 94.3186H14.9565V94.0747H16.7448V94.3186Z" fill="#474F59"/>
<path d="M146.252 137.855C146.051 137.855 143.613 299.211 143.613 299.211L163.114 298.537L169.877 219.207L171.481 160.966L184.75 214.835L201.299 299.379L220.769 294.486L195.989 136.804L172.653 132.288L146.252 137.855Z" fill="#0164A8"/>
<path d="M188.64 38.1568C190.967 33.5441 191.705 25.2734 189.033 20.6848C186.362 16.0961 180.939 12.7991 175.853 11.2909C175.018 10.9727 174.107 10.914 173.238 11.1225C172.811 11.2431 172.446 11.5215 172.216 11.9013C171.987 12.2812 171.911 12.734 172.003 13.1681C171.042 12.3848 169.957 11.7667 168.794 11.3391C168.215 11.1275 167.594 11.0614 166.984 11.1468C166.374 11.2321 165.794 11.4662 165.296 11.8284C165.059 12.0205 164.863 12.2573 164.718 12.5255C164.573 12.7936 164.482 13.0877 164.45 13.391C164.419 13.6943 164.448 14.0007 164.535 14.2929C164.623 14.585 164.767 14.857 164.959 15.0934C164.252 14.7872 163.472 14.6911 162.712 14.8164C161.952 14.9418 161.244 15.2834 160.673 15.8003C160.102 16.3172 159.692 16.9877 159.492 17.7315C159.292 18.4754 159.31 19.2611 159.544 19.9949C160.142 21.5071 161.024 22.8906 162.143 24.0701C162.587 24.5374 162.895 25.1159 163.037 25.7444C163.178 26.3729 163.146 27.0278 162.946 27.6399" fill="#263238"/>
<path d="M169.412 76.1011C169.556 73.8951 169.909 53.8881 169.909 53.7918C169.909 53.6955 162.481 52.8773 162.16 45.489C162.007 41.9192 162.288 34.5469 162.617 27.8405C162.795 24.3883 164.265 21.1293 166.735 18.7112C169.205 16.2931 172.495 14.8928 175.95 14.7886H176.656C184.365 14.9971 188.488 21.6555 188.063 29.3486L187.012 72.1623" fill="#FFBE9D"/>
<path d="M169.877 53.7921C173.289 53.6773 176.597 52.5859 179.407 50.6475C179.407 50.6475 177.193 55.2762 169.781 54.835L169.877 53.7921Z" fill="#EB996E"/>
<path d="M163.853 32.8619C163.859 33.1371 163.972 33.3992 164.168 33.5923C164.364 33.7855 164.628 33.8947 164.903 33.8967C165.038 33.9043 165.174 33.8845 165.301 33.8385C165.428 33.7926 165.544 33.7213 165.643 33.6292C165.742 33.537 165.821 33.4258 165.876 33.3022C165.931 33.1786 165.96 33.0452 165.962 32.91C165.963 32.7709 165.937 32.633 165.885 32.5042C165.833 32.3753 165.755 32.258 165.658 32.1589C165.56 32.0598 165.444 31.9809 165.316 31.9267C165.188 31.8726 165.051 31.8441 164.911 31.8431C164.774 31.8377 164.638 31.86 164.509 31.9088C164.381 31.9576 164.264 32.0318 164.165 32.1269C164.066 32.2221 163.987 32.3362 163.934 32.4625C163.88 32.5888 163.852 32.7246 163.853 32.8619Z" fill="#263238"/>
<path d="M164.318 31.4421C164.454 31.5785 165.232 30.9608 166.363 30.9287C167.494 30.8966 168.353 31.4341 168.473 31.2977C168.593 31.1613 168.393 30.9848 168.016 30.7362C167.517 30.4083 166.928 30.2456 166.331 30.2709C165.749 30.2897 165.187 30.4919 164.727 30.8485C164.358 31.1292 164.261 31.3859 164.318 31.4421Z" fill="#263238"/>
<path d="M175.236 33.0305C175.242 33.3072 175.356 33.5704 175.554 33.7638C175.752 33.9572 176.018 34.0654 176.295 34.0654C176.429 34.0718 176.564 34.0513 176.691 34.0049C176.817 33.9585 176.934 33.8872 177.032 33.7952C177.131 33.7033 177.21 33.5925 177.265 33.4695C177.321 33.3464 177.351 33.2135 177.354 33.0787C177.347 32.802 177.233 32.5388 177.035 32.3454C176.837 32.152 176.571 32.0437 176.295 32.0438C176.16 32.0362 176.025 32.056 175.897 32.102C175.77 32.148 175.654 32.2192 175.555 32.3114C175.456 32.4035 175.377 32.5148 175.322 32.6384C175.267 32.7619 175.238 32.8953 175.236 33.0305Z" fill="#263238"/>
<path d="M175.492 31.3059C175.629 31.4423 176.407 30.8246 177.546 30.7925C178.685 30.7604 179.527 31.3059 179.648 31.1615C179.768 31.0171 179.568 30.8487 179.199 30.6C178.696 30.273 178.105 30.1104 177.506 30.1347C176.923 30.1553 176.361 30.3604 175.901 30.7203C175.532 30.9931 175.42 31.2498 175.492 31.3059Z" fill="#263238"/>
<path d="M171.625 39.8654C171.021 39.7002 170.399 39.6086 169.772 39.5926C169.476 39.5926 169.203 39.5204 169.147 39.3279C169.115 39.0288 169.174 38.7271 169.315 38.4615L170.117 36.2234C171.216 33.0145 171.994 30.4314 171.866 30.3913C171.738 30.3512 170.743 32.8862 169.652 36.071C169.395 36.8732 169.139 37.6032 168.898 38.3171C168.729 38.6723 168.69 39.075 168.786 39.4563C168.83 39.5574 168.898 39.6469 168.983 39.7178C169.067 39.7887 169.167 39.8392 169.275 39.8654C169.438 39.9052 169.605 39.9241 169.772 39.9215C170.39 39.9796 171.012 39.9607 171.625 39.8654Z" fill="#263238"/>
<path d="M174.995 40.5392C174.811 40.5392 174.843 41.7666 173.816 42.6731C172.789 43.5796 171.474 43.4753 171.465 43.6598C171.457 43.8443 171.77 43.8924 172.324 43.8924C173.045 43.8785 173.737 43.6116 174.281 43.1384C174.805 42.6822 175.133 42.0413 175.196 41.3494C175.22 40.828 175.075 40.5312 174.995 40.5392Z" fill="#263238"/>
<path d="M175.052 26.8699C175.172 27.1747 176.303 26.9902 177.643 27.1105C178.982 27.2309 180.049 27.5598 180.234 27.279C180.314 27.1426 180.114 26.8538 179.672 26.5731C179.083 26.2212 178.42 26.0099 177.735 25.9556C177.051 25.9014 176.363 26.0056 175.725 26.2602C175.236 26.4688 175.003 26.7255 175.052 26.8699Z" fill="#263238"/>
<path d="M164.631 28.1448C164.839 28.3935 165.609 28.1047 166.556 28.0646C167.502 28.0245 168.297 28.1769 168.473 27.9042C168.545 27.7678 168.417 27.5191 168.056 27.2865C167.575 26.9938 167.013 26.8618 166.452 26.9094C165.896 26.9335 165.363 27.1329 164.927 27.479C164.639 27.7517 164.534 28.0165 164.631 28.1448Z" fill="#263238"/>
<path d="M187.63 34.8194C187.759 34.7633 192.66 33.1588 192.66 38.2127C192.66 43.2666 187.574 42.2238 187.566 42.0794C187.558 41.935 187.63 34.8194 187.63 34.8194Z" fill="#FFBE9D"/>
<path d="M189.13 40.1708C189.13 40.1708 189.218 40.2269 189.371 40.2991C189.582 40.3823 189.817 40.3823 190.028 40.2991C190.352 40.0889 190.616 39.7978 190.793 39.4545C190.971 39.1113 191.055 38.7277 191.039 38.3417C191.048 37.9089 190.963 37.4792 190.79 37.0823C190.745 36.9223 190.66 36.7762 190.544 36.6572C190.427 36.5382 190.283 36.4499 190.125 36.4004C190.024 36.3738 189.918 36.3833 189.824 36.4273C189.73 36.4714 189.655 36.547 189.611 36.6411C189.539 36.7855 189.571 36.8817 189.547 36.8978C189.523 36.9138 189.435 36.8095 189.475 36.601C189.505 36.475 189.575 36.3623 189.675 36.2801C189.817 36.1783 189.991 36.1326 190.165 36.1517C190.374 36.1968 190.568 36.294 190.729 36.4342C190.89 36.5745 191.014 36.7533 191.087 36.9539C191.299 37.3939 191.403 37.8777 191.392 38.3658C191.414 38.816 191.303 39.2628 191.074 39.6506C190.844 40.0385 190.506 40.3505 190.101 40.5478C189.965 40.5879 189.823 40.5965 189.684 40.5728C189.545 40.5492 189.413 40.494 189.298 40.4114C189.13 40.2911 189.13 40.1788 189.13 40.1708Z" fill="#EB996E"/>
<path d="M159.392 18.3179C158.798 24.8799 166.876 27.6154 170.414 23.9333C172.019 22.2407 173.487 20.1148 175.717 19.3527C176.48 19.1237 177.28 19.049 178.072 19.133C178.864 19.217 179.632 19.4581 180.329 19.8421H180.37C182.455 20.9251 183.683 23.3397 184.004 25.6661C184.453 28.8749 183.939 31.7709 184.806 34.7471C184.883 35.186 185.099 35.5883 185.423 35.8942C185.765 36.0592 186.153 36.0982 186.52 36.0042C186.887 35.9103 187.209 35.6894 187.429 35.3808C188.164 34.4166 188.604 33.2604 188.696 32.0516C189.139 29.3256 189.035 26.5388 188.392 23.8531C187.737 21.1626 186.309 18.7225 184.284 16.8338C181.654 14.5577 178.244 13.3877 174.77 13.5688C171.298 13.7871 167.985 15.0985 165.304 17.3151C164.016 18.2714 162.988 19.5343 162.312 20.9892" fill="#263238"/>
<path d="M164.743 14.7164C164.514 14.6587 164.275 14.6587 164.045 14.7164C163.414 14.8661 162.836 15.1883 162.377 15.647C161.677 16.3311 161.233 17.2342 161.117 18.206C161.016 19.3978 161.362 20.5846 162.088 21.5351C162.783 22.4873 163.731 23.2264 164.824 23.669C165.703 24.0256 166.636 24.2343 167.583 24.2867C168.215 24.3207 168.848 24.2992 169.476 24.2225C169.71 24.217 169.941 24.1708 170.158 24.0862C170.158 24.014 169.164 24.1584 167.607 24.014C166.696 23.9217 165.804 23.6946 164.96 23.3401C163.939 22.9068 163.055 22.2055 162.401 21.3105C161.736 20.4329 161.408 19.3452 161.478 18.2461C161.569 17.3461 161.952 16.5006 162.569 15.8395C162.985 15.3936 163.507 15.0598 164.086 14.8688C164.308 14.8307 164.527 14.7798 164.743 14.7164Z" fill="#455A64"/>
<path d="M168.128 12.398C168.128 12.398 167.944 12.3418 167.647 12.4862C167.442 12.5942 167.263 12.7468 167.124 12.9328C166.985 13.1188 166.89 13.3335 166.845 13.5612C166.743 14.2334 166.879 14.9199 167.23 15.5025C167.603 16.199 168.073 16.8391 168.626 17.4037C169.631 18.4731 170.889 19.2731 172.284 19.7301C172.839 19.9509 173.435 20.052 174.033 20.0269C174.033 19.9547 173.375 19.8665 172.38 19.4654C171.08 18.9596 169.908 18.1735 168.947 17.1631C168.421 16.6133 167.968 15.9987 167.599 15.334C167.274 14.823 167.122 14.2212 167.166 13.6173C167.21 13.2142 167.412 12.845 167.727 12.5905C167.96 12.4541 168.136 12.43 168.128 12.398Z" fill="#455A64"/>
<path d="M124.095 77.8979L89.3115 74.5928L83.8084 73.2772C83.8084 73.2772 71.2057 71.023 70.0506 70.654C68.6868 70.2288 68.1493 70.7823 68.029 71.2957C67.8365 72.0979 68.6226 72.9563 69.7858 73.3574C70.1869 73.4938 76.5966 75.4351 76.5966 75.4351C75.8776 75.6205 75.1726 75.8564 74.4868 76.1411C72.9947 76.7106 71.6149 78.7161 70.9811 81.0185C70.3474 83.3208 70.3634 84.0267 71.2539 84.3155C71.423 84.36 71.5999 84.3664 71.7719 84.3345C71.9438 84.3026 72.1066 84.2332 72.2486 84.131C72.7319 83.8219 73.0835 83.3446 73.2353 82.7913C74.3103 79.1172 76.5645 78.7803 76.5645 78.7803L77.2865 78.9488C77.2865 78.9488 75.0082 80.6414 75.1285 82.6229C75.1455 82.9022 75.2192 83.1752 75.3451 83.4251C75.1996 83.9141 75.1792 84.4318 75.2857 84.9308C75.3923 85.4297 75.6223 85.894 75.9548 86.2809C76.3116 86.6751 76.7644 86.9701 77.2691 87.1374C77.7737 87.3047 78.3131 87.3385 78.8347 87.2356C79.3241 87.1233 79.8535 86.8104 79.9097 86.305C79.9165 86.0254 79.8501 85.7488 79.7171 85.5028C79.6562 85.3749 79.6105 85.2402 79.5808 85.1017L81.6665 85.3022C81.6665 85.3022 86.3754 85.5028 88.413 85.8237L121.191 94.4153C122.271 94.6943 123.395 94.7556 124.498 94.5955C125.602 94.4355 126.663 94.0573 127.618 93.4831C128.574 92.9089 129.406 92.1501 130.065 91.251C130.725 90.3519 131.199 89.3305 131.459 88.2463C131.746 87.0757 131.777 85.8571 131.55 84.6734C131.323 83.4897 130.844 82.3688 130.145 81.3869C129.447 80.4049 128.545 79.585 127.501 78.983C126.457 78.3809 125.295 78.0108 124.095 77.8979Z" fill="#FFBE9D"/>
<path d="M88.541 75.5075C88.4836 75.8685 88.3139 76.2022 88.0562 76.4614C87.7985 76.7206 87.4657 76.892 87.1051 76.9515C86.3991 77.128 85.6531 77.0558 84.9391 77.1841C82.7972 77.5612 81.1928 79.5907 79.0349 79.8555C78.7381 79.8956 78.353 79.8555 78.2327 79.5587C78.1123 79.2618 78.361 79.0292 78.5696 78.8367L83.7759 73.855" fill="#FFBE9D"/>
<path d="M83.7922 73.855C83.5648 73.9857 83.3568 74.1477 83.1745 74.3363C82.7975 74.6652 82.252 75.1385 81.5701 75.7562L79.2597 77.9061L78.5939 78.5318C78.4014 78.7484 78.0484 78.941 78.0083 79.4383C78.0144 79.5599 78.0576 79.6766 78.1322 79.7728C78.2069 79.8689 78.3092 79.9398 78.4254 79.9758C78.6094 80.0458 78.8075 80.0706 79.003 80.048C79.3533 80.0116 79.6981 79.9335 80.0299 79.8154C81.2034 79.2666 82.3373 78.6367 83.4232 77.9302C83.8987 77.6607 84.4127 77.4659 84.9474 77.3526C85.4447 77.2563 85.9341 77.2563 86.3913 77.2082C86.7618 77.2028 87.1267 77.1168 87.4606 76.9561C87.7945 76.7954 88.0893 76.5638 88.3247 76.2776C88.6295 75.8284 88.5493 75.4754 88.5332 75.4754C88.4638 75.7175 88.3525 75.9456 88.2043 76.1493C87.9643 76.3901 87.6774 76.5791 87.3615 76.7047C87.0455 76.8302 86.7071 76.8897 86.3673 76.8793C85.9261 76.8793 85.4287 76.8793 84.8832 76.9836C84.3079 77.0919 83.753 77.2895 83.2387 77.5692C82.1573 78.2457 81.0377 78.8591 79.8855 79.4062C79.5845 79.515 79.2724 79.5903 78.9549 79.6309C78.6581 79.6309 78.3934 79.5667 78.4174 79.4062C78.4415 79.2458 78.6501 79.0051 78.8747 78.7885L79.5325 78.1548L81.7947 75.9648C82.4285 75.331 82.9419 74.8176 83.2868 74.4486C83.6318 74.0796 83.8163 73.879 83.7922 73.855Z" fill="#EB996E"/>
<path d="M77.3508 78.8447C76.9026 78.7367 76.4352 78.7367 75.9871 78.8447C75.5154 79.0079 75.1098 79.3206 74.8319 79.7351C74.4791 80.2403 74.2084 80.798 74.0297 81.3877C73.8548 82.0087 73.6183 82.6106 73.3237 83.1846C73.0661 83.6512 72.6897 84.0414 72.2327 84.3157C72.0747 84.3971 71.9006 84.4422 71.723 84.4477C71.5453 84.4533 71.3687 84.4191 71.2059 84.3478C71.0841 84.2972 70.9766 84.2173 70.8931 84.1152C70.8931 84.1152 71.0214 84.1713 71.246 84.2515C71.4016 84.2985 71.5657 84.3107 71.7265 84.2871C71.8873 84.2635 72.041 84.2048 72.1766 84.1152C72.5702 83.8296 72.8916 83.456 73.1152 83.0242C73.3911 82.4697 73.6192 81.8927 73.7971 81.2994C73.9637 80.6878 74.2352 80.1097 74.5993 79.5907C74.9156 79.1552 75.3713 78.841 75.8908 78.7003C76.2381 78.611 76.6024 78.611 76.9497 78.7003C77.094 78.7114 77.2326 78.7613 77.3508 78.8447Z" fill="#EB996E"/>
<path d="M69.3447 73.1968C69.7804 73.2765 70.2075 73.3973 70.6202 73.5578L73.6686 74.5445L76.733 75.4831C77.1655 75.5842 77.5872 75.7266 77.9925 75.9082C77.5497 75.8715 77.1117 75.7909 76.6849 75.6676C75.8827 75.475 74.7837 75.1702 73.5884 74.7932C72.3931 74.4161 71.3182 73.991 70.5561 73.7343C70.1334 73.6011 69.7271 73.4208 69.3447 73.1968Z" fill="#EB996E"/>
<path d="M78.337 80.7777C78.337 80.7777 78.2488 80.898 78.0803 81.0986C77.9545 81.225 77.8577 81.3773 77.7967 81.545C77.7358 81.7126 77.7121 81.8915 77.7273 82.0692C77.7501 82.1814 77.8011 82.286 77.8755 82.373C77.9499 82.46 78.0452 82.5266 78.1525 82.5666C78.4248 82.6652 78.7074 82.7325 78.9948 82.7672C79.3533 82.7848 79.6929 82.9332 79.9494 83.1843C80.0696 83.3437 80.1504 83.5293 80.1852 83.7258C80.2201 83.9224 80.208 84.1244 80.15 84.3154C80.0916 84.5032 79.9953 84.677 79.8669 84.8261C79.7386 84.9751 79.581 85.0962 79.4039 85.1818C79.0866 85.3501 78.7263 85.42 78.3691 85.3823C77.8115 85.2804 77.2712 85.0994 76.7647 84.8449C76.412 84.6845 76.0913 84.4617 75.8181 84.1871C75.7104 84.0923 75.63 83.9704 75.5854 83.8341C75.5854 83.8341 75.6897 83.9464 75.8903 84.1149C76.1819 84.344 76.503 84.5328 76.8449 84.6764C77.3578 84.8973 77.8971 85.051 78.4493 85.1337C78.7626 85.1719 79.0798 85.1053 79.3512 84.9442C79.6226 84.783 79.833 84.5366 79.9494 84.2432C79.9942 84.0931 80.0038 83.9346 79.9773 83.7802C79.9509 83.6257 79.8892 83.4795 79.797 83.3528C79.5845 83.1311 79.3003 82.9918 78.9948 82.9597C78.6862 82.923 78.384 82.8447 78.0964 82.727C77.9611 82.668 77.8426 82.5762 77.7515 82.46C77.6605 82.3438 77.5998 82.2067 77.5749 82.0612C77.5642 81.8594 77.6007 81.658 77.6814 81.4727C77.7622 81.2875 77.885 81.1237 78.0402 80.9943C78.2006 80.7777 78.329 80.7215 78.337 80.7777Z" fill="#EB996E"/>
<path d="M79.2277 85.0216C79.2277 85.0216 79.3801 85.0216 79.5807 85.166C79.7249 85.2772 79.8407 85.421 79.9188 85.5855C79.9969 85.75 80.035 85.9306 80.0299 86.1126C80.0074 86.3808 79.9158 86.6385 79.7639 86.8607C79.6121 87.0828 79.4052 87.2618 79.1635 87.3801C78.5739 87.654 77.901 87.6885 77.2864 87.4764C76.6689 87.288 76.1269 86.9089 75.7381 86.3934C75.4439 85.9734 75.2642 85.4841 75.2167 84.9735C75.1576 84.6473 75.1576 84.313 75.2167 83.9868C75.242 83.8622 75.294 83.7445 75.3691 83.6418C75.3015 84.0885 75.3015 84.5429 75.3691 84.9896C75.4443 85.463 75.6374 85.9099 75.9307 86.2891C76.3056 86.7231 76.7991 87.0382 77.3506 87.1956C77.8962 87.4006 78.4976 87.4006 79.0432 87.1956C79.2552 87.1009 79.4399 86.9542 79.5801 86.7691C79.7204 86.584 79.8116 86.3665 79.8454 86.1367C79.8584 85.9795 79.8372 85.8214 79.7832 85.6732C79.7292 85.525 79.6437 85.3903 79.5326 85.2783C79.3641 85.0858 79.2277 85.0377 79.2277 85.0216Z" fill="#EB996E"/>
<path d="M84.8913 81.9493C84.8988 81.7311 84.9684 81.5196 85.0919 81.3396C85.3664 80.8548 85.7958 80.4762 86.3112 80.2646V80.4973C86.0353 80.3783 85.7673 80.2416 85.509 80.0881C84.5655 79.5987 83.7788 78.8537 83.2388 77.9382C83.9679 78.6641 84.775 79.3071 85.6454 79.8555C85.905 80.0066 86.1728 80.1432 86.4476 80.2646L86.7284 80.393L86.4476 80.4973C85.9727 80.6867 85.563 81.01 85.2684 81.4278C85.0036 81.7407 84.9234 81.9573 84.8913 81.9493Z" fill="#EB996E"/>
<path d="M73.9734 78.6759C74.0215 78.6278 74.4066 79.0128 74.4708 79.6546C74.5118 79.8407 74.5077 80.0339 74.4588 80.2181C74.41 80.4023 74.3178 80.5722 74.19 80.7135C74.1178 80.7135 74.2702 80.2322 74.19 79.6787C74.1098 79.1252 73.9092 78.724 73.9734 78.6759Z" fill="#EB996E"/>
<path d="M124.713 94.8972L147.415 89.6588C147.415 89.6588 146.244 131.245 146.244 131.646C146.244 132.047 144.375 132.689 144.535 135.705L146.14 139.299L195.877 139.965L197.216 99.5741L201.757 68.288L191.328 61.8704L187.654 56.8887L173.311 71.9541L169.749 59.0386L169.845 55.196L166.299 59.0466L147.175 64.5578L121.897 76.3422L104.81 75.0346L100.374 89.9877L124.713 94.8972Z" fill="#DC2D22"/>
<path d="M171.329 67.301C170.87 67.5576 170.511 67.9619 170.31 68.4481C170.091 69.0046 169.985 69.599 169.997 70.1969C170.034 71.0136 169.917 71.8299 169.653 72.6035L169.484 73.0207L169.308 72.6035C168.829 71.4132 168.453 70.184 168.184 68.9294C167.575 66.3303 167.19 63.9477 166.933 62.223C166.752 61.2976 166.652 60.3581 166.636 59.4153C166.892 60.3213 167.087 61.2432 167.222 62.1749C167.559 63.8836 168.024 66.2501 168.594 68.8332C168.857 70.0636 169.211 71.2729 169.653 72.4511H169.308C169.556 71.7285 169.681 70.9691 169.677 70.2049C169.688 69.5756 169.83 68.9555 170.094 68.3839C170.266 68.0053 170.545 67.6848 170.896 67.4614C171.169 67.2929 171.329 67.2849 171.329 67.301Z" fill="#263238"/>
<path d="M189.748 60.9556C189.618 61.2097 189.453 61.4445 189.258 61.6535C188.929 62.0867 188.456 62.6964 187.822 63.4504C186.587 64.9666 184.862 67.0283 182.945 69.2905L179.881 72.8603L179.64 73.1411L179.552 72.7881C179.118 71.0473 178.749 69.5793 178.533 68.5364C178.437 68.023 178.14 67.7342 177.867 67.7342C177.73 67.7271 177.594 67.7667 177.482 67.8465C177.482 67.8465 177.53 67.6299 177.867 67.6139C177.965 67.6134 178.062 67.6322 178.153 67.6694C178.244 67.7066 178.327 67.7613 178.396 67.8305C178.564 68.0208 178.683 68.2494 178.741 68.4963C179.046 69.5231 179.447 70.9751 179.921 72.7079L179.592 72.6357L182.624 69.0338C184.549 66.7716 186.306 64.742 187.598 63.282C188.24 62.552 188.769 61.9663 189.138 61.5652C189.313 61.3355 189.518 61.1304 189.748 60.9556Z" fill="#263238"/>
<path d="M168.586 127.378C168.574 127.199 168.574 127.02 168.586 126.841C168.586 126.448 168.586 125.934 168.586 125.301C168.586 123.961 168.586 122.02 168.586 119.621C168.642 114.808 168.874 108.206 169.388 100.913C169.901 93.6214 170.695 87.0273 171.353 82.2783C171.682 79.8716 171.971 77.9865 172.196 76.6628L172.46 75.1466C172.48 74.9662 172.521 74.7886 172.581 74.6172C172.599 74.7959 172.599 74.9759 172.581 75.1547C172.533 75.5477 172.468 76.0612 172.388 76.6869C172.22 78.0667 171.979 79.9759 171.682 82.3023C171.097 87.0594 170.383 93.6375 169.837 100.922C169.292 108.206 169.035 114.824 168.891 119.613C168.834 121.971 168.786 123.897 168.754 125.284C168.754 125.918 168.754 126.432 168.754 126.825C168.721 127.015 168.664 127.201 168.586 127.378Z" fill="#263238"/>
<path d="M164.542 137.125C164.181 135.972 164.053 134.758 164.165 133.555C164.136 132.357 164.277 131.16 164.583 130.001C164.689 131.189 164.689 132.383 164.583 133.571C164.518 135.528 164.655 137.109 164.542 137.125Z" fill="#263238"/>
<path d="M184.918 125.453C184.505 125.652 184.076 125.813 183.635 125.935C182.832 126.223 181.589 126.609 180.081 127.05C176.137 128.186 172.137 129.116 168.096 129.833C164.054 130.537 159.979 131.032 155.886 131.317C154.282 131.422 153.046 131.486 152.164 131.494C151.71 131.534 151.254 131.534 150.8 131.494C151.247 131.405 151.701 131.354 152.156 131.342L155.862 131.029C158.991 130.74 163.307 130.226 168.024 129.424C172.741 128.622 176.96 127.571 180.001 126.761L183.586 125.782C184.022 125.643 184.467 125.533 184.918 125.453Z" fill="#263238"/>
<path d="M147.15 98.4259C147.038 98.4259 146.966 92.5217 146.99 85.2457C147.014 77.9697 147.126 72.0654 147.247 72.0654C147.367 72.0654 147.431 77.9697 147.407 85.2457C147.383 92.5217 147.263 98.4259 147.15 98.4259Z" fill="#263238"/>
<path d="M200.842 67.6855C200.842 67.6855 207.107 73.0603 207.517 76.1007C207.837 78.4592 213.998 100.56 216.782 110.451C217.645 113.534 217.458 116.816 216.253 119.781L208.231 139.595L195.275 131.934L201.749 113.347L196.382 97.5757L200.842 67.6855Z" fill="#DC2D22"/>
<path d="M208.246 139.596C208.161 139.569 208.08 139.532 208.006 139.483L207.308 139.098L204.692 137.598L195.202 132.071L195.09 132.007L195.138 131.878C196.951 126.64 199.149 120.271 201.556 113.283V113.42C200.802 111.382 200.008 109.248 199.197 107.082C197.296 101.964 195.491 97.0868 193.839 92.6426C192.194 89.1931 190.774 85.8639 190.381 82.6711C190.18 81.182 190.223 79.67 190.509 78.1948C190.768 76.9381 191.206 75.7251 191.809 74.5929C192.668 72.9852 193.812 71.5473 195.186 70.3493C195.54 70.0276 195.916 69.7301 196.309 69.4588C196.437 69.3532 196.577 69.2643 196.727 69.1941C196.727 69.1941 196.598 69.3064 196.35 69.507C196.101 69.7075 195.724 70.0204 195.267 70.4455C193.961 71.6648 192.875 73.1004 192.058 74.6892C191.481 75.8064 191.068 77.0005 190.83 78.235C190.566 79.6808 190.536 81.1597 190.742 82.615C191.151 85.7436 192.571 89.0326 194.224 92.4581L199.607 106.898C200.409 109.072 201.211 111.206 201.965 113.243V113.315V113.388L195.443 131.951L195.371 131.766L204.781 137.382L207.356 138.986L208.03 139.411L208.246 139.596Z" fill="#263238"/>
<g opacity="0.3">
<path opacity="0.3" d="M174.851 70.5899C175.283 70.5738 175.708 70.7035 176.057 70.9582C176.406 71.2128 176.659 71.5776 176.776 71.9937C176.937 72.8601 176.816 73.7666 177.041 74.617C177.266 75.4673 178.036 76.2936 178.902 76.1171C179.41 75.9508 179.843 75.6134 180.129 75.1625C181.808 72.8779 183.158 70.3694 184.14 67.71C184.14 67.7741 179.696 72.812 179.696 72.812C179.527 71.5308 179.193 70.277 178.702 69.0817C178.549 68.7047 178.381 68.0469 178.012 67.8784C177.402 67.5977 176.608 68.4801 176.207 69.0095C175.791 69.5512 175.327 70.0534 174.819 70.5097" fill="black"/>
</g>
<g opacity="0.3">
<path opacity="0.3" d="M167.607 66.0097C167.691 68.8301 168.232 71.618 169.211 74.2644C169.303 74.5307 169.451 74.7741 169.645 74.9784C169.747 75.0839 169.881 75.1523 170.026 75.1726C170.172 75.193 170.32 75.1641 170.447 75.0907C170.769 74.5511 171.037 73.9815 171.249 73.39C171.658 72.2428 173.319 72.1386 173.319 72.1386C173.044 70.8428 172.682 69.5671 172.236 68.3201C172.155 68.1144 172.012 67.9394 171.826 67.8198C171.64 67.7003 171.421 67.6424 171.201 67.6542C170.912 67.7507 170.653 67.9228 170.453 68.1528C170.253 68.3827 170.118 68.662 170.062 68.9618C169.813 71.0155 169.845 71.9621 169.54 72.676C168.738 70.486 168.128 67.8628 167.615 65.9375" fill="black"/>
</g>
<g opacity="0.3">
<path opacity="0.3" d="M179.913 126.785C180.102 126.648 180.262 126.475 180.384 126.276C180.505 126.077 180.586 125.855 180.621 125.624C180.656 125.394 180.645 125.158 180.588 124.932C180.531 124.705 180.43 124.493 180.29 124.306C179.992 123.942 179.605 123.662 179.166 123.495C178.726 123.327 178.251 123.278 177.787 123.351C176.86 123.52 175.99 123.914 175.252 124.498C174.49 125.044 173.784 125.678 172.99 126.167C171.024 127.378 168.626 127.651 166.323 127.691C164.016 127.587 161.705 127.689 159.416 127.996C157.154 128.437 154.884 129.6 153.801 131.638C153.833 131.638 173.511 130.202 179.913 126.785Z" fill="black"/>
</g>
<path d="M192.804 155.753C190.696 154.401 188.928 152.581 187.638 150.434C187.65 150.406 187.656 150.376 187.656 150.346C187.656 150.315 187.65 150.285 187.638 150.257C187.589 150.193 187.517 150.151 187.437 150.137C186.886 149.283 186.383 148.399 185.929 147.49C187.534 146.439 189.643 144.859 187.349 144.53C184.533 144.129 182.536 142.757 182.239 142.011C181.942 141.265 182.889 140.591 183.627 141.072C184.484 141.504 185.397 141.817 186.338 142.003C187.089 142.183 187.865 142.231 188.633 142.147C189.114 142.099 190.791 140.944 192.587 140.101C192.838 139.986 193.118 139.95 193.39 139.997L194.072 139.949C194.436 139.923 194.787 139.804 195.092 139.604C195.397 139.403 195.645 139.127 195.812 138.802L198.419 133.796L206.281 138.449L200.056 147.089C197.796 150.105 195.376 152.997 192.804 155.753Z" fill="#FFBE9D"/>
<path d="M194.424 156.658C193.779 156.47 193.167 156.18 192.612 155.8C191.224 154.962 189.969 153.921 188.889 152.711C187.81 151.512 186.912 150.161 186.226 148.7C185.915 148.106 185.696 147.467 185.576 146.807C187.375 150.969 190.47 154.438 194.4 156.698L194.424 156.658Z" fill="#455A64"/>
<path d="M169.652 161.72C169.577 161.708 169.504 161.683 169.436 161.648C169.237 161.554 169.051 161.436 168.882 161.295C168.284 160.739 167.842 160.037 167.599 159.258C167.242 158.128 166.95 156.979 166.724 155.816C166.435 154.525 166.131 153.089 165.842 151.589C165.248 148.572 164.799 145.829 164.51 143.839C164.366 142.845 164.262 142.042 164.197 141.481C164.144 141.193 164.128 140.899 164.149 140.606C164.257 140.879 164.327 141.165 164.358 141.457C164.478 142.099 164.631 142.877 164.799 143.799C165.16 145.773 165.657 148.5 166.251 151.508C166.548 153.001 166.837 154.428 167.101 155.736C167.366 157.044 167.575 158.223 167.904 159.161C168.114 159.91 168.496 160.599 169.019 161.175C169.38 161.552 169.676 161.68 169.652 161.72Z" fill="#455A64"/>
<path d="M168.987 143.703C168.987 143.703 169.115 143.655 169.34 143.703C169.658 143.82 169.921 144.052 170.078 144.353C170.204 144.58 170.264 144.839 170.249 145.098C170.235 145.358 170.148 145.609 169.997 145.821C169.813 146.084 169.554 146.286 169.254 146.401C168.953 146.515 168.626 146.537 168.313 146.463C168.007 146.371 167.733 146.194 167.524 145.953C167.315 145.711 167.18 145.415 167.134 145.099C167.097 144.845 167.124 144.586 167.212 144.345C167.3 144.104 167.447 143.889 167.639 143.719C168.305 143.149 168.906 143.318 168.874 143.358C168.489 143.463 168.137 143.661 167.848 143.936C167.71 144.08 167.608 144.254 167.551 144.446C167.493 144.637 167.483 144.839 167.519 145.035C167.558 145.272 167.664 145.494 167.822 145.675C167.981 145.857 168.187 145.99 168.417 146.062C168.651 146.112 168.894 146.095 169.118 146.013C169.343 145.931 169.539 145.786 169.685 145.596C169.805 145.439 169.88 145.252 169.902 145.056C169.923 144.859 169.889 144.66 169.805 144.481C169.508 143.839 168.955 143.767 168.987 143.703Z" fill="#455A64"/>
<path d="M151.931 140.486C152.12 141.082 152.191 141.708 152.14 142.331C152.082 143.847 151.678 145.33 150.959 146.666C150.24 148.002 149.226 149.156 147.993 150.04C147.496 150.412 146.932 150.685 146.332 150.843C146.332 150.77 146.934 150.458 147.816 149.76C148.952 148.844 149.892 147.71 150.581 146.424C151.27 145.139 151.694 143.728 151.827 142.275C151.939 141.192 151.851 140.494 151.931 140.486Z" fill="#455A64"/>
<path d="M120.798 84.1951C120.836 82.8502 120.97 81.5098 121.199 80.1841C121.294 78.8503 121.49 77.5255 121.785 76.2212C121.904 77.5598 121.847 78.9083 121.616 80.2322C121.523 81.584 121.248 82.917 120.798 84.1951Z" fill="#263238"/>
<path d="M104.81 75.0337C104.805 75.1321 104.786 75.2293 104.754 75.3225C104.698 75.5311 104.634 75.7958 104.546 76.1247C104.337 76.8707 104.048 77.8895 103.695 79.1731C102.893 81.8364 101.842 85.5907 100.551 90.043L100.414 89.8103C104.955 90.9414 110.418 91.8559 116.25 92.9309C119.154 93.4684 121.953 94.062 124.536 94.7038H124.44L140.717 91.0216L145.458 89.9868L146.725 89.7301C146.873 89.6941 147.023 89.6699 147.175 89.6579C147.037 89.7237 146.892 89.7696 146.742 89.7943L145.482 90.1232L140.773 91.2703L124.536 95.0969H124.44C121.865 94.4631 119.073 93.8775 116.169 93.34C110.353 92.2651 104.874 91.3265 100.334 90.1312L100.149 90.0831L100.206 89.9066C101.553 85.4543 102.684 81.7321 103.495 79.0848C103.888 77.8093 104.209 76.7985 104.441 76.0605C104.545 75.7396 104.634 75.4829 104.706 75.2583C104.732 75.1796 104.767 75.1042 104.81 75.0337Z" fill="#263238"/>
</g>
</svg>
