<svg width="156" height="136" viewBox="0 0 156 136" fill="none" xmlns="http://www.w3.org/2000/svg">
<path d="M36.424 84.4481C37.905 75.2261 31.6746 66.5424 22.5079 65.0524C13.3413 63.5625 4.70958 69.8305 3.22854 79.0524C1.7475 88.2743 7.97793 96.958 17.1446 98.448C26.3113 99.938 34.9429 93.67 36.424 84.4481Z" fill="#8DD0E0"/>
<path d="M11.1658 76.5175V79.9003C11.1658 80.2628 11.0457 80.5044 10.9256 80.6252C10.8055 80.8668 10.5653 80.9877 10.3251 80.9877H9.96484V82.5583H10.3251C10.5653 82.5583 10.8055 82.6791 10.9256 82.7999C11.0457 82.9207 11.1658 83.1624 11.1658 83.5248V87.0285C11.1658 88.4783 11.8863 89.2032 13.3274 89.2032H13.8078V87.6326C13.3274 87.6326 13.0872 87.6326 12.9672 87.5117C12.8471 87.3909 12.727 87.1493 12.727 86.9077V83.0415C12.727 82.3166 12.3667 81.8334 11.6461 81.7126C12.3667 81.5917 12.727 81.1085 12.727 80.3836V76.8799C12.727 76.2758 13.0872 75.9134 13.6877 75.9134H13.8078V74.3428H13.3274C11.8863 74.4636 11.1658 75.1885 11.1658 76.5175Z" fill="white"/>
<path d="M23.8948 82.5582H15.7285V84.1288H23.8948V82.5582Z" fill="white"/>
<path d="M23.8948 79.5378H15.7285V81.1085H23.8948V79.5378Z" fill="white"/>
<path d="M29.299 80.9877C29.0589 80.9877 28.8187 80.8669 28.6986 80.7461C28.5785 80.6253 28.4584 80.3836 28.4584 80.0212V76.6383C28.4584 75.1885 27.7378 74.4636 26.2967 74.4636H25.6963V76.0342H25.9365C26.0565 76.0342 26.2967 76.155 26.4168 76.2759C26.5369 76.3967 26.657 76.6383 26.657 77.0008V80.5044C26.657 81.2293 27.0173 81.7126 27.7378 81.8334C27.0173 81.9542 26.657 82.4375 26.657 83.1624V87.0285C26.657 87.2701 26.5369 87.5118 26.4168 87.6326C26.2967 87.7534 25.9364 87.7534 25.5762 87.7534V89.324H26.1766C27.6177 89.324 28.3383 88.5991 28.3383 87.1493V83.6457C28.3383 83.2832 28.4584 83.0416 28.5785 82.9208C28.6986 82.7999 28.9388 82.6791 29.1789 82.6791H29.5392V80.9877H29.299Z" fill="white"/>
<path d="M114.926 0.161621H39.5076C36.3852 0.161621 33.8633 2.69876 33.8633 5.83999V129.918C33.8633 133.06 36.3852 135.597 39.5076 135.597H114.926C118.048 135.597 120.57 133.06 120.57 129.918V5.9608C120.69 2.69876 118.048 0.161621 114.926 0.161621Z" fill="#0164A8"/>
<path d="M36.2656 119.77V12.6057H118.289V119.77H36.2656Z" fill="white"/>
<path d="M82.3809 123.757H72.053C70.1315 123.757 68.5703 125.327 68.5703 127.26C68.5703 129.193 70.1315 130.764 72.053 130.764H82.3809C84.3024 130.764 85.8636 129.193 85.8636 127.26C85.9837 125.327 84.4225 123.757 82.3809 123.757Z" fill="#A5ABB3"/>
<path d="M87.3042 6.20239H67.2488C66.6483 6.20239 66.168 6.68566 66.168 7.28974C66.168 7.89382 66.6483 8.37709 67.2488 8.37709H87.1841C87.7846 8.37709 88.265 7.89382 88.265 7.28974C88.265 6.68566 87.7846 6.20239 87.3042 6.20239Z" fill="#2D343D"/>
<path d="M33.9841 22.9958H32.7832V35.4399H33.9841V22.9958Z" fill="#2D343D"/>
<path d="M33.9841 43.0514H32.7832V55.4955H33.9841V43.0514Z" fill="#2D343D"/>
<path d="M143.268 20.942H70.9727V100.439H143.268V20.942Z" fill="#DC2D22"/>
<path d="M143.268 20.942H70.9727V29.1575H143.268V20.942Z" fill="#2D343D"/>
<path d="M155.758 79.1755H80.8203V96.0898H155.758V79.1755Z" fill="#8DD0E0"/>
<path d="M106.04 36.1648H75.416V39.7893H106.04V36.1648Z" fill="white"/>
<path d="M128.136 36.1648H110.482V39.7893H128.136V36.1648Z" fill="#4C505A"/>
<path d="M85.6239 44.9845H75.416V48.609H85.6239V44.9845Z" fill="#8DD0E0"/>
<path d="M101.596 44.9845H88.7461V48.609H101.596V44.9845Z" fill="#4C505A"/>
<path d="M134.861 44.9845H104.598V48.609H134.861V44.9845Z" fill="white"/>
<path d="M115.527 53.9249H75.416V57.5494H115.527V53.9249Z" fill="white"/>
<path d="M128.136 53.9249H118.648V57.5494H128.136V53.9249Z" fill="#8DD0E0"/>
<path d="M87.065 62.8652H75.416V66.4897H87.065V62.8652Z" fill="#8DD0E0"/>
<path d="M96.3111 62.8652H89.3457V66.4897H96.3111V62.8652Z" fill="white"/>
<path d="M110.123 62.8652H98.1133V66.4897H110.123V62.8652Z" fill="#4C505A"/>
<path d="M138.583 62.8652H112.523V66.4897H138.583V62.8652Z" fill="white"/>
<path d="M98.5923 88.3575V86.9077L97.5115 86.7869C97.5115 86.5453 97.3914 86.3037 97.2713 86.062L98.1119 85.3371L97.3914 84.129L96.4307 84.4914C96.3106 84.2498 96.0704 84.129 95.8302 83.8873L96.1905 82.9208L94.9895 82.1959L94.269 83.0416C94.0288 82.9208 93.7886 82.9208 93.5484 82.8L93.4283 81.7126H91.9872L91.8671 82.9208C91.627 82.9208 91.3868 83.0416 91.1466 83.1624L90.5461 82.1959L89.3452 82.9208L89.7055 83.8873C89.4653 84.0082 89.3452 84.2498 89.105 84.4914L88.1443 84.129L87.4237 85.3371L88.2644 86.062C88.1443 86.3037 88.1443 86.5453 88.0242 86.7869L86.9434 86.9077V88.3575L88.0242 88.4784C88.0242 88.72 88.1443 88.9616 88.2644 89.2033L87.4237 89.9282L88.1443 91.1363L89.105 90.7739C89.2251 91.0155 89.4653 91.1363 89.7055 91.3779L89.3452 92.3445L90.5461 93.0694L91.2667 92.2237C91.5069 92.3445 91.7471 92.3445 91.9872 92.4653L92.1073 93.5526H93.5484L93.6685 92.4653C93.9087 92.4653 94.1489 92.3445 94.3891 92.2237L95.1096 93.0694L96.3106 92.3445L95.9503 91.3779C96.1905 91.2571 96.3106 91.0155 96.5507 90.7739L97.5115 91.1363L98.232 89.9282L97.3914 89.2033C97.5115 88.9616 97.5115 88.72 97.6316 88.4784L98.5923 88.3575ZM92.8279 90.5322C91.2667 90.5322 90.0658 89.3241 90.0658 87.7535C90.0658 86.1828 91.2667 84.9747 92.8279 84.9747C94.3891 84.9747 95.59 86.1828 95.59 87.7535C95.59 89.2033 94.3891 90.5322 92.8279 90.5322Z" fill="white"/>
<path d="M150.833 86.4244L149.391 87.995H148.311V86.4244H147.11C147.59 86.062 147.95 85.4579 147.95 84.733C147.95 83.5248 146.99 82.5583 145.789 82.5583C144.828 82.5583 143.987 83.1624 143.747 84.1289C143.507 83.2832 142.666 82.5583 141.706 82.5583C140.505 82.5583 139.544 83.5248 139.544 84.733C139.544 85.4579 139.904 86.062 140.385 86.4244H139.184V92.586H148.191V91.0154H149.271L150.712 92.586H151.193V86.3036H150.833V86.4244ZM143.747 85.3371C143.867 85.8203 144.107 86.1828 144.468 86.4244H142.906C143.387 86.1828 143.627 85.8203 143.747 85.3371Z" fill="white"/>
<path d="M123.453 87.3909L122.252 88.5991L118.289 92.7068L114.326 88.7199L113.125 87.5117C112.044 86.4244 112.044 84.6121 113.125 83.5248C114.206 82.4375 116.007 82.4375 117.088 83.5248L118.289 84.733L119.61 83.5248C120.691 82.4375 122.492 82.4375 123.573 83.5248C124.534 84.4913 124.534 86.3036 123.453 87.3909Z" fill="white"/>
<path d="M73.2529 104.909H7.08203V114.816H73.2529V104.909Z" fill="#EE7853"/>
<path d="M72.4648 113.855V105.639L7.97524 105.639V113.855L72.4648 113.855Z" fill="white"/>
<path d="M61.243 105.151H60.4023V114.454H61.243V105.151Z" fill="#EE7853"/>
<path d="M68.0889 107.084C67.1282 106.117 65.4469 106.117 64.4862 107.084C63.5254 108.051 63.5254 109.742 64.4862 110.709C65.4469 111.675 66.7679 111.675 67.8488 110.95L70.2506 113.366L70.731 112.883L68.3291 110.467C69.0497 109.38 68.9296 107.93 68.0889 107.084ZM67.4885 110.104C66.7679 110.829 65.6871 110.829 64.9665 110.104C64.246 109.38 64.246 108.292 64.9665 107.567C65.6871 106.842 66.7679 106.842 67.4885 107.567C68.209 108.292 68.209 109.5 67.4885 110.104Z" fill="#4C505A"/>
<path d="M79.4989 25.0498C79.4989 26.4996 78.298 27.7078 76.8569 27.7078C75.4158 27.7078 74.2148 26.4996 74.2148 25.0498C74.2148 23.6 75.4158 22.3918 76.8569 22.3918C78.298 22.3918 79.4989 23.6 79.4989 25.0498Z" fill="#8DD0E0"/>
<path d="M87.1845 25.0498C87.1845 26.4996 85.9835 27.7078 84.5424 27.7078C83.1013 27.7078 81.9004 26.4996 81.9004 25.0498C81.9004 23.6 83.1013 22.3918 84.5424 22.3918C85.9835 22.3918 87.1845 23.6 87.1845 25.0498Z" fill="#8DD0E0"/>
<path d="M94.7509 25.0498C94.7509 26.4996 93.5499 27.7078 92.1088 27.7078C90.6677 27.7078 89.4668 26.4996 89.4668 25.0498C89.4668 23.6 90.6677 22.3918 92.1088 22.3918C93.5499 22.3918 94.7509 23.6 94.7509 25.0498Z" fill="#8DD0E0"/>
<path d="M45.5117 59.2409V57.7911L50.6757 55.3748V56.5829L46.8327 58.3952V58.516L50.6757 60.3282V61.5364L45.5117 59.2409Z" fill="#E3E0E0"/>
<path d="M56.5596 53.9249H57.6404L52.8367 64.1943H51.7559L56.5596 53.9249Z" fill="#E3E0E0"/>
<path d="M64.0058 57.791V59.2408L58.8418 61.6571V60.4489L62.6848 58.6367V58.5159L58.8418 56.7036V55.4955L64.0058 57.791Z" fill="#E3E0E0"/>
<path d="M60.2844 9.10205H9.36523V40.9976H60.2844V9.10205Z" fill="#F8BF49"/>
<path d="M9.36523 9.10205L34.8248 25.0498L60.2844 9.10205H9.36523Z" fill="#F8F8F9"/>
</svg>
