<svg width="281" height="199" viewBox="0 0 281 199" fill="none" xmlns="http://www.w3.org/2000/svg">
<ellipse cx="140" cy="181.5" rx="86" ry="85.5" fill="white"/>
<path d="M230.893 115.407L238.91 110.862C243.477 113.676 248.931 114.681 254.201 113.679C259.471 112.677 264.176 109.741 267.39 105.447C270.604 101.154 272.096 95.8145 271.571 90.4779C271.046 85.1414 268.543 80.1941 264.554 76.6085C260.566 73.0229 255.379 71.0584 250.015 71.1013C244.65 71.1441 239.496 73.1911 235.565 76.8399C231.634 80.4888 229.21 85.4754 228.771 90.8197C228.332 96.1639 229.908 101.479 233.19 105.721L230.893 115.407Z" fill="white"/>
<path d="M230.892 115.406C231.036 114.796 231.708 111.814 233.094 105.692V105.555L233.204 105.644L233.08 105.767C230.743 102.785 229.24 99.2368 228.725 95.4842C228.563 94.3492 228.503 93.202 228.547 92.0564C228.581 91.4668 228.595 90.8704 228.649 90.274C228.704 89.6776 228.828 89.0674 228.917 88.4573C229.982 83.0496 233.064 78.2488 237.538 75.0273C240.014 73.2397 242.843 72.0009 245.837 71.3939C249.006 70.7739 252.273 70.8605 255.404 71.6476C258.675 72.4611 261.705 74.0401 264.245 76.2545C266.849 78.5037 268.876 81.3433 270.157 84.5359C271.364 87.5837 271.871 90.8638 271.638 94.1336C271.423 97.2346 270.531 100.251 269.025 102.97C266.299 107.85 261.804 111.498 256.467 113.165C254.199 113.828 251.842 114.142 249.479 114.097C245.707 113.984 242.032 112.875 238.827 110.882H238.91L230.851 115.351L238.827 110.731H238.869H238.917C242.106 112.677 245.75 113.753 249.486 113.85C251.82 113.881 254.146 113.56 256.385 112.897C261.636 111.233 266.053 107.625 268.73 102.813C270.211 100.133 271.084 97.1607 271.289 94.1062C271.517 90.878 271.015 87.6399 269.821 84.6319C268.557 81.4937 266.563 78.7018 264.005 76.4875C261.506 74.31 258.525 72.7569 255.308 71.9561C252.229 71.1785 249.015 71.0919 245.899 71.7024C242.951 72.2922 240.163 73.5054 237.723 75.2604C233.306 78.4264 230.257 83.1505 229.191 88.4778C229.095 89.0811 229.006 89.6775 228.91 90.2671C228.814 90.8567 228.842 91.4463 228.807 92.0221C228.762 93.1466 228.815 94.2729 228.965 95.3882C229.464 99.1334 230.948 102.679 233.265 105.665L233.69 106.213L233.142 105.788L233.279 105.74L230.892 115.406Z" fill="#263238"/>
<path d="M246.646 90.6309H247.901L250.645 86.8193V84.317C250.645 84.317 252.585 84.1936 252.352 87.4705C252.119 90.7475 252.352 89.918 252.352 89.918C252.352 89.918 256.467 89.918 256.81 90.2882C257.153 90.6584 257.174 94.6346 257.215 96.8557C257.242 97.3902 257.09 97.9183 256.781 98.3558C256.473 98.7932 256.027 99.1147 255.514 99.2689C255.371 99.3096 255.224 99.3303 255.075 99.3306C254.046 99.3306 248.8 98.4942 248.8 98.4942H246.632L246.646 90.6309Z" fill="#FF725E"/>
<path d="M243.052 89.9456L243.827 98.5218H245.974V90.1169L243.052 89.9456Z" fill="#FF725E"/>
<path d="M73.9705 128.438L63.6828 132.209L58.2578 143.63C58.004 145.989 52.0852 169.798 52.0852 169.798L46.1526 190.988C57.5102 196.178 72.5714 203.582 87.6532 202.985L89.5941 184.804L99.9161 145.296L92.022 129.618L89.3198 129.261L73.9705 128.438Z" fill="#FF725E"/>
<path d="M116.315 87.6553L112.515 113.48L95.1016 130.166L101.583 141.279L121.349 122.831C122.839 121.698 123.886 120.081 124.312 118.258V91.5561L124.181 82.8633L116.315 87.6553Z" fill="#FFD6BD"/>
<path d="M46.6121 188.979C46.1046 189.994 36.7497 238.531 36.7497 238.531L10.6121 281.035L24.1987 290.928L56.4952 248.856L74.1489 195.383L46.6121 188.979Z" fill="#263238"/>
<path d="M82.1049 194.025C82.8662 194.533 102.865 236.242 102.612 239.272C102.358 242.302 87.283 297.989 87.283 297.989L71.927 295.165L81.4396 240.849L63.395 215.538L69.2864 192.497L82.1049 194.025Z" fill="#263238"/>
<path d="M103.051 120.959L93.1401 129.186L91.2883 129.474L98.7503 145.954L112.508 134.848L103.051 120.959Z" fill="#DC2D22"/>
<path d="M73.9705 128.438L63.6828 132.209L58.2578 143.63C58.004 145.989 52.0852 169.798 52.0852 169.798L46.1526 190.988C57.5102 196.178 72.5714 203.582 87.6532 202.985L89.5941 184.804L100.033 144.94L92.0426 129.618L89.3404 129.261L73.9705 128.438Z" fill="#DC2D22"/>
<path d="M89.073 131.585C89.3199 129.679 89.5325 128.095 89.5668 127.903C89.5668 127.903 96.0823 128.143 97.3786 121.836C98.0096 118.786 98.7914 112.41 99.4361 106.624C99.7648 103.63 98.9548 100.622 97.1671 98.1973C95.3793 95.7727 92.7446 94.109 89.7863 93.5367L89.1758 93.4201C82.5231 92.5358 78.0514 97.6843 77.345 104.355L74.1489 128.678C74.1489 128.678 80.3216 134.162 83.9085 135.952C88.5517 138.235 89.073 131.585 89.073 131.585Z" fill="#FFD6BD"/>
<path d="M89.5942 127.78C86.6647 127.269 83.953 125.899 81.803 123.845C81.803 123.845 82.8729 128.767 89.2924 129.419L89.5942 127.78Z" fill="#FFB394"/>
<path d="M97.8792 109.559C97.7489 109.668 96.8916 109.291 95.7051 109.38C94.5186 109.47 93.6475 109.936 93.5241 109.847C93.4006 109.757 93.5927 109.614 93.9699 109.394C94.5035 109.1 95.0968 108.932 95.7051 108.901C96.2966 108.847 96.8924 108.938 97.4403 109.168C97.8175 109.332 97.9478 109.511 97.8792 109.559Z" fill="#263238"/>
<path d="M87.9346 108.722C87.77 108.763 87.1664 108.036 86.0691 107.611C84.9717 107.186 84.0116 107.2 83.9224 107.056C83.8332 106.912 84.0802 106.885 84.5122 106.857C85.1189 106.838 85.7226 106.95 86.2817 107.186C86.8304 107.405 87.321 107.747 87.7151 108.187C87.9757 108.502 88.0169 108.708 87.9346 108.722Z" fill="#263238"/>
<path d="M87.3378 110.333C87.3238 110.424 87.2915 110.512 87.2428 110.59C87.1941 110.669 87.1301 110.737 87.0545 110.79C86.9789 110.843 86.8933 110.88 86.803 110.9C86.7126 110.919 86.6192 110.92 86.5285 110.902C86.4388 110.891 86.3522 110.862 86.2736 110.818C86.1949 110.773 86.1259 110.713 86.0705 110.642C86.015 110.571 85.9742 110.489 85.9504 110.402C85.9267 110.315 85.9203 110.224 85.9319 110.134C85.9459 110.043 85.9782 109.955 86.0269 109.877C86.0756 109.798 86.1396 109.73 86.2152 109.677C86.2908 109.624 86.3763 109.587 86.4667 109.568C86.5571 109.548 86.6504 109.547 86.7411 109.565C86.8309 109.576 86.9175 109.605 86.9961 109.649C87.0747 109.694 87.1438 109.754 87.1992 109.825C87.2547 109.896 87.2954 109.978 87.3192 110.065C87.343 110.152 87.3493 110.243 87.3378 110.333Z" fill="#263238"/>
<path d="M96.9191 112.075C96.906 112.166 96.8742 112.255 96.8259 112.334C96.7776 112.413 96.7136 112.482 96.6379 112.536C96.5623 112.59 96.4764 112.628 96.3857 112.647C96.2949 112.667 96.201 112.668 96.1098 112.65C96.0201 112.639 95.9335 112.611 95.8549 112.566C95.7762 112.522 95.7072 112.462 95.6518 112.39C95.5963 112.319 95.5555 112.238 95.5317 112.15C95.508 112.063 95.5016 111.972 95.5132 111.883C95.5263 111.791 95.5581 111.702 95.6064 111.623C95.6547 111.544 95.7187 111.475 95.7943 111.421C95.87 111.367 95.9558 111.329 96.0466 111.31C96.1374 111.29 96.2312 111.289 96.3225 111.307C96.4122 111.318 96.4988 111.346 96.5774 111.391C96.656 111.436 96.7251 111.495 96.7805 111.567C96.836 111.638 96.8767 111.72 96.9005 111.807C96.9243 111.894 96.9306 111.985 96.9191 112.075Z" fill="#263238"/>
<path d="M90.0264 115.653C90.5682 115.583 91.1168 115.583 91.6587 115.653C91.9124 115.653 92.1525 115.653 92.2279 115.509C92.3064 115.259 92.3064 114.991 92.2279 114.741C92.1113 114.097 91.9879 113.418 91.8576 112.685C91.3569 109.799 91.0483 107.447 91.1717 107.427C91.2952 107.406 91.789 109.73 92.2896 112.616C92.4062 113.302 92.516 113.987 92.6189 114.673C92.7199 115.003 92.7004 115.357 92.564 115.674C92.51 115.754 92.4389 115.82 92.3558 115.869C92.2728 115.917 92.1798 115.947 92.0839 115.955C91.9403 115.97 91.7955 115.97 91.6518 115.955C91.0993 115.925 90.5529 115.823 90.0264 115.653Z" fill="#263238"/>
<path d="M88.2499 103.848C88.1196 104.067 87.2897 103.793 86.2609 103.724C85.2322 103.656 84.3612 103.779 84.2651 103.539C84.2651 103.423 84.416 103.224 84.7864 103.053C85.2758 102.847 85.8074 102.763 86.3364 102.806C86.8633 102.847 87.3731 103.011 87.8247 103.286C88.1607 103.512 88.3116 103.738 88.2499 103.848Z" fill="#263238"/>
<path d="M98.1535 107.022C98.0232 107.207 97.2139 106.892 96.2057 106.741C95.1975 106.59 94.3471 106.617 94.2648 106.405C94.2305 106.302 94.4157 106.151 94.786 106.042C95.2822 105.907 95.8016 105.881 96.3086 105.966C96.8207 106.046 97.3109 106.231 97.7489 106.508C98.0781 106.734 98.2152 106.94 98.1535 107.022Z" fill="#263238"/>
<path d="M76.9609 109.099C76.8581 109.037 72.8458 106.981 72.16 111.327C71.4741 115.673 75.9733 115.475 76.0007 115.351C76.0282 115.228 76.9609 109.099 76.9609 109.099Z" fill="#FFD6BD"/>
<path d="M74.9445 113.493C74.9445 113.493 74.8553 113.534 74.7181 113.569C74.623 113.594 74.5237 113.601 74.4259 113.588C74.3282 113.575 74.234 113.543 74.1489 113.493C73.897 113.269 73.7091 112.982 73.6042 112.662C73.4994 112.342 73.4815 111.999 73.5522 111.67C73.6025 111.295 73.7361 110.937 73.9431 110.621C74.007 110.488 74.1035 110.374 74.2234 110.289C74.3433 110.204 74.4828 110.151 74.629 110.134C74.7198 110.124 74.8114 110.145 74.8878 110.195C74.9642 110.245 75.0207 110.321 75.0474 110.408C75.0474 110.545 75.0474 110.628 75.0474 110.634C75.0474 110.641 75.1571 110.58 75.1502 110.394C75.1405 110.282 75.0948 110.177 75.0199 110.093C74.9691 110.038 74.9076 109.994 74.8392 109.963C74.7709 109.932 74.697 109.916 74.6221 109.915C74.4381 109.922 74.259 109.976 74.1018 110.072C73.9446 110.168 73.8144 110.303 73.7237 110.463C73.4762 110.807 73.3183 111.208 73.2641 111.628C73.1815 112.012 73.2134 112.412 73.3561 112.777C73.4988 113.143 73.7459 113.459 74.0666 113.685C74.1742 113.734 74.2912 113.76 74.4095 113.76C74.5279 113.76 74.6448 113.734 74.7524 113.685C74.917 113.596 74.9582 113.5 74.9445 113.493Z" fill="#FFB394"/>
<path d="M88.6339 118.56C88.6957 118.457 87.8658 118.1 87.3651 117.189C87.1565 116.806 86.9975 116.398 86.8919 115.975C86.8027 115.646 86.7273 115.433 86.6793 115.44C86.6312 115.447 86.6175 115.667 86.6793 116.023C86.7095 116.506 86.8503 116.975 87.0908 117.394C87.3329 117.809 87.6839 118.151 88.1058 118.381C88.3939 118.56 88.6202 118.56 88.6339 118.56Z" fill="#263238"/>
<path d="M108.572 101.88C108.552 101.744 108.506 101.613 108.435 101.495C108.364 101.378 108.271 101.275 108.16 101.194C107.676 100.907 107.125 100.751 106.562 100.742C104.862 100.499 103.263 99.7868 101.946 98.6852C101.389 97.6485 100.749 96.6582 100.033 95.7236C98.3387 93.5024 96.9121 91.9599 95.3484 91.103C92.9285 89.8797 90.22 89.3416 87.516 89.5468C85.2322 89.8621 83.0306 91.4252 82.4545 93.6601C81.3297 92.4604 79.4642 92.2479 77.8799 92.6798H77.8387C76.083 93.0774 74.917 94.7364 74.2106 96.4092C73.5042 98.0819 73.079 99.878 71.9885 101.311C71.7553 101.612 71.4878 101.996 71.6113 102.325C71.6682 102.457 71.7649 102.568 71.888 102.641C72.011 102.715 72.1541 102.749 72.2971 102.737C72.5889 102.709 72.8716 102.62 73.127 102.476C72.8869 102.908 72.64 103.333 72.4 103.758C73.0014 103.934 73.6354 103.967 74.2518 103.854C74.3869 105.425 74.6159 106.986 74.9376 108.53C75.5801 108.54 76.1968 108.784 76.6728 109.215C77.2009 109.819 77.3586 110.847 78.3737 110.586C78.8949 110.449 79.4779 109.455 79.7042 108.968C81.2147 105.71 82.0076 102.166 82.0293 98.5755C82.8179 97.91 83.7288 97.4047 84.7109 97.0878L84.6218 97.1427C86.4804 96.7382 88.5654 96.368 90.1565 97.4032C91.3911 98.2053 92.0015 99.6587 92.8519 100.831C93.6406 101.934 94.6435 102.866 95.8006 103.573C96.9578 104.279 98.2455 104.746 99.5869 104.944C99.4703 106.747 99.0177 109.263 98.9011 111.066L100.753 108.372C100.896 108.18 101.028 107.981 101.151 107.776L101.192 107.721C101.391 107.399 101.583 107.076 101.823 106.761C102.011 106.928 102.249 107.028 102.5 107.045C102.751 107.061 103 106.994 103.209 106.853C103.417 106.713 103.573 106.507 103.651 106.268C103.729 106.029 103.725 105.77 103.64 105.534C103.512 105.307 103.35 105.102 103.16 104.924C103.356 105.161 103.609 105.345 103.896 105.457C104.183 105.568 104.494 105.604 104.799 105.561C105.105 105.511 105.384 105.359 105.592 105.13C105.8 104.901 105.924 104.608 105.945 104.3C105.945 104.092 105.89 103.888 105.787 103.707C105.683 103.527 105.534 103.377 105.355 103.272C106.138 103.425 106.949 103.344 107.687 103.038C108.167 102.826 108.661 102.463 108.572 101.88Z" fill="#263238"/>
<path d="M84.3679 94.6748C84.1269 94.829 83.8976 95.0008 83.6821 95.189C83.1065 95.7361 82.6834 96.4237 82.4544 97.1839C82.2817 97.7052 82.1622 98.2427 82.0978 98.7881C82.0223 99.3708 81.9949 100.008 81.9675 100.673C81.9401 101.376 81.8714 102.077 81.7617 102.771C81.6986 103.139 81.6069 103.501 81.4874 103.854C81.3859 104.236 81.1875 104.586 80.9113 104.869C80.7862 104.98 80.6346 105.056 80.4711 105.091C80.3076 105.126 80.1379 105.118 79.9785 105.068C79.6722 104.972 79.4066 104.776 79.2241 104.512C78.934 103.996 78.7872 103.411 78.7989 102.819L78.9292 102.853C78.6787 103.309 78.3646 103.727 77.9964 104.094C77.6422 104.434 77.1703 104.623 76.6796 104.622C76.451 104.619 76.2277 104.553 76.0349 104.43C75.8569 104.308 75.7186 104.136 75.6371 103.937C75.5672 103.751 75.5436 103.551 75.5685 103.354C75.5998 103.172 75.6945 103.007 75.836 102.888L75.8977 102.956C75.4661 103.347 74.9565 103.641 74.4026 103.82C74.2585 103.865 74.1119 103.902 73.9637 103.93C73.9115 103.939 73.8581 103.939 73.8059 103.93C73.8548 103.911 73.9053 103.898 73.9568 103.889C74.0528 103.889 74.2037 103.82 74.3889 103.751C74.9253 103.556 75.4173 103.255 75.836 102.867L75.8977 102.936C75.7764 103.056 75.6958 103.211 75.6675 103.38C75.6392 103.548 75.6646 103.722 75.74 103.875C75.8125 104.053 75.9367 104.206 76.0966 104.314C76.272 104.421 76.4738 104.478 76.6796 104.478C77.1375 104.473 77.5764 104.294 77.9073 103.978C78.2637 103.615 78.5684 103.204 78.8126 102.757L78.9292 102.565V102.792C78.9198 103.356 79.0569 103.914 79.327 104.41C79.4958 104.644 79.7366 104.818 80.0128 104.903C80.1485 104.946 80.2927 104.953 80.4319 104.924C80.5711 104.895 80.7007 104.831 80.8084 104.739C81.0633 104.471 81.2472 104.143 81.3434 103.786C81.459 103.439 81.5484 103.084 81.6108 102.723C81.7237 102.043 81.7924 101.356 81.8166 100.667C81.8577 99.981 81.892 99.364 81.9675 98.7675C82.0383 98.2169 82.1647 97.6748 82.3447 97.1496C82.5899 96.3782 83.0347 95.6853 83.6341 95.141C83.8524 94.9476 84.1001 94.7902 84.3679 94.6748Z" fill="#455A64"/>
<path d="M103.352 103.217H103.297L103.126 103.313C103.033 103.37 102.934 103.418 102.831 103.457C102.697 103.517 102.56 103.57 102.42 103.614C101.52 103.901 100.562 103.958 99.635 103.779C98.2548 103.522 96.9782 102.872 95.9589 101.907C94.7318 100.715 93.7609 99.2853 93.1058 97.705C92.7286 96.8824 92.4199 96.046 92.1182 95.2645C91.8203 94.5087 91.4187 93.7981 90.9248 93.153C90.4743 92.5753 89.8876 92.1184 89.217 91.823C88.9137 91.6962 88.5917 91.6198 88.2637 91.5968C87.9602 91.5773 87.6555 91.6004 87.3584 91.6653C86.4453 91.8712 85.6455 92.4181 85.1225 93.1941C84.9421 93.4804 84.7948 93.7863 84.6836 94.1059C84.6836 94.1059 84.6836 94.1059 84.6836 94.0442L84.7316 93.8522C84.8172 93.6129 84.9276 93.3832 85.0608 93.1667C85.2876 92.8289 85.5679 92.5302 85.8907 92.2823C86.3194 91.9545 86.8125 91.7209 87.3378 91.5968C87.6462 91.5295 87.9623 91.5041 88.2774 91.5214C88.6189 91.5434 88.9546 91.6198 89.2719 91.7476C89.9663 92.0477 90.5729 92.5196 91.0345 93.1187C91.5416 93.7672 91.9528 94.4852 92.2553 95.2508C92.5845 96.0323 92.8726 96.8687 93.243 97.6845C93.8893 99.2456 94.8432 100.661 96.0481 101.846C97.0459 102.803 98.2983 103.453 99.6556 103.717C100.566 103.899 101.507 103.859 102.399 103.601C103.03 103.395 103.345 103.196 103.352 103.217Z" fill="#455A64"/>
<path d="M104.264 100.482C104.264 100.482 104.182 100.537 104.018 100.619C103.796 100.723 103.567 100.81 103.332 100.879C102.966 100.985 102.592 101.061 102.214 101.106C101.757 101.143 101.299 101.143 100.842 101.106C100.378 101.06 99.9188 100.973 99.4703 100.845C99.105 100.738 98.7494 100.6 98.4073 100.434C98.1677 100.326 97.9382 100.198 97.7214 100.05C97.64 100.004 97.566 99.9464 97.502 99.8784C97.502 99.8784 97.8449 100.077 98.4278 100.338C98.7683 100.488 99.1189 100.614 99.4772 100.715C99.9277 100.829 100.386 100.909 100.849 100.955C101.305 100.99 101.764 100.99 102.221 100.955C102.593 100.917 102.962 100.853 103.325 100.763C103.894 100.619 104.258 100.461 104.264 100.482Z" fill="#455A64"/>
<path opacity="0.3" d="M60.9602 149.252C60.9602 149.252 69.5676 161.702 75.7471 161.592H77.9075L78.9362 159.741C78.9362 159.741 92.6532 162.483 95.6983 161.4L78.7305 155.107L75.4659 157.006L60.9602 149.252Z" fill="black"/>
<path d="M71.5564 154.955C71.5564 154.955 102.42 163.943 106.054 163.106C109.689 162.27 132.233 144.206 132.233 144.206L127.144 138.091L103.825 150.958L75.8841 142.094L71.5564 154.955Z" fill="#FFD6BD"/>
<path d="M63.8063 132.161C63.8063 132.161 58.6487 133.299 57.8875 141.758C57.0027 151.877 76.9609 159.788 76.9609 159.788L86.8302 143.28L63.8063 132.161Z" fill="#DC2D22"/>
<path d="M74.4989 138.756C74.5778 138.773 74.654 138.8 74.7252 138.838L75.3493 139.119L77.7018 140.216L86.0759 144.24L86.2268 144.309L86.1445 144.453L79.4301 156.107C78.6757 157.396 77.9418 158.657 77.2422 159.871L77.1668 159.994L77.0296 159.946C74.2794 159.024 71.6281 157.83 69.115 156.381C67.1109 155.19 65.2513 153.77 63.5733 152.152C62.0455 150.713 60.6668 149.123 59.4583 147.408C59.5679 147.501 59.6669 147.607 59.7532 147.723L60.5556 148.669C61.5597 149.83 62.6242 150.938 63.7448 151.987C65.4357 153.557 67.2941 154.936 69.2864 156.1C71.7911 157.518 74.4281 158.689 77.1599 159.597L76.9542 159.679L79.1283 155.915L85.8908 144.316L85.9593 144.528L77.64 140.415L75.3219 139.236L74.7183 138.914L74.4989 138.756Z" fill="#263238"/>
<path d="M98.4621 141.279C98.3592 141.313 97.5087 139.222 96.2605 136.775C95.0123 134.327 93.8532 132.394 93.9423 132.332C94.286 132.69 94.5812 133.091 94.8202 133.525C96.0987 135.526 97.1718 137.65 98.0231 139.866C98.2296 140.316 98.3772 140.791 98.4621 141.279Z" fill="#263238"/>
<path d="M87.5366 181.822C87.2923 182.028 87.0281 182.21 86.7479 182.364C86.2335 182.7 85.4654 183.152 84.4915 183.666C81.9494 185.002 79.2765 186.072 76.5151 186.861C73.753 187.647 70.9166 188.143 68.0517 188.342C66.9544 188.417 66.0628 188.438 65.4455 188.424C65.1267 188.442 64.8068 188.424 64.4922 188.369C64.8072 188.316 65.126 188.289 65.4455 188.287C66.0559 188.287 66.9407 188.198 68.0312 188.095C70.8679 187.816 73.6746 187.288 76.4191 186.518C79.1576 185.732 81.8202 184.701 84.3749 183.44C85.3625 182.96 86.1444 182.542 86.6793 182.247C86.9497 182.076 87.237 181.934 87.5366 181.822Z" fill="#263238"/>
<path d="M205.413 197.782C204.727 198.138 179.351 233.629 172.019 243.405C171.331 244.278 170.846 245.294 170.602 246.378C170.357 247.462 170.359 248.588 170.606 249.671C173.85 262.285 187.163 301.046 187.163 301.046L204.995 297.351L193.802 251.022L221.455 221.392L218.328 197.816L205.413 197.782Z" fill="#263238"/>
<path d="M131.877 115.078C131.993 115.146 133.029 115.66 134.003 116.14C135.133 116.702 136.073 117.585 136.705 118.677C137.439 119.945 138.337 121.481 138.413 121.542L142.082 124.387L137.089 131.243L135.717 130.132C135.717 130.132 130.738 129.872 128.859 128.96C126.98 128.048 125.245 126.567 125.43 125.916L125.718 125.059C125.28 124.402 125.108 123.603 125.238 122.824C125.238 122.824 124.099 121.508 124.305 120.569C124.396 120.142 124.611 119.752 124.924 119.447C125.236 119.142 125.632 118.936 126.061 118.855C126.061 118.855 125.505 117.326 126.061 116.504C126.487 115.974 127.079 115.602 127.741 115.448L132.412 117.456L131.877 115.078Z" fill="#C78976"/>
<path d="M241.255 196.966C241.639 198.036 246.18 252.825 246.18 252.825L276.741 293.314L263.751 302.37L229.205 266.913C227.548 265.233 226.408 263.113 225.92 260.805L213.149 200.099L241.255 196.966Z" fill="#263238"/>
<path d="M168.981 139.558L195.887 140.141L197.739 140.429L190.277 156.909L162.802 152.961L135.82 133.004L143.029 122.92L168.981 139.558Z" fill="#DC2D22"/>
<path d="M212.004 138.872L222.292 141.553C223.59 141.938 224.78 142.621 225.766 143.549C226.752 144.476 227.507 145.621 227.971 146.893L230.872 157.382L236.948 180.746L242.867 201.943C232.305 206.742 223.931 213.35 210.674 213.762C208.82 213.824 206.976 213.48 205.269 212.754L196.627 209.052L199.453 195.739L189.111 156.265L197.005 140.586L199.7 140.223L212.004 138.872Z" fill="#DC2D22"/>
<path d="M173.322 126.012C173.258 125.606 173.338 125.192 173.549 124.839C174.111 124.078 174.905 123.52 175.812 123.249C175.934 122.005 175.848 120.749 175.558 119.533C175.144 119.704 174.687 119.747 174.248 119.657C174.175 119.663 174.102 119.663 174.029 119.657C173.041 119.595 172.472 118.368 172.712 117.408C173.049 116.47 173.649 115.649 174.44 115.043C173.823 115.331 173.446 115.955 172.911 116.414C172.376 116.873 171.443 116.956 171.128 116.352C171.045 116.162 171.003 115.956 171.004 115.749C171.004 115.331 170.956 114.913 170.929 114.494C170.869 114.157 170.937 113.81 171.121 113.521C171.301 113.367 171.496 113.231 171.704 113.116C172.342 112.65 172.39 111.649 173.007 111.183C173.524 110.918 174.1 110.788 174.68 110.806C175.256 110.724 175.908 110.354 175.874 109.778C175.024 109.691 174.207 109.407 173.487 108.948C173.131 108.711 172.869 108.358 172.744 107.95C172.619 107.541 172.639 107.102 172.801 106.707C173.201 106.168 173.784 105.795 174.44 105.658C175.126 105.418 176.073 105.246 176.498 105.843C176.713 105.692 176.956 105.587 177.212 105.534C177.469 105.481 177.734 105.481 177.991 105.533C178.247 105.586 178.491 105.69 178.706 105.84C178.921 105.99 179.103 106.182 179.241 106.405L180.956 105.534C180.27 105.192 179.42 105.137 178.754 104.712C178.089 104.287 177.767 103.19 178.425 102.758C178.665 102.6 178.981 102.58 179.193 102.381C179.406 102.182 179.433 102.024 179.618 101.942C179.764 101.898 179.919 101.898 180.064 101.942L184.783 102.95L182.849 100.975C182.252 100.365 181.628 99.4534 182.101 98.7542C182.574 98.0549 183.727 98.3497 184.159 99.0558C184.317 98.9503 184.497 98.8805 184.685 98.8511C184.873 98.8217 185.066 98.8335 185.249 98.8856C185.432 98.9377 185.602 99.029 185.746 99.1531C185.891 99.2772 186.007 99.4311 186.086 99.6043C186.3 99.3983 186.577 99.2698 186.872 99.2391C187.167 99.2085 187.464 99.2775 187.716 99.4352C187.968 99.5928 188.159 99.8301 188.26 100.109C188.361 100.388 188.366 100.693 188.274 100.975C188.915 100.742 189.607 100.688 190.277 100.818C190.208 100.611 190.199 100.39 190.251 100.178C190.303 99.9671 190.413 99.7747 190.569 99.623C190.725 99.4714 190.92 99.3667 191.133 99.321C191.346 99.2752 191.567 99.2902 191.772 99.3643C191.605 98.9949 191.557 98.5829 191.635 98.1852C191.744 97.8013 192.217 97.4996 192.56 97.6984C192.409 97.462 192.333 97.1846 192.344 96.9038C192.355 96.623 192.452 96.3523 192.622 96.1285C192.797 95.9073 193.035 95.7451 193.305 95.6642C193.575 95.5832 193.863 95.5874 194.131 95.6761L194.46 94.6889C194.766 94.5344 195.111 94.4723 195.452 94.51C195.793 94.5477 196.116 94.6837 196.381 94.9014C196.499 95.0181 196.588 95.1617 196.639 95.3201C196.691 95.4784 196.703 95.6468 196.676 95.8109C196.648 95.9751 196.581 96.1302 196.481 96.263C196.381 96.3959 196.25 96.5026 196.099 96.5741C196.538 96.3959 196.717 97.15 196.593 97.6093C196.429 98.2537 196.257 98.905 196.086 99.5494C196.23 99.2431 196.474 98.9948 196.778 98.8453C197.082 98.6959 197.428 98.6541 197.759 98.7268C197.821 98.5834 197.91 98.4539 198.023 98.346C198.136 98.2382 198.269 98.1542 198.415 98.0992C198.561 98.0441 198.717 98.0191 198.873 98.0256C199.029 98.0322 199.182 98.0701 199.323 98.1372C199.365 97.9622 199.456 97.8028 199.586 97.6778C199.715 97.5528 199.877 97.4672 200.054 97.4312C200.23 97.3953 200.413 97.4103 200.581 97.4746C200.75 97.539 200.896 97.6499 201.003 97.7944C201.003 97.4585 201.394 97.2871 201.689 97.2048C202.141 97.0297 202.638 97.0104 203.102 97.15C203.541 97.3419 203.788 98.0001 203.431 98.3154C203.726 97.9521 204.384 98.1852 204.556 98.6171C204.623 98.8465 204.64 99.0877 204.606 99.3243C204.571 99.5608 204.487 99.7873 204.357 99.9882C204.104 100.383 203.923 100.819 203.822 101.277C204.105 100.896 204.517 100.63 204.981 100.53C205.751 100.184 206.595 100.038 207.436 100.105C207.436 99.7414 207.875 99.5631 208.232 99.5014C209.348 99.3169 210.494 99.4672 211.524 99.9333C212.004 100.153 212.519 100.564 212.45 101.085C212.395 101.322 212.282 101.541 212.121 101.723C211.51 102.532 210.893 103.341 210.283 104.156C211.763 104.06 213.236 104.432 214.494 105.219C215.091 105.2 215.689 105.223 216.284 105.287C216.853 105.466 217.175 106.405 216.62 106.617C216.844 106.692 217.039 106.837 217.175 107.031C217.311 107.225 217.381 107.457 217.374 107.694C217.357 107.899 217.281 108.094 217.155 108.256C217.128 108.396 217.077 108.531 217.004 108.654C216.875 108.885 216.7 109.088 216.49 109.25C216.426 109.463 216.312 109.657 216.156 109.816C216.001 109.975 215.809 110.093 215.598 110.162C216.206 110.37 216.775 110.681 217.278 111.08C217.608 111.339 217.861 111.682 218.01 112.074C218.16 112.465 218.201 112.889 218.129 113.302C218.129 113.343 218.094 113.384 218.081 113.432C218.126 113.729 218.052 114.032 217.875 114.275C218.038 114.424 218.148 114.621 218.191 114.837C218.65 114.834 219.101 114.956 219.496 115.189C219.891 115.423 220.215 115.76 220.434 116.163C220.652 116.567 220.757 117.022 220.736 117.48C220.715 117.939 220.57 118.383 220.317 118.765C219.912 119.376 218.849 119.698 218.533 119.04C218.506 119.361 218.401 119.671 218.226 119.942C218.052 120.214 217.813 120.438 217.532 120.596C217.727 120.774 217.883 120.992 217.989 121.233C218.096 121.475 218.151 121.737 218.151 122.001C218.151 122.266 218.096 122.527 217.989 122.769C217.883 123.011 217.727 123.228 217.532 123.407C217.836 123.544 218.101 123.753 218.306 124.015C218.511 124.278 218.65 124.586 218.709 124.914C218.768 125.242 218.747 125.579 218.647 125.897C218.547 126.215 218.372 126.503 218.136 126.738C218.402 127.054 218.532 127.462 218.498 127.874C218.463 128.285 218.266 128.666 217.95 128.932C217.635 129.199 217.226 129.329 216.815 129.294C216.403 129.259 216.022 129.063 215.756 128.747C215.743 129.383 215.547 130.001 215.193 130.529C215.1 130.655 214.981 130.759 214.845 130.837C214.709 130.915 214.559 130.964 214.404 130.981C214.248 130.998 214.091 130.984 213.941 130.938C213.791 130.892 213.653 130.816 213.534 130.715C213.528 131.028 213.453 131.337 213.315 131.618C213.176 131.9 212.978 132.147 212.733 132.344C212.488 132.54 212.203 132.68 211.898 132.754C211.594 132.828 211.276 132.834 210.969 132.771C211.13 133.099 211.153 133.478 211.035 133.824C210.917 134.17 210.666 134.454 210.338 134.615C210.009 134.776 209.63 134.8 209.284 134.682C208.938 134.564 208.654 134.313 208.493 133.985L205.146 135.239C204.414 135.538 203.657 135.767 202.882 135.925C201.882 136.101 200.855 136.036 199.885 135.733C199.587 135.606 199.263 135.547 198.939 135.561C198.578 135.66 198.247 135.849 197.979 136.11C197.189 136.703 196.262 137.084 195.283 137.219C194.305 137.353 193.309 137.236 192.389 136.878C192.111 136.738 191.812 136.643 191.504 136.597C191.146 136.605 190.794 136.687 190.469 136.837C189.644 137.138 188.784 137.337 187.91 137.426C187.541 137.499 187.16 137.496 186.792 137.416C186.424 137.336 186.076 137.18 185.771 136.96C185.208 136.459 185.208 135.349 185.915 135.088C185.867 134.849 185.765 134.623 185.616 134.43C185.468 134.236 185.276 134.079 185.057 133.971C184.835 133.87 184.582 133.857 184.351 133.935C184.119 134.013 183.926 134.175 183.809 134.389C183.617 134.842 184.042 135.452 184.495 135.342C183.939 136.151 182.492 135.87 182.115 134.965C181.971 134.495 182.011 133.989 182.226 133.547C182.441 133.106 182.816 132.762 183.274 132.586C182.84 131.998 182.555 131.314 182.444 130.591C182.312 130.973 182.039 131.29 181.681 131.478C181.323 131.665 180.906 131.709 180.517 131.599C180.453 131.968 180.314 132.321 180.109 132.634C179.904 132.948 179.637 133.216 179.324 133.423C179.002 133.621 178.622 133.702 178.247 133.654C177.873 133.605 177.526 133.429 177.266 133.155C177.154 133.01 177.078 132.841 177.043 132.661C177.008 132.481 177.014 132.296 177.063 132.119C177.111 131.942 177.2 131.779 177.322 131.643C177.444 131.506 177.597 131.4 177.767 131.332C177.589 131.17 177.456 130.965 177.38 130.738C177.304 130.51 177.287 130.267 177.33 130.03C177.374 129.794 177.478 129.573 177.631 129.388C177.784 129.204 177.982 129.061 178.206 128.973C177.969 128.548 177.882 128.057 177.956 127.576C178.031 127.096 178.263 126.654 178.617 126.32C178.508 126.448 178.373 126.55 178.221 126.62C178.069 126.69 177.903 126.726 177.736 126.726C177.568 126.726 177.403 126.69 177.251 126.62C177.098 126.55 176.963 126.448 176.855 126.32C176.683 127.15 175.593 127.383 174.749 127.246C174.408 127.228 174.082 127.097 173.824 126.873C173.566 126.65 173.389 126.347 173.322 126.012Z" fill="#263238"/>
<path d="M173.322 126.011C173.334 126.11 173.357 126.206 173.391 126.299C173.486 126.586 173.68 126.829 173.94 126.985C174.371 127.216 174.856 127.329 175.346 127.314C175.661 127.313 175.973 127.25 176.265 127.129C176.435 127.06 176.587 126.952 176.706 126.812C176.826 126.672 176.909 126.506 176.95 126.327H176.875C176.988 126.46 177.129 126.567 177.288 126.64C177.447 126.713 177.619 126.751 177.794 126.751C177.969 126.751 178.142 126.713 178.3 126.64C178.459 126.567 178.6 126.46 178.713 126.327L178.638 126.258C178.27 126.602 178.028 127.058 177.95 127.555C177.871 128.052 177.961 128.561 178.206 129L178.24 128.911C178.008 128.991 177.803 129.13 177.643 129.316C177.484 129.502 177.378 129.726 177.335 129.967C177.266 130.22 177.271 130.488 177.35 130.738C177.429 130.989 177.579 131.211 177.78 131.379V131.256C177.523 131.345 177.303 131.519 177.159 131.75C177.014 131.98 176.953 132.254 176.985 132.524C177.012 132.813 177.134 133.084 177.333 133.295C177.532 133.506 177.796 133.645 178.082 133.69C178.376 133.749 178.68 133.738 178.968 133.657C179.257 133.576 179.522 133.427 179.742 133.223C180.212 132.787 180.534 132.214 180.661 131.585L180.551 131.647C180.965 131.765 181.409 131.721 181.791 131.524C182.174 131.326 182.466 130.99 182.609 130.584H182.43C182.54 131.328 182.83 132.034 183.274 132.641L183.315 132.497C182.868 132.686 182.495 133.016 182.252 133.436C182.122 133.652 182.039 133.893 182.007 134.143C181.975 134.393 181.996 134.647 182.067 134.889C182.154 135.138 182.304 135.359 182.502 135.532C182.701 135.705 182.941 135.824 183.199 135.876C183.462 135.951 183.742 135.946 184.003 135.86C184.263 135.775 184.492 135.613 184.659 135.397L184.81 135.17L184.55 135.239C184.405 135.253 184.26 135.211 184.146 135.122C184.031 135.032 183.955 134.903 183.932 134.759C183.912 134.609 183.947 134.457 184.03 134.331C184.113 134.205 184.239 134.114 184.385 134.073C184.543 134.018 184.713 134.004 184.878 134.034C185.043 134.064 185.197 134.137 185.325 134.245C185.598 134.474 185.789 134.788 185.866 135.136L185.935 135.013C185.808 135.06 185.694 135.134 185.6 135.232C185.506 135.329 185.435 135.446 185.393 135.575C185.303 135.823 185.286 136.092 185.345 136.349C185.4 136.609 185.528 136.847 185.716 137.035C185.911 137.218 186.146 137.354 186.401 137.433C186.894 137.585 187.413 137.63 187.924 137.563C188.435 137.518 188.941 137.436 189.44 137.316C190.455 137.152 191.401 136.343 192.355 136.98C193.375 137.398 194.492 137.519 195.578 137.33C196.13 137.233 196.665 137.06 197.169 136.816C197.668 136.556 198.139 136.245 198.575 135.89C198.775 135.75 199.018 135.684 199.261 135.705C199.53 135.762 199.796 135.836 200.057 135.924C200.62 136.082 201.201 136.165 201.785 136.171C202.969 136.135 204.134 135.867 205.214 135.383L208.575 134.128L208.41 134.073C208.592 134.437 208.911 134.714 209.297 134.842C209.683 134.971 210.104 134.941 210.468 134.759C210.832 134.577 211.108 134.258 211.237 133.873C211.365 133.487 211.336 133.066 211.154 132.702L210.989 132.887C211.32 132.955 211.661 132.949 211.99 132.869C212.318 132.789 212.624 132.638 212.886 132.425C213.148 132.213 213.36 131.945 213.507 131.641C213.653 131.337 213.73 131.004 213.732 130.666L213.486 130.762C213.603 130.89 213.75 130.987 213.914 131.043C214.078 131.1 214.254 131.114 214.425 131.084C214.771 131.037 215.089 130.87 215.324 130.611C215.721 130.059 215.942 129.399 215.955 128.719L215.701 128.795C215.845 128.965 216.021 129.106 216.22 129.208C216.418 129.311 216.635 129.373 216.857 129.392C217.08 129.411 217.304 129.386 217.517 129.318C217.73 129.25 217.927 129.141 218.098 128.997C218.269 128.853 218.409 128.677 218.512 128.478C218.614 128.28 218.677 128.063 218.695 127.841C218.714 127.618 218.689 127.394 218.621 127.182C218.553 126.969 218.444 126.772 218.3 126.601V126.807C218.563 126.571 218.761 126.273 218.875 125.939C218.989 125.605 219.016 125.248 218.952 124.901C218.909 124.529 218.765 124.177 218.537 123.881C218.309 123.585 218.004 123.357 217.655 123.221L217.703 123.475C217.915 123.282 218.083 123.048 218.198 122.786C218.314 122.525 218.373 122.242 218.373 121.956C218.373 121.671 218.314 121.388 218.198 121.127C218.083 120.865 217.915 120.631 217.703 120.438V120.685C218.006 120.515 218.263 120.274 218.452 119.982C218.641 119.691 218.756 119.358 218.787 119.012L218.506 119.06C218.584 119.23 218.724 119.365 218.897 119.437C219.064 119.504 219.247 119.526 219.425 119.499C219.762 119.446 220.075 119.294 220.323 119.06C220.556 118.815 220.737 118.525 220.855 118.208C220.973 117.891 221.026 117.553 221.009 117.216C221.001 116.874 220.924 116.537 220.784 116.225C220.644 115.913 220.443 115.632 220.193 115.399C219.687 114.915 219.015 114.643 218.314 114.638L218.465 114.768C218.423 114.519 218.297 114.292 218.108 114.124V114.33C218.21 114.192 218.284 114.036 218.325 113.87C218.366 113.704 218.374 113.532 218.348 113.363V113.438C218.462 113.055 218.472 112.649 218.377 112.261C218.282 111.873 218.085 111.518 217.806 111.231C217.247 110.652 216.552 110.223 215.783 109.983V110.271C216.02 110.195 216.235 110.063 216.408 109.885C216.581 109.706 216.708 109.488 216.778 109.25L216.73 109.325C217.076 109.056 217.318 108.676 217.415 108.249V108.304C217.533 108.155 217.611 107.979 217.644 107.792C217.676 107.606 217.661 107.414 217.601 107.234C217.541 107.046 217.437 106.875 217.297 106.735C217.157 106.596 216.986 106.492 216.798 106.432V106.72C216.887 106.687 216.967 106.633 217.03 106.563C217.093 106.492 217.139 106.407 217.162 106.315C217.199 106.147 217.187 105.971 217.127 105.808C217.073 105.649 216.983 105.505 216.864 105.386C216.745 105.267 216.601 105.177 216.442 105.123C215.841 105.052 215.235 105.026 214.631 105.047H214.693C213.405 104.246 211.9 103.865 210.386 103.957L210.523 104.204C210.783 103.854 211.071 103.47 211.366 103.093L212.004 102.25C212.233 101.969 212.442 101.671 212.628 101.359C212.722 101.17 212.748 100.955 212.704 100.749C212.648 100.553 212.544 100.374 212.402 100.228C212.134 99.967 211.81 99.7702 211.455 99.6519C210.788 99.3838 210.076 99.242 209.357 99.2337C208.998 99.2304 208.64 99.258 208.287 99.316C208.099 99.3524 207.918 99.4196 207.752 99.5148C207.654 99.5695 207.57 99.6475 207.509 99.7419C207.448 99.8364 207.411 99.9444 207.402 100.056L207.58 99.9124C206.9 99.8392 206.212 99.9261 205.571 100.166C205.255 100.269 204.947 100.365 204.631 100.502C204.288 100.632 203.998 100.873 203.808 101.188L204.096 101.284C204.158 100.639 204.707 100.104 204.864 99.3571C204.919 99.1636 204.922 98.9591 204.873 98.7642C204.823 98.5692 204.724 98.3907 204.583 98.2465C204.428 98.1081 204.234 98.0197 204.028 97.9929C203.917 97.9803 203.804 97.9949 203.7 98.0355C203.596 98.0761 203.504 98.1415 203.431 98.226L203.644 98.4316C203.721 98.3623 203.782 98.2762 203.821 98.18C203.86 98.0838 203.877 97.98 203.87 97.8764C203.854 97.6864 203.788 97.5042 203.678 97.3485C203.568 97.1908 203.413 97.071 203.232 97.0057C203.066 96.9401 202.889 96.9075 202.711 96.9097C202.376 96.9215 202.044 96.9768 201.723 97.0743C201.553 97.1204 201.392 97.1921 201.243 97.2868C201.154 97.3405 201.08 97.4157 201.027 97.5055C200.974 97.5953 200.945 97.6969 200.941 97.8009L201.223 97.7324C201.102 97.5572 200.933 97.4214 200.735 97.3418C200.538 97.2623 200.322 97.2424 200.114 97.2848C199.905 97.3272 199.714 97.4299 199.564 97.5802C199.413 97.7305 199.31 97.9217 199.268 98.13L199.487 98.0135C199.326 97.9356 199.151 97.8916 198.972 97.8842C198.793 97.8768 198.614 97.9061 198.447 97.9704C198.28 98.0346 198.128 98.1324 198 98.2577C197.872 98.3831 197.772 98.5332 197.704 98.699L197.889 98.6099C197.526 98.5286 197.145 98.5732 196.81 98.7364C196.475 98.8995 196.205 99.1716 196.044 99.508L196.319 99.6108L196.751 97.9723C196.853 97.6869 196.885 97.3816 196.847 97.0811C196.828 96.9164 196.769 96.7587 196.675 96.6218C196.617 96.5377 196.533 96.475 196.435 96.4436C196.337 96.4121 196.232 96.4121 196.134 96.4436L196.23 96.7246C196.419 96.6602 196.585 96.5412 196.707 96.3827C196.829 96.2241 196.902 96.033 196.915 95.8334C196.94 95.6419 196.921 95.4473 196.859 95.2643C196.798 95.0813 196.695 94.9149 196.559 94.7777C196.271 94.5508 195.926 94.4099 195.562 94.3711C195.198 94.3322 194.83 94.3971 194.501 94.5583H194.44V94.62L194.11 95.614L194.296 95.5181C194 95.4149 193.679 95.4074 193.378 95.4965C193.078 95.5856 192.813 95.7669 192.621 96.0147C192.429 96.2626 192.32 96.5644 192.309 96.8775C192.298 97.1907 192.386 97.4993 192.56 97.7598L192.752 97.5541C192.64 97.4921 192.512 97.463 192.383 97.4703C192.254 97.4776 192.13 97.5209 192.025 97.5953C191.821 97.7184 191.672 97.9145 191.607 98.1437C191.527 98.5646 191.578 98.9997 191.751 99.3914L191.943 99.2132C191.718 99.1392 191.477 99.1284 191.246 99.1818C191.015 99.2353 190.803 99.351 190.633 99.5164C190.464 99.6818 190.343 99.8905 190.283 100.12C190.224 100.349 190.229 100.59 190.297 100.817L190.455 100.625C189.767 100.494 189.057 100.549 188.397 100.783L188.582 100.954C188.667 100.646 188.649 100.318 188.531 100.021C188.413 99.7232 188.201 99.4724 187.927 99.3059C187.654 99.1394 187.334 99.0664 187.015 99.0979C186.697 99.1294 186.397 99.2637 186.161 99.4805L186.388 99.5354C186.302 99.3412 186.174 99.1683 186.014 99.0289C185.854 98.8895 185.665 98.787 185.461 98.7288C185.257 98.6705 185.042 98.658 184.833 98.6919C184.623 98.7259 184.423 98.8055 184.248 98.9252H184.447C184.257 98.608 183.964 98.3659 183.617 98.2397C183.276 98.1028 182.895 98.1028 182.554 98.2397C182.387 98.3257 182.245 98.455 182.145 98.6142C182.045 98.7734 181.99 98.9566 181.985 99.1446C181.982 99.4947 182.082 99.8378 182.273 100.132C182.641 100.666 183.069 101.155 183.548 101.592L184.865 102.963L184.989 102.744L182.074 102.127L180.647 101.825C180.404 101.755 180.153 101.716 179.9 101.709C179.749 101.732 179.612 101.81 179.516 101.928C179.433 102.031 179.372 102.134 179.303 102.202C179.121 102.33 178.92 102.428 178.706 102.49C178.581 102.54 178.468 102.617 178.375 102.715C178.283 102.813 178.213 102.931 178.171 103.059C178.115 103.308 178.121 103.568 178.189 103.814C178.257 104.061 178.386 104.286 178.562 104.471C178.907 104.81 179.339 105.048 179.81 105.157C180.244 105.264 180.668 105.407 181.079 105.582V105.363L179.365 106.233L179.522 106.281C179.374 106.044 179.179 105.84 178.949 105.681C178.719 105.522 178.459 105.412 178.185 105.357C177.911 105.302 177.628 105.303 177.355 105.36C177.081 105.418 176.822 105.531 176.594 105.692H176.752C176.604 105.52 176.415 105.389 176.202 105.311C175.99 105.234 175.761 105.211 175.538 105.246C175.124 105.293 174.718 105.394 174.331 105.548C173.94 105.671 173.573 105.861 173.247 106.11C173.08 106.24 172.944 106.405 172.847 106.594C172.75 106.782 172.694 106.988 172.685 107.2C172.687 107.601 172.798 107.995 173.006 108.339C173.214 108.682 173.51 108.964 173.864 109.154C174.531 109.487 175.25 109.705 175.99 109.798L175.908 109.702C175.903 109.846 175.86 109.986 175.781 110.107C175.702 110.228 175.592 110.325 175.462 110.388C175.197 110.542 174.898 110.629 174.591 110.641C174.274 110.66 173.957 110.699 173.645 110.758C173.321 110.83 173.033 111.012 172.829 111.272C172.431 111.786 172.328 112.41 171.944 112.814C171.765 113.027 171.484 113.096 171.258 113.315C171.155 113.429 171.078 113.564 171.03 113.711C170.983 113.857 170.967 114.012 170.984 114.165C171.018 114.727 171.045 115.282 171.08 115.817C171.079 115.963 171.111 116.108 171.174 116.239C171.237 116.371 171.329 116.487 171.443 116.578C171.681 116.731 171.966 116.792 172.246 116.75C172.508 116.709 172.76 116.616 172.986 116.475C173.193 116.326 173.384 116.156 173.556 115.968C173.854 115.602 174.217 115.293 174.625 115.056L174.543 114.933C174.105 115.316 173.706 115.741 173.35 116.201C173.013 116.631 172.804 117.146 172.746 117.689C172.718 118.196 172.871 118.696 173.178 119.101C173.316 119.292 173.503 119.444 173.718 119.539C173.934 119.634 174.172 119.67 174.406 119.643C174.865 119.74 175.343 119.697 175.778 119.519L175.702 119.478C175.994 120.689 176.087 121.939 175.977 123.18V123.146C175.41 123.356 174.875 123.642 174.385 123.996C174.044 124.251 173.773 124.588 173.597 124.976C173.503 125.207 173.458 125.454 173.466 125.703C173.46 125.783 173.46 125.863 173.466 125.943C173.426 125.621 173.474 125.294 173.604 124.997C173.777 124.616 174.046 124.288 174.385 124.044C174.874 123.7 175.407 123.423 175.97 123.221C176.095 121.971 176.012 120.708 175.723 119.485V119.43H175.668C175.261 119.594 174.814 119.632 174.385 119.54C174.171 119.564 173.955 119.53 173.758 119.442C173.562 119.354 173.392 119.215 173.267 119.039C172.982 118.657 172.841 118.186 172.87 117.709C172.928 117.192 173.133 116.702 173.46 116.297C173.811 115.846 174.206 115.43 174.639 115.056L174.989 114.741L174.557 114.933C174.128 115.172 173.749 115.491 173.439 115.872C173.273 116.05 173.089 116.211 172.89 116.352C172.683 116.484 172.449 116.568 172.204 116.599C171.966 116.64 171.721 116.588 171.519 116.455C171.425 116.377 171.351 116.279 171.301 116.169C171.251 116.059 171.227 115.938 171.231 115.817C171.231 115.282 171.169 114.734 171.134 114.179C171.122 114.05 171.135 113.919 171.174 113.796C171.213 113.672 171.276 113.557 171.361 113.459C171.546 113.288 171.855 113.198 172.047 112.958C172.479 112.492 172.588 111.855 172.945 111.402C173.302 110.95 173.96 110.902 174.584 110.854C174.92 110.838 175.247 110.741 175.538 110.573C175.702 110.492 175.84 110.367 175.937 110.212C176.034 110.057 176.086 109.878 176.086 109.695V109.647H176.011C175.293 109.564 174.596 109.352 173.953 109.023C173.632 108.854 173.363 108.6 173.175 108.29C172.987 107.98 172.886 107.624 172.883 107.262C172.895 107.081 172.944 106.904 173.028 106.744C173.112 106.583 173.228 106.442 173.37 106.329C173.679 106.099 174.025 105.923 174.392 105.808C174.763 105.668 175.15 105.574 175.544 105.527C175.729 105.496 175.919 105.512 176.095 105.574C176.271 105.637 176.429 105.743 176.553 105.884L176.628 105.98L176.717 105.904C176.92 105.763 177.149 105.664 177.39 105.613C177.632 105.563 177.882 105.563 178.124 105.612C178.366 105.662 178.595 105.76 178.798 105.901C179.001 106.042 179.172 106.222 179.303 106.432L179.358 106.528L179.461 106.48L181.175 105.616L181.395 105.507L181.175 105.397C180.753 105.217 180.317 105.07 179.872 104.958C179.445 104.864 179.051 104.656 178.734 104.355C178.586 104.202 178.478 104.015 178.42 103.81C178.361 103.606 178.354 103.39 178.398 103.183C178.43 103.088 178.482 103.002 178.55 102.93C178.619 102.857 178.703 102.801 178.795 102.764C179.044 102.698 179.277 102.584 179.481 102.428C179.673 102.223 179.762 102.017 179.934 102.01C180.166 102.023 180.395 102.06 180.62 102.12L182.039 102.428L184.954 103.052L185.38 103.141L185.078 102.826L183.761 101.455C183.297 101.033 182.883 100.559 182.526 100.043C182.365 99.7931 182.277 99.5033 182.273 99.2063C182.275 99.0652 182.315 98.9274 182.389 98.8069C182.462 98.6864 182.567 98.5877 182.691 98.5208C182.971 98.4195 183.276 98.4173 183.557 98.5147C183.838 98.612 184.077 98.803 184.234 99.0555L184.316 99.1858L184.433 99.0966C184.574 99.0041 184.734 98.943 184.901 98.9175C185.068 98.892 185.239 98.9027 185.402 98.9489C185.564 98.995 185.715 99.0756 185.844 99.185C185.972 99.2945 186.076 99.4304 186.148 99.5834L186.223 99.7822L186.374 99.6382C186.564 99.4617 186.807 99.3522 187.066 99.3261C187.324 99.3001 187.584 99.359 187.806 99.4939C188.027 99.6288 188.199 99.8323 188.295 100.074C188.391 100.315 188.405 100.581 188.336 100.831L188.26 101.098L188.514 101.002C189.131 100.781 189.797 100.729 190.441 100.852L190.709 100.906L190.599 100.66C190.555 100.486 190.557 100.303 190.606 100.131C190.655 99.9582 190.748 99.8015 190.877 99.6765C191.005 99.5514 191.165 99.4624 191.339 99.4183C191.513 99.3743 191.695 99.3769 191.868 99.4257L192.163 99.5628L192.06 99.2543C191.912 98.9135 191.865 98.5379 191.923 98.1711C191.998 97.8626 192.396 97.6021 192.643 97.7598L193.212 98.1163L192.842 97.5541C192.706 97.346 192.638 97.1011 192.647 96.8529C192.656 96.6047 192.741 96.3653 192.891 96.1673C193.041 95.9694 193.249 95.8225 193.485 95.7468C193.722 95.6711 193.976 95.6702 194.213 95.7443L194.35 95.7923L194.398 95.6552L194.728 94.668L194.652 94.7502C194.928 94.6135 195.238 94.5571 195.544 94.5874C195.851 94.6177 196.143 94.7335 196.387 94.9216C196.819 95.2918 196.737 96.2105 196.188 96.3613L196.284 96.6424C196.318 96.6255 196.357 96.6225 196.393 96.634C196.429 96.6455 196.459 96.6707 196.477 96.7041C196.542 96.8005 196.584 96.9108 196.6 97.0263C196.631 97.2885 196.598 97.5543 196.504 97.8009L196.072 99.4394L196.353 99.5422C196.486 99.2717 196.705 99.0525 196.975 98.9187C197.245 98.7848 197.552 98.7438 197.848 98.8018L197.985 98.843L198.027 98.7127C198.081 98.5871 198.159 98.4736 198.258 98.3792C198.358 98.2848 198.475 98.2113 198.603 98.1633C198.731 98.1153 198.867 98.0936 199.004 98.0997C199.141 98.1058 199.275 98.1394 199.398 98.1986L199.611 98.3151V98.082C199.652 97.9447 199.73 97.8211 199.836 97.7243C199.942 97.6276 200.072 97.5613 200.213 97.5325C200.353 97.5037 200.499 97.5134 200.635 97.5607C200.77 97.6079 200.89 97.691 200.983 97.8009L201.319 98.4865L201.271 97.7324C201.271 97.5336 201.552 97.3759 201.833 97.3005C202.124 97.2094 202.426 97.1564 202.731 97.1428C202.869 97.1306 203.008 97.1531 203.135 97.2081C203.262 97.2632 203.373 97.3492 203.458 97.4582C203.541 97.5531 203.587 97.6749 203.587 97.8009C203.587 97.927 203.541 98.0488 203.458 98.1437L203.678 98.3562C203.822 98.1643 204.185 98.2123 204.364 98.4111C204.466 98.5187 204.537 98.6521 204.57 98.7969C204.602 98.9417 204.595 99.0927 204.549 99.2337C204.439 99.8713 203.863 100.399 203.774 101.188L203.678 101.935L204.062 101.249C204.35 100.756 205.05 100.612 205.653 100.392C206.248 100.168 206.887 100.086 207.519 100.152H207.697V100.05C207.697 99.8165 208.026 99.6519 208.328 99.5971C209.337 99.4301 210.373 99.5391 211.325 99.9124C211.637 100.019 211.923 100.192 212.162 100.42C212.271 100.515 212.348 100.643 212.38 100.785C212.412 100.927 212.398 101.075 212.34 101.208C212.156 101.497 211.957 101.777 211.743 102.045L211.106 102.888L210.262 103.998L210.056 104.266H210.392C211.839 104.174 213.279 104.538 214.507 105.308C215.098 105.292 215.689 105.312 216.277 105.369C216.39 105.415 216.491 105.484 216.574 105.573C216.657 105.662 216.72 105.768 216.757 105.884C216.839 106.124 216.757 106.35 216.606 106.411L216.14 106.562L216.613 106.699C216.754 106.748 216.881 106.829 216.986 106.934C217.09 107.04 217.169 107.168 217.217 107.31C217.262 107.443 217.272 107.587 217.247 107.726C217.222 107.865 217.162 107.995 217.073 108.105V108.139C216.986 108.505 216.769 108.826 216.462 109.044H216.421V109.092C216.366 109.28 216.266 109.452 216.129 109.592C215.993 109.733 215.825 109.839 215.639 109.901L215.193 110.024L215.625 110.189C216.345 110.418 217 110.818 217.532 111.354C217.775 111.6 217.948 111.906 218.034 112.241C218.12 112.576 218.114 112.928 218.019 113.26V113.294V113.336C218.061 113.593 217.999 113.857 217.848 114.069L217.758 114.179L217.861 114.275C217.999 114.396 218.093 114.56 218.129 114.741V114.871H218.259C218.883 114.875 219.48 115.12 219.926 115.557C220.358 115.974 220.616 116.54 220.645 117.14C220.674 117.74 220.473 118.329 220.083 118.786C219.881 118.976 219.625 119.1 219.35 119.142C219.233 119.171 219.109 119.16 218.999 119.112C218.889 119.063 218.797 118.98 218.739 118.875L218.499 118.34L218.458 118.923C218.431 119.22 218.333 119.506 218.172 119.756C218.011 120.007 217.791 120.215 217.532 120.362L217.333 120.465L217.505 120.602C217.683 120.767 217.825 120.967 217.922 121.19C218.019 121.412 218.069 121.652 218.069 121.895C218.069 122.137 218.019 122.377 217.922 122.6C217.825 122.822 217.683 123.022 217.505 123.187L217.299 123.358L217.553 123.441C217.85 123.557 218.111 123.753 218.305 124.007C218.5 124.26 218.621 124.562 218.657 124.88C218.717 125.177 218.697 125.485 218.601 125.773C218.505 126.06 218.335 126.317 218.108 126.519L217.992 126.615L218.088 126.724C218.208 126.866 218.299 127.029 218.356 127.206C218.413 127.382 218.435 127.569 218.42 127.753C218.405 127.938 218.353 128.119 218.269 128.284C218.184 128.449 218.068 128.596 217.926 128.716C217.785 128.836 217.621 128.927 217.445 128.984C217.268 129.041 217.082 129.063 216.897 129.048C216.712 129.033 216.532 128.982 216.366 128.897C216.201 128.812 216.054 128.696 215.934 128.555L215.721 128.294L215.68 128.63C215.675 129.251 215.481 129.856 215.125 130.365C215.043 130.468 214.941 130.554 214.825 130.618C214.71 130.682 214.582 130.723 214.451 130.738C214.32 130.752 214.187 130.741 214.06 130.704C213.933 130.667 213.815 130.605 213.712 130.522L213.438 130.193V130.618C213.459 130.934 213.403 131.25 213.272 131.539C213.142 131.827 212.942 132.078 212.69 132.27C212.468 132.452 212.207 132.581 211.928 132.646C211.648 132.711 211.358 132.712 211.078 132.647L210.811 132.572L210.92 132.833C211.04 133.125 211.044 133.452 210.932 133.748C210.819 134.043 210.599 134.285 210.315 134.424C210.031 134.564 209.705 134.59 209.402 134.498C209.099 134.406 208.843 134.203 208.685 133.929L208.63 133.833H208.52L205.159 135.095C204.11 135.569 202.977 135.832 201.826 135.87C201.265 135.869 200.706 135.79 200.166 135.636C199.89 135.543 199.609 135.468 199.323 135.41C199.012 135.375 198.7 135.456 198.445 135.636C198.02 135.988 197.56 136.296 197.073 136.555C196.589 136.788 196.074 136.952 195.544 137.042C194.505 137.23 193.435 137.118 192.457 136.72C192.211 136.602 191.951 136.516 191.682 136.466C191.403 136.437 191.12 136.477 190.859 136.583C190.374 136.777 189.877 136.94 189.371 137.069C188.883 137.185 188.389 137.267 187.89 137.316C187.411 137.378 186.925 137.338 186.463 137.2C186.244 137.142 186.046 137.026 185.887 136.864C185.729 136.702 185.618 136.501 185.565 136.281C185.497 136.076 185.504 135.853 185.586 135.653C185.668 135.454 185.818 135.29 186.011 135.191L186.1 135.157V135.067C186.007 134.672 185.791 134.317 185.482 134.053C185.325 133.923 185.137 133.836 184.936 133.802C184.735 133.767 184.529 133.785 184.337 133.854C184.139 133.91 183.97 134.039 183.862 134.214C183.754 134.389 183.715 134.598 183.754 134.8C183.785 134.999 183.893 135.178 184.055 135.297C184.216 135.417 184.419 135.467 184.618 135.438L184.509 135.28C184.365 135.463 184.17 135.599 183.949 135.67C183.728 135.741 183.49 135.743 183.267 135.678C183.042 135.635 182.831 135.534 182.657 135.385C182.482 135.236 182.35 135.044 182.273 134.828C182.171 134.393 182.229 133.936 182.437 133.54C182.645 133.145 182.988 132.838 183.404 132.675L183.521 132.627L183.445 132.531C183.018 131.956 182.738 131.285 182.629 130.577L182.574 130.186L182.458 130.563C182.332 130.923 182.075 131.222 181.737 131.399C181.4 131.575 181.008 131.618 180.64 131.516H180.551V131.605C180.44 132.186 180.156 132.719 179.735 133.134C179.534 133.324 179.29 133.464 179.024 133.54C178.758 133.616 178.477 133.628 178.206 133.573C177.952 133.536 177.717 133.416 177.54 133.231C177.362 133.046 177.251 132.807 177.225 132.552C177.193 132.314 177.244 132.073 177.369 131.868C177.494 131.664 177.685 131.508 177.911 131.427L178.041 131.393L177.931 131.304C177.77 131.147 177.649 130.952 177.581 130.738C177.512 130.523 177.497 130.295 177.538 130.073C177.579 129.851 177.673 129.643 177.814 129.467C177.954 129.291 178.136 129.152 178.343 129.062H178.418L178.377 128.994C178.147 128.578 178.062 128.099 178.134 127.63C178.206 127.161 178.431 126.729 178.775 126.402L178.699 126.334C178.595 126.455 178.466 126.553 178.32 126.62C178.174 126.687 178.016 126.721 177.856 126.721C177.696 126.721 177.537 126.687 177.392 126.62C177.246 126.553 177.117 126.455 177.012 126.334L176.95 126.251V126.354C176.907 126.526 176.821 126.684 176.702 126.814C176.582 126.945 176.432 127.043 176.265 127.101C175.983 127.223 175.68 127.288 175.373 127.293C174.897 127.311 174.424 127.205 174.001 126.985C173.75 126.842 173.557 126.617 173.453 126.347C173.343 126.1 173.329 126.011 173.322 126.011Z" fill="#455A64"/>
<path d="M212.223 139.579L204.062 116.037C202.121 109.627 196.771 105.417 190.42 107.529L189.844 107.762C187.049 108.876 184.776 111.001 183.479 113.715C182.181 116.429 181.954 119.532 182.842 122.405C184.55 127.952 186.511 134.06 187.698 136.919C190.153 142.855 196.49 141.402 196.49 141.402C196.49 141.402 197.005 142.773 197.629 144.583C197.629 144.583 198.644 150.554 203.314 149.121C207.985 147.689 212.223 139.579 212.223 139.579Z" fill="#C78976"/>
<path d="M196.456 141.416C199.211 140.309 201.591 138.437 203.315 136.02C203.315 136.02 203.315 141.299 197.142 143.136L196.456 141.416Z" fill="#8B5D54"/>
<path d="M186.127 126.539C186.213 126.763 186.383 126.944 186.601 127.043C186.819 127.143 187.067 127.154 187.293 127.074C187.404 127.039 187.508 126.982 187.597 126.907C187.686 126.831 187.76 126.739 187.813 126.635C187.866 126.531 187.897 126.417 187.906 126.301C187.914 126.184 187.9 126.067 187.862 125.956C187.776 125.733 187.606 125.552 187.388 125.452C187.17 125.352 186.922 125.341 186.696 125.422C186.585 125.457 186.481 125.513 186.392 125.589C186.303 125.664 186.23 125.757 186.177 125.861C186.124 125.965 186.092 126.079 186.083 126.195C186.075 126.311 186.09 126.428 186.127 126.539Z" fill="#263238"/>
<path d="M185.064 124.38C185.215 124.449 185.674 123.694 186.587 123.352C187.499 123.009 188.363 123.18 188.418 123.03C188.473 122.879 188.26 122.796 187.883 122.7C187.374 122.587 186.844 122.63 186.36 122.824C185.884 123.013 185.48 123.35 185.208 123.784C185.009 124.113 184.995 124.353 185.064 124.38Z" fill="#263238"/>
<path d="M194.673 123.804C194.759 124.027 194.929 124.208 195.147 124.308C195.365 124.408 195.613 124.419 195.839 124.339C195.95 124.304 196.054 124.247 196.143 124.171C196.232 124.096 196.305 124.003 196.358 123.899C196.411 123.795 196.443 123.682 196.452 123.565C196.46 123.449 196.445 123.332 196.408 123.221C196.322 122.998 196.152 122.817 195.934 122.717C195.716 122.617 195.468 122.606 195.242 122.686C195.131 122.721 195.027 122.778 194.938 122.854C194.849 122.929 194.776 123.021 194.723 123.125C194.67 123.23 194.638 123.343 194.629 123.46C194.621 123.576 194.636 123.693 194.673 123.804Z" fill="#263238"/>
<path d="M194.172 121.172C194.323 121.24 194.776 120.486 195.695 120.136C196.614 119.787 197.471 119.965 197.526 119.814C197.581 119.663 197.368 119.588 196.984 119.492C196.478 119.375 195.949 119.418 195.468 119.615C194.991 119.802 194.585 120.136 194.309 120.568C194.172 120.897 194.131 121.137 194.172 121.172Z" fill="#263238"/>
<path d="M193.719 129.528C193.178 129.569 192.643 129.677 192.128 129.85C191.881 129.919 191.641 129.96 191.538 129.816C191.423 129.583 191.38 129.32 191.415 129.062C191.415 128.413 191.415 127.727 191.415 127.005C191.367 124.078 191.23 121.72 191.113 121.72C190.997 121.72 190.942 124.092 190.99 127.012C190.99 127.698 191.024 128.383 191.045 129.069C191.011 129.41 191.099 129.752 191.292 130.035C191.358 130.104 191.44 130.157 191.531 130.189C191.621 130.221 191.718 130.232 191.813 130.221C191.956 130.205 192.097 130.17 192.231 130.118C192.749 129.981 193.249 129.783 193.719 129.528Z" fill="#263238"/>
<path d="M192.745 118.155C192.937 118.368 193.802 117.888 194.933 117.593C196.065 117.299 197.046 117.244 197.101 116.963C197.101 116.826 196.881 116.654 196.415 116.551C195.828 116.442 195.225 116.467 194.65 116.625C194.075 116.783 193.543 117.07 193.095 117.463C192.8 117.778 192.656 118.053 192.745 118.155Z" fill="#263238"/>
<path d="M184.207 121.151C184.447 121.302 185.002 120.842 185.764 120.548C186.525 120.253 187.231 120.164 187.3 119.862C187.3 119.732 187.149 119.56 186.786 119.471C186.317 119.376 185.83 119.421 185.387 119.601C184.944 119.782 184.564 120.09 184.296 120.486C184.104 120.829 184.097 121.076 184.207 121.151Z" fill="#263238"/>
<path d="M193.747 132.27C193.983 132.589 194.265 132.87 194.584 133.107C194.744 133.225 194.928 133.308 195.124 133.348C195.319 133.388 195.521 133.385 195.715 133.34C195.917 133.275 196.098 133.16 196.242 133.005C196.387 132.85 196.488 132.661 196.538 132.455C196.64 132.042 196.607 131.607 196.442 131.214C196.305 130.858 195.996 130.481 195.626 130.563C195.472 130.605 195.332 130.688 195.221 130.803L193.582 132.174" fill="#8B5D54"/>
<path d="M195.016 133.546C195.363 133.452 195.691 133.297 195.983 133.087C196.272 132.848 196.462 132.511 196.518 132.14C196.545 131.918 196.524 131.693 196.458 131.479C196.392 131.265 196.281 131.068 196.134 130.9C196.057 130.814 195.969 130.738 195.873 130.673C195.77 130.619 195.784 130.619 195.708 130.673C195.633 130.728 195.537 130.817 195.448 130.893L195.173 131.126L194.234 131.901C193.961 132.165 193.649 132.385 193.308 132.552C193.274 132.552 193.569 132.195 194.069 131.715C194.316 131.469 194.618 131.188 194.961 130.879L195.221 130.639C195.317 130.557 195.386 130.481 195.516 130.385C195.6 130.325 195.701 130.293 195.804 130.296C195.898 130.306 195.987 130.339 196.065 130.392C196.185 130.475 196.296 130.572 196.394 130.68C196.577 130.888 196.712 131.133 196.789 131.398C196.866 131.664 196.883 131.943 196.84 132.216C196.762 132.655 196.516 133.046 196.154 133.306C195.918 133.48 195.638 133.585 195.345 133.608C195.125 133.601 195.016 133.566 195.016 133.546Z" fill="#263238"/>
<path d="M179.344 118.032C179.248 117.722 179.175 117.406 179.125 117.086C179.127 116.585 179.254 116.092 179.495 115.653C180.181 114.09 180.963 112.465 182.238 111.54C183.034 110.977 183.98 110.71 184.776 110.169C185.254 109.795 185.712 109.397 186.148 108.976C188.062 107.409 190.357 106.378 192.8 105.987C194.148 105.67 195.542 105.596 196.915 105.767C198.476 106.078 199.971 106.658 201.332 107.481C203.548 108.61 205.549 110.118 207.244 111.937C208.629 113.423 209.553 115.278 209.905 117.278C210.18 119.293 209.514 121.453 208.012 122.323L207.169 121.782L205.845 121C206.161 121.391 206.003 121.412 205.708 121.768C205.631 121.852 205.538 121.919 205.434 121.965C205.33 122.011 205.218 122.035 205.104 122.035C204.991 122.035 204.878 122.011 204.774 121.965C204.671 121.919 204.577 121.852 204.501 121.768C204.323 122.255 203.52 122.042 203.458 121.494C203.15 121.809 202.519 121.453 202.505 120.952C202.121 121.247 201.668 120.63 201.305 120.267C201.103 120.058 200.888 119.864 200.66 119.684C199.959 119.051 199.454 118.23 199.206 117.319C198.481 116.722 197.943 115.93 197.656 115.036C197.423 114.487 197.19 113.939 196.97 113.397L196.538 113.096C196.598 113.286 196.596 113.491 196.533 113.68C196.471 113.869 196.35 114.034 196.188 114.152C195.876 114.34 195.518 114.439 195.153 114.439L194.076 114.542L193.5 114.913C193.787 115.432 193.893 116.033 193.802 116.62C193.824 117.01 193.713 117.397 193.486 117.716C193.417 117.775 193.333 117.815 193.244 117.83C193.154 117.845 193.062 117.835 192.978 117.802C192.893 117.769 192.819 117.714 192.764 117.642C192.708 117.57 192.674 117.484 192.663 117.394C192.62 117.465 192.561 117.526 192.491 117.572C192.421 117.617 192.341 117.647 192.259 117.658C192.176 117.669 192.092 117.661 192.012 117.636C191.933 117.611 191.86 117.568 191.799 117.511C191.523 117.247 191.336 116.905 191.264 116.53C191.028 115.641 191.059 114.701 191.353 113.829L190.057 115.961C189.982 116.126 189.857 116.262 189.7 116.352C189.733 116.419 189.751 116.492 189.75 116.566C189.75 116.641 189.733 116.714 189.7 116.78C189.667 116.847 189.618 116.905 189.559 116.949C189.499 116.994 189.43 117.024 189.357 117.038C189.076 117.047 188.8 116.96 188.575 116.791C188.013 116.462 187.334 115.831 187.567 115.214C187.355 115.214 187.149 114.926 187.231 114.7L185.681 116.811C185.846 116.64 186.154 116.887 186.189 117.154C186.193 117.416 186.105 117.67 185.942 117.874C186.199 118.106 186.377 118.413 186.449 118.752C186.717 118.327 187.43 118.752 187.464 119.314C187.471 119.565 187.395 119.812 187.249 120.017C187.103 120.222 186.895 120.375 186.655 120.452C186.47 120.542 186.257 120.559 186.06 120.499C185.863 120.44 185.696 120.307 185.592 120.13C185.174 120.356 184.577 119.876 184.584 119.334C184.33 119.636 183.898 119.149 183.74 118.724C183.486 117.977 183.372 117.189 183.404 116.4C183.404 116.469 183.322 116.524 183.253 116.496C183.226 116.479 183.202 116.455 183.185 116.428C183.089 117.387 182.986 118.347 182.89 119.307C182.754 120.126 182.772 120.963 182.945 121.775C183.034 122.104 183.13 122.57 182.862 122.68C182.786 122.7 182.706 122.7 182.629 122.68C181.665 122.451 180.81 121.896 180.208 121.11C179.972 120.849 179.782 120.55 179.646 120.226C179.485 119.504 179.384 118.77 179.344 118.032Z" fill="#263238"/>
<path d="M187.561 113.898C187.391 113.802 187.253 113.659 187.163 113.486C187.113 113.39 187.088 113.283 187.088 113.174C187.088 113.066 187.113 112.959 187.163 112.863C187.228 112.738 187.327 112.634 187.448 112.562C187.569 112.491 187.708 112.455 187.849 112.458H188.02L187.91 112.321C187.81 112.193 187.752 112.038 187.743 111.876C187.735 111.714 187.776 111.553 187.862 111.416C187.969 111.27 188.124 111.167 188.299 111.123C188.475 111.079 188.66 111.098 188.823 111.176L188.912 111.025C188.882 111.003 188.856 110.975 188.836 110.943C188.8 110.888 188.777 110.825 188.769 110.76C188.76 110.695 188.767 110.628 188.788 110.566C188.835 110.443 188.926 110.34 189.042 110.278C189.163 110.217 189.297 110.186 189.433 110.189C189.585 110.21 189.739 110.198 189.886 110.155C190.057 110.072 190.098 109.915 190.174 109.826C190.243 109.727 190.323 109.637 190.414 109.558C190.585 109.418 190.78 109.311 190.99 109.243C191.294 109.137 191.623 109.12 191.936 109.195C192.163 109.25 192.272 109.318 192.286 109.305C192.19 109.222 192.078 109.162 191.957 109.126C191.629 109.024 191.277 109.024 190.949 109.126C190.721 109.191 190.509 109.3 190.325 109.448C190.219 109.535 190.125 109.634 190.043 109.743C189.961 109.853 189.906 109.983 189.817 110.017C189.688 110.039 189.556 110.039 189.426 110.017C189.264 110.014 189.104 110.052 188.96 110.127C188.8 110.206 188.677 110.343 188.617 110.511C188.588 110.6 188.578 110.694 188.59 110.786C188.602 110.879 188.635 110.967 188.685 111.046C188.722 111.096 188.766 111.14 188.816 111.176L188.905 111.018C188.721 110.935 188.515 110.915 188.318 110.962C188.122 111.008 187.947 111.118 187.82 111.275C187.693 111.432 187.621 111.626 187.616 111.828C187.612 112.03 187.674 112.227 187.794 112.389L187.856 112.259C187.689 112.26 187.527 112.308 187.386 112.396C187.246 112.485 187.133 112.61 187.06 112.76C187.007 112.866 186.98 112.984 186.98 113.102C186.98 113.221 187.007 113.339 187.06 113.445C187.134 113.584 187.245 113.698 187.382 113.774C187.499 113.898 187.561 113.905 187.561 113.898Z" fill="#455A64"/>
<path d="M183.624 116.235C183.441 116.148 183.281 116.019 183.157 115.858C183.021 115.658 182.969 115.411 183.013 115.173C183.04 115.024 183.102 114.885 183.194 114.765C183.286 114.646 183.405 114.551 183.541 114.487L183.658 114.439L183.548 114.371C183.394 114.283 183.263 114.161 183.165 114.013C183.067 113.865 183.006 113.696 182.986 113.52C182.985 113.428 183.006 113.337 183.047 113.253C183.087 113.17 183.146 113.097 183.219 113.041C183.288 112.976 183.374 112.933 183.467 112.919C183.56 112.904 183.655 112.918 183.74 112.958L184.378 113.335L183.843 112.821C183.748 112.727 183.676 112.613 183.631 112.487C183.586 112.362 183.569 112.227 183.583 112.095C183.593 111.953 183.639 111.816 183.715 111.696C183.792 111.577 183.897 111.478 184.022 111.409C184.2 111.306 184.408 111.268 184.611 111.299L184.838 111.34L184.694 111.155C184.656 111.084 184.633 111.006 184.628 110.925C184.622 110.844 184.633 110.764 184.66 110.688C184.687 110.612 184.73 110.542 184.785 110.483C184.84 110.424 184.907 110.378 184.982 110.346C185.295 110.24 185.635 110.24 185.949 110.346L186.141 110.388L186.038 110.223C185.978 110.119 185.946 110.001 185.946 109.88C185.946 109.76 185.978 109.642 186.038 109.537C186.166 109.353 186.341 109.206 186.545 109.112C186.892 108.947 187.267 108.847 187.65 108.818C187.989 108.805 188.329 108.825 188.665 108.879C188.582 108.84 188.494 108.813 188.404 108.797C187.763 108.649 187.09 108.717 186.491 108.989C186.254 109.087 186.052 109.251 185.908 109.462C185.826 109.584 185.78 109.726 185.774 109.872C185.768 110.018 185.802 110.164 185.873 110.292L185.956 110.175C185.603 110.063 185.223 110.075 184.879 110.209C184.691 110.302 184.544 110.46 184.467 110.655C184.42 110.757 184.4 110.87 184.411 110.982C184.422 111.094 184.463 111.201 184.529 111.292L184.611 111.148C184.468 111.124 184.321 111.13 184.18 111.165C184.039 111.199 183.906 111.263 183.791 111.351C183.675 111.439 183.578 111.55 183.507 111.676C183.436 111.803 183.392 111.943 183.377 112.088C183.363 112.248 183.384 112.409 183.44 112.559C183.496 112.71 183.584 112.846 183.699 112.958L183.802 112.821C183.684 112.769 183.555 112.751 183.427 112.769C183.3 112.788 183.18 112.841 183.082 112.924C182.991 112.998 182.918 113.092 182.869 113.2C182.82 113.307 182.797 113.423 182.801 113.541C182.827 113.745 182.903 113.94 183.023 114.107C183.143 114.275 183.302 114.41 183.487 114.501V114.377C183.332 114.451 183.198 114.561 183.097 114.699C182.995 114.836 182.929 114.997 182.904 115.166C182.876 115.373 182.916 115.583 183.017 115.766C183.118 115.949 183.276 116.094 183.466 116.18C183.562 116.235 183.624 116.242 183.624 116.235Z" fill="#455A64"/>
<path d="M174.673 119.691C174.652 119.601 174.649 119.508 174.664 119.418C174.68 119.327 174.713 119.24 174.763 119.163C174.878 118.979 175.06 118.847 175.27 118.793C175.556 118.725 175.851 118.711 176.141 118.751H176.244L176.203 118.649C176.155 118.478 176.168 118.296 176.239 118.133C176.31 117.971 176.436 117.838 176.594 117.757C176.993 117.583 177.433 117.529 177.863 117.6L178.453 117.648L177.897 117.442C177.824 117.398 177.761 117.34 177.711 117.271C177.66 117.201 177.625 117.123 177.606 117.04C177.586 116.957 177.584 116.871 177.599 116.787C177.614 116.703 177.645 116.623 177.691 116.551C177.81 116.396 177.96 116.266 178.131 116.171C178.302 116.075 178.491 116.016 178.686 115.996H178.734L179.083 115.927L178.747 115.824C178.655 115.778 178.574 115.712 178.511 115.631C178.447 115.55 178.403 115.455 178.381 115.354C178.359 115.253 178.361 115.149 178.385 115.049C178.409 114.949 178.456 114.855 178.521 114.775C178.665 114.631 178.85 114.533 179.051 114.495C179.251 114.457 179.459 114.481 179.646 114.563L180.078 114.734L179.769 114.446C179.569 114.258 179.423 114.019 179.347 113.755C179.271 113.491 179.268 113.211 179.337 112.945C179.395 112.736 179.499 112.544 179.641 112.381C179.784 112.218 179.961 112.09 180.16 112.006C180.422 111.888 180.711 111.843 180.997 111.875C181.196 111.875 181.299 111.937 181.306 111.93L181.23 111.889C181.157 111.859 181.081 111.836 181.004 111.821C180.709 111.768 180.405 111.799 180.126 111.91C179.906 111.993 179.709 112.127 179.55 112.299C179.39 112.471 179.273 112.678 179.207 112.904C179.124 113.195 179.123 113.504 179.203 113.796C179.282 114.088 179.44 114.354 179.66 114.563L179.742 114.426C179.523 114.329 179.279 114.302 179.044 114.347C178.809 114.393 178.593 114.508 178.425 114.679C178.339 114.778 178.278 114.894 178.244 115.02C178.211 115.146 178.207 115.278 178.233 115.406C178.254 115.542 178.31 115.671 178.397 115.778C178.484 115.885 178.598 115.968 178.727 116.016V115.838H178.672C178.452 115.862 178.24 115.931 178.048 116.042C177.857 116.153 177.691 116.303 177.561 116.482C177.449 116.677 177.414 116.907 177.465 117.127C177.487 117.233 177.534 117.333 177.602 117.417C177.67 117.502 177.757 117.569 177.856 117.613L177.897 117.456C177.431 117.382 176.953 117.449 176.525 117.648C176.338 117.747 176.191 117.91 176.112 118.107C176.033 118.304 176.026 118.523 176.093 118.724L176.155 118.635C175.849 118.606 175.54 118.632 175.243 118.71C175.129 118.743 175.024 118.799 174.932 118.873C174.84 118.947 174.764 119.038 174.708 119.142C174.63 119.27 174.601 119.42 174.625 119.567C174.631 119.612 174.648 119.654 174.673 119.691Z" fill="#455A64"/>
<path d="M176.95 109.565C177.032 109.584 177.116 109.584 177.197 109.565C177.431 109.54 177.662 109.487 177.883 109.407C178.201 109.282 178.545 109.235 178.885 109.27C178.98 109.289 179.07 109.327 179.149 109.382C179.228 109.438 179.295 109.509 179.344 109.592C179.4 109.676 179.427 109.776 179.421 109.876C179.414 109.976 179.375 110.072 179.31 110.148L179.454 110.196C179.454 109.963 179.66 109.743 179.858 109.51C180.058 109.285 180.289 109.089 180.544 108.928C180.671 108.852 180.812 108.803 180.958 108.784C181.104 108.766 181.253 108.777 181.395 108.818C181.526 108.848 181.646 108.914 181.741 109.009C181.837 109.103 181.905 109.222 181.937 109.353L181.971 109.572L182.087 109.38C182.326 109.02 182.671 108.744 183.075 108.592C183.394 108.471 183.737 108.424 184.076 108.454C184.378 108.495 184.672 108.58 184.947 108.708C184.888 108.651 184.821 108.602 184.749 108.564C184.535 108.451 184.303 108.379 184.063 108.352C183.705 108.304 183.34 108.341 183 108.461C182.557 108.608 182.177 108.9 181.923 109.291L182.074 109.325C182.042 109.161 181.964 109.009 181.848 108.887C181.733 108.766 181.585 108.68 181.422 108.64C181.258 108.59 181.086 108.575 180.916 108.595C180.746 108.615 180.582 108.67 180.435 108.756C180.155 108.922 179.903 109.13 179.687 109.373C179.579 109.483 179.478 109.6 179.385 109.723C179.331 109.786 179.291 109.859 179.266 109.938C179.241 110.017 179.233 110.1 179.241 110.182V110.353L179.358 110.23C179.449 110.129 179.503 110 179.512 109.865C179.52 109.729 179.483 109.595 179.406 109.483C179.348 109.38 179.267 109.292 179.169 109.225C179.072 109.159 178.96 109.115 178.843 109.099C178.479 109.063 178.113 109.124 177.78 109.277C177.569 109.362 177.351 109.428 177.129 109.476C177.026 109.558 176.95 109.551 176.95 109.565Z" fill="#455A64"/>
<path d="M184.509 103.8C184.662 103.755 184.822 103.731 184.982 103.731C185.16 103.738 185.334 103.787 185.489 103.875C185.687 103.988 185.842 104.164 185.928 104.375V104.465L186.011 104.41C186.133 104.35 186.272 104.334 186.405 104.366C186.537 104.397 186.655 104.473 186.738 104.581C186.925 104.86 187.032 105.185 187.046 105.52L187.094 105.87L187.224 105.534V105.479C187.273 105.376 187.345 105.285 187.434 105.214C187.523 105.143 187.627 105.093 187.739 105.068C187.954 105.011 188.183 105.04 188.377 105.15C188.541 105.249 188.682 105.381 188.792 105.538C188.902 105.695 188.978 105.874 189.015 106.062C189.058 106.325 189.058 106.594 189.015 106.857C189.004 106.957 189.004 107.059 189.015 107.159C189.015 107.159 189.069 107.063 189.111 106.871C189.174 106.597 189.186 106.313 189.145 106.034C189.113 105.822 189.035 105.62 188.916 105.441C188.798 105.262 188.642 105.112 188.459 104.999C188.343 104.934 188.214 104.892 188.081 104.878C187.948 104.863 187.814 104.875 187.686 104.914C187.558 104.952 187.439 105.016 187.336 105.101C187.233 105.187 187.149 105.292 187.087 105.411V105.479H187.259C187.242 105.109 187.118 104.752 186.902 104.451C186.791 104.314 186.635 104.222 186.461 104.189C186.288 104.156 186.109 104.186 185.956 104.273H186.072C185.977 104.065 185.823 103.89 185.629 103.768C185.435 103.646 185.21 103.583 184.982 103.587C184.856 103.591 184.733 103.619 184.618 103.669C184.57 103.765 184.509 103.793 184.509 103.8Z" fill="#455A64"/>
<path d="M193.534 106.837C193.611 106.815 193.682 106.775 193.74 106.72C193.916 106.581 194.057 106.402 194.151 106.199C194.305 105.899 194.356 105.557 194.295 105.225C194.245 105.063 194.245 104.888 194.295 104.725C194.357 104.574 194.542 104.437 194.618 104.204C194.68 103.985 194.658 103.75 194.555 103.547C194.452 103.343 194.276 103.186 194.062 103.107L194.103 103.231C194.342 102.858 194.492 102.436 194.542 101.997C194.581 101.832 194.581 101.661 194.542 101.496C194.542 101.496 194.542 101.681 194.46 101.983C194.384 102.397 194.222 102.792 193.987 103.141L193.925 103.231L194.028 103.265C194.197 103.332 194.335 103.46 194.416 103.623C194.497 103.786 194.515 103.974 194.467 104.149C194.419 104.321 194.254 104.444 194.158 104.656C194.089 104.852 194.089 105.065 194.158 105.26C194.214 105.56 194.18 105.87 194.062 106.151C193.929 106.409 193.75 106.641 193.534 106.837Z" fill="#455A64"/>
<path d="M196.182 107.708C196.232 107.717 196.283 107.717 196.333 107.708C196.47 107.667 196.603 107.615 196.73 107.55C197.193 107.31 197.566 106.928 197.794 106.46L197.677 106.494C198.019 106.725 198.438 106.811 198.843 106.734C199.064 106.691 199.275 106.602 199.46 106.474C199.674 106.341 199.827 106.129 199.885 105.884C199.885 105.774 199.885 105.685 199.885 105.617C199.886 105.548 199.907 105.481 199.947 105.425C200.04 105.306 200.157 105.208 200.29 105.137C200.436 105.056 200.568 104.952 200.681 104.828C200.743 104.764 200.786 104.684 200.806 104.597C200.827 104.511 200.824 104.42 200.798 104.335L200.715 104.438C201.09 104.474 201.465 104.374 201.771 104.156C202.009 103.997 202.202 103.78 202.334 103.526C202.418 103.363 202.472 103.187 202.492 103.005C202.506 102.939 202.506 102.871 202.492 102.806C202.456 103.046 202.38 103.278 202.265 103.491C202.127 103.722 201.936 103.916 201.71 104.06C201.426 104.246 201.087 104.328 200.75 104.294H200.619L200.66 104.417C200.674 104.476 200.672 104.538 200.655 104.597C200.639 104.656 200.607 104.709 200.564 104.753C200.461 104.858 200.343 104.948 200.215 105.02C200.056 105.103 199.917 105.22 199.81 105.363C199.754 105.447 199.721 105.544 199.714 105.644C199.72 105.726 199.72 105.809 199.714 105.891C199.658 106.085 199.534 106.253 199.364 106.364C199.201 106.481 199.013 106.56 198.815 106.597C198.638 106.636 198.454 106.639 198.275 106.606C198.096 106.573 197.925 106.505 197.773 106.405L197.698 106.35L197.663 106.432C197.457 106.881 197.12 107.256 196.696 107.509C196.381 107.639 196.175 107.687 196.182 107.708Z" fill="#455A64"/>
<path d="M211.318 109.051C211.318 109.051 211.318 109.051 211.318 108.989C211.327 108.928 211.327 108.866 211.318 108.804C211.272 108.559 211.176 108.326 211.037 108.119C210.829 107.808 210.58 107.527 210.296 107.282C210.128 107.123 209.947 106.979 209.755 106.85C209.643 106.78 209.52 106.732 209.391 106.706C209.315 106.691 209.237 106.695 209.163 106.716C209.089 106.738 209.022 106.777 208.966 106.83L209.096 106.871C209.053 106.64 208.942 106.427 208.777 106.258C208.613 106.09 208.403 105.974 208.172 105.925C207.942 105.876 207.703 105.896 207.484 105.982C207.265 106.069 207.077 106.218 206.943 106.412H207.1C207.064 106.287 206.999 106.173 206.911 106.078C206.823 105.983 206.714 105.909 206.593 105.863C206.466 105.818 206.329 105.806 206.196 105.827C206.063 105.849 205.938 105.904 205.832 105.987C205.711 106.077 205.62 106.201 205.571 106.343H205.742C205.723 106.265 205.685 106.193 205.633 106.133C205.581 106.072 205.515 106.024 205.441 105.993C205.306 105.931 205.154 105.914 205.009 105.945C204.75 106.022 204.514 106.161 204.323 106.35H204.439C204.192 106.138 203.873 106.03 203.548 106.048C203.251 106.058 202.961 106.14 202.704 106.288C202.279 106.564 201.903 106.909 201.593 107.31L201.703 107.365C201.711 107.31 201.705 107.255 201.684 107.204C201.664 107.154 201.63 107.11 201.586 107.077C201.51 107.019 201.42 106.984 201.326 106.974C201.163 106.951 200.997 106.973 200.845 107.035C200.618 107.14 200.407 107.279 200.221 107.447C200.101 107.546 199.993 107.658 199.899 107.783L199.81 107.92C199.81 107.92 199.954 107.748 200.262 107.502C200.453 107.351 200.663 107.227 200.887 107.131C201.02 107.083 201.164 107.069 201.305 107.09C201.456 107.09 201.6 107.2 201.572 107.344L201.538 107.563L201.689 107.399C201.998 107.018 202.366 106.689 202.78 106.425C203.014 106.292 203.278 106.219 203.548 106.213C203.831 106.201 204.108 106.296 204.323 106.48L204.378 106.528L204.439 106.48C204.608 106.311 204.815 106.187 205.043 106.117C205.147 106.089 205.258 106.102 205.355 106.151C205.451 106.2 205.525 106.283 205.564 106.384L205.626 106.693L205.736 106.398C205.777 106.289 205.849 106.194 205.941 106.124C206.023 106.058 206.12 106.014 206.223 105.996C206.326 105.978 206.432 105.987 206.531 106.021C206.625 106.059 206.71 106.117 206.779 106.192C206.847 106.267 206.899 106.356 206.929 106.453L206.977 106.638L207.087 106.48C207.208 106.307 207.38 106.175 207.578 106.101C207.776 106.028 207.993 106.017 208.198 106.069C208.383 106.121 208.55 106.222 208.682 106.362C208.814 106.503 208.905 106.676 208.945 106.864V107.008L209.048 106.905C209.199 106.741 209.467 106.823 209.659 106.905C209.847 107.023 210.024 107.158 210.187 107.31C210.47 107.538 210.721 107.803 210.934 108.098C211.131 108.384 211.262 108.709 211.318 109.051Z" fill="#455A64"/>
<path d="M211.798 114.371C211.798 114.371 211.798 114.33 211.853 114.234C211.895 114.104 211.93 113.971 211.956 113.836C212.002 113.608 211.985 113.371 211.908 113.151C211.857 113.015 211.775 112.893 211.668 112.794C211.54 112.678 211.374 112.615 211.202 112.616L211.263 112.698C211.311 112.549 211.317 112.389 211.279 112.236C211.242 112.084 211.163 111.945 211.051 111.835C210.918 111.712 210.75 111.634 210.57 111.612C210.39 111.589 210.208 111.624 210.049 111.711L210.166 111.814C210.21 111.677 210.209 111.53 210.165 111.394C210.121 111.257 210.035 111.138 209.919 111.053C209.798 110.972 209.66 110.918 209.515 110.895C209.371 110.873 209.223 110.882 209.082 110.923C208.957 110.968 208.829 111.005 208.698 111.032C208.641 111.037 208.584 111.027 208.533 111.003C208.481 110.979 208.436 110.942 208.403 110.895C208.308 110.778 208.194 110.676 208.067 110.594C207.928 110.507 207.764 110.468 207.601 110.484C207.284 110.534 206.974 110.616 206.675 110.731C206.548 110.785 206.412 110.813 206.274 110.813C206.136 110.813 205.999 110.785 205.873 110.731C205.763 110.669 205.66 110.559 205.537 110.47C205.419 110.395 205.285 110.348 205.146 110.333C205.001 110.316 204.855 110.333 204.718 110.382C204.582 110.431 204.458 110.51 204.357 110.614L204.487 110.69C204.525 110.544 204.514 110.39 204.456 110.251C204.398 110.112 204.295 109.997 204.165 109.922C203.943 109.787 203.679 109.741 203.424 109.792C203.038 109.881 202.671 110.039 202.34 110.258C202.128 110.395 201.928 110.551 201.744 110.724C201.62 110.847 201.559 110.916 201.565 110.923C201.572 110.93 201.84 110.662 202.388 110.34C202.712 110.137 203.07 109.995 203.445 109.922C203.665 109.88 203.894 109.924 204.083 110.045C204.182 110.106 204.26 110.196 204.305 110.303C204.351 110.41 204.362 110.528 204.336 110.642L204.233 110.964L204.467 110.717C204.557 110.631 204.665 110.566 204.784 110.528C204.903 110.49 205.029 110.48 205.152 110.498C205.279 110.515 205.4 110.565 205.502 110.642C205.612 110.739 205.726 110.83 205.845 110.916C205.991 110.99 206.154 111.026 206.318 111.019C206.479 111.009 206.637 110.982 206.792 110.936C207.075 110.826 207.369 110.745 207.669 110.697C207.799 110.683 207.928 110.712 208.04 110.779C208.152 110.857 208.251 110.952 208.335 111.06C208.389 111.124 208.458 111.174 208.535 111.206C208.613 111.239 208.697 111.252 208.781 111.245C208.918 111.216 209.053 111.177 209.185 111.128C209.3 111.094 209.42 111.085 209.539 111.101C209.657 111.118 209.77 111.16 209.871 111.224C209.959 111.285 210.026 111.372 210.062 111.473C210.098 111.574 210.1 111.684 210.07 111.787L209.988 112.006L210.187 111.883C210.316 111.811 210.465 111.781 210.612 111.797C210.759 111.813 210.898 111.874 211.01 111.972C211.097 112.061 211.16 112.17 211.193 112.29C211.227 112.41 211.23 112.536 211.202 112.657V112.746H211.291C211.425 112.753 211.554 112.798 211.663 112.877C211.771 112.957 211.854 113.066 211.901 113.192C211.975 113.391 211.999 113.605 211.97 113.816C211.839 114.172 211.785 114.371 211.798 114.371Z" fill="#455A64"/>
<path d="M215.81 123.222C215.865 123.194 215.916 123.16 215.961 123.119C216.088 122.998 216.191 122.853 216.263 122.694C216.375 122.437 216.402 122.151 216.339 121.878C216.296 121.7 216.218 121.533 216.11 121.386C216.001 121.239 215.865 121.114 215.708 121.021L215.742 121.11C215.876 120.798 215.943 120.462 215.941 120.123C215.929 119.929 215.859 119.743 215.742 119.588C215.681 119.502 215.602 119.43 215.511 119.377C215.42 119.324 215.319 119.29 215.214 119.28L215.276 119.424C215.39 119.283 215.466 119.114 215.495 118.935C215.524 118.756 215.505 118.572 215.44 118.402C215.377 118.205 215.261 118.03 215.104 117.895C214.949 117.765 214.757 117.686 214.555 117.669C214.37 117.669 214.267 117.586 214.219 117.422C214.157 117.25 214.067 117.09 213.952 116.949C213.725 116.708 213.435 116.534 213.115 116.448L212.333 116.174C211.95 116.029 211.542 115.966 211.133 115.989C211.023 115.997 210.915 116.017 210.811 116.051L210.708 116.099C210.708 116.099 210.859 116.057 211.14 116.057C211.536 116.062 211.927 116.144 212.292 116.297L213.06 116.592C213.354 116.674 213.62 116.835 213.828 117.058C213.93 117.184 214.007 117.329 214.055 117.483C214.087 117.584 214.15 117.672 214.233 117.737C214.319 117.794 214.418 117.829 214.521 117.84C214.68 117.862 214.831 117.925 214.958 118.023C215.085 118.121 215.185 118.25 215.247 118.398C215.31 118.546 215.332 118.707 215.313 118.867C215.294 119.026 215.234 119.178 215.138 119.307L215.022 119.444H215.2C215.362 119.47 215.51 119.554 215.616 119.68C215.721 119.806 215.778 119.965 215.776 120.13C215.781 120.447 215.72 120.762 215.598 121.055V121.117H215.646C215.79 121.198 215.916 121.308 216.017 121.438C216.118 121.569 216.193 121.718 216.236 121.878C216.304 122.125 216.289 122.387 216.195 122.625C216.105 122.846 215.975 123.048 215.81 123.222Z" fill="#455A64"/>
<path d="M196.154 113.905C196.328 113.818 196.482 113.697 196.607 113.548C196.761 113.399 196.879 113.216 196.95 113.014C196.999 112.885 197.021 112.748 197.012 112.611C197.004 112.474 196.966 112.34 196.902 112.218C196.869 112.16 196.827 112.107 196.778 112.061V112.191C196.87 112.103 196.941 111.996 196.986 111.878C197.031 111.759 197.049 111.632 197.039 111.506C197.02 111.3 196.921 111.111 196.765 110.978C196.497 110.758 196.264 110.793 196.271 110.813C196.422 110.873 196.561 110.959 196.682 111.067C196.751 111.131 196.805 111.208 196.843 111.294C196.88 111.381 196.899 111.473 196.899 111.567C196.899 111.661 196.88 111.754 196.843 111.84C196.805 111.926 196.751 112.004 196.682 112.068L196.621 112.122L196.682 112.198C196.719 112.231 196.75 112.27 196.771 112.314C196.827 112.419 196.86 112.534 196.868 112.652C196.876 112.77 196.86 112.889 196.819 113C196.757 113.182 196.662 113.352 196.538 113.5C196.291 113.761 196.134 113.884 196.154 113.905Z" fill="#455A64"/>
<path d="M191.614 113.213C191.453 113.05 191.347 112.842 191.312 112.616C191.29 112.49 191.301 112.361 191.344 112.241C191.388 112.12 191.462 112.013 191.559 111.931C191.676 111.832 191.82 111.77 191.972 111.75C192.123 111.731 192.278 111.755 192.416 111.821L192.553 111.889V111.739C192.535 111.55 192.551 111.359 192.601 111.176C192.626 111.085 192.669 110.999 192.728 110.925C192.787 110.85 192.86 110.789 192.944 110.745C193.205 110.621 193.589 110.793 193.582 111.039H193.754C193.705 110.727 193.766 110.408 193.926 110.136C194.086 109.864 194.335 109.655 194.632 109.545C194.878 109.471 195.137 109.445 195.393 109.469C195.33 109.432 195.26 109.409 195.187 109.401C194.99 109.373 194.789 109.387 194.597 109.442C194.299 109.525 194.038 109.706 193.857 109.956C193.739 110.114 193.654 110.293 193.607 110.484C193.56 110.674 193.552 110.873 193.582 111.067H193.754C193.75 110.969 193.719 110.874 193.663 110.794C193.607 110.714 193.529 110.651 193.438 110.614C193.349 110.577 193.254 110.558 193.157 110.558C193.06 110.558 192.965 110.577 192.876 110.614C192.767 110.668 192.671 110.745 192.595 110.839C192.519 110.934 192.465 111.045 192.437 111.163C192.374 111.367 192.358 111.582 192.389 111.793L192.505 111.711C192.337 111.633 192.15 111.607 191.967 111.635C191.784 111.663 191.613 111.744 191.477 111.869C191.371 111.965 191.292 112.087 191.246 112.223C191.201 112.358 191.19 112.503 191.216 112.644C191.247 112.825 191.333 112.993 191.463 113.123C191.545 113.192 191.607 113.219 191.614 113.213Z" fill="#455A64"/>
<path d="M205.303 120.664C205.386 120.575 208.918 117.812 210.413 121.946C211.908 126.08 207.457 126.745 207.409 126.608C207.361 126.471 205.303 120.664 205.303 120.664Z" fill="#C78976"/>
<path d="M208.102 124.586C208.102 124.586 208.191 124.586 208.335 124.62C208.532 124.634 208.727 124.57 208.877 124.442C209.082 124.175 209.212 123.858 209.255 123.525C209.297 123.191 209.249 122.852 209.117 122.543C208.999 122.185 208.805 121.857 208.547 121.583C208.459 121.469 208.346 121.378 208.216 121.316C208.086 121.254 207.944 121.223 207.8 121.226C207.71 121.237 207.626 121.278 207.562 121.343C207.498 121.408 207.459 121.492 207.45 121.583C207.45 121.713 207.491 121.788 207.45 121.802C207.409 121.816 207.34 121.802 207.313 121.583C207.298 121.473 207.322 121.361 207.381 121.267C207.463 121.14 207.591 121.049 207.738 121.014C207.921 120.987 208.107 121.007 208.28 121.072C208.452 121.136 208.606 121.244 208.726 121.384C209.037 121.678 209.272 122.042 209.412 122.447C209.564 122.808 209.608 123.205 209.536 123.591C209.464 123.976 209.28 124.332 209.007 124.613C208.908 124.682 208.796 124.73 208.678 124.752C208.56 124.775 208.438 124.772 208.321 124.743C208.143 124.682 208.088 124.599 208.102 124.586Z" fill="#8B5D54"/>
<path opacity="0.3" d="M196.339 183.858C196.339 183.858 204.57 184.839 210.056 181.212C215.543 177.586 222.402 163.518 222.402 163.518C222.402 163.518 208.685 179.389 195.654 181.438L196.339 183.858Z" fill="black"/>
<path d="M211.949 149.999C207.265 156.093 198.438 167.604 198.438 167.604L165.771 172.402L167.479 183.22L199.933 181.363C204.717 180.932 209.157 178.7 212.354 175.117C216.325 170.661 221.73 164.491 225.104 160.248C225.824 159.337 226.345 158.287 226.636 157.164C226.926 156.041 226.978 154.869 226.79 153.725C226.601 152.58 226.176 151.487 225.541 150.516C224.906 149.545 224.075 148.718 223.101 148.086C221.342 146.945 219.218 146.508 217.151 146.863C215.084 147.217 213.227 148.337 211.949 149.999Z" fill="#DC2D22"/>
<path d="M217.196 143.822C217.196 143.822 217.093 143.98 216.874 144.268L215.9 145.543L212.148 150.342L198.555 167.673L198.52 167.721H198.459L165.799 172.519L165.949 172.314C166.272 174.302 166.635 176.427 166.965 178.559C167.218 180.15 167.479 181.733 167.733 183.289L167.541 183.139L202.128 180.993C204.241 180.515 206.257 179.677 208.088 178.518C209.74 177.48 211.229 176.202 212.505 174.727L218.746 167.542L222.758 162.949L223.821 161.749C224.061 161.482 224.198 161.352 224.198 161.352C224.198 161.352 224.089 161.503 223.856 161.784L222.827 163.011L218.863 167.7C217.141 169.702 215.063 172.136 212.69 174.933C209.963 178.134 206.28 180.376 202.183 181.329L167.602 183.536H167.438V183.372C167.184 181.816 166.93 180.232 166.67 178.641C166.327 176.503 165.984 174.391 165.655 172.403V172.225H165.833L198.507 167.467L198.411 167.522L212.128 150.266L215.941 145.468C216.373 144.926 216.716 144.515 216.949 144.22C217.182 143.925 217.196 143.822 217.196 143.822Z" fill="#263238"/>
<path d="M221.236 180.698C221.128 180.952 220.993 181.194 220.831 181.418C220.55 181.87 220.145 182.494 219.542 183.248C216.506 187.174 212.586 190.328 208.102 192.455C207.431 192.781 206.745 193.071 206.044 193.326C205.795 193.439 205.532 193.52 205.262 193.566C205.262 193.511 206.325 193.086 208.006 192.195C210.193 191.083 212.262 189.751 214.178 188.218C216.082 186.676 217.826 184.947 219.384 183.056C220.536 181.63 221.181 180.664 221.236 180.698Z" fill="#263238"/>
<path d="M224.233 185.552C224.281 185.634 221.373 187.375 217.745 189.439C214.117 191.502 211.126 193.106 211.078 193.024C211.03 192.942 213.931 191.194 217.566 189.13C221.201 187.067 224.185 185.463 224.233 185.552Z" fill="#263238"/>
<path d="M191.628 166.322C191.526 166.103 191.448 165.873 191.395 165.637C191.244 165.116 191.059 164.478 190.839 163.738C190.366 162.044 189.755 159.858 189.076 157.444C188.397 155.031 187.801 152.755 187.382 151.13L186.909 149.211C186.842 148.988 186.798 148.758 186.779 148.525C186.898 148.74 186.986 148.971 187.039 149.211C187.19 149.657 187.389 150.301 187.629 151.103C188.102 152.707 188.74 154.928 189.419 157.396C190.098 159.864 190.681 162.092 191.086 163.717C191.347 164.567 191.528 165.439 191.628 166.322Z" fill="#263238"/>
<g opacity="0.3">
<path opacity="0.3" d="M208.479 195.712C211.695 195.376 214.974 195.293 217.971 194.08C220.968 192.867 223.732 190.735 225.015 187.766C219.742 190.886 214.21 193.545 208.479 195.712Z" fill="black"/>
</g>
<path d="M114.669 76.8577C114.594 77.1 114.485 77.3307 114.347 77.5432C113.944 78.2388 113.741 79.0322 113.762 79.8357C113.783 80.6391 114.025 81.4212 114.463 82.0953L116.027 84.481L116.212 88.1555L124.216 90.0271L123.846 83.5555C123.846 83.5555 125.162 80.8133 125.176 78.976C125.19 77.1387 124.703 75.1712 124.092 75.0889L123.304 74.9792C122.956 74.3722 122.389 73.9209 121.719 73.7178C121.719 73.7178 121.239 71.3321 120.416 71.1264C119.593 70.9208 118.859 71.764 118.859 71.764C118.859 71.764 117.838 69.817 116.973 69.9404C116.479 70.0103 116.027 70.2574 115.701 70.6358C115.376 71.0142 115.199 71.498 115.204 71.9971L114.676 77.0428L114.669 76.8577Z" fill="#FFD6BD"/>
<path d="M96.096 1.37836C95.9274 0.876923 95.5691 0.461443 95.0977 0.220999C94.6263 -0.0194441 94.0795 -0.0657097 93.5744 0.092122C93.0693 0.249954 92.6461 0.599318 92.3957 1.06531C92.1452 1.53131 92.0874 2.07683 92.2346 2.58493L188.329 308.642L192.533 308.814L96.096 1.37836Z" fill="#E0E0E0"/>
<path d="M98.5582 5.44385C98.5582 5.44385 73.0172 22.85 53.2923 24.4199C33.5673 25.9898 11.147 27.4843 -0.608398 40.6743C-0.608398 40.6743 42.8126 47.4818 45.2542 53.2542C45.2542 53.2542 19.3017 73.8618 15.3718 85.6876C15.3718 85.6876 34.0406 79.072 37.895 77.461C50.6929 72.0383 75.5754 74.4514 85.0538 71.0374C95.5473 67.2463 105.485 56.5997 114.127 54.9475L98.5582 5.44385Z" fill="#FF725E"/>
<path opacity="0.64" d="M68.9981 27.635L77.0705 35.7451L88.3321 33.7021L83.1059 43.8826L88.531 53.9533L77.2351 52.1366L69.3273 60.4044L67.5646 49.0996L57.2495 44.1362L67.4618 38.974L68.9981 27.635Z" fill="#0164A8"/>
<path d="M90.712 23.2134C90.6743 23.3726 90.6239 23.5285 90.5611 23.6796L90.0605 24.9958C89.8479 25.5648 89.5667 26.2641 89.21 27.0525C88.8534 27.8409 88.4762 28.7595 87.9755 29.7261C87.4748 30.6927 86.9673 31.7828 86.3295 32.9002C85.6916 34.0177 85.0127 35.2037 84.2719 36.4445C82.5916 39.0959 80.7597 41.6481 78.7852 44.0884C76.7953 46.5118 74.6656 48.8169 72.4068 50.9919C71.3437 51.9722 70.3492 52.9183 69.3616 53.7341C68.374 54.5499 67.455 55.3177 66.6182 55.9896C65.7815 56.6614 64.9516 57.2304 64.2452 57.7377C63.5388 58.245 62.9215 58.6632 62.4071 58.9923L61.2206 59.7464C61.0857 59.8398 60.9435 59.9224 60.7954 59.9932C60.9113 59.8761 61.0401 59.7726 61.1795 59.6847L62.3249 58.9169C62.8255 58.5741 63.4359 58.1491 64.1218 57.6212C64.8076 57.0933 65.6169 56.5312 66.4536 55.8319C67.2904 55.1326 68.23 54.406 69.197 53.549C70.1641 52.6921 71.1654 51.7734 72.2148 50.8068C74.4462 48.5999 76.5549 46.2724 78.5314 43.8348C80.497 41.4043 82.3287 38.8686 84.0182 36.2388C84.7726 35.0117 85.4996 33.8531 86.0757 32.7288C86.6518 31.6045 87.2554 30.5556 87.7492 29.589C88.243 28.6224 88.6545 27.7243 89.0249 26.9428C89.3952 26.1613 89.7107 25.4757 89.9302 24.8861L90.4926 23.5973C90.5544 23.4632 90.6279 23.3347 90.712 23.2134Z" fill="#263238"/>
<path d="M105.177 49.737C105.108 49.6195 105.057 49.4924 105.026 49.36L104.655 48.2699C104.326 47.2622 103.908 45.8911 103.373 44.2458C102.31 40.818 100.863 36.1288 99.299 30.9186C97.7353 25.7085 96.3567 20.9713 95.4103 17.5298C94.9302 15.8159 94.5598 14.4174 94.3198 13.4508C94.2032 12.9641 94.1209 12.5801 94.0797 12.3265C94.0565 12.2275 94.0427 12.1265 94.0386 12.0249C94.0386 12.0249 94.0386 11.9357 94.0797 11.9563C94.0249 11.8877 94.0797 12.0249 94.1346 12.2785L94.4432 13.3822L95.6366 17.4338C96.6791 20.8616 98.0851 25.5919 99.6419 30.7884C101.199 35.9849 102.584 40.6877 103.62 44.1498C104.1 45.8225 104.498 47.2005 104.793 48.2082C104.916 48.6538 105.012 49.024 105.094 49.312C105.134 49.451 105.162 49.5932 105.177 49.737Z" fill="#263238"/>
<g opacity="0.3">
<path opacity="0.3" d="M96.2332 18.771C96.5213 25.0438 96.8162 31.3509 98.2222 37.466C99.6282 43.5811 102.207 49.5659 106.548 54.118C102.625 42.4819 99.1823 30.6996 96.2195 18.771" fill="black"/>
</g>
<path d="M148.79 169.291C148.975 169.291 152.054 169.291 153.885 169.291C154.748 169.29 155.581 169.607 156.224 170.182L160.106 173.671L165.771 173.027L167.349 182.385L159.509 182.09C157.735 182.606 155.908 182.921 154.064 183.029C152.006 183.029 149.77 182.399 149.695 181.713C149.62 181.027 149.592 180.815 149.592 180.815C148.921 180.405 148.431 179.756 148.22 178.998C148.22 178.998 145.532 178.395 145.319 177.456C145.107 176.516 146.081 175.714 146.081 175.714C146.081 175.714 143.92 174.522 144.071 173.541C144.144 173.228 144.279 172.934 144.469 172.675C144.659 172.415 144.899 172.197 145.175 172.033L149.421 171.464L148.79 169.291Z" fill="#C78976"/>
<path d="M132.755 115.728L127.35 113.541C127.101 113.977 127.02 114.489 127.123 114.98C127.225 115.471 127.504 115.908 127.906 116.208C128.869 117.059 129.95 117.768 131.115 118.313C131.115 118.313 131.733 121.055 133.118 122.426C134.503 123.797 137.631 121.617 137.631 121.617C137.631 121.617 137.631 117.545 132.755 115.728Z" fill="#C78976"/>
<path d="M140.868 133.299C140.223 132.394 139.579 132.929 139.579 132.929C139.579 132.929 140.347 131.016 139.421 130.145C139.14 129.878 138.982 129.734 138.9 129.665C138.831 129.384 138.426 127.849 137.391 127.424C137.391 127.424 137.391 125.621 136.623 125.326C135.409 124.866 134.051 126.251 134.051 126.251L130.923 130.851L126.273 138.564L128.866 146.79L136.245 142.204L137.713 140.778C137.713 140.778 141.622 134.327 140.868 133.299Z" fill="#FFD6BD"/>
<path d="M137.453 127.349C137.535 127.397 137.309 127.925 136.945 128.514C136.582 129.104 136.218 129.542 136.129 129.488C136.04 129.433 136.273 128.919 136.643 128.322C137.014 127.726 137.37 127.294 137.453 127.349Z" fill="#FFB394"/>
<path d="M138.893 129.467C138.868 130.122 138.627 130.751 138.207 131.256C137.59 132.147 136.835 132.593 136.767 132.511C136.698 132.428 137.343 131.887 137.912 131.05C138.481 130.214 138.79 129.432 138.893 129.467Z" fill="#FFB394"/>
<path d="M139.544 132.634C139.627 132.675 139.476 133.21 139.058 133.744C138.639 134.279 138.159 134.553 138.104 134.478C138.049 134.403 138.392 134.019 138.79 133.525C139.188 133.031 139.448 132.593 139.544 132.634Z" fill="#FFB394"/>
<path d="M125.423 122.892C126.309 123.95 127.432 124.784 128.701 125.326C129.202 125.582 129.77 125.677 130.327 125.6C130.602 125.55 130.85 125.406 131.029 125.192C131.209 124.977 131.307 124.707 131.307 124.428C131.208 124.019 130.964 123.659 130.622 123.413L128.173 121.055C128.436 121.495 128.764 121.893 129.147 122.234C129.338 122.407 129.565 122.535 129.812 122.61C130.059 122.684 130.319 122.703 130.574 122.666C130.826 122.616 131.052 122.478 131.213 122.278C131.373 122.077 131.458 121.826 131.451 121.569C131.379 121.257 131.228 120.969 131.012 120.733L127.823 116.695" fill="#C78976"/>
<path d="M131.287 124.73C131.287 124.73 131.328 124.853 131.246 125.038C131.114 125.298 130.906 125.511 130.649 125.648C130.277 125.862 129.857 125.977 129.428 125.984C128.906 125.967 128.398 125.813 127.954 125.539C126.816 124.924 125.904 123.963 125.347 122.796C126.168 123.724 127.104 124.545 128.132 125.237C128.525 125.482 128.973 125.628 129.435 125.662C129.812 125.671 130.185 125.591 130.526 125.429C130.849 125.285 131.116 125.039 131.287 124.73Z" fill="#8B5D54"/>
<path d="M131.424 121.988C131.424 121.988 131.424 122.104 131.314 122.276C131.154 122.512 130.908 122.676 130.628 122.735C130.16 122.799 129.684 122.765 129.23 122.637C128.776 122.508 128.353 122.287 127.988 121.988C127.295 121.394 126.742 120.654 126.369 119.821C126.175 119.503 126.04 119.152 125.971 118.786C126.019 118.786 126.239 119.122 126.589 119.705C127.009 120.458 127.554 121.135 128.2 121.707C128.869 122.233 129.703 122.502 130.553 122.468C131.198 122.399 131.369 121.933 131.424 121.988Z" fill="#8B5D54"/>
<path d="M130.498 125.58C130.498 125.58 130.635 125.58 130.807 125.744C131.046 125.972 131.194 126.279 131.225 126.608C131.239 126.858 131.186 127.107 131.071 127.33C130.957 127.553 130.785 127.742 130.574 127.876C130.307 128.017 130.012 128.094 129.711 128.101C129.41 128.108 129.111 128.045 128.838 127.917C127.877 127.555 127.025 126.954 126.362 126.169C126.064 125.868 125.843 125.498 125.718 125.093C125.766 125.059 126.02 125.463 126.548 125.998C127.227 126.695 128.051 127.236 128.962 127.581C129.186 127.688 129.43 127.744 129.679 127.744C129.927 127.744 130.172 127.688 130.395 127.581C130.566 127.479 130.708 127.336 130.808 127.165C130.909 126.993 130.965 126.8 130.971 126.601C130.966 126.321 130.873 126.05 130.704 125.826C130.58 125.676 130.484 125.607 130.498 125.58Z" fill="#8B5D54"/>
<path d="M134.181 122.886C133.863 122.858 133.554 122.767 133.271 122.619C132.989 122.47 132.739 122.268 132.535 122.022C132.062 121.517 131.712 120.909 131.513 120.247C131.39 119.864 131.3 119.472 131.246 119.074C131.224 118.893 131.166 118.718 131.074 118.56C130.964 118.419 130.813 118.314 130.642 118.258C129.871 117.943 129.141 117.536 128.468 117.045C127.923 116.611 127.506 116.038 127.261 115.386C127.074 114.955 127.021 114.477 127.11 114.015C127.192 113.693 127.323 113.549 127.329 113.562C127.336 113.576 127.281 113.734 127.247 114.042C127.216 114.475 127.301 114.908 127.494 115.297C127.754 115.887 128.16 116.402 128.674 116.791C129.333 117.251 130.041 117.635 130.786 117.936C131.022 118.021 131.227 118.174 131.376 118.375C131.487 118.588 131.555 118.821 131.575 119.061C131.619 119.441 131.695 119.817 131.801 120.185C131.974 120.81 132.28 121.39 132.7 121.885C133.123 122.313 133.626 122.653 134.181 122.886Z" fill="#8B5D54"/>
<path d="M121.328 74.2867C121.489 74.8834 121.568 75.4992 121.562 76.1171C121.596 76.8117 121.512 77.507 121.315 78.1738C121.201 78.5782 120.999 78.9527 120.725 79.2707C120.559 79.4457 120.347 79.5714 120.114 79.634C119.986 79.6673 119.853 79.6742 119.722 79.6542C119.591 79.6341 119.465 79.5876 119.353 79.5175C118.992 79.2154 118.749 78.7953 118.667 78.3315C118.571 77.9293 118.496 77.5385 118.441 77.1592C118.338 76.4947 118.29 75.8229 118.297 75.1505C118.261 74.5304 118.333 73.9089 118.509 73.3132C118.564 73.3132 118.51 73.9988 118.551 75.1437C118.583 75.8008 118.654 76.4555 118.763 77.1043C118.832 77.4677 118.907 77.8516 119.01 78.2423C119.07 78.619 119.259 78.9631 119.545 79.2158C119.697 79.2949 119.871 79.319 120.039 79.284C120.206 79.249 120.357 79.1571 120.464 79.0239C120.708 78.7489 120.888 78.4235 120.992 78.071C121.189 77.4497 121.293 76.8029 121.301 76.1514C121.275 75.5298 121.284 74.9073 121.328 74.2867Z" fill="#FFB394"/>
<path d="M123.797 76.001C123.89 76.3261 123.918 76.6661 123.88 77.0019C123.887 77.8294 123.691 78.6461 123.31 79.3807C123.19 79.5948 123.04 79.791 122.865 79.9635C122.684 80.1483 122.437 80.2542 122.179 80.2582C121.969 80.2422 121.769 80.1647 121.603 80.0354C121.437 79.9062 121.313 79.7309 121.246 79.5316C121.109 79.2077 121.092 78.8454 121.198 78.5101C121.267 78.5101 121.26 78.9077 121.479 79.4287C121.538 79.5661 121.633 79.6852 121.753 79.7733C121.874 79.8614 122.016 79.9152 122.165 79.9292C122.474 79.9292 122.769 79.5864 122.988 79.2025C123.336 78.5112 123.548 77.7595 123.612 76.9882C123.622 76.6515 123.685 76.3185 123.797 76.001Z" fill="#FFB394"/>
<path d="M116.349 87.0239C118.53 85.6528 116.706 78.242 115.348 76.5007C116.836 74.9925 117.515 73.2992 116.459 71.4619C115.087 72.833 112.748 74.54 112.344 78.3174L112.769 81.2036L116.349 87.0239Z" fill="#FFD6BD"/>
<path d="M116.87 83.9667C116.981 83.3154 117.057 82.6586 117.097 81.9992C117.108 80.4129 116.579 78.87 115.595 77.6253C115.374 77.3417 115.128 77.0779 114.861 76.837L114.703 76.6861L114.881 76.5627C115.471 76.1369 115.943 75.5684 116.253 74.9106C116.505 74.3805 116.642 73.8037 116.658 73.2172C116.645 72.6757 116.583 72.1364 116.473 71.6062C116.566 71.7231 116.634 71.8587 116.672 72.0038C116.808 72.3944 116.882 72.8038 116.891 73.2172C116.907 73.8438 116.785 74.4663 116.534 75.0408C116.216 75.7624 115.712 76.3868 115.073 76.8507V76.5764C115.83 77.2561 116.424 78.0967 116.812 79.0364C117.2 79.9761 117.373 80.9909 117.316 82.006C117.294 82.5021 117.206 82.993 117.056 83.4662C117.028 83.6439 116.965 83.8142 116.87 83.9667Z" fill="#FFB394"/>
</svg>
