<svg width="174" height="142" viewBox="0 0 174 142" fill="none" xmlns="http://www.w3.org/2000/svg">
<path d="M156.142 29.9828H17.7327C14.5435 29.9828 11.9922 32.5297 11.9922 35.7134V127.913C11.9922 131.096 14.5435 133.643 17.7327 133.643H156.142C159.331 133.643 161.882 131.096 161.882 127.913V35.7134C161.882 32.5297 159.331 29.9828 156.142 29.9828Z" fill="#0164A8"/>
<path d="M155.886 36.0956H18.2422V124.474H155.886V36.0956Z" fill="white"/>
<path d="M174 130.969H0V136.318H174V130.969Z" fill="#F8F8F9"/>
<path d="M147.339 141.539H26.6613C21.9414 141.539 17.2214 140.902 12.629 139.629L0 136.318H174L161.371 139.629C156.779 140.902 152.059 141.539 147.339 141.539Z" fill="#E3E0E0"/>
<path d="M67.3555 130.969C67.3555 132.497 68.5036 133.643 70.0344 133.643H103.967C105.498 133.643 106.646 132.497 106.646 130.969H67.3555Z" fill="white"/>
<path d="M25.8958 43.991H28.1919C28.3195 43.991 28.4471 43.8636 28.4471 43.7363C28.4471 43.6089 28.3195 43.4816 28.1919 43.4816H25.8958C25.7682 43.4816 25.6406 43.6089 25.6406 43.7363C25.6406 43.8636 25.7682 43.991 25.8958 43.991Z" fill="#E3E0E0"/>
<path d="M29.2134 45.5191H35.209C35.3365 45.5191 35.4641 45.3918 35.4641 45.2645C35.4641 45.1371 35.3365 45.0098 35.209 45.0098H29.2134C29.0858 45.0098 28.9582 45.1371 28.9582 45.2645C28.8307 45.3918 28.9582 45.5191 29.2134 45.5191Z" fill="#E3E0E0"/>
<path d="M36.3562 45.5191H44.648C44.7755 45.5191 44.9031 45.3918 44.9031 45.2645C44.9031 45.1371 44.7755 45.0098 44.648 45.0098H36.4838C36.3562 45.0098 36.2286 45.1371 36.2286 45.2645C36.1011 45.3918 36.2286 45.5191 36.3562 45.5191Z" fill="#E3E0E0"/>
<path d="M45.9243 45.5191H50.7718C50.8994 45.5191 51.027 45.3918 51.027 45.2645C51.027 45.1371 50.8994 45.0098 50.7718 45.0098H45.9243C45.7968 45.0098 45.6692 45.1371 45.6692 45.2645C45.5416 45.3918 45.6692 45.5191 45.9243 45.5191Z" fill="#E3E0E0"/>
<path d="M47.2001 46.6652C47.2001 46.5379 47.0726 46.4105 46.945 46.4105H37.5051C37.3776 46.4105 37.25 46.5379 37.25 46.6652C37.25 46.7926 37.3776 46.9199 37.5051 46.9199H46.945C47.0726 46.9199 47.2001 46.7926 47.2001 46.6652Z" fill="#E3E0E0"/>
<path d="M47.582 46.6653C47.582 46.7926 47.7096 46.9199 47.8372 46.9199H52.0468C52.1744 46.9199 52.302 46.7926 52.302 46.6653C52.302 46.5379 52.1744 46.4106 52.0468 46.4106H47.8372C47.7096 46.2832 47.582 46.4106 47.582 46.6653Z" fill="#E3E0E0"/>
<path d="M41.9699 48.0661C41.9699 47.9387 41.8424 47.8114 41.7148 47.8114H37.5051C37.3776 47.8114 37.25 47.9387 37.25 48.0661C37.25 48.1934 37.3776 48.3208 37.5051 48.3208H41.7148C41.8424 48.3208 41.9699 48.1934 41.9699 48.0661Z" fill="#E3E0E0"/>
<path d="M43.1165 47.684C42.9889 47.684 42.8613 47.8113 42.8613 47.9387C42.8613 48.066 42.9889 48.1933 43.1165 48.1933H45.2851C45.4127 48.1933 45.5402 48.066 45.5402 47.9387C45.5402 47.8113 45.4127 47.684 45.2851 47.684H43.1165Z" fill="#E3E0E0"/>
<path d="M37.5051 49.2122C37.3776 49.2122 37.25 49.3395 37.25 49.4669C37.25 49.5942 37.3776 49.7215 37.5051 49.7215H41.5872C41.7148 49.7215 41.8424 49.5942 41.8424 49.4669C41.8424 49.3395 41.7148 49.2122 41.5872 49.2122H37.5051Z" fill="#E3E0E0"/>
<path d="M42.4797 49.7215H48.6029C48.7305 49.7215 48.858 49.5942 48.858 49.4669C48.858 49.3395 48.7305 49.2122 48.6029 49.2122H42.4797C42.3522 49.2122 42.2246 49.3395 42.2246 49.4669C42.2246 49.5942 42.3522 49.7215 42.4797 49.7215Z" fill="#E3E0E0"/>
<path d="M25.8958 52.6505H28.1919C28.3195 52.6505 28.4471 52.5232 28.4471 52.3958C28.4471 52.2685 28.3195 52.1411 28.1919 52.1411H25.8958C25.7682 52.1411 25.6406 52.2685 25.6406 52.3958C25.6406 52.5232 25.7682 52.6505 25.8958 52.6505Z" fill="#E3E0E0"/>
<path d="M29.2134 54.0514H35.209C35.3365 54.0514 35.4641 53.924 35.4641 53.7967C35.4641 53.6693 35.3365 53.542 35.209 53.542H29.2134C29.0858 53.542 28.9582 53.6693 28.9582 53.7967C28.8307 53.924 28.9582 54.0514 29.2134 54.0514Z" fill="#E3E0E0"/>
<path d="M36.3562 54.0514H44.648C44.7755 54.0514 44.9031 53.924 44.9031 53.7967C44.9031 53.6693 44.7755 53.542 44.648 53.542H36.4838C36.3562 53.542 36.2286 53.6693 36.2286 53.7967C36.1011 53.924 36.2286 54.0514 36.3562 54.0514Z" fill="#E3E0E0"/>
<path d="M29.2134 55.5796H38.6533C38.7808 55.5796 38.9084 55.4522 38.9084 55.3249C38.9084 55.1975 38.7808 55.0702 38.6533 55.0702H29.2134C29.0858 55.0702 28.9582 55.1975 28.9582 55.3249C28.8307 55.4522 28.9582 55.5796 29.2134 55.5796Z" fill="#E3E0E0"/>
<path d="M43.8835 55.5796C44.0111 55.5796 44.1386 55.4522 44.1386 55.3249C44.1386 55.1975 44.0111 55.0702 43.8835 55.0702H39.929C39.8014 55.0702 39.6738 55.1975 39.6738 55.3249C39.6738 55.4522 39.8014 55.5796 39.929 55.5796H43.8835Z" fill="#E3E0E0"/>
<path d="M51.9198 55.1976C51.9198 55.0702 51.7922 54.9429 51.6647 54.9429H45.2864C45.1588 54.9429 45.0312 55.0702 45.0312 55.1976C45.0312 55.3249 45.1588 55.4523 45.2864 55.4523H51.6647C51.7922 55.5796 51.9198 55.4523 51.9198 55.1976Z" fill="#E3E0E0"/>
<path d="M29.2134 56.9805H35.209C35.3365 56.9805 35.4641 56.8531 35.4641 56.7258C35.4641 56.5984 35.3365 56.4711 35.209 56.4711H29.2134C29.0858 56.4711 28.9582 56.5984 28.9582 56.7258C28.8307 56.8531 28.9582 56.9805 29.2134 56.9805Z" fill="#E3E0E0"/>
<path d="M29.2134 58.3811H36.9949C37.1225 58.3811 37.25 58.2537 37.25 58.1264C37.25 57.9991 37.1225 57.8717 36.9949 57.8717H29.2134C29.0858 57.8717 28.9582 57.9991 28.9582 58.1264C28.8307 58.2537 28.9582 58.3811 29.2134 58.3811Z" fill="#E3E0E0"/>
<path d="M28.8294 64.1118H44.9027C45.0302 64.1118 45.1578 63.9845 45.1578 63.8571C45.1578 63.7298 45.0302 63.6024 44.9027 63.6024H28.8294C28.7018 63.6024 28.5742 63.7298 28.5742 63.8571C28.5742 63.9845 28.7018 64.1118 28.8294 64.1118Z" fill="#E3E0E0"/>
<path d="M33.8044 74.6816H28.8294C28.7018 74.6816 28.5742 74.809 28.5742 74.9363C28.5742 75.0637 28.7018 75.191 28.8294 75.191H33.8044C33.932 75.191 34.0596 75.0637 34.0596 74.9363C34.0596 74.9363 33.932 74.6816 33.8044 74.6816Z" fill="#E3E0E0"/>
<path d="M56.5119 74.6816H35.5911C35.4635 74.6816 35.3359 74.809 35.3359 74.9363C35.3359 75.0637 35.4635 75.191 35.5911 75.191H56.5119C56.6395 75.191 56.767 75.0637 56.767 74.9363C56.8946 74.9363 56.767 74.6816 56.5119 74.6816Z" fill="#E3E0E0"/>
<path d="M70.0346 63.8571C70.0346 63.7298 69.9071 63.6024 69.7795 63.6024H46.8176C46.6901 63.6024 46.5625 63.7298 46.5625 63.8571C46.5625 63.9845 46.6901 64.1118 46.8176 64.1118H69.6519C69.7795 64.1118 70.0346 63.9845 70.0346 63.8571Z" fill="#E3E0E0"/>
<path d="M50.0054 65.2579C50.0054 65.1305 49.8779 65.0032 49.7503 65.0032H29.2122C29.0846 65.0032 28.957 65.1305 28.957 65.2579C28.957 65.3852 29.0846 65.5126 29.2122 65.5126H49.7503C49.8779 65.5126 50.0054 65.3852 50.0054 65.2579Z" fill="#E3E0E0"/>
<path d="M25.8958 61.3102H72.2022C72.3298 61.3102 72.4573 61.1828 72.4573 61.0555C72.4573 60.9281 72.3298 60.8008 72.2022 60.8008H25.8958C25.7682 60.8008 25.6406 60.9281 25.6406 61.0555C25.6406 61.1828 25.7682 61.3102 25.8958 61.3102Z" fill="#E3E0E0"/>
<path d="M32.0188 67.5502C31.8912 67.5502 31.7637 67.6775 31.7637 67.8049C31.7637 67.9322 31.8912 68.0596 32.0188 68.0596H64.0379C64.1654 68.0596 64.293 67.9322 64.293 67.8049C64.293 67.6775 64.1654 67.5502 64.0379 67.5502H32.0188Z" fill="#E3E0E0"/>
<path d="M32.0195 77.7379C32.0195 77.8652 32.1471 77.9926 32.2747 77.9926H46.4345C46.5621 77.9926 46.6896 77.8652 46.6896 77.7379C46.6896 77.6105 46.5621 77.4832 46.4345 77.4832H32.2747C32.1471 77.3558 32.0195 77.4832 32.0195 77.7379Z" fill="#E3E0E0"/>
<path d="M49.6233 80.4122H35.5911C35.4635 80.4122 35.3359 80.5396 35.3359 80.6669C35.3359 80.7943 35.4635 80.9216 35.5911 80.9216H49.7509C49.8785 80.9216 50.006 80.7943 50.006 80.6669C49.8785 80.5396 49.7509 80.4122 49.6233 80.4122Z" fill="#E3E0E0"/>
<path d="M49.8785 82.1951C49.8785 82.0678 49.7509 81.9404 49.6233 81.9404H35.5911C35.4635 81.9404 35.3359 82.0678 35.3359 82.1951C35.3359 82.3225 35.4635 82.4498 35.5911 82.4498H49.7509C49.7509 82.5772 49.8785 82.4498 49.8785 82.1951Z" fill="#E3E0E0"/>
<path d="M57.2774 80.4122H51.0266C50.8991 80.4122 50.7715 80.5396 50.7715 80.6669C50.7715 80.7943 50.8991 80.9216 51.0266 80.9216H57.2774C57.4049 80.9216 57.5325 80.7943 57.5325 80.6669C57.66 80.5396 57.4049 80.4122 57.2774 80.4122Z" fill="#E3E0E0"/>
<path d="M57.2774 81.9404H51.0266C50.8991 81.9404 50.7715 82.0678 50.7715 82.1951C50.7715 82.3225 50.8991 82.4498 51.0266 82.4498H57.2774C57.4049 82.4498 57.5325 82.3225 57.5325 82.1951C57.66 82.0678 57.4049 81.9404 57.2774 81.9404Z" fill="#E3E0E0"/>
<path d="M71.6919 80.4122H58.4251C58.2975 80.4122 58.1699 80.5396 58.1699 80.6669C58.1699 80.7943 58.2975 80.9216 58.4251 80.9216H71.5644C71.6919 80.9216 71.8195 80.7943 71.8195 80.6669C71.9471 80.5396 71.8195 80.4122 71.6919 80.4122Z" fill="#E3E0E0"/>
<path d="M71.9472 81.9404H58.8079C58.6803 81.9404 58.5527 82.0678 58.5527 82.1951C58.5527 82.3225 58.6803 82.4498 58.8079 82.4498H71.9472C72.0747 82.4498 72.2023 82.3225 72.2023 82.1951C72.2023 82.0678 72.0747 81.9404 71.9472 81.9404Z" fill="#E3E0E0"/>
<path d="M83.6837 81.9404H73.3508C73.2233 81.9404 73.0957 82.0678 73.0957 82.1951C73.0957 82.3225 73.2233 82.4498 73.3508 82.4498H83.6837C83.8112 82.4498 83.9388 82.3225 83.9388 82.1951C83.9388 82.0678 83.8112 81.9404 83.6837 81.9404Z" fill="#E3E0E0"/>
<path d="M62.8908 77.738C62.8908 77.6106 62.7632 77.4833 62.6357 77.4833H48.4758C48.3483 77.4833 48.2207 77.6106 48.2207 77.738C48.2207 77.8653 48.3483 77.9927 48.4758 77.9927H62.6357C62.7632 77.9927 62.8908 77.8653 62.8908 77.738Z" fill="#E3E0E0"/>
<path d="M78.7073 77.9927C78.8349 77.9927 78.9624 77.8653 78.9624 77.738C78.9624 77.6106 78.8349 77.4833 78.7073 77.4833H64.6751C64.5475 77.4833 64.4199 77.6106 64.4199 77.738C64.4199 77.8653 64.5475 77.9927 64.6751 77.9927H78.7073Z" fill="#E3E0E0"/>
<path d="M32.0195 69.3331C32.0195 69.4604 32.1471 69.5878 32.2747 69.5878H81.3876C81.5151 69.5878 81.6427 69.4604 81.6427 69.3331C81.6427 69.2057 81.5151 69.0784 81.3876 69.0784H32.2747C32.1471 69.0784 32.0195 69.2057 32.0195 69.3331Z" fill="#E3E0E0"/>
<path d="M88.4037 70.6064H32.2747C32.1471 70.6064 32.0195 70.7338 32.0195 70.8611C32.0195 70.9885 32.1471 71.1158 32.2747 71.1158H88.4037C88.5313 71.1158 88.6588 70.9885 88.6588 70.8611C88.6588 70.7338 88.6588 70.6064 88.4037 70.6064Z" fill="#E3E0E0"/>
<path d="M38.0137 58.1266C38.0137 58.2539 38.1412 58.3812 38.2688 58.3812H43.7541C43.8817 58.3812 44.0093 58.2539 44.0093 58.1266C44.0093 57.9992 43.8817 57.8719 43.7541 57.8719H38.2688C38.1412 57.7445 38.0137 57.8719 38.0137 58.1266Z" fill="#E3E0E0"/>
<path d="M45.0305 57.7445C44.903 57.7445 44.7754 57.8719 44.7754 57.9992C44.7754 58.1266 44.903 58.2539 45.0305 58.2539H48.2197C48.3472 58.2539 48.4748 58.1266 48.4748 57.9992C48.4748 57.8719 48.3472 57.7445 48.2197 57.7445H45.0305Z" fill="#E3E0E0"/>
<path d="M151.549 0.947754H61.7422V124.474H151.549V0.947754Z" fill="#F8F8F9"/>
<path d="M151.549 0.947754H61.7422V11.7722H151.549V0.947754Z" fill="#DC2D22"/>
<path d="M70.5433 3.11255C68.7574 3.11255 67.2266 4.64071 67.2266 6.42357C67.2266 8.20643 68.7574 9.73459 70.5433 9.73459C72.3292 9.73459 73.86 8.20643 73.86 6.42357C73.86 4.64071 72.3292 3.11255 70.5433 3.11255Z" fill="white"/>
<path d="M80.2386 3.11255C78.4527 3.11255 76.9219 4.64071 76.9219 6.42357C76.9219 8.20643 78.4527 9.73459 80.2386 9.73459C82.0245 9.73459 83.5553 8.20643 83.5553 6.42357C83.5553 4.64071 82.1521 3.11255 80.2386 3.11255Z" fill="white"/>
<path d="M89.9333 3.11255C88.1474 3.11255 86.7441 4.64071 86.7441 6.42357C86.7441 8.20643 88.2749 9.73459 90.0609 9.73459C91.8468 9.73459 93.3776 8.20643 93.3776 6.42357C93.25 4.64071 91.8468 3.11255 89.9333 3.11255Z" fill="white"/>
<path d="M67.8648 50.8678H66.334V49.3396H67.0994V50.1037H67.8648V50.8678Z" fill="#8DD0E0"/>
<path d="M67.0994 46.9199H66.334V44.6277H67.0994V46.9199ZM67.0994 42.2081H66.334V39.9158H67.0994V42.2081ZM67.0994 37.4962H66.334V35.204H67.0994V37.4962ZM67.0994 32.9118H66.334V30.6195H67.0994V32.9118Z" fill="#8DD0E0"/>
<path d="M67.0994 28.2001H66.334V26.5446H67.8648V27.3086H67.0994V28.2001Z" fill="#8DD0E0"/>
<path d="M86.7451 27.3086H84.4489V26.5446H86.7451V27.3086ZM82.0251 27.3086H79.7289V26.5446H82.0251V27.3086ZM77.3052 27.3086H75.009V26.5446H77.3052V27.3086ZM72.5853 27.3086H70.2891V26.5446H72.5853V27.3086Z" fill="#8DD0E0"/>
<path d="M90.6994 28.2001H89.934V27.3086H89.041V26.5446H90.6994V28.2001Z" fill="#8DD0E0"/>
<path d="M90.699 46.9199H89.9336V44.6277H90.699V46.9199ZM90.699 42.2081H89.9336V39.9158H90.699V42.2081ZM90.699 37.4962H89.9336V35.204H90.699V37.4962ZM90.699 32.9118H89.9336V30.6195H90.699V32.9118Z" fill="#8DD0E0"/>
<path d="M90.6994 50.8678H89.041V50.1037H89.934V49.3396H90.6994V50.8678Z" fill="#8DD0E0"/>
<path d="M86.7451 50.8678H84.4489V50.1038H86.7451V50.8678ZM82.0251 50.8678H79.7289V50.1038H82.0251V50.8678ZM77.3052 50.8678H75.009V50.1038H77.3052V50.8678ZM72.5853 50.8678H70.2891V50.1038H72.5853V50.8678Z" fill="#8DD0E0"/>
<path d="M87.3827 29.8555H69.5234V47.684H87.3827V29.8555Z" fill="#FEDD7E"/>
<path d="M115.574 29.8555H97.7148V47.684H115.574V29.8555Z" fill="#8DD0E0"/>
<path d="M110.688 42.7899V34.6396H102.523V42.7899H110.688Z" fill="#61C2CB"/>
<path d="M124.248 50.8678H122.59V49.3396H123.355V50.1037H124.248V50.8678Z" fill="#8DD0E0"/>
<path d="M123.355 46.9199H122.59V44.6277H123.355V46.9199ZM123.355 42.2081H122.59V39.9158H123.355V42.2081ZM123.355 37.4962H122.59V35.204H123.355V37.4962ZM123.355 32.9118H122.59V30.6195H123.355V32.9118Z" fill="#8DD0E0"/>
<path d="M123.355 28.2001H122.59V26.5446H124.248V27.3086H123.355V28.2001Z" fill="#8DD0E0"/>
<path d="M143.002 27.3086H140.706V26.5446H143.002V27.3086ZM138.282 27.3086H135.986V26.5446H138.282V27.3086ZM133.69 27.3086H131.394V26.5446H133.69V27.3086ZM128.97 27.3086H126.674V26.5446H128.97V27.3086Z" fill="#8DD0E0"/>
<path d="M146.957 28.2001H146.191V27.3086H145.426V26.5446H146.957V28.2001Z" fill="#8DD0E0"/>
<path d="M146.957 46.9199H146.191V44.6277H146.957V46.9199ZM146.957 42.2081H146.191V39.9158H146.957V42.2081ZM146.957 37.4962H146.191V35.204H146.957V37.4962ZM146.957 32.9118H146.191V30.6195H146.957V32.9118Z" fill="#8DD0E0"/>
<path d="M146.957 50.8678H145.426V50.1037H146.191V49.3396H146.957V50.8678Z" fill="#8DD0E0"/>
<path d="M143.002 50.8678H140.706V50.1038H143.002V50.8678ZM138.282 50.8678H135.986V50.1038H138.282V50.8678ZM133.69 50.8678H131.394V50.1038H133.69V50.8678ZM128.97 50.8678H126.674V50.1038H128.97V50.8678Z" fill="#8DD0E0"/>
<path d="M143.767 29.8555H125.908V47.684H143.767V29.8555Z" fill="#0164A8"/>
<path d="M67.8648 81.049H66.334V79.3935H67.0994V80.2849H67.8648V81.049Z" fill="#8DD0E0"/>
<path d="M67.0994 77.1012H66.334V74.6816H67.0994V77.1012ZM67.0994 72.3894H66.334V70.0971H67.0994V72.3894ZM67.0994 67.6775H66.334V65.3853H67.0994V67.6775ZM67.0994 62.9657H66.334V60.6735H67.0994V62.9657Z" fill="#8DD0E0"/>
<path d="M67.0994 58.2539H66.334V56.7257H67.8648V57.4898H67.0994V58.2539Z" fill="#8DD0E0"/>
<path d="M86.7451 57.4898H84.4489V56.7257H86.7451V57.4898ZM82.0251 57.4898H79.7289V56.7257H82.0251V57.4898ZM77.3052 57.4898H75.009V56.7257H77.3052V57.4898ZM72.5853 57.4898H70.2891V56.7257H72.5853V57.4898Z" fill="#8DD0E0"/>
<path d="M90.6994 58.2539H89.934V57.4898H89.041V56.7257H90.6994V58.2539Z" fill="#8DD0E0"/>
<path d="M90.699 77.1012H89.9336V74.6816H90.699V77.1012ZM90.699 72.3894H89.9336V70.0971H90.699V72.3894ZM90.699 67.6775H89.9336V65.3853H90.699V67.6775ZM90.699 62.9657H89.9336V60.6735H90.699V62.9657Z" fill="#8DD0E0"/>
<path d="M90.6994 81.049H89.041V80.2849H89.934V79.3935H90.6994V81.049Z" fill="#8DD0E0"/>
<path d="M86.7451 81.0489H84.4489V80.2849H86.7451V81.0489ZM82.0251 81.0489H79.7289V80.2849H82.0251V81.0489ZM77.3052 81.0489H75.009V80.2849H77.3052V81.0489ZM72.5853 81.0489H70.2891V80.2849H72.5853V81.0489Z" fill="#8DD0E0"/>
<path d="M87.3827 59.9093H69.5234V77.7379H87.3827V59.9093Z" fill="#0164A8"/>
<path d="M96.0562 81.049H94.5254V79.3935H95.1632V80.2849H96.0562V81.049Z" fill="#EE7853"/>
<path d="M95.1638 77.1012H94.3984V74.6816H95.1638V77.1012ZM95.1638 72.3894H94.3984V70.0971H95.1638V72.3894ZM95.1638 67.6775H94.3984V65.3853H95.1638V67.6775ZM95.1638 62.9657H94.3984V60.6735H95.1638V62.9657Z" fill="#EE7853"/>
<path d="M95.1632 58.2539H94.5254V56.7257H96.0562V57.4898H95.1632V58.2539Z" fill="#EE7853"/>
<path d="M114.936 57.4898H112.64V56.7257H114.936V57.4898ZM110.217 57.4898H107.92V56.7257H110.217V57.4898ZM105.497 57.4898H103.2V56.7257H105.497V57.4898ZM100.777 57.4898H98.4805V56.7257H100.777V57.4898Z" fill="#EE7853"/>
<path d="M118.763 58.2539H118.125V57.4898H117.232V56.7257H118.763V58.2539Z" fill="#EE7853"/>
<path d="M118.763 77.1012H117.998V74.6816H118.763V77.1012ZM118.763 72.3894H117.998V70.0971H118.763V72.3894ZM118.763 67.6775H117.998V65.3853H118.763V67.6775ZM118.763 62.9657H117.998V60.6735H118.763V62.9657Z" fill="#EE7853"/>
<path d="M118.763 81.049H117.232V80.2849H118.125V79.3935H118.763V81.049Z" fill="#EE7853"/>
<path d="M114.936 81.0489H112.64V80.2849H114.936V81.0489ZM110.217 81.0489H107.92V80.2849H110.217V81.0489ZM105.497 81.0489H103.2V80.2849H105.497V81.0489ZM100.777 81.0489H98.4805V80.2849H100.777V81.0489Z" fill="#EE7853"/>
<path d="M115.574 59.9093H97.7148V77.7379H115.574V59.9093Z" fill="#FEDD7E"/>
<path d="M124.248 81.049H122.59V79.3935H123.355V80.2849H124.248V81.049Z" fill="#8DD0E0"/>
<path d="M123.355 77.1012H122.59V74.6816H123.355V77.1012ZM123.355 72.3894H122.59V70.0971H123.355V72.3894ZM123.355 67.6775H122.59V65.3853H123.355V67.6775ZM123.355 62.9657H122.59V60.6735H123.355V62.9657Z" fill="#8DD0E0"/>
<path d="M123.355 58.2539H122.59V56.7257H124.248V57.4898H123.355V58.2539Z" fill="#8DD0E0"/>
<path d="M143.002 57.4898H140.706V56.7257H143.002V57.4898ZM138.282 57.4898H135.986V56.7257H138.282V57.4898ZM133.69 57.4898H131.394V56.7257H133.69V57.4898ZM128.97 57.4898H126.674V56.7257H128.97V57.4898Z" fill="#8DD0E0"/>
<path d="M146.957 58.2539H146.191V57.4898H145.426V56.7257H146.957V58.2539Z" fill="#8DD0E0"/>
<path d="M146.957 77.1012H146.191V74.6816H146.957V77.1012ZM146.957 72.3894H146.191V70.0971H146.957V72.3894ZM146.957 67.6775H146.191V65.3853H146.957V67.6775ZM146.957 62.9657H146.191V60.6735H146.957V62.9657Z" fill="#8DD0E0"/>
<path d="M146.957 81.049H145.426V80.2849H146.191V79.3935H146.957V81.049Z" fill="#8DD0E0"/>
<path d="M143.002 81.0489H140.706V80.2849H143.002V81.0489ZM138.282 81.0489H135.986V80.2849H138.282V81.0489ZM133.69 81.0489H131.394V80.2849H133.69V81.0489ZM128.97 81.0489H126.674V80.2849H128.97V81.0489Z" fill="#8DD0E0"/>
<path d="M143.767 59.9093H125.908V77.7379H143.767V59.9093Z" fill="#E3E0E0"/>
<path d="M135.603 16.7388H77.5605V21.7053H135.603V16.7388Z" fill="#4C505A"/>
<path d="M141.854 88.1804H71.4375V115.56H141.854V88.1804Z" fill="#8DD0E0"/>
<path d="M112.896 99.1322L109.069 102.825L102.819 96.7126L88.9141 110.211H124.25L112.896 99.1322Z" fill="white"/>
<path d="M118.637 98.8775C120.168 98.8775 121.316 97.7314 121.316 96.2032C121.316 94.6751 120.168 93.5289 118.637 93.5289C117.106 93.5289 115.958 94.6751 115.958 96.2032C115.83 97.604 117.106 98.8775 118.637 98.8775Z" fill="white"/>
<path d="M68.2476 115.815H66.7168V115.305H67.6098V114.286H68.2476V115.815Z" fill="#EE7853"/>
<path d="M64.2932 115.815H61.8695V115.178H64.2932V115.815ZM59.3182 115.815H56.8944V115.178H59.3182V115.815ZM54.4706 115.815H52.0469V115.178H54.4706V115.815ZM49.6231 115.815H47.1994V115.178H49.6231V115.815ZM44.7756 115.815H42.3519V115.178H44.7756V115.815ZM39.8006 115.815H37.3768V115.178H39.8006V115.815ZM34.953 115.815H32.5293V115.178H34.953V115.815Z" fill="#EE7853"/>
<path d="M30.105 115.815H28.5742V114.286H29.212V115.305H30.105V115.815Z" fill="#EE7853"/>
<path d="M29.212 112.122H28.5742V109.957H29.212V112.122ZM29.212 107.792H28.5742V105.627H29.212V107.792ZM29.212 103.462H28.5742V101.297H29.212V103.462Z" fill="#EE7853"/>
<path d="M29.212 99.0048H28.5742V97.4767H30.105V98.1134H29.212V99.0048Z" fill="#EE7853"/>
<path d="M64.2932 98.1134H61.8695V97.4767H64.2932V98.1134ZM59.3182 98.1134H56.8944V97.4767H59.3182V98.1134ZM54.4706 98.1134H52.0469V97.4767H54.4706V98.1134ZM49.6231 98.1134H47.1994V97.4767H49.6231V98.1134ZM44.7756 98.1134H42.3519V97.4767H44.7756V98.1134ZM39.8006 98.1134H37.3768V97.4767H39.8006V98.1134ZM34.953 98.1134H32.5293V97.4767H34.953V98.1134Z" fill="#EE7853"/>
<path d="M68.2476 99.0048H67.6098V98.1134H66.7168V97.4767H68.2476V99.0048Z" fill="#EE7853"/>
<path d="M68.2472 112.122H67.6094V109.957H68.2472V112.122ZM68.2472 107.792H67.6094V105.627H68.2472V107.792ZM68.2472 103.462H67.6094V101.297H68.2472V103.462Z" fill="#EE7853"/>
</svg>
