<svg width="184" height="116" viewBox="0 0 184 116" fill="none" xmlns="http://www.w3.org/2000/svg">
<path d="M155.393 0H83.0186V115.799H155.393V0Z" fill="white"/>
<path d="M148.156 9.651H91.0605V91.6755H148.156V9.651Z" fill="#ADEBF6"/>
<path d="M129.661 3.21631H108.753V6.43296H129.661V3.21631Z" fill="#475059"/>
<path d="M115.185 99.7157H91.0605V108.561H115.185V99.7157Z" fill="#FFDB7A"/>
<path d="M147.35 99.7157H123.226V108.561H147.35V99.7157Z" fill="#FFDB7A"/>
<path d="M152.176 17.6931V61.1179L122.422 49.8596V28.1472L152.176 17.6931Z" fill="#FF926E"/>
<path d="M173.086 39.4032C173.086 44.2282 169.065 47.4448 165.044 47.4448V31.3616C169.869 31.3616 173.086 34.5782 173.086 39.4032Z" fill="#ADEBF6"/>
<path d="M165.044 12.8667V28.1458V31.3624V47.4457V49.8581V65.1372L152.178 61.1164V17.6917L165.044 12.8667Z" fill="#DC2D22"/>
<path d="M173.085 53.8777C172.281 53.0736 172.281 50.6611 173.889 49.8569C174.693 49.0528 176.302 49.0528 177.91 50.6611C178.714 51.4652 178.714 53.0736 177.106 54.6819C176.302 54.6819 176.301 55.4861 175.497 55.4861C174.693 54.6819 173.889 54.6819 173.085 53.8777ZM180.322 46.6403C178.714 45.8361 177.91 45.0319 178.714 43.4236C179.518 41.8153 180.322 41.0111 181.931 41.8153C183.539 42.6195 184.343 43.4236 183.539 45.032C183.539 45.8361 181.931 46.6403 181.126 46.6403H180.322ZM178.714 35.382C177.91 33.7737 178.714 32.1654 180.322 32.1654C181.931 31.3612 183.539 32.1654 183.539 33.7737C184.343 35.382 183.539 36.9903 181.931 36.9903H181.126C180.322 36.9903 178.714 36.1862 178.714 35.382ZM173.889 28.9487C173.085 28.1446 172.281 26.5362 173.085 24.9279C173.889 24.1237 175.497 23.3196 177.106 24.1237C177.91 24.9279 178.714 26.5362 177.91 28.1446C177.106 28.9487 176.301 28.9487 175.497 28.9487C174.693 29.7529 174.693 28.9487 173.889 28.9487Z" fill="#475059"/>
<path d="M120.816 28.1453V28.9494V49.8576V78.0033H116.795V49.8576V28.1453H120.816Z" fill="#FFDB7A"/>
<path d="M120.815 58.7025C120.815 59.5067 120.011 59.5067 119.207 59.5067C118.403 59.5067 117.599 58.7025 117.599 58.7025V62.7233V63.5275V67.5483V71.5691V73.1774V80.4149C117.599 81.2191 118.403 82.0232 119.207 82.0232C120.011 82.0232 120.815 81.2191 120.815 80.4149V73.1774V71.5691V67.5483V63.5275V62.7233V58.7025Z" fill="#E25D34"/>
<path d="M98.2991 82.0254L111.97 73.9838L98.2991 65.9421V70.7671H75.7826C74.1743 70.7671 73.3701 71.5713 73.3701 73.1796C73.3701 74.7879 74.1743 75.5921 75.7826 75.5921H98.2991V82.0254Z" fill="#475059"/>
<path d="M9.26705 107.73C5.48479 107.73 2.45898 104.736 2.45898 100.994V18.4856C2.45898 14.7437 5.48479 11.7502 9.26705 11.7502H48.6025C52.3848 11.7502 55.4106 14.7437 55.4106 18.4856V100.994C55.4106 104.736 52.3848 107.73 48.6025 107.73H9.26705Z" fill="#F2F2F2"/>
<path d="M6.80806 107.73C3.02581 107.73 0 104.736 0 100.995V18.4861C0 14.7442 3.02581 11.7507 6.80806 11.7507H46.1435C49.9258 11.7507 52.9516 14.7442 52.9516 18.4861V100.995C52.9516 104.736 49.9258 107.73 46.1435 107.73H6.80806Z" fill="#474F59"/>
<path d="M32.1495 100.807C32.1495 101.742 31.393 102.491 30.4474 102.491H21.9374C20.9918 102.491 20.2354 101.742 20.2354 100.807V100.058C20.2354 99.1229 20.9918 98.3745 21.9374 98.3745H30.4474C31.393 98.3745 32.1495 99.1229 32.1495 100.058V100.807Z" fill="#353F49"/>
<path d="M28.3672 19.0468C28.3672 20.1693 27.4217 20.9177 26.4761 20.9177C25.3414 20.9177 24.585 19.9822 24.585 19.0468C24.585 17.9242 25.5305 17.1758 26.4761 17.1758C27.4217 16.9887 28.3672 17.9242 28.3672 19.0468Z" fill="#353F49"/>
<path d="M27.2319 19.0472C27.2319 19.6084 26.8537 19.9826 26.2864 19.9826C25.719 19.9826 25.3408 19.6084 25.3408 19.0472C25.3408 18.4859 25.719 18.1117 26.2864 18.1117C26.8537 18.1117 27.2319 18.4859 27.2319 19.0472Z" fill="#CCCBCA"/>
<path d="M48.9812 26.3439H3.7832V93.3236H48.9812V26.3439Z" fill="white"/>
<path d="M48.9812 26.3439H3.7832V33.0793H48.9812V26.3439Z" fill="#ABE0E5"/>
<path d="M45.0104 41.1244H7.94434V62.266H45.0104V41.1244Z" fill="#0164A8"/>
<path d="M45.0104 66.0077H7.94434V73.3044H45.0104V66.0077Z" fill="#FFD680"/>
<path d="M45.0114 77.2335H7.94531V78.9174H45.0114V77.2335Z" fill="#474F59"/>
<path d="M45.0104 81.3492H7.94434V83.0331H45.0104V81.3492Z" fill="#CCCBCA"/>
<path d="M26.4774 85.2782H7.94434V86.962H26.4774V85.2782Z" fill="#CCCBCA"/>
</svg>
