<svg width="262" height="150" viewBox="0 0 262 150" fill="none" xmlns="http://www.w3.org/2000/svg">
<mask id="mask0" mask-type="alpha" maskUnits="userSpaceOnUse" x="0" y="0" width="262" height="150">
<rect width="262" height="150" fill="#C4C4C4"/>
</mask>
<g mask="url(#mask0)">
<ellipse rx="86" ry="85.5" transform="matrix(-1 0 0 1 94 135.5)" fill="white"/>
<path d="M215.442 99.1461C215.442 100.636 214.087 101.855 212.46 101.855H115.676C114.049 101.855 112.693 100.636 112.693 99.1461V41.7093C112.693 40.2192 114.049 39 115.676 39H212.46C214.087 39 215.442 40.2192 215.442 41.7093V99.1461Z" fill="#353F49"/>
<path d="M211.104 44.1475H117.031V96.3012H211.104V44.1475Z" fill="#CCD5D8"/>
<path d="M178.301 65.4157L177.487 64.8739L166.914 57.4233C162.305 63.9256 166.372 68.3959 165.423 69.886C164.339 71.3762 158.51 69.2087 154.037 75.4401L159.73 79.504L165.423 83.5679C169.896 77.3366 165.965 72.5953 167.05 71.1052C167.999 69.4797 173.692 71.918 178.301 65.4157ZM160.679 78.1494L156.477 75.1692C159.323 75.3046 160.272 74.8982 161.492 74.7628C162.17 74.7628 162.712 74.6273 163.254 74.4918C163.254 74.4918 163.254 74.4918 163.39 74.4918C163.39 75.0337 163.525 75.711 163.661 76.3883C163.932 77.6075 163.932 78.9622 164.745 81.1296L160.679 78.1494ZM166.779 61.3518L170.574 64.0611L174.505 66.7704C172.607 68.2605 170.71 68.3959 169.083 68.5314C168.405 68.5314 167.863 68.6669 167.321 68.8023C167.321 68.2605 167.185 67.5832 166.914 67.0413C166.507 65.4157 166.101 63.5192 166.779 61.3518Z" fill="#FFFFF4"/>
<path opacity="0.97" d="M174.506 66.7701C172.608 68.2602 170.71 68.3957 169.083 68.5312C168.406 68.5312 167.863 68.6666 167.321 68.8021C167.321 68.2602 167.186 67.5829 166.915 67.0411C166.508 65.4155 166.101 63.6545 166.779 61.3516L170.574 64.0608L174.506 66.7701Z" fill="#FDC072"/>
<path opacity="0.97" d="M164.746 80.9942L160.543 78.014L156.341 75.0338C159.188 75.1692 160.137 74.7628 161.357 74.6274C162.035 74.6274 162.577 74.4919 163.119 74.3564C163.119 74.3564 163.119 74.3564 163.255 74.3564C163.255 74.8983 163.39 75.5756 163.526 76.2529C163.932 77.4721 163.932 78.8268 164.746 80.9942Z" fill="#FDC072"/>
<path d="M180.199 64.4675L179.25 65.6866C179.114 65.8221 178.843 65.8221 178.437 65.6866L178.165 65.4157L177.352 64.8739L172.472 61.4873L166.779 57.4233L166.508 57.1524C166.237 56.8815 166.101 56.6105 166.237 56.4751L167.186 55.2559C167.321 55.1204 167.592 55.1204 167.999 55.2559L173.963 59.5908L180.063 63.9256C180.199 63.9256 180.334 64.332 180.199 64.4675Z" fill="#FC6237"/>
<path d="M165.965 84.516L165.016 85.7352C164.881 85.8707 164.61 85.8707 164.339 85.7352L158.239 81.4003L152.274 77.0655C152.003 76.93 151.868 76.5236 152.003 76.3882L152.952 75.169C153.088 75.0335 153.359 75.0335 153.766 75.169L154.037 75.4399L159.73 79.5038L165.423 83.5678L165.83 83.8387C165.965 83.9742 166.101 84.2451 165.965 84.516Z" fill="#FC6237"/>
<path d="M192.263 68.6668L190.094 72.7307L188.467 75.5755L187.789 76.9301L186.027 73.9499L185.349 72.8662L182.909 68.9377L186.298 68.8023C185.62 60.539 180.063 53.0884 171.659 50.6501C161.492 47.6699 150.919 52.8175 146.852 62.3L144.277 61.2163C148.886 50.3791 160.95 44.5542 172.472 48.0762C181.961 50.7855 188.332 59.3198 189.009 68.8023L192.263 68.6668Z" fill="#0164A8"/>
<path d="M139.533 72.1889L141.837 68.125L143.328 65.2802L144.006 64.061L145.768 67.0413L146.446 68.125L148.886 72.1889L145.497 72.3244C146.039 80.5877 151.732 88.0382 160.137 90.4766C170.303 93.4568 180.876 88.3091 184.943 78.8266L187.518 79.9104C182.91 90.7475 170.845 96.5725 159.323 93.0504C149.699 90.2056 143.328 81.6714 142.786 72.3244L139.533 72.1889Z" fill="#DC2D22"/>
<path d="M221 112.828C221 115.944 218.696 118.518 215.849 118.518H112.151C109.304 118.518 107 115.944 107 112.828H221Z" fill="#CCCBCA"/>
<path d="M221 112.828H107L112.558 101.855H215.442L221 112.828Z" fill="white"/>
<path d="M181.283 111.744C166.372 111.744 158.917 111.744 144.006 111.744C144.819 109.983 145.226 109.035 146.175 107.274C159.459 107.274 166.101 107.274 179.25 107.274C179.927 109.17 180.334 109.983 181.283 111.744Z" fill="#AAB3BB"/>
<path opacity="0.42" d="M215.442 77.7429V99.1463C215.442 100.636 214.087 101.856 212.596 101.856H200.396L195.652 97.1143L187.79 89.2574H193.347V87.4963H191.585V77.7429H215.442Z" fill="#7A8494"/>
<path opacity="0.42" d="M215.307 73.1372H191.45V76.3884H215.307V73.1372Z" fill="#7A8494"/>
<path opacity="0.42" d="M189.552 73.1372V86.6836L173.828 70.9697H187.654V73.1372H189.552Z" fill="#7A8494"/>
<path d="M135.195 88.4446H130.315V92.5085H135.195V88.4446Z" fill="#E5E5E5"/>
<path d="M120.943 92.7065L118.229 94.9536L120.132 97.2487L122.846 95.0016L120.943 92.7065Z" fill="#E5E5E5"/>
<path d="M144.767 92.6469L142.863 94.9404L145.576 97.1893L147.48 94.8957L144.767 92.6469Z" fill="#E5E5E5"/>
<path d="M132.755 91.4248C122.589 91.4248 114.456 99.6881 114.456 109.712C114.456 119.872 122.724 128 132.755 128C142.922 128 151.055 119.737 151.055 109.712C151.055 99.5527 142.786 91.4248 132.755 91.4248ZM132.755 124.343C124.622 124.343 118.115 117.84 118.115 109.712C118.115 101.585 124.622 95.0823 132.755 95.0823C140.888 95.0823 147.395 101.585 147.395 109.712C147.395 117.84 140.753 124.343 132.755 124.343Z" fill="#FEBC58"/>
<path d="M132.755 94.2698C124.215 94.2698 117.167 101.178 117.167 109.848C117.167 118.382 124.08 125.427 132.755 125.427C141.295 125.427 148.344 118.518 148.344 109.848C148.208 101.178 141.295 94.2698 132.755 94.2698ZM132.755 124.343C124.622 124.343 118.115 117.841 118.115 109.713C118.115 101.585 124.622 95.0826 132.755 95.0826C140.888 95.0826 147.395 101.585 147.395 109.713C147.395 117.841 140.888 124.343 132.755 124.343Z" fill="#534B64"/>
<path d="M147.395 109.712C147.395 117.84 140.888 124.343 132.755 124.343C124.622 124.343 118.115 117.84 118.115 109.712C118.115 101.585 124.622 95.0823 132.755 95.0823C140.888 95.0823 147.395 101.72 147.395 109.712Z" fill="white"/>
<path opacity="0.43" d="M144.277 100.636C141.837 98.7398 138.584 97.5206 135.195 97.5206C127.062 97.5206 120.555 104.023 120.555 112.151C120.555 115.537 121.775 118.653 123.673 121.227C120.284 118.518 118.115 114.454 118.115 109.712C118.115 101.585 124.622 95.0823 132.755 95.0823C137.364 95.0823 141.566 97.2497 144.277 100.636Z" fill="#A5ADB9"/>
<path d="M132.755 75.7109C128.282 75.7109 124.757 79.233 124.757 83.7033C124.757 87.2254 127.062 90.3411 130.315 91.2893V89.9347C127.739 88.9864 125.977 86.5481 125.977 83.7033C125.977 79.9103 128.959 76.9301 132.755 76.9301C136.55 76.9301 139.533 79.9103 139.533 83.7033C139.533 86.5481 137.77 89.1219 135.195 90.0702V91.4248C138.448 90.3411 140.753 87.3609 140.753 83.8388C140.753 79.233 137.093 75.7109 132.755 75.7109Z" fill="#FF8000"/>
<path d="M120.19 90.5022L116.227 93.7905L118.045 95.979L122.008 92.6907L120.19 90.5022Z" fill="#F2F2F2"/>
<path d="M136.28 85.3291H129.095V89.1221H136.28V85.3291Z" fill="#F2F2F2"/>
<path d="M145.596 90.4646L143.778 92.6531L147.741 95.9414L149.559 93.7529L145.596 90.4646Z" fill="#F2F2F2"/>
<path d="M131.942 110.661L129.502 111.338L129.095 109.577L131.535 109.171C131.671 108.764 132.077 108.493 132.484 108.358C133.026 108.222 133.433 108.493 133.84 108.764L144.684 107.003V107.274L133.975 110.119C133.84 110.525 133.433 110.932 133.026 111.067C132.755 111.067 132.213 110.932 131.942 110.661Z" fill="#C2300C"/>
<path d="M133.026 110.254C132.62 110.39 132.349 110.119 132.213 109.713C132.077 109.306 132.349 109.035 132.755 108.9C133.162 108.764 133.433 109.035 133.569 109.442C133.569 109.848 133.433 110.254 133.026 110.254Z" fill="white"/>
<path d="M143.599 106.19L140.888 106.867C140.346 104.294 138.719 101.855 136.279 100.365C134.246 99.1459 131.942 98.604 129.773 98.875C132.755 97.7912 136.144 98.0622 138.991 99.8232C141.431 101.178 142.922 103.616 143.599 106.19Z" fill="#FC6237"/>
<path d="M37.5668 29.635L40.6025 64.6008L58.0579 63.2326C58.1338 61.1803 58.0579 53.275 58.0579 53.275C58.0579 53.275 65.3436 52.1348 65.4195 44.8376C65.4954 41.265 64.9641 33.9678 64.4329 27.4307C63.8257 20.1335 57.5266 14.6606 50.2409 15.0406C42.6516 15.4967 36.9597 22.1098 37.5668 29.635Z" fill="#FFBE9D"/>
<path d="M58.0581 53.1991C58.0581 53.1991 53.4286 53.5792 48.5715 50.4626C48.5715 50.4626 50.8483 55.7075 58.0581 55.0234V53.1991Z" fill="#EB996E"/>
<path d="M62.4595 32.5235C62.4595 33.0556 62.0041 33.5117 61.4729 33.5877C60.8657 33.5877 60.4104 33.2076 60.4104 32.6755C60.4104 32.1434 60.8657 31.6874 61.397 31.6113C61.9282 31.5353 62.4595 31.9914 62.4595 32.5235Z" fill="#263238"/>
<path d="M62.8391 31.0793C62.6873 31.2313 61.9284 30.6232 60.79 30.6232C59.6516 30.6232 58.8168 31.1553 58.7409 31.0793C58.665 31.0033 58.8168 30.7753 59.1962 30.5472C59.5757 30.3192 60.1828 30.0151 60.8659 30.0151C61.5489 30.0151 62.156 30.2432 62.4596 30.5472C62.7632 30.7753 62.915 31.0033 62.8391 31.0793Z" fill="#263238"/>
<path d="M51.4556 32.5235C51.4556 33.0556 51.0002 33.5117 50.469 33.5877C49.8619 33.5877 49.4065 33.2076 49.4065 32.6755C49.4065 32.1434 49.8618 31.6874 50.3931 31.6113C50.9243 31.5353 51.4556 31.9914 51.4556 32.5235Z" fill="#263238"/>
<path d="M51.8349 31.3073C51.6831 31.4594 50.9242 30.8513 49.7858 30.8513C48.6474 30.8513 47.8126 31.3834 47.7367 31.3073C47.6608 31.2313 47.8126 31.0033 48.192 30.7753C48.5715 30.5472 49.1786 30.2432 49.8617 30.2432C50.5447 30.2432 51.1518 30.4712 51.4554 30.7753C51.8349 31.0033 51.9108 31.2313 51.8349 31.3073Z" fill="#263238"/>
<path d="M55.9329 39.5927C55.9329 39.5167 56.6159 39.4407 57.7543 39.2886C58.0579 39.2886 58.2856 39.2126 58.3615 38.9846C58.4374 38.7566 58.2856 38.4525 58.1338 38.1485C57.8302 37.4643 57.6025 36.7042 57.299 35.9441C56.1606 32.8276 55.2499 30.3192 55.4017 30.2431C55.5534 30.1671 56.6159 32.6755 57.7543 35.7921C58.0579 36.5522 58.2856 37.3123 58.5891 37.9964C58.665 38.3005 58.8927 38.6805 58.7409 39.1366C58.665 39.3647 58.4374 39.5167 58.2856 39.5167C58.1338 39.5927 57.9061 39.5927 57.8302 39.5927C56.6159 39.6687 55.9329 39.6687 55.9329 39.5927Z" fill="#263238"/>
<path d="M52.5937 40.3528C52.7454 40.3528 52.7455 41.569 53.808 42.4051C54.8705 43.2413 56.1606 43.1653 56.1606 43.3173C56.1606 43.3933 55.8571 43.5453 55.3258 43.5453C54.7946 43.5453 54.0356 43.3933 53.3526 42.8612C52.7454 42.3291 52.4419 41.645 52.4419 41.1129C52.4419 40.6568 52.5178 40.3528 52.5937 40.3528Z" fill="#263238"/>
<path d="M52.1381 26.8986C52.0622 27.2026 50.9238 27.0506 49.6337 27.2026C48.3435 27.3547 47.281 27.7347 47.0533 27.4307C46.9774 27.2787 47.1292 27.0506 47.5846 26.7466C48.0399 26.4425 48.647 26.1385 49.4819 26.0625C50.2408 25.9864 50.9997 26.1385 51.4551 26.2905C51.9863 26.5185 52.214 26.7466 52.1381 26.8986Z" fill="#263238"/>
<path d="M62.4597 27.8867C62.232 28.1147 61.4731 27.8867 60.5623 27.8867C59.6516 27.8107 58.8168 28.0387 58.665 27.8107C58.5891 27.6587 58.7409 27.4306 59.0445 27.2026C59.3481 26.9746 59.9552 26.7465 60.5623 26.8225C61.1695 26.8225 61.7766 27.0506 62.0802 27.3546C62.3838 27.5066 62.5356 27.7347 62.4597 27.8867Z" fill="#263238"/>
<path d="M36.049 25.1503C36.4284 28.7229 37.415 33.1316 37.7186 36.7802C37.7186 37.0842 37.7945 37.4643 37.9463 37.7684C38.4775 38.4525 39.6918 39.9727 40.299 39.3646C41.8168 37.9204 42.424 33.9677 42.7275 31.8394C43.0311 29.787 42.9552 27.6587 43.2588 25.6063C43.2588 25.5303 43.2588 25.5303 43.2588 25.4543C43.4865 24.0101 44.2454 22.6419 45.3838 21.7297C45.6874 21.5777 45.915 21.3496 46.2186 21.2736C48.3436 20.5135 51.9106 21.8817 54.0356 22.7179C55.0981 23.0979 56.1606 23.63 57.299 24.0861C59.7275 25.2263 62.6115 24.9982 64.8124 23.478C66.1025 22.5658 66.2543 19.6013 65.6472 17.701C64.1293 12.6082 57.7543 10.8599 49.5579 12.8362C41.5133 14.6605 35.2142 17.8531 36.049 25.1503Z" fill="#263238"/>
<path d="M39.9955 32.9796C39.8437 32.9036 34.9865 31.5354 35.1383 36.4762C35.2901 41.493 40.2232 40.2768 40.2232 40.1248C40.2991 39.9728 39.9955 32.9796 39.9955 32.9796Z" fill="#FFBE9D"/>
<path d="M38.7051 38.3005C38.7051 38.3005 38.6292 38.3765 38.4774 38.4525C38.3256 38.5285 38.0979 38.6045 37.7944 38.4525C37.2631 38.3005 36.8077 37.4643 36.7319 36.5522C36.7319 36.0961 36.8077 35.64 36.9595 35.336C37.1113 34.9559 37.339 34.7279 37.5667 34.6519C37.7944 34.5758 38.022 34.7279 38.0979 34.8799C38.1738 35.0319 38.1738 35.1079 38.1738 35.1079C38.1738 35.1079 38.2497 35.0319 38.2497 34.8039C38.2497 34.7279 38.1738 34.5758 38.022 34.4998C37.8703 34.4238 37.7185 34.3478 37.5667 34.4238C37.1872 34.4998 36.8836 34.8039 36.656 35.26C36.5042 35.64 36.3524 36.1721 36.4283 36.6282C36.5042 37.6163 37.0354 38.5285 37.7944 38.7565C38.1738 38.8326 38.4015 38.7565 38.5533 38.6045C38.7051 38.3765 38.781 38.3005 38.7051 38.3005Z" fill="#EB996E"/>
<path d="M36.1251 25.5303C36.0492 25.6064 37.567 26.4425 39.692 26.4425C41.817 26.5185 43.3349 25.6824 43.259 25.6064C43.1831 25.4543 41.6652 26.0624 39.692 26.0624C37.6429 26.0624 36.1251 25.3783 36.1251 25.5303Z" fill="#455A64"/>
<path d="M36.2767 26.8987C36.2008 26.9747 37.6427 27.8108 39.6918 27.8108C41.7409 27.8868 43.1829 27.0507 43.107 26.9747C43.0311 26.8227 41.5891 27.4308 39.6918 27.4308C37.7945 27.4308 36.2767 26.8227 36.2767 26.8987Z" fill="#455A64"/>
<path d="M38.4017 290.282L59.3481 161.365V133.544L30.8124 136.205C30.433 137.269 21.0981 290.434 21.0981 290.434L24.058 290.282H38.4017Z" fill="#0164A8"/>
<path d="M75.7413 131.568L87.5806 211.913L61.094 205.452L50.3172 134.228L75.7413 131.568Z" fill="#0164A8"/>
<path d="M51.2275 138.409C51.2275 138.409 51.2275 138.561 51.2275 138.789C51.2275 139.093 51.1516 139.473 51.0757 139.929C50.924 140.993 50.7722 142.438 50.5445 144.338C50.0891 148.215 49.4061 153.763 48.4954 160.605C46.7499 174.363 44.0177 193.29 41.1338 214.194C39.6918 224.683 38.4016 234.641 37.2632 243.686C36.9597 245.967 36.732 248.171 36.4284 250.3C36.1248 252.428 35.7454 254.556 35.4418 256.533C34.8347 260.561 34.3034 264.286 33.7722 267.706C32.7097 274.548 31.9507 280.096 31.4195 283.897C31.1159 285.797 30.9641 287.318 30.8123 288.306C30.7364 288.838 30.7364 289.218 30.6606 289.446C30.6606 289.598 30.6606 289.674 30.6606 289.75C30.6606 289.826 30.7365 289.75 30.7365 289.75H30.6606C30.6606 289.674 30.6606 289.598 30.6606 289.446C30.6606 289.218 30.6606 288.762 30.7365 288.306C30.8123 287.318 31.04 285.797 31.2677 283.897C31.7231 280.02 32.5579 274.548 33.5445 267.63C34.0757 264.21 34.607 260.485 35.2141 256.457C35.5177 254.48 35.8213 252.352 36.1248 250.224C36.4284 248.095 36.6561 245.891 36.9597 243.61C38.0981 234.565 39.3882 224.531 40.8302 214.118C43.7141 193.214 46.4463 174.287 48.2677 160.605C49.1784 153.763 49.9374 148.215 50.3927 144.338C50.6204 142.438 50.8481 140.917 50.9999 139.929C51.0758 139.397 51.1516 139.017 51.1516 138.789C51.2275 138.561 51.2275 138.409 51.2275 138.409Z" fill="#455A64"/>
<path d="M67.165 287.09C67.165 287.09 67.165 286.938 67.2408 286.71C67.3167 286.482 67.3167 286.102 67.3926 285.569C67.5444 284.581 67.7721 283.137 68.1516 281.313C68.8346 277.588 69.7453 272.191 70.8837 265.578C73.2364 252.276 76.4998 233.957 80.0668 213.738C80.2944 212.521 80.4462 211.229 80.2944 210.013C80.1426 208.797 79.915 207.505 79.7632 206.288C79.3837 203.78 79.0043 201.348 78.6248 198.991C77.8659 194.202 77.1069 189.566 76.4239 185.157C74.9819 176.339 73.54 168.434 72.3257 161.821C71.0355 155.208 69.973 149.887 69.1382 146.162C68.7587 144.338 68.3792 142.894 68.1516 141.906C68.0757 141.45 67.9239 141.07 67.9239 140.841C67.848 140.613 67.848 140.461 67.848 140.461C67.848 140.461 67.9239 140.613 67.9239 140.841C67.9998 141.07 68.0757 141.45 68.2275 141.906C68.4551 142.894 68.8346 144.262 69.29 146.086C70.2007 149.735 71.3391 155.056 72.6293 161.669C73.9194 168.282 75.3614 176.187 76.8034 185.005C77.5623 189.414 78.3212 194.05 79.0801 198.839C79.4596 201.272 79.8391 203.704 80.2185 206.136C80.3703 207.353 80.598 208.645 80.7498 209.861C80.9016 211.153 80.8257 212.445 80.5221 213.738C76.8792 233.957 73.6159 252.276 71.1873 265.578C69.973 272.191 68.9864 277.588 68.3034 281.313C67.9239 283.137 67.6962 284.581 67.4685 285.569C67.3926 286.026 67.3167 286.406 67.2408 286.71C67.2408 287.014 67.165 287.09 67.165 287.09Z" fill="#455A64"/>
<path d="M112.246 84.0599L95.1698 97.0581C95.1698 97.0581 79.3082 69.9215 77.8662 68.2493C76.5001 66.577 72.9332 64.7527 72.9332 64.7527L74.9064 99.4905C74.9064 99.4905 83.4823 121.458 95.2457 120.242C104.277 119.33 119.835 95.4618 119.835 95.4618L112.246 84.0599Z" fill="#DC2D22"/>
<g opacity="0.2">
<g opacity="0.2">
<g opacity="0.2">
<path opacity="0.2" d="M95.5492 96.678C97.9019 100.327 98.5849 105.039 97.2948 109.144C97.143 109.6 96.9912 109.98 96.6117 110.208C96.0046 110.512 95.2457 110.208 94.9421 109.6C94.5626 109.068 94.5626 108.308 94.4867 107.7C94.1832 108.308 93.8037 108.992 93.1965 109.372C92.5894 109.752 91.7546 109.828 91.2992 109.296C90.768 108.688 91.0715 107.7 91.3751 106.94C92.8171 103.671 94.259 100.327 95.701 97.058" fill="black"/>
</g>
</g>
</g>
<path d="M107.996 88.0125C107.92 88.0885 109.665 91.053 111.866 94.5496C114.143 98.1222 116.04 100.935 116.192 100.859C116.268 100.783 114.522 97.8941 112.321 94.3215C109.969 90.749 108.071 87.9365 107.996 88.0125Z" fill="#263238"/>
<path d="M112.322 87.4804C112.397 87.4043 112.17 87.2523 111.79 87.3283C111.638 87.4043 111.411 87.5564 111.335 87.8604C111.259 88.1645 111.487 88.5445 111.714 88.6206C112.018 88.7726 112.397 88.7726 112.625 88.5445C112.853 88.3165 112.853 88.0885 112.777 87.8604C112.701 87.5564 112.322 87.4804 112.322 87.4804C112.322 87.5564 112.473 87.7084 112.473 87.9364C112.473 88.1645 112.246 88.4685 111.942 88.2405C111.638 88.0885 111.714 87.7844 111.942 87.6324C112.094 87.5564 112.322 87.5564 112.322 87.4804Z" fill="#263238"/>
<path d="M95.1696 105.343C95.2455 105.42 95.9285 103.595 95.9285 101.239C96.0044 98.8824 95.3973 97.0581 95.2455 97.1341C95.0937 97.1341 95.4732 98.9584 95.3973 101.239C95.4732 103.443 95.0178 105.267 95.1696 105.343Z" fill="#263238"/>
<path d="M91.9063 105.191C91.9821 105.267 93.1205 103.595 94.1072 101.315C95.0938 99.0344 95.4732 97.1341 95.3973 97.0581C95.2456 97.0581 94.6384 98.8824 93.6518 101.087C92.6652 103.367 91.7545 105.115 91.9063 105.191Z" fill="#263238"/>
<path d="M37.2633 61.4842L39.8437 56.3914H58.5133L61.4731 62.1683L73.0089 64.7527L77.9419 139.169C77.9419 140.081 77.7142 141.069 77.2589 141.906L31.9508 143.654L30.1294 144.414C28.5356 143.426 29.5222 139.245 29.5222 137.345L28.9151 100.479L19.9597 71.0618L37.2633 61.4842Z" fill="#DC2D22"/>
<g opacity="0.2">
<g opacity="0.2">
<g opacity="0.2">
<path opacity="0.2" d="M56.6162 64.0686C55.5537 63.0044 54.4153 61.8642 53.3528 60.8001C52.1385 63.7646 50.8484 66.7291 49.6341 69.7696C45.3841 67.2611 41.2858 64.4487 37.4912 61.2561C41.6653 62.6244 45.8394 63.9166 50.0135 65.2848C51.076 62.4723 52.1385 59.6599 53.201 56.8474C53.96 59.4318 55.0225 61.8642 56.3885 64.1446" fill="black"/>
</g>
</g>
</g>
<path d="M4.09804 154.828L16.3168 155.436V120.318L28.915 100.402L19.9597 70.9856C18.1382 71.7457 4.17393 106.712 0.682858 116.213C0.151608 117.581 -0.076067 119.026 -0.000173569 120.47L4.09804 154.828Z" fill="#DC2D22"/>
<path d="M73.009 80.1833C72.8572 80.1833 73.4644 87.4046 74.3751 96.222C75.2858 105.115 76.0447 112.261 76.1965 112.261C76.3483 112.261 75.7411 105.039 74.8304 96.222C73.9197 87.3285 73.0849 80.1833 73.009 80.1833Z" fill="#263238"/>
<path d="M53.2009 56.8476C53.0491 56.9236 54.1116 59.584 55.4018 62.8526C55.4777 63.0806 55.5536 63.2326 55.6295 63.4607C55.7054 63.6887 55.7813 63.9168 56.0089 64.0688C56.2366 64.2968 56.6161 64.2208 56.8438 64.1448C57.0714 64.0688 57.2232 63.9168 57.375 63.8407C57.9821 63.4607 58.5134 63.0806 59.0446 62.7006C59.9554 62.0164 60.5625 61.6364 60.5625 61.5604C60.5625 61.4843 59.8795 61.8644 58.8929 62.3965C58.3616 62.7006 57.7545 63.0806 57.1473 63.4607C56.8438 63.6887 56.4643 63.9168 56.3125 63.7647C56.0848 63.6127 56.0089 63.0806 55.7813 62.7006C54.567 59.356 53.3527 56.7716 53.2009 56.8476Z" fill="#263238"/>
<path d="M38.4016 61.4082C38.4016 61.4842 39.4641 61.9402 41.2855 62.5483C43.0311 63.2325 45.5355 64.0686 48.2677 64.9807C48.7989 65.1328 49.2543 65.3608 49.7855 65.5128L50.0132 65.5889L50.0891 65.3608C51.0757 63.0044 51.9105 60.9521 52.4418 59.5078C53.0489 57.9876 53.3525 57.0754 53.2766 57.0754C53.2007 57.0754 52.8213 57.9116 52.1382 59.3558C51.4552 60.8001 50.6204 62.8524 49.6338 65.2088L49.9373 65.0568C49.482 64.9047 48.9507 64.7527 48.4195 64.5247C45.6873 63.6125 43.1829 62.7764 41.3614 62.1683C39.54 61.6362 38.4016 61.3321 38.4016 61.4082Z" fill="#263238"/>
<path d="M21.8569 72.05C21.8569 72.2021 24.4372 72.8862 27.4729 74.2544C30.5087 75.6226 32.7854 77.0669 32.8613 76.9909C32.8613 76.9149 32.3301 76.5348 31.4194 75.9267C30.5087 75.3186 29.1426 74.5585 27.6247 73.8744C26.1069 73.1902 24.6649 72.7342 23.5265 72.4301C22.5399 72.1261 21.8569 72.05 21.8569 72.05Z" fill="#263238"/>
<path d="M53.2011 56.8474C53.2011 56.8474 53.2011 56.9234 53.2011 57.0754C53.2011 57.2275 53.2011 57.4555 53.2011 57.7596C53.2011 58.3677 53.1252 59.2038 53.1252 60.268C53.1252 62.4723 53.1252 65.5889 53.277 69.5415C53.5805 77.3708 54.5671 88.0886 56.085 99.9466C56.8439 105.876 57.6787 111.5 58.21 116.593C58.7412 121.686 59.0448 126.323 58.9689 130.276C58.893 134.152 58.5894 137.345 58.21 139.473C58.0582 140.537 57.9064 141.373 57.8305 141.982C57.7546 142.21 57.7546 142.438 57.7546 142.666C57.7546 142.818 57.7546 142.894 57.7546 142.894C57.7546 142.894 57.7546 142.818 57.8305 142.666C57.9064 142.514 57.9064 142.286 57.9823 142.058C58.0582 141.525 58.2859 140.689 58.4377 139.625C58.8171 137.497 59.1966 134.304 59.3484 130.428C59.5002 126.551 59.2725 121.838 58.7412 116.745C58.21 111.576 57.3752 106.028 56.6162 100.099C55.0984 88.3166 54.0359 77.5989 53.6564 69.7696C53.4287 65.8929 53.4287 62.7004 53.3528 60.572C53.3528 59.5079 53.3528 58.6717 53.3528 58.0636C53.3528 57.8356 53.3528 57.6075 53.3528 57.3795C53.277 56.9234 53.277 56.8474 53.2011 56.8474Z" fill="#263238"/>
<path d="M3.4151 149.431C3.4151 149.583 6.29903 149.507 9.866 149.355C13.433 149.203 16.3169 148.899 16.3169 148.823C16.3169 148.671 13.433 148.747 9.866 148.899C6.29903 149.051 3.4151 149.279 3.4151 149.431Z" fill="#263238"/>
<g opacity="0.2">
<g opacity="0.2">
<g opacity="0.2">
<path opacity="0.2" d="M28.7631 100.403C30.0533 97.9702 31.4194 95.6138 32.7095 93.1814C34.3033 105.876 33.3926 118.798 30.0533 131.112C29.6738 120.926 29.2185 110.74 28.839 100.479" fill="black"/>
</g>
</g>
</g>
<path d="M48.9508 87.1765C48.9508 87.1765 48.7231 87.1765 48.2677 87.1005C47.7365 87.1005 46.9775 87.1005 46.1427 87.0245C44.3213 87.0245 41.665 86.9485 38.4016 86.9485H38.174V87.1765C38.4016 89.989 38.6293 93.2575 38.857 96.6781V96.8301L38.9329 96.9061C39.0847 96.9822 39.2365 97.0582 39.3882 97.1342C41.2097 98.0463 42.8793 98.9585 44.549 99.8706L44.7007 99.9467L44.7766 99.8706C46.5222 98.4264 48.1159 97.1342 49.5579 95.918L49.6338 95.842V95.766C49.4061 93.1815 49.2543 91.0532 49.1025 89.4569C49.0266 88.7728 48.9508 88.1647 48.9508 87.7086C49.0267 87.3285 48.9508 87.1005 48.9508 87.1765C48.9508 87.1765 48.9508 87.4046 48.9508 87.8606C48.9508 88.3167 49.0266 88.9248 49.0266 89.6089C49.1025 91.2052 49.2543 93.2575 49.4061 95.842L49.482 95.6899C48.04 96.8301 46.3704 98.1224 44.6249 99.5666H44.8525C43.2588 98.7305 41.5132 97.8183 39.6918 96.8301C39.54 96.7541 39.3882 96.6781 39.2365 96.6021L39.3882 96.7541C39.0847 93.2575 38.857 90.065 38.6293 87.2525L38.4016 87.4806C41.5132 87.4806 44.0936 87.4046 45.9909 87.4046C46.9016 87.4046 47.5847 87.3285 48.1918 87.3285C48.6472 87.1765 48.9508 87.1765 48.9508 87.1765Z" fill="#263238"/>
<path d="M71.3395 142.286C71.3395 142.438 72.3261 142.21 72.9332 141.297C73.5404 140.385 73.3886 139.473 73.2368 139.473C73.085 139.473 73.085 140.233 72.5538 141.069C72.0225 141.83 71.3395 142.134 71.3395 142.286Z" fill="#263238"/>
<path d="M70.2006 141.83C70.2765 141.906 71.1113 141.069 71.4908 139.701C71.8702 138.333 71.4908 137.193 71.339 137.269C71.1872 137.269 71.339 138.333 71.0354 139.625C70.6559 140.841 70.0488 141.677 70.2006 141.83Z" fill="#263238"/>
<path d="M35.9734 136.661C35.8216 136.661 35.7457 138.485 36.6564 140.385C37.5671 142.362 39.0091 143.426 39.085 143.35C39.1609 143.274 37.9466 142.058 37.0359 140.233C36.201 138.409 36.1252 136.661 35.9734 136.661Z" fill="#263238"/>
<path d="M113.232 85.5043C113.232 85.5043 127.045 75.0146 128.942 74.3304C132.129 73.1903 132.888 73.4943 132.888 73.4943L125.299 81.6277C125.299 81.6277 133.268 84.3641 133.875 84.6682C134.482 85.0482 134.71 86.7205 132.812 86.7205C131.219 86.7205 123.554 86.8725 123.554 86.8725L117.254 91.5093L113.232 85.5043Z" fill="#FFBE9D"/>
</g>
</svg>
