<svg width="200" height="152" viewBox="0 0 200 152" fill="none" xmlns="http://www.w3.org/2000/svg">
<path d="M5.58398 74.4374C5.58398 105.375 30.6934 130.479 61.6374 130.479C92.5814 130.479 117.691 105.375 117.691 74.4374C117.691 43.4999 92.5814 18.3957 61.6374 18.3957C30.6934 18.2915 5.58398 43.4999 5.58398 74.4374Z" fill="#E5E8EC"/>
<path d="M141.134 45.7916C141.134 62.0416 154.262 75.1666 170.515 75.1666C186.768 75.1666 199.896 62.0416 199.896 45.7916C199.896 29.5416 186.768 16.4166 170.515 16.4166C154.366 16.4166 141.134 29.5416 141.134 45.7916Z" fill="#E5E8EC"/>
<path d="M46.9468 134.125C44.7588 134.125 43.0918 132.354 43.0918 130.271V57.979C43.0918 55.7915 44.863 54.1249 46.9468 54.1249H152.49C154.678 54.1249 156.345 55.8957 156.345 57.979V130.167C156.345 132.354 154.573 134.021 152.49 134.021H46.9468V134.125Z" fill="#CDD5D7"/>
<path d="M156.032 130.167C156.032 132.146 154.469 133.708 152.49 133.708H46.9467C44.9671 133.708 43.4043 132.146 43.4043 130.167V57.979C43.4043 55.9999 44.9671 54.4374 46.9467 54.4374H152.49C154.469 54.4374 156.032 55.9999 156.032 57.979V130.167Z" fill="#194760"/>
<path d="M150.511 59.5415H49.0312V124.333H150.511V59.5415Z" fill="#FEDD7E"/>
<path d="M95.6033 59.5415L97.5829 54.4374H81.4337L79.4541 59.5415H95.6033Z" fill="#484F59"/>
<path d="M54.3448 124.333L50.6982 133.708H66.8475L70.494 124.333H54.3448Z" fill="#484F59"/>
<path d="M106.022 59.5415L108.001 54.4374H102.792L100.812 59.5415H106.022Z" fill="#484F59"/>
<path d="M75.7032 124.333L72.0566 133.708H77.2661L80.9127 124.333H75.7032Z" fill="#484F59"/>
<path d="M175.412 129.75H24.1299V134.125H175.412V129.75Z" fill="#E5E8EC"/>
<path d="M24.3379 134.125C26.1091 136 29.4431 136.729 31.6311 136.729H167.701C169.993 136.729 173.223 136 174.994 134.125H24.3379Z" fill="#CDD5D7"/>
<path d="M89.4561 129.75V130.271C89.4561 131.104 90.1854 131.833 91.0189 131.833H108.418C109.252 131.833 109.981 131.104 109.981 130.271V129.75H89.4561Z" fill="#CDD5D7"/>
<path d="M61.8467 103.5V101.417C64.6598 101.417 66.9519 99.125 66.9519 96.3125V93.1875H69.0357V96.3125C69.0357 100.271 65.8058 103.5 61.8467 103.5Z" fill="#F1FAFC"/>
<path d="M75.3911 113.5H73.3073V91C73.3073 89.8541 72.3696 88.8125 71.1194 88.8125C69.8691 88.8125 68.9314 89.75 68.9314 91V94.75H66.8477V91C66.8477 88.7083 68.7231 86.7291 71.1194 86.7291C73.4115 86.7291 75.3911 88.6041 75.3911 91V113.5Z" fill="#F1FAFC"/>
<path d="M86.8517 99.6458H84.7679V83.7083C84.7679 82.0416 83.4135 80.7916 81.8507 80.7916C80.1836 80.7916 78.9334 82.1458 78.9334 83.7083V99.6458H76.8496V83.7083C76.8496 80.8958 79.1418 78.7083 81.8507 78.7083C84.6637 78.7083 86.8517 80.9999 86.8517 83.7083V99.6458Z" fill="#F1FAFC"/>
<path d="M76.1207 118.083C74.5579 118.083 73.3076 116.833 73.3076 115.271V98.3958H75.3914V115.271C75.3914 115.687 75.704 116 76.1207 116C76.5375 116 76.85 115.687 76.85 115.271V98.3958H78.9338V115.271C78.9338 116.833 77.6835 118.083 76.1207 118.083Z" fill="#F1FAFC"/>
<path d="M61.9507 103.5C57.9916 103.5 54.7617 100.271 54.7617 96.3125V89.8541H56.8455V96.3125C56.8455 99.125 59.1376 101.417 61.9507 101.417V103.5Z" fill="#F1FAFC"/>
<path d="M56.8457 90.4791H54.7619V84.0207C54.7619 81.2082 52.4698 78.9166 49.6567 78.9166H24.3389V76.8333H49.7609C53.72 76.8333 56.9499 80.0624 56.9499 84.0207V90.4791H56.8457Z" fill="#F1FAFC"/>
<path d="M25.5888 78.9166H22.0464C18.0873 78.9166 14.8574 75.6875 14.8574 71.7291V56.4166H16.9412V71.8333C16.9412 74.6458 19.2333 76.9375 22.0464 76.9375H25.5888V78.9166Z" fill="#F1FAFC"/>
<path d="M91.8525 112.979V110.896C94.6656 110.896 96.9578 108.604 96.9578 105.792V21.1041H99.0415V105.792C99.0415 109.75 95.8117 112.979 91.8525 112.979Z" fill="#F1FAFC"/>
<path d="M92.0611 112.979C88.1019 112.979 84.8721 109.75 84.8721 105.792V90.375H86.9558V105.792C86.9558 108.604 89.248 110.896 92.0611 110.896V112.979Z" fill="#F1FAFC"/>
<path d="M118.42 96.8333H115.294C111.335 96.8333 108.105 93.6041 108.105 89.6458V72.9791H110.189V89.6458C110.189 92.4583 112.481 94.75 115.294 94.75H118.42V96.8333Z" fill="#F1FAFC"/>
<path d="M118.525 103.292H107.897V101.208H118.525C119.671 101.208 120.713 100.271 120.713 99.0207C120.713 97.8749 119.775 96.8332 118.525 96.8332H116.858V94.7499H118.525C120.817 94.7499 122.796 96.6249 122.796 99.0207C122.692 101.417 120.817 103.292 118.525 103.292Z" fill="#F1FAFC"/>
<path d="M132.903 149.854H130.819V109.75C130.819 108.083 129.465 106.833 127.902 106.833H111.961V104.75H127.902C130.715 104.75 132.903 107.042 132.903 109.75V149.854Z" fill="#F1FAFC"/>
<path d="M113.211 106.833H106.23C104.667 106.833 103.417 105.583 103.417 104.021C103.417 102.458 104.667 101.208 106.23 101.208H113.211V103.292H106.23C105.813 103.292 105.501 103.604 105.501 104.021C105.501 104.437 105.813 104.75 106.23 104.75H113.211V106.833Z" fill="#F1FAFC"/>
<path d="M71.1188 46.4165H61.1167C57.1576 46.4165 53.9277 43.1874 53.9277 39.229V29.4374H56.0115V39.229C56.0115 42.0415 58.3037 44.3332 61.1167 44.3332H71.1188V46.4165Z" fill="#F1FAFC"/>
<path d="M83.3085 79.4374H81.2248V51.5208C81.2248 48.7083 78.9326 46.4166 76.1195 46.4166H69.5557V44.3333H76.1195C80.0787 44.3333 83.3085 47.5624 83.3085 51.5208V79.4374Z" fill="#F1FAFC"/>
<path d="M73.6188 110.167H21.733C17.7738 110.167 14.5439 106.937 14.5439 102.979V99.3333H16.6277V102.979C16.6277 105.792 18.9199 108.083 21.733 108.083H73.6188V110.167Z" fill="#F1FAFC"/>
<path d="M129.882 95.1666V93.0833C132.695 93.0833 134.987 90.7916 134.987 87.9791H137.071H134.987H137.071C137.071 91.9375 133.841 95.1666 129.882 95.1666Z" fill="#F1FAFC"/>
<path d="M143.426 98.4999H141.342V85.7916C141.342 84.6458 140.405 83.6041 139.155 83.6041C138.008 83.6041 136.967 84.5416 136.967 85.7916V88.4999H134.883V85.7916C134.883 83.4999 136.758 81.5208 139.155 81.5208C141.447 81.5208 143.426 83.3958 143.426 85.7916V98.4999Z" fill="#F1FAFC"/>
<path d="M144.155 102.979C142.592 102.979 141.342 101.729 141.342 100.167V93.1874H143.426V100.167C143.426 100.583 143.738 100.896 144.155 100.896C144.572 100.896 144.884 100.583 144.884 100.167V50.5833H146.968V100.167C146.968 101.729 145.718 102.979 144.155 102.979Z" fill="#F1FAFC"/>
<path d="M129.986 95.1666C126.027 95.1666 122.797 91.9374 122.797 87.9791V84.6458H124.881V87.9791C124.881 90.7916 127.173 93.0833 129.986 93.0833V95.1666Z" fill="#F1FAFC"/>
<path d="M147.072 51.4166H144.988C144.988 47.4583 148.218 44.2291 152.177 44.2291H157.595V46.3125H152.177C149.364 46.3125 147.072 48.6041 147.072 51.4166Z" fill="#F1FAFC"/>
<path d="M124.985 85.2708H122.901V78.8125C122.901 76 120.609 73.7083 117.796 73.7083H97.8955V71.625H117.796C121.755 71.625 124.985 74.8542 124.985 78.8125V85.2708Z" fill="#F1FAFC"/>
<path d="M143.634 144.958C138.633 151.729 129.048 153.083 122.275 147.979C115.503 142.979 114.149 133.396 119.254 126.625C124.255 119.854 133.84 118.5 140.612 123.604C147.385 128.604 148.739 138.187 143.634 144.958Z" fill="#DC2D22"/>
<path d="M28.714 117.354C23.713 124.125 14.1276 125.479 7.35536 120.375C0.583111 115.375 -0.771339 105.792 4.3339 99.0207C9.33494 92.2499 18.9203 90.8957 25.6925 95.9999C32.4648 101.104 33.8192 110.583 28.714 117.354Z" fill="#7EC8EF"/>
<path d="M66.9513 25.3749C61.9503 32.1457 52.3649 33.4999 45.5927 28.3957C38.8204 23.3957 37.466 13.8124 42.5712 7.04158C47.5723 0.270749 57.1576 -1.08342 63.9298 4.02075C70.5979 9.12492 71.9524 18.6041 66.9513 25.3749Z" fill="#DC2D22"/>
<path d="M21.2127 103.396C20.6917 103.396 20.1708 103.396 19.6498 103.396V102.562C19.6498 101 18.3996 99.7499 16.8367 99.7499C15.2739 99.7499 14.0237 101 14.0237 102.562V103.396C13.3985 103.396 12.6692 103.396 12.0441 103.396C12.1483 107.146 11.6273 110.792 11.4189 114.542C14.8572 114.854 18.3996 114.854 21.8378 114.542C21.6294 110.792 21.1085 107.042 21.2127 103.396ZM19.6498 104.333V104.125C19.754 104.229 19.8582 104.333 19.8582 104.542C19.8582 104.75 19.6498 105.062 19.3373 105.062C19.1289 105.062 18.8163 104.854 18.8163 104.542C18.8163 104.333 18.9205 104.125 19.1289 104.125V104.333C19.1289 104.437 19.1289 104.542 19.1289 104.646H19.5456C19.6498 104.542 19.6498 104.437 19.6498 104.333ZM14.3362 102.458C14.3362 101.104 15.4823 99.9582 16.8367 99.9582C18.1912 99.9582 19.3373 101.104 19.3373 102.458V103.292C17.6703 103.292 16.0032 103.292 14.3362 103.292V102.458ZM13.7111 104.542C13.7111 104.333 13.8153 104.229 13.9195 104.125V104.333C13.9195 104.437 13.9195 104.542 13.9195 104.646H14.3362C14.3362 104.542 14.3362 104.437 14.3362 104.333V104.125C14.5446 104.229 14.6488 104.333 14.6488 104.542C14.6488 104.75 14.4404 105.062 14.1278 105.062C13.9195 105.062 13.7111 104.854 13.7111 104.542ZM16.9409 111.729L14.1278 109.333L17.6703 105.271L19.754 105.687L20.4833 107.667L16.9409 111.729Z" fill="#F1FAFC"/>
<path d="M18.3991 106.417C18.1908 106.625 18.1908 106.937 18.5033 107.146C18.7117 107.354 19.0243 107.354 19.2326 107.042C19.441 106.833 19.441 106.521 19.1285 106.312C19.0243 106.104 18.6075 106.208 18.3991 106.417Z" fill="#F1FAFC"/>
<path d="M131.339 127.979C128.11 127.979 125.505 130.583 125.505 133.812C125.505 137.042 129.985 142.771 131.339 142.771C132.902 142.771 137.174 136.937 137.174 133.812C137.174 130.583 134.569 127.979 131.339 127.979ZM131.339 137.667C129.047 137.667 127.172 135.896 127.172 133.604C127.172 131.312 129.047 129.542 131.339 129.542C133.632 129.542 135.507 131.312 135.507 133.604C135.507 135.896 133.632 137.667 131.339 137.667Z" fill="#F1FAFC"/>
<path d="M63.9302 15.2708C63.9302 13.1874 62.2632 11.5208 60.1794 11.5208C59.7626 11.5208 59.4501 11.6249 59.0333 11.7291C58.8249 9.33325 56.7412 7.45825 54.3448 7.45825C51.7401 7.45825 49.6564 9.54159 49.6564 12.1458C49.6564 12.4583 49.6564 12.7708 49.7605 13.0833H48.927C47.26 13.0833 46.0098 14.4374 46.0098 15.9999C46.0098 17.5624 47.3642 18.9166 48.927 18.9166H60.5962C61.4297 18.9166 62.2632 18.4999 62.7841 17.9791C63.5134 17.3541 63.9302 16.4166 63.9302 15.2708Z" fill="#F1FAFC"/>
<path d="M54.9703 25.0625C53.4074 25.0625 51.9488 24.4375 50.8027 23.2916L51.7404 22.3541C53.5116 24.125 56.4289 24.125 58.2001 22.3541L59.1378 23.2916C57.9917 24.4375 56.4289 25.0625 54.9703 25.0625Z" fill="#F1FAFC"/>
<path d="M54.9699 22.3541C54.1364 22.3541 53.3029 22.0416 52.6777 21.4166L53.6154 20.4791C54.3448 21.2083 55.595 21.2083 56.3243 20.4791L57.262 21.4166C56.6369 22.0416 55.8034 22.3541 54.9699 22.3541Z" fill="#F1FAFC"/>
<path d="M28.4015 60.5833C23.4005 67.3541 13.8151 68.7083 7.04286 63.6041C0.270611 58.6041 -1.08384 49.0208 4.0214 42.25C9.02244 35.4791 18.6078 34.125 25.38 39.2291C32.0481 44.3333 33.5067 53.9166 28.4015 60.5833Z" fill="#0164A8"/>
<path d="M23.7134 51.5208C23.7134 47.3541 20.3794 44.0208 16.2118 44.0208C12.0443 44.0208 8.81445 47.3541 8.81445 51.5208C8.81445 55.6874 12.1485 59.0208 16.2118 59.0208C20.3794 59.0208 23.7134 55.6874 23.7134 51.5208ZM21.5254 54.4374C20.7961 54.2291 20.171 54.1249 19.4417 54.0208C19.5459 53.3958 19.6501 52.7708 19.6501 52.1458H22.2548C22.1506 52.9791 21.9422 53.8124 21.5254 54.4374ZM16.2118 57.4583C15.6909 57.4583 15.0658 56.6249 14.5448 55.1666C15.5867 55.0624 16.7328 55.0624 17.7747 55.1666C17.3579 56.6249 16.7328 57.4583 16.2118 57.4583ZM14.2323 53.9166C14.1281 53.3958 14.1281 52.7708 14.0239 52.1458H18.2956C18.2956 52.7708 18.1914 53.2916 18.0872 53.9166C16.837 53.8124 15.5867 53.8124 14.2323 53.9166ZM10.8982 48.4999C11.6275 48.7083 12.2527 48.8124 12.982 48.9166C12.8778 49.5416 12.7736 50.1666 12.7736 50.7916H10.1689C10.2731 49.9583 10.4815 49.2291 10.8982 48.4999ZM16.2118 45.4791C16.7328 45.4791 17.3579 46.3124 17.8789 47.7708C16.837 47.8749 15.6909 47.8749 14.649 47.7708C15.0658 46.3124 15.6909 45.4791 16.2118 45.4791ZM16.2118 49.2291C16.837 49.2291 17.4621 49.2291 18.1914 49.1249C18.2956 49.6458 18.3998 50.2708 18.3998 50.8958H14.1281C14.1281 50.2708 14.2323 49.7499 14.3364 49.1249C14.9616 49.1249 15.5867 49.2291 16.2118 49.2291ZM10.1689 52.1458H12.7736C12.7736 52.7708 12.8778 53.3958 12.982 54.0208C12.2527 54.1249 11.6275 54.2291 10.8982 54.4374C10.4815 53.8124 10.2731 52.9791 10.1689 52.1458ZM19.7542 50.7916C19.7542 50.1666 19.6501 49.5416 19.5459 48.9166C20.2752 48.8124 20.9003 48.7083 21.6296 48.4999C22.0464 49.2291 22.2548 49.9583 22.359 50.7916H19.7542ZM20.6919 47.3541C20.171 47.4583 19.6501 47.5624 19.2333 47.6666C19.0249 46.9374 18.8165 46.3124 18.504 45.7916C19.3375 46.1041 20.0668 46.6249 20.6919 47.3541ZM14.0239 45.7916C13.7113 46.3124 13.5029 46.9374 13.2946 47.6666C12.7736 47.5624 12.2527 47.4583 11.8359 47.3541C12.3569 46.6249 13.0862 46.1041 14.0239 45.7916ZM11.7317 55.6874C12.2527 55.5833 12.7736 55.4791 13.1904 55.3749C13.3987 56.1041 13.6071 56.7291 13.9197 57.2499C13.0862 56.9374 12.3569 56.3124 11.7317 55.6874ZM18.504 57.2499C18.8165 56.7291 19.0249 56.1041 19.2333 55.3749C19.7542 55.4791 20.2752 55.5833 20.6919 55.6874C20.0668 56.3124 19.3375 56.9374 18.504 57.2499Z" fill="#F1FAFC"/>
<path d="M160.93 58.1874C154.157 53.1874 152.803 43.604 157.908 36.8332C162.909 30.0624 172.494 28.7082 179.267 33.8124C186.039 38.8124 187.393 48.3957 182.288 55.1665C177.183 61.8332 167.598 63.2915 160.93 58.1874Z" fill="#0164A8"/>
<path d="M168.014 38.6041C164.784 38.6041 162.075 41.2083 162.075 44.5416C162.075 47.7708 164.68 50.4791 168.014 50.4791C171.244 50.4791 173.953 47.875 173.953 44.5416C173.953 41.3125 171.244 38.6041 168.014 38.6041ZM168.014 48.2916C165.93 48.2916 164.263 46.625 164.263 44.5416C164.263 42.4583 165.93 40.7916 168.014 40.7916C170.098 40.7916 171.765 42.4583 171.765 44.5416C171.765 46.625 170.098 48.2916 168.014 48.2916Z" fill="#F1FAFC"/>
<path d="M175.932 53.8125C175.724 53.8125 175.619 53.7083 175.515 53.6041L171.035 48.8125C170.827 48.6041 170.827 48.1875 171.035 47.9791C171.244 47.7708 171.66 47.7708 171.869 47.9791L176.349 52.7708C176.557 52.9791 176.557 53.3958 176.349 53.6041C176.245 53.7083 176.14 53.8125 175.932 53.8125Z" fill="#F1FAFC"/>
<path d="M175.933 54.4374C175.62 54.4374 175.203 54.3333 174.995 54.0208L172.182 50.9999C171.661 50.4791 171.765 49.6458 172.182 49.2291C172.703 48.7083 173.536 48.8124 173.953 49.2291L176.766 52.2499C177.287 52.7708 177.183 53.6041 176.766 54.0208C176.662 54.3333 176.349 54.4374 175.933 54.4374Z" fill="#F1FAFC"/>
<path d="M109.773 27.1458C104.772 33.9166 95.1862 35.2708 88.414 30.1666C81.6417 25.1666 80.2873 15.5833 85.3925 8.81246C90.3935 2.04162 99.9789 0.687456 106.751 5.79162C113.419 10.8958 114.774 20.4791 109.773 27.1458Z" fill="#7EC8EF"/>
<path d="M93.3112 19.7499H93.1028C92.9986 19.7499 92.7902 19.7499 91.6441 20.3749L92.0609 19.229L91.7483 19.0207C90.6023 18.2915 90.0813 17.2499 90.0813 16.2082C90.0813 14.0207 92.4776 12.354 95.4991 12.354C97.1661 12.354 98.6248 12.8749 99.5625 13.7082C99.7708 13.7082 100.083 13.7082 100.292 13.7082C100.5 13.7082 100.813 13.7082 101.021 13.7082C99.875 12.2499 97.7913 11.3124 95.3949 11.3124C91.7483 11.3124 88.8311 13.4999 88.8311 16.3124C88.8311 17.5624 89.4562 18.8124 90.7064 19.7499L89.5604 22.8749L90.8106 22.1457C91.6441 21.6249 92.686 21.104 92.9986 20.9999C93.5195 21.104 93.9363 21.2082 94.4572 21.3124C94.1447 20.8957 93.9363 20.479 93.7279 20.0624C93.7279 19.9582 93.5195 19.854 93.3112 19.7499Z" fill="#F1FAFC"/>
<path d="M106.231 18.604C106.231 16.2082 103.522 14.1249 100.292 14.1249C96.9582 14.1249 94.3535 16.104 94.3535 18.604C94.3535 21.104 97.0624 23.0832 100.292 23.0832C101.126 23.0832 101.855 22.979 102.584 22.7707C102.793 22.6665 105.085 24.0207 105.085 24.0207L104.356 21.9374C105.502 21.104 106.231 19.9582 106.231 18.604ZM103.418 20.0624H97.2708V19.4374H103.418V20.0624ZM103.418 18.9165H97.2708V18.2915H103.418V18.9165ZM103.418 17.7707H97.2708V17.1457H103.418V17.7707Z" fill="#F1FAFC"/>
</svg>
