<svg width="174" height="134" viewBox="0 0 174 134" fill="none" xmlns="http://www.w3.org/2000/svg">
<path d="M149.161 5.51388V122.203C149.161 125.152 146.729 127.717 143.656 127.717H31.1127C28.1679 127.717 25.6072 125.28 25.6072 122.203V5.51388C25.6072 2.43636 28.0398 0 31.1127 0H143.656C146.729 0 149.161 2.43636 149.161 5.51388Z" fill="white"/>
<path d="M148.777 15.0029V5.51388C148.777 2.43636 146.344 0 143.271 0H30.7284C27.7836 0 25.2229 2.43636 25.2229 5.51388V15.1311H148.777V15.0029Z" fill="#0164A8"/>
<path d="M38.1546 7.56549C38.1546 9.10425 36.8742 10.3865 35.3378 10.3865C33.8014 10.3865 32.521 9.10425 32.521 7.56549C32.521 6.02673 33.8014 4.74444 35.3378 4.74444C36.8742 4.61621 38.1546 5.8985 38.1546 7.56549Z" fill="white"/>
<path d="M47.3731 7.56549C47.3731 9.10425 46.0927 10.3865 44.5563 10.3865C43.0199 10.3865 41.7395 9.10425 41.7395 7.56549C41.7395 6.02673 43.0199 4.74444 44.5563 4.74444C46.0927 4.61621 47.3731 5.8985 47.3731 7.56549Z" fill="white"/>
<path d="M56.5916 7.56549C56.5916 9.10425 55.3112 10.3865 53.7748 10.3865C52.2384 10.3865 50.958 9.10425 50.958 7.56549C50.958 6.02673 52.2384 4.74444 53.7748 4.74444C55.3112 4.61621 56.5916 5.8985 56.5916 7.56549Z" fill="white"/>
<path d="M141.479 7.56546C141.479 8.84775 140.455 9.87359 139.174 9.87359H67.7307C66.4503 9.87359 65.426 8.84775 65.426 7.56546C65.426 6.28316 66.4503 5.25732 67.7307 5.25732H139.302C140.455 5.25732 141.479 6.28316 141.479 7.56546Z" fill="white"/>
<path d="M129.7 33.9808H44.1721V56.421H129.7V33.9808Z" fill="#FFD354"/>
<path d="M65.6821 62.3196H44.1721V83.8622H65.6821V62.3196Z" fill="#71C3B9"/>
<path d="M97.6908 62.3196H76.1809V83.8622H97.6908V62.3196Z" fill="#ED6A54"/>
<path d="M130.596 64.6278C130.34 64.6278 130.084 64.3713 130.084 64.1149V63.6019H129.572C129.316 63.6019 129.06 63.3455 129.06 63.089C129.06 62.8326 129.316 62.5761 129.572 62.5761H130.724C130.98 62.5761 131.236 62.8326 131.236 63.089V64.2431C131.236 64.3713 130.98 64.6278 130.596 64.6278Z" fill="#37495E"/>
<path d="M130.596 80.7847C130.34 80.7847 130.084 80.5282 130.084 80.2717V78.2201C130.084 77.9636 130.34 77.7072 130.596 77.7072C130.852 77.7072 131.108 77.9636 131.108 78.2201V80.2717C131.236 80.5282 130.98 80.7847 130.596 80.7847ZM130.596 76.6813C130.34 76.6813 130.084 76.4249 130.084 76.1684V74.1167C130.084 73.8603 130.34 73.6038 130.596 73.6038C130.852 73.6038 131.108 73.8603 131.108 74.1167V76.1684C131.236 76.4249 130.98 76.6813 130.596 76.6813ZM130.596 72.7062C130.34 72.7062 130.084 72.4497 130.084 72.1933V70.1416C130.084 69.8851 130.34 69.6287 130.596 69.6287C130.852 69.6287 131.108 69.8851 131.108 70.1416V72.1933C131.236 72.4497 130.98 72.7062 130.596 72.7062ZM130.596 68.6028C130.34 68.6028 130.084 68.3464 130.084 68.0899V66.0383C130.084 65.7818 130.34 65.5253 130.596 65.5253C130.852 65.5253 131.108 65.7818 131.108 66.0383V68.0899C131.236 68.3464 130.98 68.6028 130.596 68.6028Z" fill="#37495E"/>
<path d="M130.596 83.8623H129.444C129.188 83.8623 128.932 83.6058 128.932 83.3494C128.932 83.0929 129.188 82.8364 129.444 82.8364H129.956V82.3235C129.956 82.0671 130.212 81.8106 130.468 81.8106C130.724 81.8106 130.98 82.0671 130.98 82.3235V83.3494C131.236 83.6058 130.98 83.8623 130.596 83.8623Z" fill="#37495E"/>
<path d="M127.523 83.8622H125.475C125.218 83.8622 124.962 83.6057 124.962 83.3493C124.962 83.0928 125.218 82.8364 125.475 82.8364H127.523C127.779 82.8364 128.035 83.0928 128.035 83.3493C128.035 83.6057 127.779 83.8622 127.523 83.8622ZM123.426 83.8622H121.377C121.121 83.8622 120.865 83.6057 120.865 83.3493C120.865 83.0928 121.121 82.8364 121.377 82.8364H123.426C123.682 82.8364 123.938 83.0928 123.938 83.3493C124.066 83.6057 123.81 83.8622 123.426 83.8622ZM119.457 83.8622H117.408C117.152 83.8622 116.896 83.6057 116.896 83.3493C116.896 83.0928 117.152 82.8364 117.408 82.8364H119.457C119.713 82.8364 119.969 83.0928 119.969 83.3493C119.969 83.6057 119.713 83.8622 119.457 83.8622ZM115.36 83.8622H113.311C113.055 83.8622 112.799 83.6057 112.799 83.3493C112.799 83.0928 113.055 82.8364 113.311 82.8364H115.36C115.616 82.8364 115.872 83.0928 115.872 83.3493C116 83.6057 115.744 83.8622 115.36 83.8622Z" fill="#37495E"/>
<path d="M111.391 83.8622H110.238C109.982 83.8622 109.726 83.6058 109.726 83.3493V82.1952C109.726 81.9388 109.982 81.6823 110.238 81.6823C110.495 81.6823 110.751 81.9388 110.751 82.1952V82.7082H111.391C111.647 82.7082 111.903 82.9646 111.903 83.2211C111.903 83.6058 111.647 83.8622 111.391 83.8622Z" fill="#37495E"/>
<path d="M110.238 80.7847C109.982 80.7847 109.726 80.5282 109.726 80.2717V78.2201C109.726 77.9636 109.982 77.7072 110.238 77.7072C110.495 77.7072 110.751 77.9636 110.751 78.2201V80.2717C110.751 80.5282 110.623 80.7847 110.238 80.7847ZM110.238 76.6813C109.982 76.6813 109.726 76.4249 109.726 76.1684V74.1167C109.726 73.8603 109.982 73.6038 110.238 73.6038C110.495 73.6038 110.751 73.8603 110.751 74.1167V76.1684C110.751 76.4249 110.623 76.6813 110.238 76.6813ZM110.238 72.7062C109.982 72.7062 109.726 72.4497 109.726 72.1933V70.1416C109.726 69.8851 109.982 69.6287 110.238 69.6287C110.495 69.6287 110.751 69.8851 110.751 70.1416V72.1933C110.751 72.4497 110.623 72.7062 110.238 72.7062ZM110.238 68.6028C109.982 68.6028 109.726 68.3464 109.726 68.0899V66.0383C109.726 65.7818 109.982 65.5253 110.238 65.5253C110.495 65.5253 110.751 65.7818 110.751 66.0383V68.0899C110.751 68.3464 110.623 68.6028 110.238 68.6028Z" fill="#37495E"/>
<path d="M110.238 64.6278C109.982 64.6278 109.726 64.3713 109.726 64.1149V62.9608C109.726 62.7043 109.982 62.4479 110.238 62.4479H111.391C111.647 62.4479 111.903 62.7043 111.903 62.9608C111.903 63.2173 111.647 63.4737 111.391 63.4737H110.879V63.9866C110.751 64.3713 110.623 64.6278 110.238 64.6278Z" fill="#37495E"/>
<path d="M127.523 63.4737H125.475C125.218 63.4737 124.962 63.2173 124.962 62.9608C124.962 62.7043 125.218 62.4479 125.475 62.4479H127.523C127.779 62.4479 128.035 62.7043 128.035 62.9608C128.035 63.2173 127.779 63.4737 127.523 63.4737ZM123.426 63.4737H121.377C121.121 63.4737 120.865 63.2173 120.865 62.9608C120.865 62.7043 121.121 62.4479 121.377 62.4479H123.426C123.682 62.4479 123.938 62.7043 123.938 62.9608C123.938 63.2173 123.81 63.4737 123.426 63.4737ZM119.457 63.4737H117.408C117.152 63.4737 116.896 63.2173 116.896 62.9608C116.896 62.7043 117.152 62.4479 117.408 62.4479H119.457C119.713 62.4479 119.969 62.7043 119.969 62.9608C119.969 63.2173 119.713 63.4737 119.457 63.4737ZM115.36 63.4737H113.311C113.055 63.4737 112.799 63.2173 112.799 62.9608C112.799 62.7043 113.055 62.4479 113.311 62.4479H115.36C115.616 62.4479 115.872 62.7043 115.872 62.9608C115.872 63.2173 115.744 63.4737 115.36 63.4737Z" fill="#37495E"/>
<path d="M165.934 73.2191C165.934 73.6038 165.678 73.9885 165.166 73.9885H131.236C130.852 73.9885 130.468 73.732 130.468 73.2191C130.468 72.8344 130.852 72.4497 131.236 72.4497H165.166C165.678 72.4497 165.934 72.8344 165.934 73.2191Z" fill="#37495E"/>
<path d="M174 73.2192C174 77.9637 170.159 81.8106 165.422 81.8106C160.684 81.8106 156.843 77.9637 156.843 73.2192C156.843 68.4747 160.684 64.6278 165.422 64.6278C170.159 64.6278 174 68.4747 174 73.2192Z" fill="#ED6A54"/>
<path d="M43.2759 95.9158C43.532 95.9158 43.7881 95.6594 43.7881 95.4029V94.89H44.3002C44.5563 94.89 44.8123 94.6335 44.8123 94.3771C44.8123 94.1206 44.5563 93.8641 44.3002 93.8641H43.1479C42.8918 93.8641 42.6357 94.1206 42.6357 94.3771V95.5311C42.7638 95.6594 43.0198 95.9158 43.2759 95.9158Z" fill="#37495E"/>
<path d="M42.7637 111.56V109.508C42.7637 109.252 43.0197 108.995 43.2758 108.995C43.5319 108.995 43.788 109.252 43.788 109.508V111.56C43.788 111.816 43.5319 112.073 43.2758 112.073C43.0197 112.073 42.7637 111.816 42.7637 111.56ZM42.7637 107.456V105.405C42.7637 105.148 43.0197 104.892 43.2758 104.892C43.5319 104.892 43.788 105.148 43.788 105.405V107.456C43.788 107.713 43.5319 107.969 43.2758 107.969C43.0197 107.969 42.7637 107.841 42.7637 107.456ZM42.7637 103.481V101.43C42.7637 101.173 43.0197 100.917 43.2758 100.917C43.5319 100.917 43.788 101.173 43.788 101.43V103.481C43.788 103.738 43.5319 103.994 43.2758 103.994C43.0197 103.994 42.7637 103.738 42.7637 103.481ZM42.7637 99.3779V97.3263C42.7637 97.0698 43.0197 96.8134 43.2758 96.8134C43.5319 96.8134 43.788 97.0698 43.788 97.3263V99.3779C43.788 99.6344 43.5319 99.8909 43.2758 99.8909C43.0197 99.8909 42.7637 99.7626 42.7637 99.3779Z" fill="#37495E"/>
<path d="M43.2758 115.279H44.4281C44.6842 115.279 44.9403 115.022 44.9403 114.766C44.9403 114.509 44.6842 114.253 44.4281 114.253H43.916V113.74C43.916 113.483 43.6599 113.227 43.4039 113.227C43.1478 113.227 42.8917 113.483 42.8917 113.74V114.894C42.7637 115.022 43.0198 115.279 43.2758 115.279Z" fill="#37495E"/>
<path d="M45.9646 114.637C45.9646 114.381 46.2207 114.124 46.4767 114.124H48.5253C48.7814 114.124 49.0374 114.381 49.0374 114.637C49.0374 114.894 48.7814 115.15 48.5253 115.15H46.4767C46.0926 115.278 45.9646 115.022 45.9646 114.637ZM49.9337 114.637C49.9337 114.381 50.1898 114.124 50.4458 114.124H52.4944C52.7505 114.124 53.0065 114.381 53.0065 114.637C53.0065 114.894 52.7505 115.15 52.4944 115.15H50.4458C50.1898 115.278 49.9337 115.022 49.9337 114.637ZM54.0308 114.637C54.0308 114.381 54.2869 114.124 54.543 114.124H56.5915C56.8476 114.124 57.1037 114.381 57.1037 114.637C57.1037 114.894 56.8476 115.15 56.5915 115.15H54.543C54.1589 115.278 54.0308 115.022 54.0308 114.637ZM57.9999 114.637C57.9999 114.381 58.256 114.124 58.5121 114.124H60.5606C60.8167 114.124 61.0728 114.381 61.0728 114.637C61.0728 114.894 60.8167 115.15 60.5606 115.15H58.5121C58.256 115.278 57.9999 115.022 57.9999 114.637Z" fill="#37495E"/>
<path d="M62.6093 115.279H63.7616C64.0176 115.279 64.2737 115.022 64.2737 114.766V113.612C64.2737 113.355 64.0176 113.099 63.7616 113.099C63.5055 113.099 63.2494 113.355 63.2494 113.612V114.124H62.7373C62.4812 114.124 62.2251 114.381 62.2251 114.637C61.9691 115.022 62.2251 115.279 62.6093 115.279Z" fill="#37495E"/>
<path d="M63.1213 111.56V109.508C63.1213 109.252 63.3774 108.995 63.6335 108.995C63.8896 108.995 64.1456 109.252 64.1456 109.508V111.56C64.1456 111.816 63.8896 112.073 63.6335 112.073C63.3774 112.073 63.1213 111.816 63.1213 111.56ZM63.1213 107.456V105.405C63.1213 105.148 63.3774 104.892 63.6335 104.892C63.8896 104.892 64.1456 105.148 64.1456 105.405V107.456C64.1456 107.713 63.8896 107.969 63.6335 107.969C63.3774 107.969 63.1213 107.841 63.1213 107.456ZM63.1213 103.481V101.43C63.1213 101.173 63.3774 100.917 63.6335 100.917C63.8896 100.917 64.1456 101.173 64.1456 101.43V103.481C64.1456 103.738 63.8896 103.994 63.6335 103.994C63.3774 103.994 63.1213 103.738 63.1213 103.481ZM63.1213 99.3779V97.3263C63.1213 97.0698 63.3774 96.8134 63.6335 96.8134C63.8896 96.8134 64.1456 97.0698 64.1456 97.3263V99.3779C64.1456 99.6344 63.8896 99.8909 63.6335 99.8909C63.3774 99.8909 63.1213 99.7626 63.1213 99.3779Z" fill="#37495E"/>
<path d="M63.7616 95.9158C64.0177 95.9158 64.2738 95.6593 64.2738 95.4029V94.2488C64.2738 93.9924 64.0177 93.7359 63.7616 93.7359H62.6093C62.3532 93.7359 62.0972 93.9924 62.0972 94.2488C62.0972 94.5053 62.3532 94.7617 62.6093 94.7617H63.1214V95.2747C63.1214 95.6594 63.3775 95.9158 63.7616 95.9158Z" fill="#37495E"/>
<path d="M45.9646 94.2488C45.9646 93.9924 46.2207 93.7359 46.4767 93.7359H48.5253C48.7814 93.7359 49.0374 93.9924 49.0374 94.2488C49.0374 94.5053 48.7814 94.7617 48.5253 94.7617H46.4767C46.0926 94.7617 45.9646 94.5053 45.9646 94.2488ZM49.9337 94.2488C49.9337 93.9924 50.1898 93.7359 50.4458 93.7359H52.4944C52.7505 93.7359 53.0065 93.9924 53.0065 94.2488C53.0065 94.5053 52.7505 94.7617 52.4944 94.7617H50.4458C50.1898 94.7617 49.9337 94.5053 49.9337 94.2488ZM54.0308 94.2488C54.0308 93.9924 54.2869 93.7359 54.543 93.7359H56.5915C56.8476 93.7359 57.1037 93.9924 57.1037 94.2488C57.1037 94.5053 56.8476 94.7617 56.5915 94.7617H54.543C54.1589 94.7617 54.0308 94.5053 54.0308 94.2488ZM57.9999 94.2488C57.9999 93.9924 58.256 93.7359 58.5121 93.7359H60.5606C60.8167 93.7359 61.0728 93.9924 61.0728 94.2488C61.0728 94.5053 60.8167 94.7617 60.5606 94.7617H58.5121C58.256 94.7617 57.9999 94.5053 57.9999 94.2488Z" fill="#37495E"/>
<path d="M7.93823 104.507C7.93823 104.892 8.32234 105.277 8.70644 105.277H43.1479C43.5321 105.277 43.9162 104.892 43.9162 104.507C43.9162 104.122 43.5321 103.738 43.1479 103.738H8.70644C8.32234 103.738 7.93823 104.122 7.93823 104.507Z" fill="#37495E"/>
<path d="M0 104.507C0 109.252 3.84106 113.099 8.57837 113.099C13.3157 113.099 17.1567 109.252 17.1567 104.507C17.1567 99.7628 13.3157 95.9159 8.57837 95.9159C3.84106 95.9159 0 99.7628 0 104.507Z" fill="#FFD354"/>
<path d="M165.55 107.456V129.768C165.55 131.051 164.525 132.205 163.245 132.461C150.057 134.513 136.486 134.513 123.298 132.461C122.018 132.205 120.993 131.051 120.993 129.768V107.456C120.993 106.174 122.018 105.02 123.298 104.764C136.486 102.712 150.057 102.712 163.245 104.764C164.525 105.02 165.55 106.174 165.55 107.456Z" fill="#DC2D22"/>
<path d="M150.954 118.612C150.954 118.869 150.826 118.997 150.698 119.125L138.022 127.717C137.894 127.845 137.766 127.845 137.638 127.845C137.51 127.845 137.382 127.845 137.382 127.845C137.126 127.717 136.998 127.589 136.998 127.332V110.021C136.998 109.765 137.126 109.636 137.382 109.508C137.638 109.38 137.894 109.38 138.15 109.508L150.826 118.1C150.826 118.228 150.954 118.484 150.954 118.612Z" fill="white"/>
<path d="M87.5859 105.706L83.201 115.459H80L84.8234 105.032C82.5432 103.881 81.0524 101.817 81.0524 98.0157C81.0524 92.6719 84.4507 90 88.5286 90H92.6723V115.459H89.8879V105.706H87.5859ZM89.8879 92.3243H88.419C86.1827 92.3243 84.0341 93.7798 84.0341 98.0157C84.0341 102.121 86.0073 103.425 88.419 103.425H89.8879V92.3243Z" fill="#FF0000"/>
</svg>
