<svg width="200" height="152" viewBox="0 0 200 152" fill="none" xmlns="http://www.w3.org/2000/svg">
<path d="M5.58398 74.4374C5.58398 105.375 30.6934 130.479 61.6374 130.479C92.5814 130.479 117.691 105.375 117.691 74.4374C117.691 43.4999 92.5814 18.3958 61.6374 18.3958C30.6934 18.2916 5.58398 43.4999 5.58398 74.4374Z" fill="#E5E8EC"/>
<path d="M141.133 45.7916C141.133 62.0416 154.261 75.1666 170.514 75.1666C186.768 75.1666 199.896 62.0416 199.896 45.7916C199.896 29.5416 186.768 16.4166 170.514 16.4166C154.365 16.4166 141.133 29.5416 141.133 45.7916Z" fill="#E5E8EC"/>
<path d="M46.9473 134.125C44.7593 134.125 43.0923 132.354 43.0923 130.271V57.9791C43.0923 55.7916 44.8635 54.1249 46.9473 54.1249H152.49C154.678 54.1249 156.345 55.8958 156.345 57.9791V130.167C156.345 132.354 154.574 134.021 152.49 134.021H46.9473V134.125Z" fill="#CDD5D7"/>
<path d="M156.033 130.167C156.033 132.146 154.47 133.708 152.49 133.708H46.9472C44.9676 133.708 43.4048 132.146 43.4048 130.167V57.9791C43.4048 55.9999 44.9676 54.4374 46.9472 54.4374H152.49C154.47 54.4374 156.033 55.9999 156.033 57.9791V130.167Z" fill="#194760"/>
<path d="M150.51 59.5416H49.0308V124.333H150.51V59.5416Z" fill="#B3DDE4"/>
<path d="M95.6028 59.5416L97.5824 54.4374H81.4332L79.4536 59.5416H95.6028Z" fill="#484F59"/>
<path d="M54.3443 124.333L50.6978 133.708H66.847L70.4936 124.333H54.3443Z" fill="#484F59"/>
<path d="M106.022 59.5416L108.001 54.4374H102.792L100.812 59.5416H106.022Z" fill="#484F59"/>
<path d="M75.7032 124.333L72.0566 133.708H77.2661L80.9127 124.333H75.7032Z" fill="#484F59"/>
<path d="M175.412 129.75H24.1299V134.125H175.412V129.75Z" fill="#E5E8EC"/>
<path d="M24.3384 134.125C26.1096 136 29.4436 136.729 31.6316 136.729H167.702C169.994 136.729 173.224 136 174.995 134.125H24.3384Z" fill="#CDD5D7"/>
<path d="M89.4561 129.75V130.271C89.4561 131.104 90.1854 131.833 91.0189 131.833H108.418C109.252 131.833 109.981 131.104 109.981 130.271V129.75H89.4561Z" fill="#CDD5D7"/>
<path d="M61.8457 103.5V101.417C64.6588 101.417 66.9509 99.1249 66.9509 96.3124V93.1874H69.0347V96.3124C69.0347 100.271 65.8049 103.5 61.8457 103.5Z" fill="#F1FAFC"/>
<path d="M75.3906 113.5H73.3069V90.9999C73.3069 89.8541 72.3692 88.8124 71.1189 88.8124C69.8686 88.8124 68.9309 89.7499 68.9309 90.9999V94.7499H66.8472V90.9999C66.8472 88.7082 68.7226 86.7291 71.1189 86.7291C73.411 86.7291 75.3906 88.6041 75.3906 90.9999V113.5Z" fill="#F1FAFC"/>
<path d="M86.8512 99.6457H84.7674V83.7082C84.7674 82.0415 83.413 80.7915 81.8502 80.7915C80.1831 80.7915 78.9329 82.1457 78.9329 83.7082V99.6457H76.8491V83.7082C76.8491 80.8957 79.1413 78.7082 81.8502 78.7082C84.6633 78.7082 86.8512 80.9999 86.8512 83.7082V99.6457Z" fill="#F1FAFC"/>
<path d="M76.1197 118.083C74.5569 118.083 73.3066 116.833 73.3066 115.271V98.3958H75.3904V115.271C75.3904 115.687 75.703 116 76.1197 116C76.5365 116 76.8491 115.687 76.8491 115.271V98.3958H78.9328V115.271C78.9328 116.833 77.6826 118.083 76.1197 118.083Z" fill="#F1FAFC"/>
<path d="M61.9502 103.5C57.9911 103.5 54.7612 100.271 54.7612 96.3124V89.8541H56.845V96.3124C56.845 99.1249 59.1371 101.417 61.9502 101.417V103.5Z" fill="#F1FAFC"/>
<path d="M56.8447 90.4791H54.7609V84.0207C54.7609 81.2082 52.4688 78.9166 49.6557 78.9166H24.3379V76.8333H49.7599C53.719 76.8333 56.9489 80.0624 56.9489 84.0207V90.4791H56.8447Z" fill="#F1FAFC"/>
<path d="M25.5883 78.9166H22.0459C18.0868 78.9166 14.8569 75.6874 14.8569 71.7291V56.4166H16.9407V71.8332C16.9407 74.6457 19.2329 76.9374 22.0459 76.9374H25.5883V78.9166Z" fill="#F1FAFC"/>
<path d="M91.8521 112.979V110.896C94.6651 110.896 96.9573 108.604 96.9573 105.792V21.1041H99.0411V105.792C99.0411 109.75 95.8112 112.979 91.8521 112.979Z" fill="#F1FAFC"/>
<path d="M92.0606 112.979C88.1014 112.979 84.8716 109.75 84.8716 105.792V90.3749H86.9554V105.792C86.9554 108.604 89.2475 110.896 92.0606 110.896V112.979Z" fill="#F1FAFC"/>
<path d="M118.42 96.8332H115.294C111.335 96.8332 108.105 93.6041 108.105 89.6457V72.9791H110.189V89.6457C110.189 92.4582 112.481 94.7499 115.294 94.7499H118.42V96.8332Z" fill="#F1FAFC"/>
<path d="M118.525 103.292H107.897V101.208H118.525C119.671 101.208 120.713 100.271 120.713 99.0208C120.713 97.8749 119.775 96.8333 118.525 96.8333H116.858V94.7499H118.525C120.817 94.7499 122.796 96.6249 122.796 99.0208C122.692 101.417 120.817 103.292 118.525 103.292Z" fill="#F1FAFC"/>
<path d="M132.902 149.854H130.819V109.75C130.819 108.083 129.464 106.833 127.901 106.833H111.96V104.75H127.901C130.714 104.75 132.902 107.042 132.902 109.75V149.854Z" fill="#F1FAFC"/>
<path d="M113.211 106.833H106.23C104.667 106.833 103.417 105.583 103.417 104.021C103.417 102.458 104.667 101.208 106.23 101.208H113.211V103.292H106.23C105.813 103.292 105.501 103.604 105.501 104.021C105.501 104.437 105.813 104.75 106.23 104.75H113.211V106.833Z" fill="#F1FAFC"/>
<path d="M71.1188 46.4165H61.1167C57.1576 46.4165 53.9277 43.1874 53.9277 39.229V29.4374H56.0115V39.229C56.0115 42.0415 58.3037 44.3332 61.1167 44.3332H71.1188V46.4165Z" fill="#F1FAFC"/>
<path d="M83.309 79.4374H81.2253V51.5208C81.2253 48.7083 78.9331 46.4166 76.12 46.4166H69.5562V44.3333H76.12C80.0792 44.3333 83.309 47.5624 83.309 51.5208V79.4374Z" fill="#F1FAFC"/>
<path d="M73.6193 110.167H21.7334C17.7743 110.167 14.5444 106.937 14.5444 102.979V99.3333H16.6282V102.979C16.6282 105.792 18.9203 108.083 21.7334 108.083H73.6193V110.167Z" fill="#F1FAFC"/>
<path d="M129.881 95.1666V93.0832C132.694 93.0832 134.986 90.7916 134.986 87.9791H137.07H134.986H137.07C137.07 91.9374 133.84 95.1666 129.881 95.1666Z" fill="#F1FAFC"/>
<path d="M143.425 98.4999H141.342V85.7916C141.342 84.6458 140.404 83.6041 139.154 83.6041C138.007 83.6041 136.966 84.5416 136.966 85.7916V88.4999H134.882V85.7916C134.882 83.4999 136.757 81.5208 139.154 81.5208C141.446 81.5208 143.425 83.3958 143.425 85.7916V98.4999Z" fill="#F1FAFC"/>
<path d="M144.155 102.979C142.592 102.979 141.342 101.729 141.342 100.167V93.1874H143.426V100.167C143.426 100.583 143.738 100.896 144.155 100.896C144.572 100.896 144.884 100.583 144.884 100.167V50.5833H146.968V100.167C146.968 101.729 145.718 102.979 144.155 102.979Z" fill="#F1FAFC"/>
<path d="M129.985 95.1666C126.026 95.1666 122.796 91.9374 122.796 87.9791V84.6458H124.88V87.9791C124.88 90.7916 127.172 93.0833 129.985 93.0833V95.1666Z" fill="#F1FAFC"/>
<path d="M147.072 51.4166H144.988C144.988 47.4582 148.218 44.2291 152.177 44.2291H157.595V46.3124H152.177C149.364 46.3124 147.072 48.6041 147.072 51.4166Z" fill="#F1FAFC"/>
<path d="M124.984 85.2707H122.9V78.8124C122.9 75.9999 120.608 73.7082 117.795 73.7082H97.895V71.6249H117.795C121.754 71.6249 124.984 74.854 124.984 78.8124V85.2707Z" fill="#F1FAFC"/>
<path d="M143.634 144.958C138.633 151.729 129.048 153.083 122.275 147.979C115.503 142.979 114.149 133.396 119.254 126.625C124.255 119.854 133.84 118.5 140.612 123.604C147.385 128.604 148.739 138.187 143.634 144.958Z" fill="#DC2D22"/>
<path d="M28.714 117.354C23.713 124.125 14.1276 125.479 7.35536 120.375C0.583111 115.375 -0.771339 105.792 4.3339 99.0207C9.33494 92.2499 18.9203 90.8957 25.6925 95.9999C32.4648 101.104 33.8192 110.583 28.714 117.354Z" fill="#7EC8EF"/>
<path d="M66.9513 25.3749C61.9503 32.1457 52.3649 33.4999 45.5927 28.3957C38.8204 23.3957 37.466 13.8124 42.5712 7.04158C47.5723 0.270749 57.1576 -1.08342 63.9298 4.02075C70.5979 9.12492 71.9524 18.6041 66.9513 25.3749Z" fill="#DC2D22"/>
<path d="M21.2127 103.396C20.6917 103.396 20.1708 103.396 19.6498 103.396V102.562C19.6498 101 18.3996 99.7499 16.8367 99.7499C15.2739 99.7499 14.0237 101 14.0237 102.562V103.396C13.3985 103.396 12.6692 103.396 12.0441 103.396C12.1483 107.146 11.6273 110.792 11.4189 114.542C14.8572 114.854 18.3996 114.854 21.8378 114.542C21.6294 110.792 21.1085 107.042 21.2127 103.396ZM19.6498 104.333V104.125C19.754 104.229 19.8582 104.333 19.8582 104.542C19.8582 104.75 19.6498 105.062 19.3373 105.062C19.1289 105.062 18.8163 104.854 18.8163 104.542C18.8163 104.333 18.9205 104.125 19.1289 104.125V104.333C19.1289 104.437 19.1289 104.542 19.1289 104.646H19.5456C19.6498 104.542 19.6498 104.437 19.6498 104.333ZM14.3362 102.458C14.3362 101.104 15.4823 99.9583 16.8367 99.9583C18.1912 99.9583 19.3373 101.104 19.3373 102.458V103.292C17.6703 103.292 16.0032 103.292 14.3362 103.292V102.458ZM13.7111 104.542C13.7111 104.333 13.8153 104.229 13.9195 104.125V104.333C13.9195 104.437 13.9195 104.542 13.9195 104.646H14.3362C14.3362 104.542 14.3362 104.437 14.3362 104.333V104.125C14.5446 104.229 14.6488 104.333 14.6488 104.542C14.6488 104.75 14.4404 105.062 14.1278 105.062C13.9195 105.062 13.7111 104.854 13.7111 104.542ZM16.9409 111.729L14.1278 109.333L17.6703 105.271L19.754 105.687L20.4833 107.667L16.9409 111.729Z" fill="#F1FAFC"/>
<path d="M18.3996 106.417C18.1912 106.625 18.1912 106.937 18.5038 107.146C18.7122 107.354 19.0248 107.354 19.2331 107.042C19.4415 106.833 19.4415 106.521 19.1289 106.312C19.0248 106.104 18.608 106.208 18.3996 106.417Z" fill="#F1FAFC"/>
<path d="M131.34 127.979C128.11 127.979 125.505 130.583 125.505 133.812C125.505 137.042 129.985 142.771 131.34 142.771C132.903 142.771 137.174 136.937 137.174 133.812C137.174 130.583 134.57 127.979 131.34 127.979ZM131.34 137.667C129.048 137.667 127.172 135.896 127.172 133.604C127.172 131.312 129.048 129.542 131.34 129.542C133.632 129.542 135.507 131.312 135.507 133.604C135.507 135.896 133.632 137.667 131.34 137.667Z" fill="#F1FAFC"/>
<path d="M63.9297 15.2708C63.9297 13.1874 62.2627 11.5208 60.1789 11.5208C59.7622 11.5208 59.4496 11.6249 59.0328 11.7291C58.8245 9.33325 56.7407 7.45825 54.3444 7.45825C51.7396 7.45825 49.6559 9.54159 49.6559 12.1458C49.6559 12.4583 49.6559 12.7708 49.7601 13.0833H48.9266C47.2595 13.0833 46.0093 14.4374 46.0093 15.9999C46.0093 17.5624 47.3637 18.9166 48.9266 18.9166H60.5957C61.4292 18.9166 62.2627 18.4999 62.7836 17.9791C63.5129 17.3541 63.9297 16.4166 63.9297 15.2708Z" fill="#F1FAFC"/>
<path d="M54.9693 25.0624C53.4065 25.0624 51.9478 24.4374 50.8018 23.2916L51.7395 22.3541C53.5107 24.1249 56.4279 24.1249 58.1991 22.3541L59.1368 23.2916C57.9908 24.4374 56.4279 25.0624 54.9693 25.0624Z" fill="#F1FAFC"/>
<path d="M54.9694 22.3541C54.1359 22.3541 53.3024 22.0416 52.6772 21.4166L53.6149 20.4791C54.3443 21.2082 55.5945 21.2082 56.3238 20.4791L57.2615 21.4166C56.6364 22.0416 55.8029 22.3541 54.9694 22.3541Z" fill="#F1FAFC"/>
<path d="M28.4015 60.5832C23.4005 67.3541 13.8151 68.7082 7.04286 63.6041C0.270611 58.6041 -1.08384 49.0207 4.0214 42.2499C9.02244 35.4791 18.6078 34.1249 25.38 39.2291C32.0481 44.3332 33.5067 53.9166 28.4015 60.5832Z" fill="#0164A8"/>
<path d="M23.7129 51.5208C23.7129 47.3541 20.3789 44.0208 16.2113 44.0208C12.0438 44.0208 8.81396 47.3541 8.81396 51.5208C8.81396 55.6874 12.148 59.0208 16.2113 59.0208C20.3789 59.0208 23.7129 55.6874 23.7129 51.5208ZM21.525 54.4374C20.7956 54.2291 20.1705 54.1249 19.4412 54.0208C19.5454 53.3958 19.6496 52.7708 19.6496 52.1458H22.2543C22.1501 52.9791 21.9417 53.8124 21.525 54.4374ZM16.2113 57.4583C15.6904 57.4583 15.0653 56.6249 14.5443 55.1666C15.5862 55.0624 16.7323 55.0624 17.7742 55.1666C17.3574 56.6249 16.7323 57.4583 16.2113 57.4583ZM14.2318 53.9166C14.1276 53.3958 14.1276 52.7708 14.0234 52.1458H18.2951C18.2951 52.7708 18.1909 53.2916 18.0867 53.9166C16.8365 53.8124 15.5862 53.8124 14.2318 53.9166ZM10.8977 48.4999C11.6271 48.7083 12.2522 48.8124 12.9815 48.9166C12.8773 49.5416 12.7731 50.1666 12.7731 50.7916H10.1684C10.2726 49.9583 10.481 49.2291 10.8977 48.4999ZM16.2113 45.4791C16.7323 45.4791 17.3574 46.3124 17.8784 47.7708C16.8365 47.8749 15.6904 47.8749 14.6485 47.7708C15.0653 46.3124 15.6904 45.4791 16.2113 45.4791ZM16.2113 49.2291C16.8365 49.2291 17.4616 49.2291 18.1909 49.1249C18.2951 49.6458 18.3993 50.2708 18.3993 50.8958H14.1276C14.1276 50.2708 14.2318 49.7499 14.336 49.1249C14.9611 49.1249 15.5862 49.2291 16.2113 49.2291ZM10.1684 52.1458H12.7731C12.7731 52.7708 12.8773 53.3958 12.9815 54.0208C12.2522 54.1249 11.6271 54.2291 10.8977 54.4374C10.481 53.8124 10.2726 52.9791 10.1684 52.1458ZM19.7538 50.7916C19.7538 50.1666 19.6496 49.5416 19.5454 48.9166C20.2747 48.8124 20.8998 48.7083 21.6291 48.4999C22.0459 49.2291 22.2543 49.9583 22.3585 50.7916H19.7538ZM20.6915 47.3541C20.1705 47.4583 19.6496 47.5624 19.2328 47.6666C19.0244 46.9374 18.8161 46.3124 18.5035 45.7916C19.337 46.1041 20.0663 46.6249 20.6915 47.3541ZM14.0234 45.7916C13.7108 46.3124 13.5024 46.9374 13.2941 47.6666C12.7731 47.5624 12.2522 47.4583 11.8354 47.3541C12.3564 46.6249 13.0857 46.1041 14.0234 45.7916ZM11.7312 55.6874C12.2522 55.5833 12.7731 55.4791 13.1899 55.3749C13.3983 56.1041 13.6066 56.7291 13.9192 57.2499C13.0857 56.9374 12.3564 56.3124 11.7312 55.6874ZM18.5035 57.2499C18.8161 56.7291 19.0244 56.1041 19.2328 55.3749C19.7538 55.4791 20.2747 55.5833 20.6915 55.6874C20.0663 56.3124 19.337 56.9374 18.5035 57.2499Z" fill="#F1FAFC"/>
<path d="M160.929 58.1874C154.157 53.1874 152.802 43.6041 157.908 36.8333C162.909 30.0624 172.494 28.7083 179.266 33.8124C186.039 38.8124 187.393 48.3958 182.288 55.1666C177.182 61.8333 167.597 63.2916 160.929 58.1874Z" fill="#0164A8"/>
<path d="M168.014 38.6041C164.784 38.6041 162.075 41.2082 162.075 44.5416C162.075 47.7707 164.68 50.4791 168.014 50.4791C171.244 50.4791 173.953 47.8749 173.953 44.5416C173.953 41.3124 171.244 38.6041 168.014 38.6041ZM168.014 48.2916C165.93 48.2916 164.263 46.6249 164.263 44.5416C164.263 42.4582 165.93 40.7916 168.014 40.7916C170.098 40.7916 171.765 42.4582 171.765 44.5416C171.765 46.6249 170.098 48.2916 168.014 48.2916Z" fill="#F1FAFC"/>
<path d="M175.932 53.8124C175.724 53.8124 175.619 53.7082 175.515 53.6041L171.035 48.8124C170.827 48.6041 170.827 48.1874 171.035 47.9791C171.244 47.7707 171.66 47.7707 171.869 47.9791L176.349 52.7707C176.557 52.9791 176.557 53.3957 176.349 53.6041C176.245 53.7082 176.14 53.8124 175.932 53.8124Z" fill="#F1FAFC"/>
<path d="M175.932 54.4374C175.62 54.4374 175.203 54.3332 174.994 54.0207L172.181 50.9999C171.66 50.479 171.765 49.6457 172.181 49.229C172.702 48.7082 173.536 48.8124 173.953 49.229L176.766 52.2499C177.287 52.7707 177.182 53.604 176.766 54.0207C176.661 54.3332 176.349 54.4374 175.932 54.4374Z" fill="#F1FAFC"/>
<path d="M109.773 27.1457C104.772 33.9166 95.1862 35.2707 88.414 30.1666C81.6417 25.1666 80.2873 15.5832 85.3925 8.8124C90.3935 2.04156 99.9789 0.687395 106.751 5.79156C113.419 10.8957 114.774 20.4791 109.773 27.1457Z" fill="#7EC8EF"/>
<path d="M93.3112 19.7499H93.1028C92.9986 19.7499 92.7902 19.7499 91.6441 20.3749L92.0609 19.2291L91.7483 19.0208C90.6023 18.2916 90.0813 17.2499 90.0813 16.2083C90.0813 14.0208 92.4776 12.3541 95.4991 12.3541C97.1661 12.3541 98.6248 12.8749 99.5625 13.7083C99.7708 13.7083 100.083 13.7083 100.292 13.7083C100.5 13.7083 100.813 13.7083 101.021 13.7083C99.875 12.2499 97.7913 11.3124 95.3949 11.3124C91.7483 11.3124 88.8311 13.4999 88.8311 16.3124C88.8311 17.5624 89.4562 18.8124 90.7064 19.7499L89.5604 22.8749L90.8106 22.1458C91.6441 21.6249 92.686 21.1041 92.9986 20.9999C93.5195 21.1041 93.9363 21.2083 94.4572 21.3124C94.1447 20.8958 93.9363 20.4791 93.7279 20.0624C93.7279 19.9583 93.5195 19.8541 93.3112 19.7499Z" fill="#F1FAFC"/>
<path d="M106.231 18.6041C106.231 16.2083 103.522 14.1249 100.292 14.1249C96.9577 14.1249 94.353 16.1041 94.353 18.6041C94.353 21.1041 97.0619 23.0833 100.292 23.0833C101.125 23.0833 101.855 22.9791 102.584 22.7708C102.792 22.6666 105.084 24.0208 105.084 24.0208L104.355 21.9374C105.501 21.1041 106.231 19.9583 106.231 18.6041ZM103.417 20.0624H97.2703V19.4374H103.417V20.0624ZM103.417 18.9166H97.2703V18.2916H103.417V18.9166ZM103.417 17.7708H97.2703V17.1458H103.417V17.7708Z" fill="#F1FAFC"/>
</svg>
