<svg width="187" height="137" viewBox="0 0 187 137" fill="none" xmlns="http://www.w3.org/2000/svg">
<path d="M110.403 86.9902H69.8042V101.165H110.403V86.9902Z" fill="#D6D6D6"/>
<path d="M154.211 3.37627V70.9044H26.1565V3.37627C26.1565 2.10216 27.2798 0.987305 28.5635 0.987305H151.804C153.087 0.987305 154.211 2.10216 154.211 3.37627Z" fill="#194760"/>
<path d="M147.952 7.03906H32.2539V64.6926H147.952V7.03906Z" fill="#7DC3EA"/>
<path d="M119.87 100.368H60.4966V106.261H119.87V100.368Z" fill="#DDDDDD"/>
<path opacity="0.25" d="M110.403 87.7861H69.8042V92.4049H110.403V87.7861Z" fill="#216186"/>
<path d="M154.211 70.9043V85.3974C154.211 86.6715 153.088 87.7863 151.804 87.7863H28.5638C27.28 87.7863 26.1567 86.6715 26.1567 85.3974V70.9043H154.211Z" fill="#DDDDDD"/>
<path d="M94.1953 79.3453C94.1953 81.575 92.4302 83.3269 90.1836 83.3269C87.937 83.3269 86.1719 81.575 86.1719 79.3453C86.1719 77.1157 87.937 75.3638 90.1836 75.3638C92.4302 75.3638 94.1953 77.1157 94.1953 79.3453Z" fill="#B9B9B9"/>
<path d="M141.854 11.8174H36.7471V64.8525H141.854V11.8174Z" fill="#F2F2F2"/>
<path d="M141.854 11.8174H36.7471V18.0287H141.854V11.8174Z" fill="#0164A8"/>
<path d="M140.892 14.8433C140.892 15.7989 140.089 16.7545 138.966 16.7545C138.003 16.7545 137.041 15.9581 137.041 14.8433C137.041 13.8877 137.843 12.9321 138.966 12.9321C139.929 12.9321 140.892 13.8877 140.892 14.8433Z" fill="#F2F2F2"/>
<path d="M135.596 14.8433C135.596 15.7989 134.794 16.7545 133.671 16.7545C132.708 16.7545 131.745 15.9581 131.745 14.8433C131.745 13.8877 132.547 12.9321 133.671 12.9321C134.794 12.9321 135.596 13.8877 135.596 14.8433Z" fill="#F2F2F2"/>
<path d="M130.461 14.8433C130.461 15.7989 129.659 16.7545 128.535 16.7545C127.573 16.7545 126.61 15.9581 126.61 14.8433C126.61 13.8877 127.412 12.9321 128.535 12.9321C129.498 12.9321 130.461 13.8877 130.461 14.8433Z" fill="#F2F2F2"/>
<path d="M123.721 124.576C116.981 132.062 107.193 136.68 96.281 136.68C85.3691 136.68 75.5805 132.062 68.8408 124.576C75.5805 117.091 85.3691 112.472 96.281 112.472C107.032 112.472 116.821 117.091 123.721 124.576Z" fill="#F2F2F2"/>
<path d="M106.23 124.577C106.23 129.992 101.737 134.452 96.2812 134.452V114.703C101.737 114.703 106.23 119.003 106.23 124.577Z" fill="#7DC3EA"/>
<path d="M96.121 114.703V134.452C90.665 134.452 86.1719 129.992 86.1719 124.577C86.1719 119.003 90.665 114.703 96.121 114.703Z" fill="#47B4BB"/>
<path d="M101.095 124.576C101.095 127.284 98.8485 129.513 96.1205 129.513C93.3926 129.513 91.146 127.284 91.146 124.576C91.146 121.869 93.3926 119.639 96.1205 119.639C98.8485 119.639 101.095 121.869 101.095 124.576Z" fill="#49444F"/>
<path d="M96.1205 119.639V124.576H91.146C91.3065 121.869 93.3925 119.639 96.1205 119.639Z" fill="white"/>
<path d="M138.966 21.373H40.438V25.9918H138.966V21.373Z" fill="#B9B9B9"/>
<path d="M56.9662 29.1772H43.4868V42.0776H56.9662V29.1772Z" fill="#6FBABB"/>
<path d="M73.4945 29.1772H60.0151V42.0776H73.4945V29.1772Z" fill="#6FBABB"/>
<path d="M90.0233 29.1772H76.5439V42.0776H90.0233V29.1772Z" fill="#6FBABB"/>
<path d="M136.719 29.6548H94.0347V32.363H136.719V29.6548Z" fill="#B9B9B9"/>
<path d="M136.719 34.2734H94.0347V36.9816H136.719V34.2734Z" fill="#B9B9B9"/>
<path d="M136.719 38.8921H94.0347V41.6004H136.719V38.8921Z" fill="#B9B9B9"/>
<path d="M70.125 56.2518L60.0154 51.3146L43.3267 51.4739V50.0405L60.3364 49.8812L70.2854 54.6591L93.7139 46.3774L106.07 53.2258L118.266 46.8552L118.908 48.1293L106.07 54.8184L93.5534 47.9701L70.125 56.2518Z" fill="#0164A8"/>
<path d="M62.7432 50.6776C62.7432 51.9517 61.62 53.0666 60.3362 53.0666C59.0525 53.0666 57.9292 51.9517 57.9292 50.6776C57.9292 49.4034 59.0525 48.2886 60.3362 48.2886C61.62 48.2886 62.7432 49.4034 62.7432 50.6776Z" fill="#E7D613"/>
<path d="M45.7335 50.6776C45.7335 51.9517 44.6102 53.0666 43.3265 53.0666C42.0427 53.0666 40.9194 51.9517 40.9194 50.6776C40.9194 49.4034 42.0427 48.2886 43.3265 48.2886C44.6102 48.2886 45.7335 49.4034 45.7335 50.6776Z" fill="#FEA621"/>
<path d="M72.6925 55.4554C72.6925 56.7295 71.5692 57.8444 70.2855 57.8444C69.0017 57.8444 67.8784 56.7295 67.8784 55.4554C67.8784 54.1813 69.0017 53.0664 70.2855 53.0664C71.5692 53.0664 72.6925 54.1813 72.6925 55.4554Z" fill="#E7D613"/>
<path d="M96.1207 47.1741C96.1207 48.4482 94.9974 49.563 93.7137 49.563C92.4299 49.563 91.3066 48.4482 91.3066 47.1741C91.3066 45.9 92.4299 44.7852 93.7137 44.7852C94.9974 44.7852 96.1207 45.7407 96.1207 47.1741Z" fill="#E7D613"/>
<path d="M108.637 53.7039C108.637 54.978 107.514 56.0929 106.23 56.0929C104.947 56.0929 103.823 54.978 103.823 53.7039C103.823 52.4298 104.947 51.3149 106.23 51.3149C107.514 51.3149 108.637 52.4298 108.637 53.7039Z" fill="#FEA621"/>
<path d="M120.993 47.4925C120.993 48.7666 119.87 49.8815 118.586 49.8815C117.302 49.8815 116.179 48.7666 116.179 47.4925C116.179 46.2184 117.302 45.1035 118.586 45.1035C119.87 45.1035 120.993 46.2184 120.993 47.4925Z" fill="#E7D613"/>
<path d="M43.3267 56.0924V62.1445H118.587V53.7035L106.23 59.5962L93.8743 53.0664L70.2854 59.5962L60.3364 56.0924H43.3267Z" fill="#6FBABB"/>
<path d="M126.931 53.7036H122.759V61.9853H126.931V53.7036Z" fill="#6FBABB"/>
<path d="M132.547 56.0928H128.375V62.1448H132.547V56.0928Z" fill="#6FBABB"/>
<path d="M132.547 54.6592H128.375V56.2523H132.547V54.6592Z" fill="#FEA621"/>
<path d="M126.931 51.9521H122.759V54.3418H126.931V51.9521Z" fill="#FEA621"/>
<path d="M138.324 48.4478H134.152V51.4746H138.324V48.4478Z" fill="#FEA621"/>
<path d="M138.324 51.3149H134.152V61.9857H138.324V51.3149Z" fill="#6FBABB"/>
<path d="M54.399 114.383C54.399 117.25 52.3129 119.48 49.5849 119.48H4.81407C2.24657 119.48 0 117.25 0 114.383V52.2703C0 49.4035 2.0861 47.1738 4.81407 47.1738H49.5849C52.1524 47.1738 54.399 49.4035 54.399 52.2703V114.383Z" fill="#F8F8F8"/>
<path opacity="0.42" d="M64.5085 60.8709V87.7866H54.3989V55.7744H59.8549C62.4224 55.7744 64.5085 58.1634 64.5085 60.8709Z" fill="#7A8494"/>
<path d="M49.424 52.4297H4.97412V110.243H49.424V52.4297Z" fill="#7DC3EA"/>
<path opacity="0.88" d="M30.4891 115.18C30.4891 116.932 29.0449 118.365 27.2797 118.365C25.5145 118.365 24.0703 116.932 24.0703 115.18C24.0703 113.428 25.5145 111.995 27.2797 111.995C29.0449 112.154 30.4891 113.428 30.4891 115.18Z" fill="#DDDDDD"/>
<path d="M18.4539 72.8154C18.4539 75.0451 19.4167 76.9563 20.8609 78.3897L17.1701 82.0527C14.7631 79.6638 13.3188 76.4785 13.3188 72.8154C13.3188 65.6485 19.0957 59.915 26.3168 59.915V65.0115C21.8237 65.1707 18.4539 68.6746 18.4539 72.8154Z" fill="#655B79"/>
<path d="M39.1542 72.8154C39.1542 79.9823 33.3773 85.7158 26.1562 85.7158C22.6259 85.7158 19.4165 84.2824 17.1699 82.0527L20.8607 78.3896C22.3049 79.823 24.2306 80.6193 26.3167 80.6193C30.6493 80.6193 34.0192 77.1155 34.0192 72.9747C34.0192 72.0191 33.8587 71.0635 33.5378 70.1079L38.3518 68.1968C38.8332 69.6301 39.1542 71.2228 39.1542 72.8154Z" fill="#FF8000"/>
<path d="M38.1919 68.0374L33.3778 69.9486C32.2546 67.0819 29.3661 65.1707 26.1567 65.1707V60.0742C31.6127 60.0742 36.2663 63.4188 38.1919 68.0374Z" fill="white"/>
<path d="M46.6966 87.4677H36.1057C35.9452 87.4677 35.7847 87.4677 35.6243 87.3084L31.6125 82.5305C31.4521 82.212 31.4521 81.8935 31.6125 81.7342C31.9335 81.5749 32.2544 81.5749 32.4149 81.7342L36.2661 86.3529H46.5361C46.8571 86.3529 47.178 86.6714 47.178 86.9899C47.3385 87.3084 47.0175 87.4677 46.6966 87.4677Z" fill="#F2F2F2"/>
<path d="M32.0939 64.3743C31.9334 64.3743 31.7729 64.3743 31.7729 64.215C31.452 64.0557 31.452 63.5779 31.7729 63.4187L35.7847 58.4815C35.9451 58.3223 36.1056 58.3223 36.2661 58.3223H46.857C47.178 58.3223 47.4989 58.6408 47.4989 58.9593C47.4989 59.2778 47.178 59.5964 46.857 59.5964H36.4265L32.5753 64.215C32.4148 64.215 32.2543 64.3743 32.0939 64.3743Z" fill="#F2F2F2"/>
<path d="M22.4657 64.3743C22.3053 64.3743 22.1448 64.3743 21.9843 64.215L18.1331 59.5964H7.86307C7.54213 59.5964 7.22119 59.2778 7.22119 58.9593C7.22119 58.6408 7.54213 58.3223 7.86307 58.3223H18.454C18.6145 58.3223 18.775 58.3223 18.9354 58.4815L22.9472 63.4187C23.1076 63.7372 23.1076 64.0557 22.9472 64.215C22.6262 64.3743 22.6262 64.3743 22.4657 64.3743Z" fill="#F2F2F2"/>
<path d="M17.9723 56.0928H7.86279V57.6859H17.9723V56.0928Z" fill="white"/>
<path d="M46.6964 56.0928H36.5869V57.6859H46.6964V56.0928Z" fill="white"/>
<path d="M46.6964 84.2822H36.5869V85.8754H46.6964V84.2822Z" fill="white"/>
<path d="M22.4655 88.9009H7.86279V92.4056H22.4655V88.9009Z" fill="white"/>
<path d="M36.2663 88.9009H26.1567V92.4056H36.2663V88.9009Z" fill="white"/>
<path d="M45.5729 93.9976H7.86279V95.4313H45.5729V93.9976Z" fill="white"/>
<path d="M40.2775 96.8643H7.86279V98.2979H40.2775V96.8643Z" fill="white"/>
<path d="M43.166 99.731H7.86279V101.165H43.166V99.731Z" fill="white"/>
<path d="M45.5729 102.438H7.86279V103.872H45.5729V102.438Z" fill="white"/>
<path d="M41.7217 105.306H7.86279V106.739H41.7217V105.306Z" fill="white"/>
<path d="M147.939 78.4735L147.657 78.2538L147.358 78.4485C137.748 84.7029 124.664 84.3933 115.045 76.8823C103.067 67.3393 101.177 50.1359 110.633 38.2479C120.089 26.36 137.587 24.3254 149.566 33.8683L149.567 33.8688C159.02 41.3744 162.174 54.0451 158.234 64.8401L158.109 65.1803L158.394 65.4044L183.267 84.9939L183.267 84.9942C186.895 87.845 187.504 93.0934 184.64 96.6986C183.116 98.3569 181.145 99.4074 179.03 99.7114C176.904 99.858 174.626 99.2525 172.807 97.9001L147.939 78.4735ZM145.051 39.295L145.048 39.2928C136.178 32.4453 123.187 33.7374 116.269 42.5632C109.196 51.3814 110.679 64.1187 119.56 71.1374L119.56 71.1374L119.566 71.1425C125.971 76.032 134.193 76.8526 141.105 73.5861L141.105 73.5862L141.114 73.5819C143.721 72.2882 146.359 70.4949 148.346 67.8675C150.322 65.4137 151.635 62.4774 152.291 59.5466C153.937 52.1967 151.305 44.1951 145.051 39.295Z" fill="#DC2D22" stroke="white"/>
<path opacity="0.42" d="M136.238 87.7865H121.796C119.228 84.9197 117.303 81.5751 116.019 78.0713C119.87 80.7788 124.043 82.3715 128.375 82.8493C128.857 83.3271 129.498 83.9641 130.14 84.4419C132.066 86.0346 134.152 87.1494 136.238 87.7865Z" fill="#7A8494"/>
<path opacity="0.42" d="M151.803 51.3149C143.459 47.0148 133.028 49.0852 127.091 56.5706C123.721 60.7115 122.277 65.9672 122.919 70.9044C122.919 71.5414 123.079 72.1785 123.24 72.8156C122.117 72.3378 121.154 71.7007 120.191 70.9044C120.031 70.9044 120.031 70.7451 119.87 70.7451C117.784 69.1525 116.179 67.082 114.896 64.8524C115.537 60.0744 117.463 55.4558 120.672 51.4742C127.091 43.511 136.88 39.8479 146.508 41.122C149.236 44.148 151.001 47.6518 151.803 51.3149Z" fill="#7A8494"/>
</svg>
