<svg width="182" height="137" viewBox="0 0 182 137" fill="none" xmlns="http://www.w3.org/2000/svg">
<path d="M126.793 134.655H84.208L86.5661 114.374H124.435L126.793 134.655Z" fill="#AFAFAF"/>
<path d="M135.254 137H75.7461V136.034C75.7461 135.621 75.8848 135.345 76.1622 135.069C76.4397 134.793 76.7171 134.655 77.1332 134.655H133.867C134.144 134.655 134.56 134.793 134.838 135.069C135.115 135.345 135.254 135.621 135.254 136.034V137Z" fill="white"/>
<path d="M182 110.924C182 111.752 181.723 112.718 181.029 113.27C180.335 113.96 179.503 114.236 178.671 114.236H32.3291C31.4968 114.236 30.5258 113.96 29.971 113.27C29.2774 112.718 29 111.89 29 110.924V100.715H182V110.924Z" fill="white"/>
<path d="M182 3.44992C182 2.62212 181.723 1.65636 181.029 1.1045C180.335 0.414671 179.503 0.138739 178.671 0.138739H32.3291C31.4968 0.000773728 30.6646 0.276705 29.971 0.966534C29.2774 1.65636 29 2.48416 29 3.44992V100.854H182V3.44992Z" fill="#194760"/>
<path d="M174.371 7.58813H36.6289V93.2649H174.371V7.58813Z" fill="white"/>
<path d="M115.141 14.4863H110.979V16.9697H115.141V14.4863Z" fill="#F77B55"/>
<path d="M114.17 30.7662H110.979V33.2496H114.17V30.7662Z" fill="#CCCBCA"/>
<path d="M135.393 14.4863H118.608V16.9697H135.393V14.4863Z" fill="#F77B55"/>
<path d="M130.954 30.7662H117.915V33.2496H130.954V30.7662Z" fill="#CCCBCA"/>
<path d="M121.521 20.6948H115.002V23.1782H121.521V20.6948Z" fill="#353F49"/>
<path d="M121.521 49.1157H115.002V51.5991H121.521V49.1157Z" fill="#CCCBCA"/>
<path d="M137.473 49.1157H124.712V51.5991H137.473V49.1157Z" fill="#353F49"/>
<path d="M124.019 59.1871H120.273V61.6705H124.019V59.1871Z" fill="#CCCBCA"/>
<path d="M134.561 83.7452H126.932V86.2286H134.561V83.7452Z" fill="#CCCBCA"/>
<path d="M162.997 71.4661H156.062V73.9495H162.997V71.4661Z" fill="#CCCBCA"/>
<path d="M154.396 49.1157H144.825V51.5991H154.396V49.1157Z" fill="#353F49"/>
<path d="M164.384 49.1157H158.419V51.5991H164.384V49.1157Z" fill="#353F49"/>
<path d="M124.712 36.8369H115.002V39.3203H124.712V36.8369Z" fill="#353F49"/>
<path d="M128.735 43.0453H115.002V45.5287H128.735V43.0453Z" fill="#F77B55"/>
<path d="M134.56 65.3956H118.747V67.879H134.56V65.3956Z" fill="#353F49"/>
<path d="M133.312 71.4661H118.747V73.9495H133.312V71.4661Z" fill="#F77B55"/>
<path d="M153.009 71.4661H137.89V73.9495H153.009V71.4661Z" fill="#CCCBCA"/>
<path d="M153.009 83.7452H137.89V86.2286H153.009V83.7452Z" fill="#CCCBCA"/>
<path d="M116.528 59.1871H110.979V61.6705H116.528V59.1871Z" fill="#CCCBCA"/>
<path d="M123.602 83.7452H118.747V86.2286H123.602V83.7452Z" fill="#CCCBCA"/>
<path d="M130.122 77.6746H122.076V80.1579H130.122V77.6746Z" fill="#CCCBCA"/>
<path d="M158.835 77.6746H135.115V80.1579H158.835V77.6746Z" fill="#F77B55"/>
<path d="M144.132 43.0453H133.035V45.5287H144.132V43.0453Z" fill="#CCCBCA"/>
<path d="M166.464 43.0453H148.432V45.5287H166.464V43.0453Z" fill="#CCCBCA"/>
<path d="M142.883 36.8369H127.902V39.3203H142.883V36.8369Z" fill="#353F49"/>
<path d="M131.647 20.6948H125.683V23.1782H131.647V20.6948Z" fill="#353F49"/>
<path d="M52.9976 39.8719H44.5361V46.9082H52.9976V39.8719Z" fill="#DC2D22"/>
<path d="M65.7593 29.8005H57.2979V46.9083H65.7593V29.8005Z" fill="#F77B55"/>
<path d="M78.3824 35.4572H69.9209V46.9083H78.3824V35.4572Z" fill="#DC2D22"/>
<path d="M91.1431 14.4863H82.6816V46.9083H91.1431V14.4863Z" fill="#F77B55"/>
<path d="M103.766 26.0754H95.3047V46.9083H103.766V26.0754Z" fill="#DC2D22"/>
<path d="M103.628 73.2598H44.5361V75.8811H103.628V73.2598Z" fill="#7DC3EA"/>
<path d="M103.628 78.5023H44.5361V81.1237H103.628V78.5023Z" fill="#CCCBCA"/>
<path d="M74.0819 83.6072H44.5361V86.2285H74.0819V83.6072Z" fill="#CCCBCA"/>
<path d="M78.382 52.2889H44.5361V70.6384H78.382V52.2889Z" fill="#CCCBCA"/>
<path d="M103.766 52.2889H82.6816V70.6384H103.766V52.2889Z" fill="#0164A8"/>
<path d="M65.6205 14.4863H44.5361V22.3504H65.6205V14.4863Z" fill="#353F49"/>
<path d="M62.9851 17.1077H47.1719V19.729H62.9851V17.1077Z" fill="white"/>
<path d="M61.4592 26.6274L57.2979 22.3505H61.4592V26.6274Z" fill="#353F49"/>
<path d="M72 99.8426C72 119.65 55.9651 135.685 36.1572 135.685C16.3493 135.685 0.314407 119.65 0.314407 99.8426C0.314407 80.0347 16.0349 63.9998 36.1572 63.9998C55.9651 63.9998 72 80.0347 72 99.8426Z" fill="#9BD6E4"/>
<path d="M44.0178 92.9253C44.0178 91.6677 44.6467 90.7245 45.2755 90.0957L45.5899 89.7812C46.2187 89.1524 46.8475 88.838 48.1052 88.838H48.4196H48.734C49.9916 88.838 50.6205 89.1524 51.2493 89.7812C51.5637 89.7812 51.8781 90.0957 51.8781 90.4101C52.5069 91.0389 52.8213 91.9821 53.1357 92.9253C53.1357 92.9253 53.1357 93.2398 53.1357 93.5542V93.8686C53.1357 94.8118 52.8213 95.755 52.1925 96.3839C51.8781 96.6983 51.8781 96.6983 51.5637 97.0127C50.9349 97.6415 49.9916 97.9559 49.0484 97.9559H48.734H48.4196C47.4764 97.9559 46.5331 97.3271 45.5899 96.6983L45.2755 96.3839C44.3322 95.755 44.0178 94.4974 43.7034 93.5542C43.7034 93.2398 43.7034 93.2398 44.0178 92.9253C43.7034 93.2398 43.7034 93.2398 44.0178 92.9253Z" fill="white"/>
<path d="M19.4937 107.389C19.4937 105.188 17.9216 103.616 15.7208 103.616V86.3231H23.2666V123.738H19.4937C19.4937 123.424 19.4937 123.109 19.4937 122.795V107.389Z" fill="#475059"/>
<path d="M15.7208 86.3231H23.2666V100.157H15.7208V86.3231Z" fill="#FFDB7A"/>
<path d="M13.5198 89.4672H15.7207V97.3274H13.5198V89.4672Z" fill="white"/>
<path d="M45.2749 93.2404C45.2749 88.2098 44.0173 83.808 41.8164 80.6639C43.0741 80.0351 43.7029 79.0919 44.0173 78.7775L44.3317 79.0919C47.4758 82.236 49.0479 87.2666 49.0479 93.2404C49.0479 99.2142 47.1614 104.559 44.6461 107.389C44.3317 107.703 44.3317 107.703 44.0173 108.018C43.7029 107.703 42.7596 106.76 41.502 106.131C43.7029 102.673 45.2749 98.2709 45.2749 93.2404Z" fill="#E25D34"/>
<path d="M32.0701 101.414C29.5549 100.785 26.7252 100.157 23.2667 100.157V99.5277V86.9513V86.3225C26.4108 86.3225 29.2405 86.0081 32.0701 85.0648C32.3846 85.0648 33.0134 84.7504 33.3278 84.7504C37.1007 83.4928 39.9304 81.9207 41.8169 80.6631C44.0177 83.8072 45.2754 88.2089 45.2754 93.2395C45.2754 98.2701 44.0177 102.672 41.8169 105.816C39.9304 104.558 37.1007 102.986 33.6422 101.729C33.0134 101.729 32.3846 101.414 32.0701 101.414Z" fill="#FF926E"/>
<path d="M54.3935 92.9257L61.3105 92.6113V93.869L54.3935 93.5546V93.2401V92.9257Z" fill="#475059"/>
<path d="M52.8211 89.1524L57.5372 84.1218L58.4805 85.0651L53.4499 89.7812C53.1355 89.4668 53.1355 89.1524 52.8211 89.1524Z" fill="#475059"/>
<path d="M53.4499 97.0128L58.4805 101.729L57.5372 102.672L52.8211 97.6416C53.1355 97.3272 53.1355 97.0128 53.4499 97.0128Z" fill="#475059"/>
<path d="M23.266 105.816H26.4102V111.161H23.266V105.816Z" fill="white"/>
<path d="M19.4937 120.908H23.2666V121.537H19.4937V120.908Z" fill="white"/>
<path d="M19.4937 117.45H23.2666V118.078H19.4937V117.45Z" fill="white"/>
<path d="M19.4937 113.991H23.2666V114.62H19.4937V113.991Z" fill="white"/>
</svg>
