<svg width="164" height="151" viewBox="0 0 164 151" fill="none" xmlns="http://www.w3.org/2000/svg">
<path d="M23.2188 149.562C20.1904 149.562 18.1714 147.543 18.1714 144.515V107.164L49.4656 75.8696C51.4846 73.8507 54.5131 73.8507 56.532 75.8696C58.551 77.8886 58.551 80.9171 56.532 82.9361L28.2663 111.202V143.506C28.2663 147.543 26.2473 149.562 23.2188 149.562Z" fill="#92DEEB"/>
<path d="M77.7302 56.6859C55.5214 34.4771 39.3696 14.2873 41.3885 12.2683C19.1797 34.4771 19.1797 70.8188 41.3885 93.0276C63.5973 115.236 99.939 115.236 122.148 93.0276C120.129 95.0466 99.939 78.8947 77.7302 56.6859Z" fill="#DC2D22"/>
<path d="M65.6173 29.4313L53.5034 30.4408C59.5604 37.5073 67.6363 46.5927 76.7217 54.6686L84.7976 46.5927C77.7312 40.5357 71.6743 34.4788 65.6173 29.4313Z" fill="#FF926E"/>
<path d="M41.3897 12.2682C40.3802 13.2777 43.4087 18.3251 50.4751 26.4011L61.5795 25.3916C50.4751 16.3062 42.3992 10.2492 41.3897 12.2682Z" fill="#FF926E"/>
<path d="M122.148 93.0279C123.158 92.0184 118.11 83.9425 108.015 72.8381L107.006 83.9425C116.091 91.0089 121.139 94.0374 122.148 93.0279Z" fill="#FF926E"/>
<path d="M87.8259 49.6215L79.75 57.6974C88.8354 66.7828 96.9114 74.8587 103.978 80.9157L104.987 68.8018C99.9398 62.7448 93.8829 56.6879 87.8259 49.6215Z" fill="#FF926E"/>
<path d="M109.025 72.839L113.063 23.374L63.598 27.4119L50.4746 26.4024C51.4841 27.4119 52.4936 28.4214 53.5031 30.4404L65.617 29.4309L105.997 25.3929L84.7973 46.5923L76.7214 54.6682L77.7309 55.6777L78.7404 56.6872L87.8258 49.6207L109.025 28.4214L104.987 68.8011L103.978 80.915C104.987 81.9244 107.006 82.9339 108.016 83.9434L109.025 72.839Z" fill="#475059"/>
<path d="M119.12 33.4695C118.11 32.46 118.11 31.4506 119.12 30.4411C123.158 26.4031 123.158 19.3367 119.12 14.2892C115.082 10.2512 108.015 10.2512 102.968 14.2892C101.958 15.2987 100.949 15.2987 99.9392 14.2892C98.9298 13.2797 98.9298 12.2702 99.9392 11.2607C105.996 5.20378 115.082 5.20378 121.139 11.2607C127.196 17.3177 127.196 26.4031 121.139 32.46C121.139 34.479 120.129 34.479 119.12 33.4695Z" fill="#475059"/>
<path d="M124.167 38.517C123.158 37.5075 123.158 36.498 124.167 35.4885C131.234 29.4316 131.234 17.3177 124.167 10.2512C117.101 3.18479 104.987 3.18479 97.9204 10.2512C96.9109 11.2607 95.9014 11.2607 94.8919 10.2512C93.8824 9.24173 93.8824 8.23225 94.8919 7.22276C103.977 -1.86266 117.101 -1.86266 126.186 7.22276C135.272 16.3082 135.272 29.4316 126.186 38.517C126.186 39.5265 125.177 39.5265 124.167 38.517Z" fill="#475059"/>
<path d="M111.044 30.443C114.947 30.443 118.111 27.2792 118.111 23.3766C118.111 19.4739 114.947 16.3101 111.044 16.3101C107.142 16.3101 103.978 19.4739 103.978 23.3766C103.978 27.2792 107.142 30.443 111.044 30.443Z" fill="#E25D34"/>
<path d="M23.2183 137.449C11.1044 137.449 0 143.506 0 150.572H45.4271C46.4366 143.506 36.3417 137.449 23.2183 137.449Z" fill="#FEA621"/>
<path d="M162.994 96.3884L163.107 96.5179L163.117 96.6896C163.373 101.253 161.99 106.914 159.105 112.873C156.217 118.838 151.81 125.132 145.975 130.968C134.02 143.423 119.99 149.628 110.59 149.117L110.418 149.108L110.288 148.994L109.088 147.944L107.888 146.894L107.876 146.883L107.864 146.871C105.122 144.129 102.98 140.972 101.652 137.499C101.389 136.839 101.505 135.954 101.715 135.271C101.824 134.914 101.972 134.573 102.143 134.297C102.297 134.049 102.533 133.752 102.86 133.643L102.863 133.642C106.866 132.341 111.078 131.037 114.993 130.033L115.014 130.028L115.035 130.024C115.433 129.958 116.11 130.026 116.709 130.169C117.018 130.243 117.335 130.343 117.61 130.474C117.871 130.597 118.158 130.777 118.334 131.04L118.334 131.04L118.338 131.047L119.688 133.147L121.038 135.247L121.038 135.247L121.043 135.256C121.337 135.733 121.916 136.05 122.659 136.093C123.397 136.136 124.255 135.901 125.014 135.32L125.014 135.32L125.021 135.315C126.888 133.939 134.149 127.277 137.764 123.864C139.463 122.065 142.005 119.348 144.285 116.832C146.584 114.293 148.576 112.003 149.198 111.045L149.204 111.037L149.209 111.029C149.749 110.264 149.988 109.397 149.956 108.652C149.923 107.902 149.625 107.332 149.156 107.043L149.156 107.044L149.147 107.038L147.047 105.688L144.947 104.338L144.947 104.338L144.94 104.334C144.682 104.161 144.502 103.887 144.376 103.63C144.245 103.361 144.144 103.053 144.069 102.749C143.924 102.153 143.86 101.484 143.923 101.047L143.927 101.02L143.933 100.993C144.937 97.0781 146.241 92.8663 147.542 88.8631L147.542 88.8631L147.543 88.8595C147.652 88.533 147.949 88.2975 148.197 88.143C148.473 87.9717 148.814 87.8244 149.171 87.7148C149.855 87.5042 150.742 87.3889 151.403 87.6534L151.403 87.6534L151.408 87.6553C154.868 89.0799 158.018 91.2141 160.76 93.9525C161.394 94.5098 161.975 95.1935 162.512 95.8267C162.677 96.0203 162.837 96.2093 162.994 96.3884Z" fill="#0164A8" stroke="#EFEFEF"/>
<path d="M151.01 87.6855L151.01 87.6854L150.999 87.681C150.334 87.4266 149.448 87.5553 148.767 87.7762C148.413 87.8912 148.074 88.0437 147.801 88.2192C147.554 88.3774 147.261 88.6174 147.157 88.9456L147.157 88.9456L147.156 88.9492C145.916 92.9716 144.676 97.2027 143.732 101.133L143.727 101.154L143.724 101.175C143.663 101.574 143.741 102.25 143.893 102.846C143.972 103.154 144.077 103.469 144.212 103.742C144.34 104.002 144.523 104.286 144.789 104.457L146.607 105.63L147.059 105.922L147.317 105.449C150.258 100.065 152.296 94.5853 153.326 89.2118L153.39 88.8803L153.106 88.6974C152.461 88.2816 151.721 87.9776 151.032 87.6945L151.01 87.6855Z" fill="#1A3A60" stroke="#EFEFEF"/>
<path d="M101.658 137.515L101.658 137.515L101.653 137.503C101.389 136.842 101.504 135.955 101.715 135.271C101.824 134.914 101.972 134.573 102.143 134.297C102.297 134.049 102.533 133.752 102.86 133.643L102.86 133.643L102.863 133.642C106.866 132.341 111.078 131.037 114.993 130.033L115.014 130.028L115.035 130.024C115.433 129.958 116.111 130.026 116.709 130.169C117.018 130.243 117.335 130.343 117.61 130.474C117.871 130.597 118.158 130.777 118.334 131.04L119.534 132.84L119.832 133.288L119.364 133.553C114.025 136.575 108.577 138.695 103.219 139.807L102.889 139.876L102.702 139.595C102.276 138.957 101.961 138.221 101.667 137.536L101.658 137.515Z" fill="#1A3A60" stroke="#EFEFEF"/>
</svg>
