<svg width="172" height="159" viewBox="0 0 172 159" fill="none" xmlns="http://www.w3.org/2000/svg">
<path d="M46 18.5C46 24.2692 41.3269 29 35.5 29C29.6731 29 25 24.3269 25 18.5C25 12.7308 29.6731 8 35.5 8C41.3269 8 46 12.7308 46 18.5Z" fill="#FDCA5C"/>
<path d="M43.8655 18.5001C43.8655 23.1155 40.1155 26.8655 35.5001 26.8655C30.8848 26.8655 27.1348 23.1155 27.1348 18.5001C27.1348 13.8848 30.8848 10.1348 35.5001 10.1348C40.1155 10.1348 43.8655 13.8848 43.8655 18.5001Z" fill="#FFDB79"/>
<path d="M36.3643 19.1924H34.5759C33.8259 19.1924 33.1336 18.9039 32.6143 18.3847C32.0951 17.8655 31.8066 17.1732 31.8066 16.4232C31.8066 15.6732 32.0951 14.9809 32.6143 14.4616C33.1336 13.9424 33.8259 13.6539 34.5759 13.6539H38.3836V15.0385H34.5759C34.2297 15.0385 33.8836 15.1539 33.5951 15.4424C33.3643 15.6732 33.1913 16.0193 33.1913 16.4232C33.1913 16.7693 33.3066 17.1155 33.5951 17.4039C33.8836 17.6924 34.172 17.8078 34.5759 17.8078H36.3643V19.1924Z" fill="#FDCA5C"/>
<path d="M36.3643 23.2883H32.5566V21.9037H36.3643C36.7105 21.9037 37.0566 21.7883 37.3451 21.4999C37.5759 21.2691 37.7489 20.923 37.7489 20.5191C37.7489 20.173 37.6336 19.8268 37.3451 19.5383C37.0566 19.2499 36.7682 19.1345 36.3643 19.1345H34.5759V17.7499H36.3643C37.1143 17.7499 37.8066 18.0383 38.3259 18.5576C38.8451 19.0768 39.1336 19.7691 39.1336 20.5191C39.1336 21.2691 38.8451 21.9614 38.3259 22.4806C37.8066 23.0576 37.1143 23.2883 36.3643 23.2883Z" fill="#FDCA5C"/>
<path d="M36.1913 13.25H34.8066V23.8077H36.1913V13.25Z" fill="#FDCA5C"/>
<path d="M161.4 21.2C161.4 31.2 153.3 39.4 143.2 39.4C133.1 39.4 125 31.3 125 21.2C125 11.2 133.1 3 143.2 3C153.3 3 161.4 11.2 161.4 21.2Z" fill="#FDCA5C"/>
<path d="M157.699 21.2C157.699 29.2 151.199 35.7 143.199 35.7C135.199 35.7 128.699 29.2 128.699 21.2C128.699 13.2 135.199 6.69995 143.199 6.69995C151.199 6.69995 157.699 13.2 157.699 21.2Z" fill="#FFDB79"/>
<path d="M144.701 22.3999H141.601C140.301 22.3999 139.101 21.8999 138.201 20.9999C137.301 20.0999 136.801 18.8999 136.801 17.5999C136.801 16.2999 137.301 15.0999 138.201 14.1999C139.101 13.2999 140.301 12.7999 141.601 12.7999H148.201V15.1999H141.601C141.001 15.1999 140.401 15.3999 139.901 15.8999C139.501 16.2999 139.201 16.8999 139.201 17.5999C139.201 18.1999 139.401 18.7999 139.901 19.2999C140.401 19.7999 140.901 19.9999 141.601 19.9999H144.701V22.3999Z" fill="#FDCA5C"/>
<path d="M144.702 29.5H138.102V27.1H144.702C145.302 27.1 145.902 26.9 146.402 26.4C146.802 26 147.102 25.4 147.102 24.7C147.102 24.1 146.902 23.5 146.402 23C145.902 22.5 145.402 22.3 144.702 22.3H141.602V19.9H144.702C146.002 19.9 147.202 20.4 148.102 21.3C149.002 22.2 149.502 23.4 149.502 24.7C149.502 26 149.002 27.2 148.102 28.1C147.202 29.1 146.002 29.5 144.702 29.5Z" fill="#FDCA5C"/>
<path d="M144.4 12.1H142V30.4H144.4V12.1Z" fill="#FDCA5C"/>
<path d="M171.131 110.454V107.141L168.965 106.887C168.838 105.995 168.583 105.103 168.328 104.339L170.112 103.065L168.455 100.262L166.417 101.154C165.907 100.517 165.27 99.8797 164.506 99.2428L165.398 97.2044L162.595 95.5482L161.321 97.3318C160.429 96.9496 159.665 96.8222 158.773 96.6948L158.518 94.5291H155.206L154.951 96.6948C154.059 96.8222 153.168 97.077 152.403 97.3318L151.129 95.5482L148.327 97.2044L149.218 99.2428C148.454 99.7523 147.817 100.389 147.307 101.154L145.269 100.262L143.613 103.065L145.396 104.339C145.014 105.103 144.887 105.995 144.759 106.887L142.594 107.141V110.454L144.759 110.709C144.887 111.6 145.142 112.492 145.396 113.256L143.613 114.53L145.269 117.333L147.307 116.441C147.817 117.078 148.454 117.715 149.218 118.352L148.327 120.391L151.129 122.047L152.403 120.263C153.168 120.645 154.059 120.773 154.951 120.9L155.206 123.066H158.518L158.773 120.9C159.665 120.773 160.557 120.518 161.321 120.263L162.595 122.047L165.398 120.391L164.506 118.352C165.143 117.843 165.78 117.206 166.417 116.441L168.455 117.333L170.112 114.53L168.328 113.256C168.583 112.492 168.838 111.6 168.965 110.709L171.131 110.454ZM156.607 116.441C152.403 116.441 148.964 113.002 148.964 108.798C148.964 104.593 152.403 101.154 156.607 101.154C160.812 101.154 164.251 104.593 164.251 108.798C164.124 113.002 160.812 116.441 156.607 116.441Z" fill="#4C505A"/>
<path d="M160.555 72.3619V70.0688L159.026 69.9414C158.899 69.3044 158.771 68.6674 158.516 68.1578L159.79 67.266L158.644 65.3551L157.242 65.9921C156.86 65.4825 156.478 65.1003 155.968 64.7181L156.605 63.3167L154.694 62.1701L153.803 63.4441C153.293 63.1893 152.656 63.0619 152.019 62.9345L151.892 61.4058H149.599L149.471 62.9345C148.834 63.0619 148.197 63.1893 147.688 63.4441L146.796 62.1701L144.885 63.3167L145.522 64.7181C145.012 65.1003 144.63 65.4825 144.248 65.9921L142.847 65.3551L141.7 67.266L142.974 68.1578C142.719 68.6674 142.592 69.3044 142.464 69.9414L140.936 70.0688V72.3619L142.464 72.4893C142.592 73.1263 142.719 73.7633 142.974 74.2729L141.7 75.1647L142.847 77.0756L144.248 76.4386C144.63 76.9482 145.012 77.3304 145.522 77.7126L144.885 79.114L146.796 80.2606L147.688 78.9866C148.197 79.2414 148.834 79.3688 149.471 79.4962L149.599 81.0249H151.892L152.019 79.4962C152.656 79.3688 153.293 79.2414 153.803 78.9866L154.694 80.2606L156.605 79.114L155.968 77.7126C156.478 77.3304 156.86 76.9482 157.242 76.4386L158.644 77.0756L159.79 75.1647L158.516 74.2729C158.771 73.7633 158.899 73.1263 159.026 72.4893L160.555 72.3619ZM150.618 76.4386C147.688 76.4386 145.394 74.1455 145.394 71.2154C145.394 68.2852 147.688 65.9921 150.618 65.9921C153.548 65.9921 155.841 68.2852 155.841 71.2154C155.841 74.1455 153.548 76.4386 150.618 76.4386Z" fill="white"/>
<path d="M51.7587 145.488H40.293V134.022H51.7587V145.488ZM41.4395 144.341H50.6121V135.169H41.4395V144.341Z" fill="#DCDCF0"/>
<path d="M50.8221 134.309L40.5527 144.58L41.3636 145.391L51.633 135.12L50.8221 134.309Z" fill="#DCDCF0"/>
<path d="M41.3537 134.217L40.543 135.028L50.8124 145.297L51.6231 144.486L41.3537 134.217Z" fill="#DCDCF0"/>
<path d="M51.7587 135.169H40.293V123.703H51.7587V135.169ZM41.4395 134.022H50.6121V124.849H41.4395V134.022Z" fill="#DCDCF0"/>
<path d="M50.8085 123.988L40.5391 134.258L41.3498 135.068L51.6192 124.799L50.8085 123.988Z" fill="#DCDCF0"/>
<path d="M41.3498 123.899L40.5391 124.709L50.8085 134.979L51.6192 134.168L41.3498 123.899Z" fill="#DCDCF0"/>
<path d="M51.7587 124.849H40.293V113.384H51.7587V124.849ZM41.4395 123.703H50.6121V114.53H41.4395V123.703Z" fill="#DCDCF0"/>
<path d="M50.8104 113.674L40.541 123.945L41.3519 124.756L51.6213 114.485L50.8104 113.674Z" fill="#DCDCF0"/>
<path d="M41.342 113.58L40.5312 114.391L50.8007 124.661L51.6114 123.85L41.342 113.58Z" fill="#DCDCF0"/>
<path d="M51.7587 114.53H40.293V103.064H51.7587V114.53ZM41.4395 113.383H50.6121V104.211H41.4395V113.383Z" fill="#DCDCF0"/>
<path d="M50.8026 103.358L40.5332 113.628L41.3441 114.439L51.6135 104.168L50.8026 103.358Z" fill="#DCDCF0"/>
<path d="M41.3361 103.266L40.5254 104.077L50.7948 114.346L51.6055 113.535L41.3361 103.266Z" fill="#DCDCF0"/>
<path d="M51.7587 104.211H40.293V92.7456H51.7587V104.211ZM41.4395 103.065H50.6121V93.8922H41.4395V103.065Z" fill="#DCDCF0"/>
<path d="M50.7889 93.0387L40.5195 103.308L41.3303 104.119L51.5997 93.8494L50.7889 93.0387Z" fill="#DCDCF0"/>
<path d="M41.3303 92.9494L40.5195 93.7601L50.7889 104.03L51.5997 103.219L41.3303 92.9494Z" fill="#DCDCF0"/>
<path d="M51.7587 93.892H40.293V82.4263H51.7587V93.892ZM41.4395 92.7455H50.6121V83.5728H41.4395V92.7455Z" fill="#DCDCF0"/>
<path d="M50.7909 82.7235L40.5215 92.9944L41.3323 93.8051L51.6018 83.5343L50.7909 82.7235Z" fill="#DCDCF0"/>
<path d="M41.3264 82.6316L40.5156 83.4424L50.785 93.7118L51.5958 92.9011L41.3264 82.6316Z" fill="#DCDCF0"/>
<path d="M51.7587 83.5727H40.293V72.1069H51.7587V83.5727ZM41.4395 82.4261H50.6121V73.2535H41.4395V82.4261Z" fill="#DCDCF0"/>
<path d="M50.7831 72.4067L40.5137 82.6776L41.3245 83.4884L51.5939 73.2175L50.7831 72.4067Z" fill="#DCDCF0"/>
<path d="M41.3186 72.3167L40.5078 73.1274L50.7772 83.3969L51.588 82.5861L41.3186 72.3167Z" fill="#DCDCF0"/>
<path d="M51.7587 73.2535H40.293V61.7877H51.7587V73.2535ZM41.4395 72.2343H50.6121V63.0617H41.4395V72.2343Z" fill="#DCDCF0"/>
<path d="M50.7714 62.0886L40.502 72.358L41.3127 73.1688L51.5821 62.8994L50.7714 62.0886Z" fill="#DCDCF0"/>
<path d="M41.3127 61.9992L40.502 62.8099L50.7714 73.0794L51.5821 72.2686L41.3127 61.9992Z" fill="#DCDCF0"/>
<path d="M51.7587 63.0617H40.293V51.5959H51.7587V63.0617ZM41.4395 61.9151H50.6121V52.7425H41.4395V61.9151Z" fill="#DCDCF0"/>
<path d="M50.7694 51.7728L40.5 62.0437L41.3109 62.8544L51.5803 52.5836L50.7694 51.7728Z" fill="#DCDCF0"/>
<path d="M41.3049 51.6829L40.4941 52.4937L50.7636 62.7631L51.5743 61.9523L41.3049 51.6829Z" fill="#DCDCF0"/>
<path d="M51.7587 52.7424H40.293V41.2766H51.7587V52.7424ZM41.4395 51.5958H50.6121V42.4232H41.4395V51.5958Z" fill="#DCDCF0"/>
<path d="M50.7596 41.4556L40.4902 51.725L41.301 52.5357L51.5704 42.2663L50.7596 41.4556Z" fill="#DCDCF0"/>
<path d="M41.301 41.3654L40.4902 42.1761L50.7596 52.4456L51.5704 51.6348L41.301 41.3654Z" fill="#DCDCF0"/>
<path d="M51.7587 42.4236H40.293V30.9579H51.7587V42.4236ZM41.4395 41.2771H50.6121V32.1045H41.4395V41.2771Z" fill="#DCDCF0"/>
<path d="M50.7577 31.1382L40.4883 41.4091L41.2991 42.2198L51.5686 31.9489L50.7577 31.1382Z" fill="#DCDCF0"/>
<path d="M41.383 31.1399L40.5723 31.9507L50.8417 42.2201L51.6524 41.4094L41.383 31.1399Z" fill="#DCDCF0"/>
<path d="M51.7587 32.1043H40.293V20.6385H51.7587V32.1043ZM41.4395 30.9577H50.6121V21.7851H41.4395V30.9577Z" fill="#DCDCF0"/>
<path d="M50.7499 20.8215L40.4805 31.0924L41.2913 31.9032L51.5607 21.6323L50.7499 20.8215Z" fill="#DCDCF0"/>
<path d="M41.3771 20.8232L40.5664 21.6339L50.8358 31.9033L51.6466 31.0926L41.3771 20.8232Z" fill="#DCDCF0"/>
<path d="M51.7587 21.7851H40.293V10.3193H51.7587V21.7851ZM41.4395 20.6385H50.6121V11.4659H41.4395V20.6385Z" fill="#DCDCF0"/>
<path d="M50.7401 10.5061L40.4707 20.7755L41.2814 21.5863L51.5509 11.3168L50.7401 10.5061Z" fill="#DCDCF0"/>
<path d="M41.3713 10.5058L40.5605 11.3165L50.83 21.5859L51.6407 20.7752L41.3713 10.5058Z" fill="#DCDCF0"/>
<path d="M134.311 145.488H122.846V134.022H134.311V145.488ZM123.992 144.341H133.165V135.169H123.992V144.341Z" fill="#DCDCF0"/>
<path d="M133.344 134.245L123.076 144.516L123.887 145.327L134.155 135.056L133.344 134.245Z" fill="#DCDCF0"/>
<path d="M123.797 134.258L122.986 135.069L133.256 145.338L134.066 144.527L123.797 134.258Z" fill="#DCDCF0"/>
<path d="M134.311 135.169H122.846V123.703H134.311V135.169ZM123.992 134.022H133.165V124.849H123.992V134.022Z" fill="#DCDCF0"/>
<path d="M133.34 123.941L123.07 134.21L123.881 135.021L134.15 124.752L133.34 123.941Z" fill="#DCDCF0"/>
<path d="M123.791 123.94L122.98 124.751L133.25 135.02L134.061 134.209L123.791 123.94Z" fill="#DCDCF0"/>
<path d="M134.311 124.849H122.846V113.384H134.311V124.849ZM123.992 123.703H133.165V114.53H123.992V123.703Z" fill="#DCDCF0"/>
<path d="M133.332 113.612L123.064 123.882L123.875 124.693L134.143 114.422L133.332 113.612Z" fill="#DCDCF0"/>
<path d="M123.785 113.621L122.975 114.432L133.244 124.701L134.055 123.89L123.785 113.621Z" fill="#DCDCF0"/>
<path d="M134.311 114.53H122.846V103.064H134.311V114.53ZM123.992 113.383H133.165V104.211H123.992V113.383Z" fill="#DCDCF0"/>
<path d="M133.325 103.295L123.057 113.566L123.868 114.377L134.135 104.106L133.325 103.295Z" fill="#DCDCF0"/>
<path d="M123.778 103.307L122.967 104.118L133.236 114.387L134.047 113.576L123.778 103.307Z" fill="#DCDCF0"/>
<path d="M134.311 104.211H122.846V92.7456H134.311V104.211ZM123.992 103.065H133.165V93.8922H123.992V103.065Z" fill="#DCDCF0"/>
<path d="M133.322 92.9907L123.053 103.26L123.863 104.071L134.133 93.8015L133.322 92.9907Z" fill="#DCDCF0"/>
<path d="M123.772 92.9904L122.961 93.8011L133.23 104.071L134.041 103.26L123.772 92.9904Z" fill="#DCDCF0"/>
<path d="M134.311 93.892H122.846V82.4263H134.311V93.892ZM123.992 92.7455H133.165V83.5728H123.992V92.7455Z" fill="#DCDCF0"/>
<path d="M133.313 82.6637L123.045 92.9346L123.856 93.7452L134.124 83.4743L133.313 82.6637Z" fill="#DCDCF0"/>
<path d="M123.766 82.6719L122.955 83.4827L133.224 93.7521L134.035 92.9413L123.766 82.6719Z" fill="#DCDCF0"/>
<path d="M134.311 83.5727H122.846V72.1069H134.311V83.5727ZM123.992 82.4261H133.165V73.2535H123.992V82.4261Z" fill="#DCDCF0"/>
<path d="M133.307 72.3477L123.039 82.6185L123.85 83.4292L134.118 73.1583L133.307 72.3477Z" fill="#DCDCF0"/>
<path d="M123.76 72.3577L122.949 73.1685L133.219 83.4379L134.029 82.6271L123.76 72.3577Z" fill="#DCDCF0"/>
<path d="M134.311 73.2535H122.846V61.7877H134.311V73.2535ZM123.992 72.2343H133.165V63.0617H123.992V72.2343Z" fill="#DCDCF0"/>
<path d="M133.303 62.0406L123.033 72.3101L123.844 73.1208L134.113 62.8514L133.303 62.0406Z" fill="#DCDCF0"/>
<path d="M123.754 62.0403L122.943 62.8511L133.213 73.1205L134.024 72.3097L123.754 62.0403Z" fill="#DCDCF0"/>
<path d="M134.311 63.0617H122.846V51.5959H134.311V63.0617ZM123.992 61.9151H133.165V52.7425H123.992V61.9151Z" fill="#DCDCF0"/>
<path d="M133.293 51.7155L123.025 61.9863L123.836 62.797L134.104 52.5261L133.293 51.7155Z" fill="#DCDCF0"/>
<path d="M123.748 51.7248L122.938 52.5355L133.207 62.8049L134.018 61.9942L123.748 51.7248Z" fill="#DCDCF0"/>
<path d="M134.311 52.7424H122.846V41.2766H134.311V52.7424ZM123.992 51.5958H133.165V42.4232H123.992V51.5958Z" fill="#DCDCF0"/>
<path d="M133.291 41.4076L123.021 51.677L123.832 52.4877L134.102 42.2183L133.291 41.4076Z" fill="#DCDCF0"/>
<path d="M123.74 41.4056L122.93 42.2163L133.199 52.4857L134.01 51.675L123.74 41.4056Z" fill="#DCDCF0"/>
<path d="M134.311 42.4236H122.846V30.9579H134.311V42.4236ZM123.992 41.2771H133.165V32.1045H123.992V41.2771Z" fill="#DCDCF0"/>
<path d="M133.28 31.0826L123.012 41.3535L123.823 42.1641L134.091 31.8933L133.28 31.0826Z" fill="#DCDCF0"/>
<path d="M123.826 31.1802L123.016 31.991L133.285 42.2604L134.096 41.4496L123.826 31.1802Z" fill="#DCDCF0"/>
<path d="M134.311 32.1043H122.846V20.6385H134.311V32.1043ZM123.992 30.9577H133.165V21.7851H123.992V30.9577Z" fill="#DCDCF0"/>
<path d="M133.274 20.7666L123.006 31.0375L123.817 31.8481L134.085 21.5772L133.274 20.7666Z" fill="#DCDCF0"/>
<path d="M123.819 20.8645L123.008 21.6753L133.277 31.9447L134.088 31.134L123.819 20.8645Z" fill="#DCDCF0"/>
<path d="M134.311 21.7851H122.846V10.3193H134.311V21.7851ZM123.992 20.6385H133.165V11.4659H123.992V20.6385Z" fill="#DCDCF0"/>
<path d="M133.271 10.4574L123.002 20.7268L123.813 21.5375L134.082 11.2681L133.271 10.4574Z" fill="#DCDCF0"/>
<path d="M123.813 10.5462L123.002 11.3569L133.271 21.6263L134.082 20.8156L123.813 10.5462Z" fill="#DCDCF0"/>
<path d="M51.7568 11.4658H40.291V0H51.7568V11.4658ZM41.4376 10.3192H50.6102V1.14658H41.4376V10.3192Z" fill="#DCDCF0"/>
<path d="M41.3635 0.189137L40.5527 0.999878L50.8221 11.2693L51.6329 10.4586L41.3635 0.189137Z" fill="#DCDCF0"/>
<path d="M50.7343 0.186652L40.4648 10.4575L41.2757 11.2683L51.5451 0.997395L50.7343 0.186652Z" fill="#DCDCF0"/>
<path d="M62.0751 11.4658H50.6094V0H62.0751V11.4658ZM51.7559 10.3192H60.9286V1.14658H51.7559V10.3192Z" fill="#DCDCF0"/>
<path d="M51.6779 0.181443L50.8672 0.992188L61.1366 11.2616L61.9473 10.4509L51.6779 0.181443Z" fill="#DCDCF0"/>
<path d="M61.0468 0.182731L50.7773 10.4521L51.5881 11.2629L61.8575 0.993474L61.0468 0.182731Z" fill="#DCDCF0"/>
<path d="M72.3954 11.4658H60.9297V0H72.3954V11.4658ZM62.0763 10.3192H71.2489V1.14658H62.0763V10.3192Z" fill="#DCDCF0"/>
<path d="M61.9963 0.176441L61.1855 0.987183L71.455 11.2566L72.2657 10.4459L61.9963 0.176441Z" fill="#DCDCF0"/>
<path d="M71.3651 0.176627L61.0957 10.446L61.9064 11.2568L72.1759 0.987371L71.3651 0.176627Z" fill="#DCDCF0"/>
<path d="M82.7138 11.4658H71.248V0H82.7138V11.4658ZM72.3946 10.3192H81.5672V1.14658H72.3946V10.3192Z" fill="#DCDCF0"/>
<path d="M72.3127 0.170334L71.502 0.981079L81.7714 11.2505L82.5821 10.4397L72.3127 0.170334Z" fill="#DCDCF0"/>
<path d="M81.6796 0.170649L71.4102 10.4401L72.2209 11.2508L82.4903 0.981393L81.6796 0.170649Z" fill="#DCDCF0"/>
<path d="M93.0341 11.4658H81.5684V0H93.0341V11.4658ZM82.7149 10.3192H91.8875V1.14658H82.7149V10.3192Z" fill="#DCDCF0"/>
<path d="M82.6272 0.161912L81.8164 0.972656L92.0858 11.2421L92.8966 10.4313L82.6272 0.161912Z" fill="#DCDCF0"/>
<path d="M91.9979 0.164546L81.7285 10.434L82.5393 11.2447L92.8087 0.975289L91.9979 0.164546Z" fill="#DCDCF0"/>
<path d="M103.352 11.4658H91.8867V0H103.352V11.4658ZM93.0333 10.3192H102.206V1.14658H93.0333V10.3192Z" fill="#DCDCF0"/>
<path d="M92.9455 0.157639L92.1348 0.968384L102.404 11.2378L103.215 10.4271L92.9455 0.157639Z" fill="#DCDCF0"/>
<path d="M102.32 0.153446L92.0508 10.4243L92.8616 11.2351L103.131 0.96419L102.32 0.153446Z" fill="#DCDCF0"/>
<path d="M113.671 11.4658H102.205V0H113.671V11.4658ZM103.352 10.3192H112.524V1.14658H103.352V10.3192Z" fill="#DCDCF0"/>
<path d="M103.26 0.151542L102.449 0.96228L112.719 11.2317L113.529 10.421L103.26 0.151542Z" fill="#DCDCF0"/>
<path d="M112.631 0.151725L102.361 10.4211L103.172 11.2319L113.441 0.962468L112.631 0.151725Z" fill="#DCDCF0"/>
<path d="M123.991 11.4658H112.525V0H123.991V11.4658ZM113.672 10.3192H122.845V1.14658H113.672V10.3192Z" fill="#DCDCF0"/>
<path d="M113.576 0.142869L112.766 0.953613L123.035 11.223L123.846 10.4123L113.576 0.142869Z" fill="#DCDCF0"/>
<path d="M122.949 0.145743L112.68 10.4152L113.49 11.2259L123.76 0.956487L122.949 0.145743Z" fill="#DCDCF0"/>
<path d="M134.31 11.4658H122.844V0H134.31V11.4658ZM123.99 10.3192H133.163V1.14658H123.99V10.3192Z" fill="#DCDCF0"/>
<path d="M123.803 0.229416L122.992 1.04016L133.262 11.3096L134.072 10.4988L123.803 0.229416Z" fill="#DCDCF0"/>
<path d="M133.258 0.134403L122.99 10.4053L123.801 11.2159L134.069 0.945032L133.258 0.134403Z" fill="#DCDCF0"/>
<path d="M116.858 11.3383H57.7461V12.9944H116.858V11.3383Z" fill="#E3E0E0"/>
<path d="M93.5447 12.1028H93.0352V22.2946H93.5447V12.1028Z" fill="#F8F8F9"/>
<path d="M81.5682 12.1028H81.0586V22.2946H81.5682V12.1028Z" fill="#F8F8F9"/>
<path d="M149.598 147.653H25.0039V158.1H149.598V147.653Z" fill="#EE7853"/>
<path d="M52.5214 144.341H39.6543V147.653H52.5214V144.341Z" fill="#DB6043"/>
<path d="M134.949 144.341H122.082V147.653H134.949V144.341Z" fill="#DB6043"/>
<path d="M109.979 49.303H64.6252C61.8224 49.303 59.5293 51.5961 59.5293 54.3989V142.43C59.5293 145.233 61.8224 147.526 64.6252 147.526H109.979C112.781 147.526 115.075 145.233 115.075 142.43V54.3989C115.202 51.5961 112.909 49.303 109.979 49.303Z" fill="#2D343D"/>
<path d="M64.6251 146.38C62.4593 146.38 60.6758 144.596 60.6758 142.43V54.3988C60.6758 52.233 62.4593 50.4495 64.6251 50.4495H109.979C112.144 50.4495 113.928 52.233 113.928 54.3988V142.43C113.928 144.596 112.144 146.38 109.979 146.38H64.6251Z" fill="#4C505A"/>
<path d="M111.507 58.8578H63.0957V135.041H111.507V58.8578Z" fill="white"/>
<path d="M87.3019 144.341C85.2636 144.341 83.6074 142.685 83.6074 140.647C83.6074 138.608 85.2636 136.952 87.3019 136.952C89.3403 136.952 90.9965 138.608 90.9965 140.647C90.9965 142.685 89.3403 144.341 87.3019 144.341ZM87.3019 137.589C85.6458 137.589 84.2444 138.99 84.2444 140.647C84.2444 142.303 85.6458 143.704 87.3019 143.704C88.9581 143.704 90.3595 142.303 90.3595 140.647C90.3595 138.99 89.0855 137.589 87.3019 137.589Z" fill="#2D343D"/>
<path d="M112.782 60.7682C112.655 60.7682 112.527 60.7682 112.4 60.6409L86.9206 42.6778C86.6658 42.423 86.5384 42.0409 86.7932 41.7861C87.048 41.5313 87.4302 41.4039 87.685 41.6587L113.164 59.6217C113.419 59.8765 113.547 60.2587 113.292 60.5135C113.164 60.7682 112.91 60.7682 112.782 60.7682Z" fill="#F8F8F9"/>
<path d="M87.3022 44.4618C84.8817 44.4618 82.9707 42.5508 82.9707 40.1303C82.9707 39.8755 83.2255 39.6207 83.4803 39.6207C83.7351 39.6207 83.9899 39.8755 83.9899 40.1303C83.9899 41.9138 85.3913 43.3152 87.1748 43.3152C88.9584 43.3152 90.3597 41.9138 90.3597 40.1303C90.3597 38.3467 88.9584 36.9453 87.1748 36.9453C86.92 36.9453 86.6652 36.6906 86.6652 36.4358V31.2125C86.6652 30.9577 86.92 30.7029 87.1748 30.7029C87.4296 30.7029 87.6844 30.9577 87.6844 31.2125V35.7988C89.7228 36.0536 91.3789 37.8371 91.3789 40.0029C91.6337 42.4234 89.7228 44.4618 87.3022 44.4618Z" fill="#EE7853"/>
<path d="M88.7031 27.1354H85.9004V33.123H88.7031V27.1354Z" fill="#DB6043"/>
<path d="M93.5435 22.2946C93.5435 25.7343 90.7408 28.5371 87.3011 28.5371C83.8613 28.5371 81.0586 25.7343 81.0586 22.2946C81.0586 18.8549 83.8613 16.0521 87.3011 16.0521C90.7408 16.0521 93.5435 18.8549 93.5435 22.2946Z" fill="#EE7853"/>
<path d="M84.8811 19.8739C83.4797 21.2753 83.4797 23.441 84.8811 24.8424L89.8496 19.8739C88.4482 18.4725 86.1551 18.4725 84.8811 19.8739Z" fill="#FEDD7E"/>
<path d="M89.8494 19.8741L84.8809 24.8426C86.2822 26.244 88.448 26.244 89.8494 24.8426C91.2507 23.4413 91.2507 21.1481 89.8494 19.8741Z" fill="#DB6043"/>
<path d="M76.4738 77.3303H69.0848C68.0656 77.3303 67.1738 78.2221 67.1738 79.2413V86.6303C67.1738 87.6495 68.0656 88.5413 69.0848 88.5413H76.4738C77.493 88.5413 78.3848 87.6495 78.3848 86.6303V79.2413C78.3848 78.2221 77.493 77.3303 76.4738 77.3303Z" fill="#F8BF49"/>
<path d="M90.9953 77.3303H83.6063C82.5871 77.3303 81.6953 78.2221 81.6953 79.2413V86.6303C81.6953 87.6495 82.5871 88.5413 83.6063 88.5413H90.9953C92.0145 88.5413 92.9063 87.6495 92.9063 86.6303V79.2413C92.9063 78.2221 92.0145 77.3303 90.9953 77.3303Z" fill="#EE7853"/>
<path d="M105.521 77.3303H98.1317C97.1125 77.3303 96.2207 78.2221 96.2207 79.2413V86.6303C96.2207 87.6495 97.1125 88.5413 98.1317 88.5413H105.521C106.54 88.5413 107.432 87.6495 107.432 86.6303V79.2413C107.432 78.2221 106.667 77.3303 105.521 77.3303Z" fill="#61C2CB"/>
<path d="M76.4738 92.8724H69.0848C68.0656 92.8724 67.1738 93.7642 67.1738 94.7834V102.172C67.1738 103.192 68.0656 104.083 69.0848 104.083H76.4738C77.493 104.083 78.3848 103.192 78.3848 102.172V94.7834C78.3848 93.7642 77.493 92.8724 76.4738 92.8724Z" fill="#EE7853"/>
<path d="M90.9953 92.8724H83.6063C82.5871 92.8724 81.6953 93.7642 81.6953 94.7834V102.172C81.6953 103.192 82.5871 104.083 83.6063 104.083H90.9953C92.0145 104.083 92.9063 103.192 92.9063 102.172V94.7834C92.9063 93.7642 92.0145 92.8724 90.9953 92.8724Z" fill="#E3E0E0"/>
<path d="M105.521 92.8724H98.1317C97.1125 92.8724 96.2207 93.7642 96.2207 94.7834V102.172C96.2207 103.192 97.1125 104.083 98.1317 104.083H105.521C106.54 104.083 107.432 103.192 107.432 102.172V94.7834C107.432 93.7642 106.667 92.8724 105.521 92.8724Z" fill="#EE7853"/>
<path d="M76.4738 108.543H69.0848C68.0656 108.543 67.1738 109.435 67.1738 110.454V117.843C67.1738 118.862 68.0656 119.754 69.0848 119.754H76.4738C77.493 119.754 78.3848 118.862 78.3848 117.843V110.454C78.3848 109.307 77.493 108.543 76.4738 108.543Z" fill="#2D343D"/>
<path d="M90.9953 108.543H83.6063C82.5871 108.543 81.6953 109.435 81.6953 110.454V117.843C81.6953 118.862 82.5871 119.754 83.6063 119.754H90.9953C92.0145 119.754 92.9063 118.862 92.9063 117.843V110.454C92.9063 109.307 92.0145 108.543 90.9953 108.543Z" fill="#EE7853"/>
<path d="M105.521 108.543H98.1317C97.1125 108.543 96.2207 109.435 96.2207 110.454V117.843C96.2207 118.862 97.1125 119.754 98.1317 119.754H105.521C106.54 119.754 107.432 118.862 107.432 117.843V110.454C107.432 109.307 106.667 108.543 105.521 108.543Z" fill="#FEDD7E"/>
<path d="M123.483 82.4263H101.953V83.4455H123.483V82.4263Z" fill="#F8F8F9"/>
<path d="M123.483 97.969H101.953V98.9882H123.483V97.969Z" fill="#F8F8F9"/>
<path d="M123.483 113.639H101.953V114.658H123.483V113.639Z" fill="#F8F8F9"/>
<path d="M72.7782 82.4263H51.248V83.4455H72.7782V82.4263Z" fill="#F8F8F9"/>
<path d="M72.7782 97.969H51.248V98.9882H72.7782V97.969Z" fill="#F8F8F9"/>
<path d="M72.7782 113.639H51.248V114.658H72.7782V113.639Z" fill="#F8F8F9"/>
<path d="M62.3331 66.7561C62.2057 66.7561 61.9509 66.7561 61.9509 66.6287C61.6961 66.3739 61.6961 65.9917 61.9509 65.7369L87.0481 41.7862C87.3029 41.5314 87.6851 41.5314 87.9399 41.7862C88.1947 42.041 88.1947 42.4232 87.9399 42.678L62.7152 66.6287C62.5879 66.7561 62.4605 66.7561 62.3331 66.7561Z" fill="#F8F8F9"/>
<path d="M113.869 58.9039L60.0117 64.4482L60.8597 72.6852L114.717 67.1408L113.869 58.9039Z" fill="#F8BF49"/>
<path d="M113.391 66.0078L112.791 60.1786L61.3419 65.4751L61.9419 71.3043L113.391 66.0078Z" fill="white"/>
<path d="M35.5787 96.9495H0.671875V118.352H35.5787V96.9495Z" fill="#FEDD7E"/>
<path d="M0.671875 96.9495L18.1253 109.944L35.5787 96.9495H0.671875Z" fill="#F8BF49"/>
<path d="M27.8459 70.4852C35.1178 67.4489 38.5514 59.0925 35.5152 51.8206C32.4789 44.5487 24.1225 41.115 16.8506 44.1513C9.57864 47.1875 6.14498 55.544 9.18124 62.8159C12.2175 70.0878 20.5739 73.5215 27.8459 70.4852Z" fill="#4C505A"/>
<path d="M22.3297 47.5195C18.6352 47.5195 15.7051 50.4497 15.7051 54.1442C15.7051 57.8387 22.3297 67.1387 22.3297 67.1387C22.3297 67.1387 28.9544 57.8387 28.9544 54.1442C28.9544 50.4497 26.0243 47.5195 22.3297 47.5195ZM22.3297 57.8387C20.2914 57.8387 18.6352 56.1825 18.6352 54.0168C18.6352 51.9784 20.2914 50.1949 22.3297 50.1949C24.3681 50.1949 26.1517 51.851 26.1517 54.0168C26.0243 56.1825 24.3681 57.8387 22.3297 57.8387Z" fill="white"/>
</svg>
