<svg width="12" height="10" viewBox="0 0 12 10" xmlns="http://www.w3.org/2000/svg">
<path d="M4.88569 1.15794L0.322494 7.82347C0.11161 8.1313 0 8.44146 0 8.69926C0 9.19767 0.40001 9.50598 1.06957 9.50598H10.932C11.6008 9.50598 12 9.19806 12 8.70081C12 8.44262 11.8883 8.13742 11.6768 7.82891L7.11372 1.16027C6.81979 0.731412 6.42424 0.493913 5.99947 0.493913C5.57498 0.493815 5.17953 0.728595 4.88569 1.15794Z"/>
</svg>
