<svg width="360" height="471" viewBox="0 0 360 471" fill="none" xmlns="http://www.w3.org/2000/svg">
<mask id="mask0" mask-type="alpha" maskUnits="userSpaceOnUse" x="0" y="0" width="360" height="471">
<rect x="0.5" y="0.5" width="359" height="470" fill="white" stroke="#DCDCDC"/>
</mask>
<g mask="url(#mask0)">
<path d="M29.6114 312.99C29.6114 307.946 32.9996 304.163 37.2349 302.902C36.3878 299.539 35.1172 296.597 33.4231 293.655C29.1879 295.756 24.1055 295.336 20.7173 291.973C20.2938 291.553 19.8703 291.132 19.8703 291.132C20.2938 291.553 20.2938 291.553 20.7173 291.973C17.3291 288.61 16.9056 283.566 19.0232 279.783C16.0585 278.102 13.0938 276.841 9.70561 276C8.43503 280.624 4.19976 283.566 -0.459038 283.566C-5.54136 283.566 -9.35311 280.203 -10.6237 276C-14.0119 276.841 -16.9766 278.102 -19.9413 279.783C-17.8236 283.566 -18.2472 289.031 -21.6354 292.393C-21.2119 291.973 -21.2119 291.973 -20.7883 291.553C-21.2119 291.973 -21.6354 292.393 -21.6354 292.393C-25.0236 295.756 -30.1059 296.177 -34.3412 294.075C-36.0353 297.017 -37.3059 299.96 -38.1529 303.322C-33.4941 304.584 -30.5295 308.787 -30.5295 313.411C-31.3765 317.614 -34.7647 321.818 -39 323.079C-38.1529 326.442 -36.8824 329.384 -35.1883 332.326C-30.953 330.225 -25.8707 330.645 -22.4824 334.008C-19.0942 337.371 -18.6707 342.415 -20.7883 346.618C-17.8236 348.3 -14.859 349.561 -11.4707 350.401C-10.2002 346.198 -6.38842 342.835 -1.72962 342.835H-0.882565C3.77623 342.835 7.58797 346.198 8.85855 350.401C12.2468 349.561 15.2115 348.3 18.1762 346.618C16.0585 342.835 16.482 337.371 19.8703 334.008L20.2938 333.587C23.682 330.225 28.7643 329.804 32.9996 331.906C34.6937 328.964 35.9643 326.021 36.8113 322.658C32.9996 321.818 29.6114 317.614 29.6114 312.99ZM-0.882565 326.862C-8.50605 326.862 -14.859 320.557 -14.859 312.99C-14.859 305.424 -8.50605 299.119 -0.882565 299.119C6.74092 299.119 13.0938 305.424 13.0938 312.99C13.0938 320.557 6.74092 326.862 -0.882565 326.862Z" fill="#E6F5F9"/>
<path d="M-0.884971 298.699C-8.50844 298.699 -14.8613 305.005 -14.8613 312.571C-14.8613 320.137 -8.50844 326.442 -0.884971 326.442C6.7385 326.442 13.0914 320.137 13.0914 312.571C13.0914 305.005 6.7385 298.699 -0.884971 298.699ZM-0.884971 323.5C-6.81433 323.5 -11.4731 318.876 -11.4731 312.991C-11.4731 307.106 -6.81433 302.482 -0.884971 302.482C5.04439 302.482 9.70318 307.106 9.70318 312.991C9.70318 318.456 5.04439 323.5 -0.884971 323.5Z" fill="#F2F2F2"/>
<path d="M20.2918 291.132C19.8683 290.712 19.8683 290.712 19.4447 290.292C19.8683 290.712 20.2918 291.132 20.2918 291.132ZM-1.30805 342.835C-1.30805 342.835 -0.884527 342.835 -1.30805 342.835C-0.884527 342.835 -0.460997 342.835 -0.460997 342.835H-1.30805ZM-22.4844 291.132C-22.4844 291.132 -22.0608 290.712 -21.6373 290.292C-21.6373 290.712 -22.0608 291.132 -22.4844 291.132Z" fill="#BBC2C3"/>
<path d="M20.7167 291.554C20.7167 291.554 20.7167 291.134 20.7167 291.554C15.2109 286.09 7.58742 282.727 -0.883099 282.727C-9.35361 282.727 -16.9771 286.09 -22.4829 291.554C-27.9887 297.019 -31.377 304.585 -31.377 312.992C-31.377 321.399 -27.9887 328.965 -22.4829 334.43C-16.9771 339.474 -9.35361 342.837 -0.883099 342.837C7.58742 342.837 15.2109 339.474 20.7167 334.009C26.2225 328.545 29.6108 320.978 29.6108 312.572C29.6108 304.585 26.2225 297.019 20.7167 291.554ZM-0.883099 334.85C-13.1653 334.85 -23.33 324.762 -23.33 312.572C-23.33 300.381 -13.1653 290.293 -0.883099 290.293C11.3991 290.293 21.5638 300.381 21.5638 312.572C21.5638 325.182 11.3991 334.85 -0.883099 334.85Z" fill="#A7D0FF"/>
<path d="M-0.884971 298.699C-8.50844 298.699 -14.8613 305.005 -14.8613 312.571C-14.8613 320.137 -8.50844 326.442 -0.884971 326.442C6.7385 326.442 13.0914 320.137 13.0914 312.571C13.0914 305.005 6.7385 298.699 -0.884971 298.699ZM-0.884971 323.5C-6.81433 323.5 -11.4731 318.876 -11.4731 312.991C-11.4731 307.106 -6.81433 302.482 -0.884971 302.482C5.04439 302.482 9.70318 307.106 9.70318 312.991C9.70318 318.456 5.04439 323.5 -0.884971 323.5Z" fill="#A7D0FF"/>
</g>
</svg>
