<svg width="360" height="471" viewBox="0 0 360 471" fill="none" xmlns="http://www.w3.org/2000/svg">
<mask id="mask0" mask-type="alpha" maskUnits="userSpaceOnUse" x="0" y="0" width="360" height="471">
<rect x="0.5" y="0.5" width="359" height="470" fill="white" stroke="#DCDCDC"/>
</mask>
<g mask="url(#mask0)">
<g opacity="0.67">
<circle cx="12" cy="197" r="20" fill="#1864A8"/>
<path d="M12.3417 195.442V199.4H17.725C16.9333 201.537 14.875 202.962 12.5 202.962C9.4125 202.962 6.95833 200.508 6.95833 197.421C6.95833 194.333 9.4125 191.879 12.5 191.879C13.6875 191.879 14.7958 192.275 15.7458 192.908L16.0625 193.146L18.4375 190.058L18.1208 189.821C16.4583 188.633 14.5583 188 12.5 188C7.275 188 3 192.275 3 197.5C3 202.725 7.275 207 12.5 207C17.725 207 22 202.725 22 197.5V195.521H12.3417V195.442Z" fill="white"/>
</g>
<g opacity="0.67">
<path d="M368.721 118.65C363.828 128.553 351.833 132.614 341.93 127.721C332.028 122.828 327.966 110.834 332.859 100.931C337.752 91.0278 349.747 86.9665 359.649 91.8595C369.552 96.7525 373.614 108.747 368.721 118.65Z" fill="#ED1E24"/>
<path d="M352.497 111.812L351.238 111.19C349.261 110.213 348.023 107.888 349.724 104.445C351.496 100.859 354.017 100.284 355.845 101.187L357.373 101.943L352.497 111.812ZM360.258 101.084L356.842 99.3959C353.485 97.7372 349.434 98.7699 347.095 103.503C345.692 106.344 346.036 109.119 347.983 111.366L339.485 117.018C339.208 117.202 339.258 117.477 339.498 117.596L341.626 118.647C341.805 118.736 341.954 118.738 342.085 118.624L350.092 112.908L351.59 113.648L347.749 121.422C347.706 121.509 347.739 121.668 347.859 121.727L349.717 122.645C349.897 122.734 349.999 122.677 350.07 122.534L360.447 101.533C360.545 101.333 360.468 101.188 360.258 101.084Z" fill="white"/>
</g>
</g>
</svg>
