<svg width="360" height="471" viewBox="0 0 360 471" fill="none" xmlns="http://www.w3.org/2000/svg">
<mask id="mask0" mask-type="alpha" maskUnits="userSpaceOnUse" x="0" y="0" width="360" height="471">
<rect x="0.5" y="0.5" width="359" height="470" fill="white" stroke="#DCDCDC"/>
</mask>
<g mask="url(#mask0)">
<path opacity="0.7" d="M74.5984 17.3711L102.592 18.8819C108.62 19.5293 118.275 20.5996 118.918 20.8439C119.929 21.2667 125.266 25.8941 126.483 27.2002C128.193 28.7372 129.999 30.1641 131.89 31.4721L137.522 17.019L147.819 22.1966L148.69 20.3032C148.69 20.3032 145.47 10.3298 140.54 8.07753C135.61 5.8253 129.297 9.37112 127.369 9.93532C125.441 10.4995 119.09 13.439 106.049 11.5077L104.005 11.2425L98.878 10.584L75.4955 7.64812C74.8404 7.55589 74.1732 7.59749 73.5341 7.77041C72.8949 7.94333 72.2972 8.24397 71.777 8.65418C71.2568 9.06438 70.8249 9.57563 70.5075 10.157C70.19 10.7384 69.9935 11.3779 69.9299 12.0369C69.8663 12.6958 69.9369 13.3605 70.1374 13.9909C70.3379 14.6212 70.6642 15.2041 71.0965 15.7042C71.5288 16.2044 72.0582 16.6115 72.6527 16.9009C73.2472 17.1903 73.8945 17.356 74.5553 17.3881L74.5984 17.3711Z" fill="#455A64"/>
<path opacity="0.7" d="M134.962 25.9408L145.615 31.0351L144.931 32.375C144.931 32.375 136.967 34.2233 132.353 31.735L134.962 25.9408Z" fill="#455A64"/>
<path d="M126.73 12.8799L126.672 13.0488L126.511 13.5117L125.935 15.2727L123.828 21.6648L124.005 21.6174C123.573 21.1801 123.116 20.7683 122.636 20.3842C122.126 19.9492 121.533 19.6214 120.891 19.4194C119.539 19.1547 118.099 19.0178 116.593 18.8349C113.622 18.452 110.277 18.201 106.842 17.8697C106.396 17.8764 105.959 17.7605 105.58 17.5345C105.326 17.3546 105.118 17.1166 104.974 16.8394C104.83 16.5622 104.753 16.2535 104.749 15.9378C104.746 15.6221 104.816 15.3082 104.954 15.0209C105.092 14.7336 105.295 14.481 105.545 14.283C105.879 14.0476 106.275 13.9215 106.678 13.9226C107.081 13.9397 107.527 13.9827 107.945 14.0132C108.787 14.0953 109.628 14.1488 110.435 14.2403L119.028 14.9356C119.616 14.9785 120.209 14.9305 120.787 14.7933C121.335 14.6789 121.846 14.5454 122.314 14.4146C123.272 14.1445 124.065 13.8779 124.723 13.6558C125.381 13.4338 125.883 13.2362 126.222 13.0994L126.611 12.9522L126.737 12.8866L126.595 12.9245L126.206 13.0573L124.697 13.5497C124.039 13.7575 123.231 14.0107 122.287 14.2656C121.811 14.3896 121.307 14.5156 120.766 14.6223C120.199 14.7512 119.617 14.7912 119.042 14.7408L110.488 13.9424L108.004 13.7077C107.573 13.6781 107.162 13.6256 106.731 13.6247C106.26 13.6332 105.8 13.7884 105.415 14.0688C105.118 14.2872 104.878 14.573 104.713 14.9018C104.549 15.2306 104.465 15.5925 104.47 15.9566C104.474 16.3206 104.567 16.6759 104.739 16.9921C104.912 17.3083 105.159 17.5759 105.461 17.772C105.876 18.0164 106.351 18.1443 106.838 18.1428C110.273 18.4742 113.619 18.7252 116.609 19.0709C118.108 19.2327 119.562 19.3687 120.885 19.6209C121.496 19.8167 122.061 20.1289 122.549 20.5406C123.022 20.9182 123.471 21.3233 123.896 21.7538L124.022 21.8677L124.073 21.7064L126.061 15.2071L126.588 13.4708L126.721 13.0241L126.73 12.8799Z" fill="#263238"/>
<path opacity="0.3" d="M132.114 14.6708L129.162 21.4969L131.859 23.8667L134.78 16.9224L132.114 14.6708Z" fill="black"/>
<path d="M133.058 22.5349C132.817 21.6508 132.322 20.9863 131.605 20.5824C131.106 19.933 130.372 19.5344 129.449 19.4109C129.69 20.2951 130.185 20.9595 130.902 21.3634C131.401 22.0128 132.135 22.4115 133.058 22.5349Z" fill="#263238"/>
<path d="M134.567 19.0779C134.33 18.188 133.833 17.5225 133.109 17.1242C132.607 16.4796 131.875 16.0815 130.958 15.9535C131.202 16.8376 131.698 17.5024 132.416 17.9072C132.918 18.5518 133.65 18.95 134.567 19.0779Z" fill="#263238"/>
<path d="M132.266 32.3255C132.266 32.3255 132.315 32.2718 132.327 32.0883L132.573 31.4072L133.463 28.943L136.293 20.7093L139.123 12.4755L139.996 9.99606L140.251 9.32256L140.351 9.09291C140.347 9.18129 140.327 9.26675 140.292 9.34532L140.084 10.0339L139.318 12.5816C138.603 14.7165 137.649 17.6089 136.509 20.7924C135.369 23.9759 134.363 26.8914 133.574 28.9732C133.178 30.0064 132.855 30.8406 132.613 31.4147L132.332 32.0654C132.327 32.1569 132.305 32.245 132.266 32.3255Z" fill="#263238"/>
<path d="M56.3993 268.089C50.824 274.328 42.7264 278.177 33.6997 278.177C24.6729 278.177 16.5754 274.328 11 268.089C16.5754 261.85 24.6729 258 33.6997 258C42.5937 258 50.6912 261.85 56.3993 268.089Z" fill="#F2F2F2"/>
<path d="M41.9295 268.088C41.9295 272.602 38.2126 276.319 33.6992 276.319V259.858C38.2126 259.858 41.9295 263.442 41.9295 268.088Z" fill="#7CC6C9"/>
<path d="M33.5662 259.858V276.319C29.0528 276.319 25.3359 272.602 25.3359 268.088C25.3359 263.442 29.0528 259.858 33.5662 259.858Z" fill="#47B4BB"/>
<path d="M37.6824 268.089C37.6824 270.345 35.824 272.204 33.5673 272.204C31.3106 272.204 29.4521 270.345 29.4521 268.089C29.4521 265.832 31.3106 263.973 33.5673 263.973C35.824 263.973 37.6824 265.832 37.6824 268.089Z" fill="#49444F"/>
<path d="M33.5673 263.973V268.089H29.4521C29.5849 265.832 31.3106 263.973 33.5673 263.973Z" fill="white"/>
<path opacity="0.63" d="M299.698 242.356C295.526 254.513 301.867 267.763 314.069 272.06C323.82 275.389 334.304 271.989 340.184 264.296L364.964 272.759C366.863 273.358 368.917 273.199 370.627 272.458C372.292 271.592 373.613 270.143 374.381 268.326C375.706 264.484 373.665 260.276 369.823 258.952L345 250.364C345.096 240.623 339.029 231.357 329.402 227.984C317.201 223.687 303.87 230.198 299.698 242.356ZM327.11 234.277C333.189 236.363 337.348 241.796 338.075 247.872C338.366 250.302 338.155 252.909 337.312 255.315C336.513 257.847 334.993 259.929 333.341 261.634C328.96 265.987 322.478 267.56 316.273 265.518C307.619 262.507 303.061 253.134 306.071 244.479C308.956 235.868 318.499 231.391 327.11 234.277Z" fill="#DC2D22"/>
</g>
</svg>
