<svg width="360" height="471" viewBox="0 0 360 471" fill="none" xmlns="http://www.w3.org/2000/svg">
<mask id="mask0" mask-type="alpha" maskUnits="userSpaceOnUse" x="0" y="0" width="360" height="471">
<rect x="0.5" y="0.5" width="359" height="470" fill="white" stroke="#DCDCDC"/>
</mask>
<g mask="url(#mask0)">
<path d="M402.611 119.99C402.611 114.946 406 111.163 410.235 109.902C409.388 106.539 408.117 103.597 406.423 100.655C402.188 102.756 397.106 102.336 393.717 98.9731C393.294 98.5528 392.87 98.1325 392.87 98.1325C393.294 98.5528 393.294 98.5528 393.717 98.9731C390.329 95.6104 389.906 90.5662 392.023 86.7831C389.059 85.1017 386.094 83.8407 382.706 83C381.435 87.6238 377.2 90.5662 372.541 90.5662C367.459 90.5662 363.647 87.2035 362.376 83C358.988 83.8407 356.023 85.1017 353.059 86.7831C355.176 90.5662 354.753 96.0307 351.365 99.3935C351.788 98.9731 351.788 98.9731 352.212 98.5528C351.788 98.9731 351.365 99.3935 351.365 99.3935C347.976 102.756 342.894 103.177 338.659 101.075C336.965 104.017 335.694 106.96 334.847 110.322C339.506 111.584 342.471 115.787 342.471 120.411C341.623 124.614 338.235 128.818 334 130.079C334.847 133.442 336.118 136.384 337.812 139.326C342.047 137.225 347.129 137.645 350.518 141.008C353.906 144.371 354.329 149.415 352.212 153.618C355.176 155.3 358.141 156.561 361.529 157.401C362.8 153.198 366.612 149.835 371.27 149.835H372.117C376.776 149.835 380.588 153.198 381.859 157.401C385.247 156.561 388.211 155.3 391.176 153.618C389.059 149.835 389.482 144.371 392.87 141.008L393.294 140.587C396.682 137.225 401.764 136.804 406 138.906C407.694 135.964 408.964 133.021 409.811 129.658C406 128.818 402.611 124.614 402.611 119.99ZM372.117 133.862C364.494 133.862 358.141 127.557 358.141 119.99C358.141 112.424 364.494 106.119 372.117 106.119C379.741 106.119 386.094 112.424 386.094 119.99C386.094 127.557 379.741 133.862 372.117 133.862Z" fill="#E6F5F9"/>
<path d="M372.116 105.699C364.493 105.699 358.14 112.005 358.14 119.571C358.14 127.137 364.493 133.442 372.116 133.442C379.739 133.442 386.092 127.137 386.092 119.571C386.092 112.005 379.739 105.699 372.116 105.699ZM372.116 130.5C366.187 130.5 361.528 125.876 361.528 119.991C361.528 114.106 366.187 109.483 372.116 109.483C378.045 109.483 382.704 114.106 382.704 119.991C382.704 125.456 378.045 130.5 372.116 130.5Z" fill="#F2F2F2"/>
<path d="M393.292 98.1322C392.869 97.7119 392.869 97.7119 392.445 97.2915C392.869 97.7119 393.292 98.1322 393.292 98.1322ZM371.692 149.835C371.692 149.835 372.116 149.835 371.692 149.835C372.116 149.835 372.539 149.835 372.539 149.835H371.692ZM350.516 98.1322C350.516 98.1322 350.94 97.7119 351.363 97.2915C351.363 97.7119 350.94 98.1322 350.516 98.1322Z" fill="#BBC2C3"/>
<path d="M393.717 98.5542C393.717 98.5542 393.717 98.1339 393.717 98.5542C388.211 93.0897 380.588 89.7269 372.117 89.7269C363.647 89.7269 356.023 93.0897 350.518 98.5542C345.012 104.019 341.624 111.585 341.624 119.992C341.624 128.399 345.012 135.965 350.518 141.43C356.023 146.474 363.647 149.837 372.117 149.837C380.588 149.837 388.211 146.474 393.717 141.009C399.223 135.545 402.611 127.978 402.611 119.572C402.611 111.585 399.223 104.019 393.717 98.5542ZM372.117 141.85C359.835 141.85 349.671 131.762 349.671 119.572C349.671 107.381 359.835 97.2932 372.117 97.2932C384.4 97.2932 394.564 107.381 394.564 119.572C394.564 132.182 384.4 141.85 372.117 141.85Z" fill="#A7D0FF"/>
<path d="M372.116 105.699C364.493 105.699 358.14 112.005 358.14 119.571C358.14 127.137 364.493 133.442 372.116 133.442C379.739 133.442 386.092 127.137 386.092 119.571C386.092 112.005 379.739 105.699 372.116 105.699ZM372.116 130.5C366.187 130.5 361.528 125.876 361.528 119.991C361.528 114.106 366.187 109.483 372.116 109.483C378.045 109.483 382.704 114.106 382.704 119.991C382.704 125.456 378.045 130.5 372.116 130.5Z" fill="#A7D0FF"/>
<g opacity="0.79">
<path d="M24.6658 236.506L44.2983 257.869C48.5155 256.899 53.0589 258.64 55.5058 262.701C57.5092 266.002 57.6331 270.046 55.8509 273.241L51.386 266.123C50.7133 265.104 49.5092 264.787 48.4902 265.46L43.0223 268.923C42.0033 269.596 41.6863 270.8 42.359 271.819L46.8239 278.937C43.1529 278.961 39.5844 277.279 37.5811 273.978C35.4632 270.548 35.4685 266.39 37.3799 263.08L17.8766 241.602C13.6595 242.572 8.98679 240.946 6.41068 236.999C4.40733 233.698 4.28344 229.654 5.93644 226.573L10.4014 233.692C11.074 234.711 12.2782 235.028 13.2971 234.355L18.765 230.892C19.784 230.219 20.101 229.015 19.4283 227.996L14.9634 220.878C18.5199 220.725 22.2029 222.536 24.3354 225.722C26.5825 229.038 26.5772 233.196 24.6658 236.506Z" fill="#FC7649"/>
<path opacity="0.77" d="M40.0842 256.76C40.7715 257.535 40.6983 258.754 39.923 259.441C39.1478 260.128 37.929 260.055 37.2417 259.28L21.8623 242.454C21.175 241.679 21.2482 240.46 22.0235 239.773C22.7987 239.085 24.0175 239.159 24.7048 239.934L40.0842 256.76Z" fill="#CCCCCC"/>
</g>
</g>
</svg>
