<svg width="12" height="10" viewBox="0 0 12 10" fill="none" xmlns="http://www.w3.org/2000/svg">
<path d="M7.11431 8.84206L11.6775 2.17653C11.8884 1.8687 12 1.55854 12 1.30074C12 0.802331 11.6 0.494019 10.9304 0.494019L1.06802 0.494019C0.399233 0.494019 0 0.801943 0 1.29919C0 1.55738 0.111708 1.86258 0.323175 2.17109L4.88628 8.83973C5.18021 9.26859 5.57576 9.50609 6.00053 9.50609C6.42502 9.50618 6.82047 9.27141 7.11431 8.84206Z" fill="#121212"/>
</svg>
