<svg width="260" height="150" viewBox="0 0 260 150" fill="none" xmlns="http://www.w3.org/2000/svg">
<mask id="mask0" mask-type="alpha" maskUnits="userSpaceOnUse" x="0" y="0" width="260" height="150">
<rect width="260" height="150" fill="#C4C4C4"/>
</mask>
<g mask="url(#mask0)">
<ellipse rx="69.9064" ry="69.5" transform="matrix(-1 0 0 1 93.9998 119.5)" fill="white"/>
<path d="M164.509 12.6572H92.4629V103.172H164.509V12.6572Z" fill="#C4EDF1"/>
<path d="M164.509 12.6572H92.4629V18.7829H164.509V12.6572Z" fill="#0E67A6"/>
<path d="M164.509 18.783H92.4629V36.063H164.509V18.783Z" fill="#FEDD7E"/>
<path d="M100.052 13.8457H96.3945V17.5028H100.052V13.8457Z" fill="white"/>
<path d="M106.452 13.8457H102.794V17.5028H106.452V13.8457Z" fill="white"/>
<path d="M112.851 13.8457H109.194V17.5028H112.851V13.8457Z" fill="white"/>
<path d="M105.537 27.3774C105.537 29.4802 103.8 31.2174 101.697 31.2174C99.5946 31.2174 97.8574 29.4802 97.8574 27.3774C97.8574 25.2745 99.5946 23.5374 101.697 23.5374C103.8 23.5374 105.537 25.2745 105.537 27.3774Z" fill="white"/>
<path d="M121.08 25H107.457V26.0971H121.08V25Z" fill="#2D343D"/>
<path d="M129.4 28.6572H107.457V29.7544H129.4V28.6572Z" fill="#2D343D"/>
<path d="M158.749 25.6401C158.749 26.6458 157.926 27.4687 156.92 27.4687C155.915 27.4687 155.092 26.6458 155.092 25.6401C155.092 24.6344 155.915 23.8115 156.92 23.8115C157.926 23.8115 158.749 24.6344 158.749 25.6401Z" fill="white"/>
<path d="M159.297 29.8457H142.932V30.9428H159.297V29.8457Z" fill="white"/>
<path d="M154.543 41.5486H102.429V70.3486H154.543V41.5486Z" fill="#DC2D22"/>
<path d="M154.543 64.7715H102.429V70.3486H154.543V64.7715Z" fill="#DB6043"/>
<path d="M125.743 55.2627L131.137 52.6113L125.743 50.0513V55.2627Z" fill="white"/>
<path d="M127.846 47.0342C124.737 47.0342 122.269 49.5028 122.269 52.6113C122.269 55.7199 124.737 58.1885 127.846 58.1885C130.954 58.1885 133.423 55.7199 133.423 52.6113C133.423 49.5942 130.954 47.0342 127.846 47.0342ZM127.846 57.5485C125.103 57.5485 122.909 55.3542 122.909 52.6113C122.909 49.8685 125.103 47.6742 127.846 47.6742C130.589 47.6742 132.783 49.8685 132.783 52.6113C132.783 55.3542 130.589 57.5485 127.846 57.5485Z" fill="white"/>
<path d="M151.892 67.1487H105.08V67.8801H151.892V67.1487Z" fill="white"/>
<path d="M127.297 67.1487H105.08V67.8801H127.297V67.1487Z" fill="#FEDD7E"/>
<path d="M128.211 67.5144C128.211 67.9715 127.846 68.4287 127.297 68.4287C126.84 68.4287 126.383 68.063 126.383 67.5144C126.383 67.0572 126.749 66.6001 127.297 66.6001C127.846 66.6915 128.211 67.0572 128.211 67.5144Z" fill="#4C505A"/>
<path d="M164.509 75.2859H92.4629V96.7716H164.509V75.2859Z" fill="#FEDD7E"/>
<path d="M115.869 79.2173H98.04V92.7487H115.869V79.2173Z" fill="white"/>
<path d="M137.354 79.2173H119.526V92.7487H137.354V79.2173Z" fill="white"/>
<path d="M158.84 79.2173H141.011V92.7487H158.84V79.2173Z" fill="white"/>
<path d="M169.537 31.4915H112.486V103.171H169.537V31.4915Z" fill="#CCD5D8"/>
<path d="M169.537 31.4915H112.486V36.3372H169.537V31.4915Z" fill="#0E67A6"/>
<path d="M169.537 36.3372H112.486V49.96H169.537V36.3372Z" fill="#F8BF49"/>
<path d="M118.52 32.4058H115.594V35.3315H118.52V32.4058Z" fill="white"/>
<path d="M123.549 32.4058H120.623V35.3315H123.549V32.4058Z" fill="white"/>
<path d="M128.669 32.4058H125.743V35.3315H128.669V32.4058Z" fill="white"/>
<path d="M122.817 43.1944C122.817 44.8401 121.446 46.2115 119.8 46.2115C118.154 46.2115 116.783 44.8401 116.783 43.1944C116.783 41.5487 118.154 40.1772 119.8 40.1772C121.446 40.1772 122.817 41.4572 122.817 43.1944Z" fill="white"/>
<path d="M135.16 41.2744H124.372V42.1887H135.16V41.2744Z" fill="#4C505A"/>
<path d="M141.743 44.2002H124.372V45.1145H141.743V44.2002Z" fill="#4C505A"/>
<path d="M164.966 41.7314C164.966 42.5543 164.326 43.1943 163.503 43.1943C162.68 43.1943 162.04 42.5543 162.04 41.7314C162.04 40.9086 162.68 40.2686 163.503 40.2686C164.234 40.36 164.966 41 164.966 41.7314Z" fill="white"/>
<path d="M165.423 45.1143H152.44V46.0285H165.423V45.1143Z" fill="white"/>
<path d="M161.583 54.3486H120.349V77.1143H161.583V54.3486Z" fill="#DC2D22"/>
<path d="M161.583 72.7258H120.349V77.1144H161.583V72.7258Z" fill="#DB6043"/>
<path d="M138.817 65.2288L143.114 63.1259L138.817 61.1145V65.2288Z" fill="white"/>
<path d="M140.463 58.7373C137.994 58.7373 136.074 60.7487 136.074 63.1259C136.074 65.5944 138.086 67.5145 140.463 67.5145C142.931 67.5145 144.851 65.503 144.851 63.1259C144.943 60.7487 142.931 58.7373 140.463 58.7373ZM140.463 67.0573C138.269 67.0573 136.531 65.3202 136.531 63.1259C136.531 60.9316 138.269 59.1944 140.463 59.1944C142.657 59.1944 144.394 60.9316 144.394 63.1259C144.394 65.3202 142.657 67.0573 140.463 67.0573Z" fill="white"/>
<path d="M159.48 74.6458H122.452V75.2858H159.48V74.6458Z" fill="white"/>
<path d="M140.097 74.6458H122.452V75.2858H140.097V74.6458Z" fill="#FEDD7E"/>
<path d="M140.097 75.6516C140.501 75.6516 140.829 75.3241 140.829 74.9201C140.829 74.5162 140.501 74.1887 140.097 74.1887C139.693 74.1887 139.366 74.5162 139.366 74.9201C139.366 75.3241 139.693 75.6516 140.097 75.6516Z" fill="#4C505A"/>
<path d="M169.537 81.0459H112.486V98.0516H169.537V81.0459Z" fill="#C4EDF1"/>
<path d="M131.046 84.2458H116.875V95.0344H131.046V84.2458Z" fill="white"/>
<path d="M148.143 84.2458H133.972V95.0344H148.143V84.2458Z" fill="white"/>
<path d="M165.149 84.2458H150.978V95.0344H165.149V84.2458Z" fill="white"/>
<path d="M184.44 115.149V103.08H77.5601V115.149H184.44ZM84.6001 108.292C85.5143 108.292 86.2458 109.023 86.2458 109.937C86.2458 110.852 85.5143 111.583 84.6001 111.583C83.6858 111.583 82.9543 110.852 82.9543 109.937C82.9543 109.023 83.6858 108.292 84.6001 108.292Z" fill="#4C505A"/>
<path d="M184.349 103.08H77.5601V104.909H184.349V103.08Z" fill="#2D343D"/>
<path d="M180.184 115.141H181.007V112.49H180.184V115.141Z" fill="white"/>
<path d="M174.55 115.141H175.373V112.49H174.55V115.141Z" fill="white"/>
<path d="M168.916 115.141H169.739V112.49H168.916V115.141Z" fill="white"/>
<path d="M163.283 115.141H164.105V112.49H163.283V115.141Z" fill="white"/>
<path d="M157.649 115.141H158.472V112.49H157.649V115.141Z" fill="white"/>
<path d="M151.923 115.141H152.746V112.49H151.923V115.141Z" fill="white"/>
<path d="M146.289 115.141H147.112V112.49H146.289V115.141Z" fill="white"/>
<path d="M140.656 115.141H141.479V112.49H140.656V115.141Z" fill="white"/>
<path d="M135.022 115.141H135.845V112.49H135.022V115.141Z" fill="white"/>
<path d="M129.388 115.141H130.211V112.49H129.388V115.141Z" fill="white"/>
<path d="M123.663 115.141H124.486V112.49H123.663V115.141Z" fill="white"/>
<path d="M118.029 115.141H118.852V112.49H118.029V115.141Z" fill="white"/>
<path d="M112.395 115.141H113.218V112.49H112.395V115.141Z" fill="white"/>
<path d="M106.762 115.141H107.584V112.49H106.762V115.141Z" fill="white"/>
<path d="M101.127 115.141H101.95V112.49H101.127V115.141Z" fill="white"/>
<path d="M95.4022 115.141H96.2251V112.49H95.4022V115.141Z" fill="white"/>
<path d="M89.7685 115.141H90.5913V112.49H89.7685V115.141Z" fill="white"/>
<path d="M93.3979 96.4951C93.3979 96.4951 98.5764 99.0255 100.399 105.546C102.222 112.067 107.79 129.066 107.79 129.066C107.79 129.066 110.972 132.816 111.312 135.596C111.651 138.375 110.972 145.095 109.944 146.348C108.917 147.6 107.459 147.393 107.459 147.393L94.069 146.115L88.791 110.732L93.3979 96.4951Z" fill="#DC2D22"/>
<path d="M49.0856 95.8724C49.0856 95.8724 39.4991 98.884 37.1128 101.497L44.9594 138.051L44.8351 149.583H90.2656C90.2656 149.01 90.6716 111.295 90.6716 111.295L93.3976 96.4947L77.257 93.6407L74.0753 91.1353L56.1119 92.0478L53.3859 94.7773L49.0856 95.8724Z" fill="#DC2D22"/>
<g opacity="0.3">
<path opacity="0.3" d="M52.723 127.581C52.5822 127.274 52.3833 126.934 52.0519 126.868C51.505 126.752 51.1404 127.399 50.9499 127.93C49.475 132.111 47.5196 135.96 44.9842 139.594L44.8682 145.203C47.5196 142.971 50.1296 140.581 51.8199 137.553C53.5019 134.533 54.1482 130.742 52.723 127.581Z" fill="black"/>
</g>
<path d="M37.113 101.498C37.113 101.498 33.9562 105.812 32.647 108.624C31.3379 111.437 20.4753 135.073 19.8125 137.504C19.1579 139.943 17.4676 147.633 22.4307 149.417H32.6387L42.8881 128.668L43.4101 104.592L37.113 101.498Z" fill="#DC2D22"/>
<path d="M33.2933 134.434C33.2767 134.45 33.0696 134.235 32.5973 133.961C32.125 133.695 31.3959 133.388 30.4513 133.181C29.979 133.082 29.457 132.999 28.8936 132.965C28.3301 132.932 27.717 132.94 27.1039 133.082C25.8693 133.355 24.6347 134.143 23.6653 135.239C22.6793 136.334 22.0744 137.636 21.7182 138.864C21.3536 140.092 21.2044 141.245 21.105 142.208C21.0056 143.178 20.9724 143.958 20.9393 144.506C20.9227 144.763 20.9144 144.97 20.8979 145.128C20.8896 145.269 20.8813 145.344 20.873 145.344C20.8647 145.344 20.8647 145.269 20.8564 145.128C20.8564 144.962 20.8564 144.754 20.8564 144.497C20.8647 143.95 20.8813 143.162 20.9559 142.191C21.0387 141.22 21.1796 140.059 21.5359 138.806C21.8839 137.562 22.5053 136.226 23.5079 135.106C24.5022 133.978 25.7699 133.173 27.0542 132.899C27.6922 132.758 28.3219 132.75 28.8936 132.799C29.4653 132.841 29.9956 132.932 30.4761 133.048C31.429 133.272 32.1581 133.604 32.6304 133.895C32.8624 134.044 33.0281 134.177 33.1359 134.268C33.2519 134.376 33.3016 134.426 33.2933 134.434Z" fill="#1A2E35"/>
<path d="M28.4546 130.302C28.4546 130.286 28.5789 130.269 28.7943 130.244C29.018 130.219 29.3412 130.211 29.7389 130.228C30.1366 130.244 30.6172 130.311 31.1309 130.435C31.6446 130.568 32.1997 130.75 32.7549 131.016C33.31 131.281 33.7989 131.597 34.2297 131.92C34.6523 132.244 35.0003 132.576 35.2654 132.874C35.5306 133.173 35.7294 133.43 35.8537 133.621C35.978 133.812 36.036 133.911 36.0277 133.92C35.9946 133.944 35.7211 133.53 35.166 132.965C34.8926 132.683 34.5363 132.376 34.122 132.061C33.6994 131.754 33.2106 131.455 32.672 131.19C32.1252 130.933 31.5866 130.75 31.0894 130.609C30.584 130.485 30.12 130.402 29.7306 130.369C28.9517 130.294 28.4546 130.335 28.4546 130.302Z" fill="#1A2E35"/>
<path d="M37.685 129.166C37.685 129.182 37.511 129.166 37.2127 129.132C36.9144 129.091 36.4753 129.049 35.9367 129.008C34.8596 128.925 33.3516 128.908 31.711 129.099C30.0704 129.298 28.6121 129.672 27.5847 130.004C27.071 130.17 26.6567 130.319 26.375 130.427C26.0933 130.535 25.9276 130.584 25.9276 130.576C25.9193 130.568 26.0684 130.485 26.3501 130.36C26.6236 130.228 27.0379 130.062 27.5516 129.879C28.579 129.506 30.0456 129.108 31.7027 128.908C33.3598 128.709 34.8761 128.751 35.9616 128.875C36.5001 128.933 36.9393 129 37.2376 129.058C37.5276 129.108 37.685 129.149 37.685 129.166Z" fill="#1A2E35"/>
<path d="M66.7593 108.973C66.7593 108.973 66.7179 108.931 66.6516 108.848C66.577 108.749 66.4859 108.624 66.3699 108.475C66.1213 108.126 65.7733 107.645 65.3424 107.048C64.4641 105.803 63.2296 104.069 61.7879 102.029L61.9453 102.004C61.3984 103.621 60.7853 105.405 60.1473 107.28L60.1059 107.396L60.0064 107.33C59.9402 107.288 59.8656 107.239 59.791 107.197C58.9459 106.658 58.2002 106.019 57.5704 105.314C56.9407 104.609 56.4187 103.862 55.9796 103.115C55.1096 101.614 54.5876 100.137 54.2313 98.8843C53.875 97.6315 53.6927 96.5862 53.5685 95.8727C53.5105 95.5326 53.4607 95.2588 53.4276 95.0514C53.411 94.9601 53.3945 94.8855 53.3779 94.844C53.3613 94.8025 53.353 94.7776 53.353 94.7776C53.3945 94.761 53.5022 95.1592 53.643 95.8644C53.7922 96.5779 53.991 97.6066 54.3639 98.8511C54.7367 100.087 55.267 101.547 56.137 103.024C56.5679 103.762 57.0899 104.493 57.7113 105.181C58.3327 105.87 59.0702 106.5 59.8987 107.023C59.9733 107.073 60.0396 107.114 60.1059 107.156L59.965 107.205C60.6113 105.33 61.2244 103.547 61.7796 101.929L61.8376 101.763L61.937 101.912C63.3622 103.97 64.5636 105.72 65.4336 106.973C65.8479 107.587 66.1793 108.068 66.4196 108.425C66.5273 108.583 66.6101 108.715 66.6764 108.815C66.7427 108.923 66.7676 108.973 66.7593 108.973Z" fill="#1A2E35"/>
<g opacity="0.3">
<path opacity="0.3" d="M78.591 126.42C78.1684 130.642 79.1047 134.998 81.2175 138.673C83.3304 142.357 86.4292 145.634 90.2904 147.393C90.4147 143.643 90.2324 139.221 90.3567 135.471L78.591 126.42Z" fill="black"/>
</g>
<path d="M78.1605 121.483C78.1605 121.483 76.5117 121.94 77.7462 125.324C78.9808 128.709 79.3951 128.502 80.2237 131.671C81.0522 134.84 82.0134 137.727 83.4551 139.519C84.8968 141.311 90.2659 144.962 90.2659 144.962L95.0799 140.415C95.0799 140.415 94.2845 137.031 94.4751 134.732C94.6657 132.434 95.1462 126.785 95.0799 125.822C95.0137 124.86 93.9779 122.52 93.9779 122.52V120.919L91.5005 113.295C91.5005 113.295 90.1251 112.673 89.6445 114.879L88.8159 112.54C88.8159 112.54 87.5068 112.332 87.1671 115.012C86.8274 117.7 87.4405 121.417 87.4405 121.417L86.7528 126.096L85.7254 129.265L84.8305 129.406C84.8305 129.406 83.4882 129.041 82.7508 126.503C82.0134 123.964 80.0165 120.936 78.1605 121.483Z" fill="#FFBF9D"/>
<path d="M93.4641 133.455C93.4558 133.455 93.4475 133.397 93.4392 133.281C93.4309 133.148 93.4227 132.982 93.4061 132.775C93.3812 132.31 93.3481 131.671 93.3067 130.875C93.2321 129.232 93.1327 126.942 93.0084 124.271L93.0332 124.329C92.8095 124.064 92.4201 123.989 92.0555 124.072C91.6909 124.163 91.3678 124.387 91.1606 124.727C90.7381 125.408 90.7132 126.287 90.5889 127.142C90.3238 129.075 90.0752 130.908 89.8515 132.584C89.7355 133.422 89.6195 134.218 89.4538 134.957C89.2963 135.695 89.0726 136.367 88.8572 136.964C88.6418 137.562 88.4595 138.109 88.3435 138.599C88.2275 139.088 88.1778 139.52 88.1861 139.876C88.2026 140.59 88.4098 140.947 88.3766 140.955C88.3683 140.955 88.3269 140.864 88.2606 140.689C88.2026 140.507 88.1281 140.241 88.1115 139.876C88.0866 139.52 88.1281 139.072 88.2358 138.574C88.3435 138.076 88.5258 137.52 88.7329 136.915C88.9401 136.309 89.1555 135.654 89.3046 134.915C89.4621 134.185 89.5698 133.389 89.6858 132.559C89.9095 130.883 90.1498 129.05 90.4066 127.117C90.4646 126.685 90.5144 126.262 90.5889 125.839C90.6635 125.416 90.7795 124.993 91.0115 124.628C91.2352 124.254 91.6164 123.981 92.0224 123.889C92.4284 123.79 92.9089 123.873 93.1824 124.213L93.1989 124.238V124.271C93.2901 126.942 93.3729 129.232 93.4227 130.875C93.4392 131.671 93.4558 132.31 93.4724 132.775C93.4724 132.982 93.4724 133.148 93.4807 133.281C93.4724 133.397 93.4724 133.455 93.4641 133.455Z" fill="#FF9A6C"/>
<path d="M90.8376 124.785C90.8293 124.794 90.7464 124.636 90.6387 124.354C90.5227 124.072 90.3736 123.649 90.2327 123.118C90.0918 122.587 89.9593 121.948 89.8847 121.218C89.8516 120.853 89.8184 120.471 89.8681 120.065C89.9096 119.666 90.0256 119.243 90.2824 118.887C90.4978 118.58 90.8127 118.331 91.1607 118.223L91.2353 118.198L91.2767 118.264C91.9727 119.492 92.5776 120.579 93.0084 121.367C93.2073 121.732 93.3647 122.039 93.5056 122.288C93.6216 122.504 93.6713 122.628 93.663 122.637C93.6547 122.645 93.5801 122.529 93.4476 122.321C93.2984 122.081 93.1161 121.782 92.9007 121.425C92.445 120.662 91.8153 119.583 91.111 118.356L91.2187 118.397C90.9121 118.488 90.6387 118.704 90.4481 118.986C90.2161 119.31 90.1084 119.7 90.067 120.073C90.0256 120.455 90.0421 120.828 90.0753 121.185C90.1416 121.898 90.2576 122.537 90.3736 123.068C90.4978 123.599 90.6221 124.022 90.7133 124.312C90.7961 124.619 90.8458 124.777 90.8376 124.785Z" fill="#FF9A6C"/>
<path d="M89.6861 125.399C89.6696 125.399 89.6613 125.242 89.6447 124.96C89.6281 124.636 89.6116 124.238 89.595 123.765C89.5619 122.753 89.5287 121.351 89.5121 119.808C89.5039 118.264 89.4376 116.862 89.5701 115.842C89.6364 115.336 89.7359 114.929 89.827 114.664C89.9181 114.39 89.9927 114.257 90.001 114.257C90.0341 114.266 89.7939 114.855 89.7027 115.859C89.6033 116.862 89.6861 118.256 89.7027 119.808C89.7276 121.351 89.7359 122.753 89.7276 123.765C89.7193 124.238 89.7193 124.636 89.711 124.968C89.711 125.242 89.6944 125.399 89.6861 125.399Z" fill="#FF9A6C"/>
<path d="M85.6177 138.101C85.5928 138.076 85.8911 137.719 86.264 137.08C86.4545 136.757 86.6451 136.359 86.8274 135.902C87.0014 135.446 87.1505 134.923 87.2583 134.367C87.3577 133.812 87.3908 133.272 87.3908 132.783C87.3826 132.293 87.3411 131.854 87.2748 131.489C87.1505 130.758 86.9931 130.319 87.0263 130.302C87.0428 130.294 87.0843 130.402 87.1671 130.601C87.25 130.8 87.3328 131.09 87.4157 131.464C87.4986 131.837 87.5566 132.285 87.5731 132.783C87.5814 133.281 87.5483 133.836 87.4488 134.409C87.3411 134.981 87.1754 135.504 86.9931 135.977C86.8025 136.441 86.5871 136.84 86.38 137.155C86.1728 137.47 85.9905 137.719 85.8497 137.877C85.7088 138.026 85.6259 138.109 85.6177 138.101Z" fill="#FF9A6C"/>
<path d="M94.061 135.728L98.2369 137.18C98.2369 137.18 102.222 135.114 104.973 137.18C107.724 139.246 110.11 144.688 109.356 146.895C109.356 146.895 107.459 149.243 106.017 149.583C104.576 149.923 98.9578 148.563 96.6212 148.073C94.2764 147.584 90.2578 144.962 90.2578 144.962L94.061 135.728Z" fill="#FFBF9D"/>
<path d="M94.5745 141.892C94.558 141.892 94.5497 141.759 94.5331 141.519C94.5165 141.237 94.5 140.897 94.4751 140.507C94.4337 139.652 94.3757 138.474 94.3591 137.172C94.3426 135.869 94.3757 134.683 94.4585 133.828C94.4917 133.405 94.5414 133.057 94.5828 132.824C94.6242 132.592 94.6574 132.459 94.6657 132.459C94.6988 132.468 94.6325 132.99 94.5911 133.836C94.5497 134.691 94.5331 135.869 94.5497 137.172C94.5745 138.449 94.5911 139.602 94.6077 140.507C94.616 140.938 94.6077 141.278 94.6077 141.519C94.5994 141.759 94.5911 141.892 94.5745 141.892Z" fill="#FF9A6C"/>
<path d="M108.353 137.014C108.32 137.047 107.898 136.45 106.961 135.761C106.05 135.073 104.558 134.343 102.802 134.243C101.037 134.144 99.4793 134.708 98.4933 135.297C97.4907 135.878 97.0018 136.425 96.977 136.392C96.9687 136.384 97.0847 136.243 97.325 136.019C97.557 135.795 97.9298 135.488 98.427 135.181C99.413 134.558 101.004 133.953 102.81 134.052C104.616 134.152 106.133 134.932 107.044 135.654C107.508 136.019 107.84 136.359 108.047 136.608C108.262 136.857 108.362 137.006 108.353 137.014Z" fill="#1A2E35"/>
<path d="M107.815 133.53C107.79 133.571 107.226 133.007 106.075 132.567C104.94 132.119 103.183 131.92 101.369 132.426C100.465 132.675 99.6451 133.04 98.9325 133.438C98.2282 133.845 97.6399 134.285 97.1677 134.683C96.6954 135.081 96.3391 135.429 96.0905 135.678C95.842 135.919 95.7094 136.06 95.7011 136.043C95.6928 136.035 95.8088 135.886 96.0408 135.62C96.2728 135.363 96.6125 134.99 97.0765 134.575C97.5405 134.16 98.1288 133.696 98.8414 133.281C99.5539 132.866 100.391 132.493 101.311 132.235C103.158 131.713 104.973 131.945 106.116 132.435C106.696 132.675 107.127 132.949 107.4 133.165C107.541 133.264 107.641 133.364 107.707 133.422C107.782 133.488 107.815 133.521 107.815 133.53Z" fill="#1A2E35"/>
<path d="M107.848 130.51C107.84 130.551 107.111 130.327 105.893 130.161C105.288 130.078 104.559 130.028 103.755 130.028C102.951 130.037 102.056 130.103 101.145 130.261C100.225 130.427 99.3717 130.667 98.6094 130.933C97.8471 131.207 97.1842 131.505 96.6456 131.796C95.5602 132.368 94.9554 132.824 94.9305 132.791C94.9222 132.783 95.0714 132.658 95.3448 132.459C95.4856 132.351 95.6514 132.235 95.8668 132.103C96.0739 131.97 96.3059 131.812 96.5794 131.671C97.1179 131.364 97.7891 131.057 98.5514 130.767C99.3219 130.493 100.184 130.236 101.12 130.07C102.048 129.912 102.951 129.846 103.771 129.846C104.592 129.854 105.321 129.921 105.934 130.028C106.241 130.07 106.514 130.136 106.754 130.186C106.995 130.236 107.202 130.294 107.359 130.344C107.674 130.435 107.848 130.493 107.848 130.51Z" fill="#1A2E35"/>
<path d="M75.8486 93.5166C75.8486 93.5166 76.0392 93.8816 76.1386 94.6283C76.2381 95.375 76.2298 96.4867 75.9812 97.8722C75.8569 98.5608 75.6912 99.324 75.4426 100.137C75.1858 100.95 74.7881 101.78 74.3489 102.651C73.4458 104.385 72.3189 106.285 71.0098 108.301L70.8606 108.533V108.251C70.8606 106.915 70.8524 105.513 70.8524 104.061L71.0015 104.128C69.8746 105.032 68.6981 105.994 67.4801 106.973L67.5132 106.932C66.6929 109.52 66.1626 112.407 65.9472 115.411C65.5992 120.007 65.8809 124.404 66.0964 128.394C66.2786 132.385 66.4029 135.985 66.5272 139.005C66.6432 142.025 66.7592 144.473 66.8504 146.157C66.9001 146.995 66.9415 147.642 66.9664 148.098C66.9829 148.314 66.9912 148.48 66.9995 148.604C67.0078 148.72 67.0078 148.778 67.0078 148.778C67.0078 148.778 66.9995 148.72 66.9829 148.604C66.9664 148.48 66.9498 148.314 66.9332 148.098C66.8918 147.658 66.8338 147.003 66.7841 146.157C66.6681 144.473 66.5355 142.025 66.4029 139.005C66.2704 135.985 66.1046 132.385 65.9306 128.394C65.7069 124.412 65.4169 120.007 65.7649 115.386C65.9804 112.374 66.5189 109.47 67.3475 106.865L67.3558 106.84L67.3806 106.824C68.5986 105.845 69.7835 104.891 70.9104 103.987L71.0595 103.87V104.061C71.0595 105.513 71.0512 106.915 71.0512 108.251L70.8938 108.201C73.4872 104.177 75.5918 100.676 75.9149 97.8556C76.1718 96.4867 76.2049 95.375 76.1221 94.6366C76.0889 94.2633 76.0144 93.9895 75.9646 93.7987C75.8735 93.6162 75.8486 93.5166 75.8486 93.5166Z" fill="#1A2E35"/>
<path d="M69.0794 142.24L68.9468 142.232C68.4 142.249 67.9111 142.747 67.9111 143.294C67.9111 143.842 68.3917 144.339 68.9386 144.364C69.4854 144.381 69.9991 143.916 70.0406 143.369C70.0737 142.83 69.6263 142.299 69.0794 142.24Z" fill="white"/>
<path d="M69.0794 127.689L68.9468 127.68C68.4 127.697 67.9111 128.195 67.9111 128.742C67.9111 129.29 68.3917 129.788 68.9386 129.813C69.4854 129.829 69.9991 129.365 70.0406 128.817C70.0737 128.269 69.6263 127.738 69.0794 127.689Z" fill="white"/>
<path d="M68.9386 114.664C69.4854 114.68 69.9991 114.216 70.0406 113.668C70.0737 113.121 69.6263 112.59 69.0794 112.54L68.9468 112.531C68.4 112.548 67.9111 113.046 67.9111 113.593C67.9111 114.141 68.3917 114.639 68.9386 114.664Z" fill="white"/>
<path d="M52.6568 76.4593C51.3311 74.9908 49.9971 73.5141 49.036 71.7884C48.0748 70.0628 47.4948 68.0551 47.818 66.1055C48.0086 64.9689 48.4891 63.8821 48.5637 62.7289C48.6714 61.1443 48.0003 59.485 48.5637 58C49.442 55.677 52.5657 55.3203 54.4631 53.7108C55.938 52.458 56.6588 50.4337 58.2828 49.3801C59.6997 48.4592 61.5225 48.4841 63.1963 48.7164C64.87 48.957 66.552 49.3718 68.2257 49.1478C69.4188 48.9902 70.5457 48.5007 71.714 48.2186C72.8822 47.9283 74.1831 47.8536 75.2271 48.4592C76.2711 49.0649 76.8511 50.5416 76.1717 51.5372C78.1105 50.6412 80.5714 52.1511 81.1017 54.2252C81.6319 56.2992 80.5714 58.5309 78.9308 59.8998C77.2902 61.2687 75.1608 61.8992 73.0645 62.2975C67.1237 63.4175 60.6774 62.787 55.5568 59.568" fill="#1A2E35"/>
<path d="M73.5367 96.4619C73.2467 94.2136 73.0064 92.3303 72.9981 92.098C72.9981 92.098 80.5133 90.4056 80.099 82.7979C79.9001 79.1226 78.8727 71.5813 77.8618 64.77C76.7764 57.4527 70.2556 52.2094 62.8896 52.6989L62.1604 52.7486C54.289 53.7359 50.7345 60.9869 51.9442 68.8352L56.1865 95.1511C56.1865 95.1511 58.001 100.975 61.8704 101.979L66.759 108.973L67.571 105.961L71.2167 102.784C71.2167 102.784 72.0536 101.879 73.0147 100.104C73.8018 98.6604 73.6361 97.1671 73.5367 96.4619Z" fill="#FFBF9D"/>
<path d="M72.9983 91.99C72.9983 91.99 68.2257 92.7035 62.9146 89.833C62.9146 89.833 65.6157 95.1509 73.1474 93.9563L72.9983 91.99Z" fill="#FF9A6C"/>
<path d="M75.4173 71.3076C75.4753 71.8801 75.0445 72.4027 74.4479 72.4691C73.8513 72.5438 73.321 72.1373 73.263 71.5648C73.205 70.9924 73.6359 70.4697 74.2325 70.395C74.829 70.3287 75.3593 70.7352 75.4173 71.3076Z" fill="#1A2E35"/>
<path d="M76.4777 68.6113C76.3535 68.7607 75.4917 68.2048 74.3235 68.2878C73.1552 68.3542 72.3432 69.0095 72.2023 68.8768C72.136 68.8187 72.252 68.5533 72.6083 68.2546C72.9563 67.956 73.5695 67.6573 74.2903 67.6075C75.0195 67.566 75.6492 67.79 76.0137 68.0389C76.4032 68.2961 76.5357 68.545 76.4777 68.6113Z" fill="#1A2E35"/>
<path d="M64.3973 72.096C64.4553 72.6684 64.0245 73.1911 63.4279 73.2575C62.8313 73.3321 62.301 72.9256 62.243 72.3532C62.185 71.7807 62.6159 71.258 63.2124 71.1834C63.809 71.1253 64.3393 71.5235 64.3973 72.096Z" fill="#1A2E35"/>
<path d="M65.0188 69.5987C64.8945 69.748 64.0328 69.1922 62.8645 69.2752C61.6962 69.3415 60.8842 69.997 60.7433 69.8642C60.677 69.8061 60.793 69.5406 61.1493 69.242C61.4973 68.9433 62.1105 68.6446 62.8313 68.5948C63.5605 68.5533 64.1902 68.7774 64.5548 69.0263C64.9442 69.2834 65.0851 69.5323 65.0188 69.5987Z" fill="#1A2E35"/>
<path d="M69.8329 77.9779C69.8247 77.9115 70.5372 77.7373 71.7055 77.505C72.0038 77.4553 72.2772 77.3723 72.3187 77.1732C72.3767 76.9492 72.2275 76.6422 72.0618 76.3021C71.7304 75.5969 71.3907 74.8585 71.0261 74.087C69.5844 70.9344 68.5238 68.3376 68.6481 68.2796C68.7724 68.2215 70.0484 70.7353 71.4818 73.8878C71.8298 74.6677 72.1612 75.4061 72.4761 76.1196C72.6087 76.4514 72.8324 76.8247 72.7081 77.281C72.6418 77.5133 72.4347 77.6875 72.2441 77.7539C72.0535 77.8286 71.8878 77.8369 71.7387 77.8618C70.5787 77.9862 69.8412 78.0443 69.8329 77.9779Z" fill="#1A2E35"/>
<path d="M65.0189 65.0027C64.9277 65.3263 63.7512 65.2516 62.3923 65.5088C61.0252 65.7411 59.9563 66.214 59.7492 65.9402C59.658 65.8074 59.832 65.5005 60.2546 65.1603C60.6772 64.8202 61.3649 64.4883 62.1769 64.339C62.9889 64.198 63.7512 64.2726 64.2649 64.4469C64.7869 64.6128 65.0603 64.8451 65.0189 65.0027Z" fill="#1A2E35"/>
<path d="M75.8235 65.2595C75.633 65.5416 74.8127 65.3176 73.8433 65.3674C72.8738 65.384 72.0701 65.666 71.863 65.4005C71.7718 65.2678 71.8795 64.994 72.2193 64.7202C72.5507 64.4465 73.1307 64.2059 73.7935 64.181C74.4564 64.1561 75.053 64.3635 75.401 64.6124C75.7738 64.8613 75.9064 65.1268 75.8235 65.2595Z" fill="#1A2E35"/>
<path d="M52.9386 74.4185C52.8061 74.3688 47.6192 73.2239 48.1329 78.4091C48.6467 83.5942 54.2561 81.9018 54.2561 81.7525C54.2395 81.6114 52.9386 74.4185 52.9386 74.4185Z" fill="#FFBF9D"/>
<path d="M51.9526 80.0599C51.9278 80.0433 51.8698 80.1346 51.7206 80.2175C51.5798 80.3005 51.3312 80.3752 51.0495 80.3005C50.4861 80.1512 49.9392 79.3298 49.8149 78.4007C49.7569 77.9278 49.8066 77.4715 49.9392 77.0816C50.0635 76.6833 50.2789 76.4013 50.5524 76.3183C50.8175 76.227 51.0329 76.3764 51.1075 76.5091C51.1903 76.6502 51.1655 76.758 51.1986 76.758C51.2152 76.7663 51.2981 76.6585 51.2401 76.451C51.2069 76.3515 51.1323 76.2353 51.0081 76.1441C50.8755 76.0528 50.6849 76.0196 50.4944 76.0611C50.0966 76.1275 49.7735 76.534 49.6326 76.9571C49.4669 77.3885 49.3924 77.9029 49.4669 78.4338C49.5995 79.4792 50.2375 80.4001 51.0081 80.5411C51.3809 80.5992 51.6709 80.4581 51.8201 80.3254C51.9526 80.1844 51.9692 80.0599 51.9526 80.0599Z" fill="#FF9A6C"/>
<path d="M77.481 57.6848C77.1247 59.7505 72.9404 61.6421 69.477 61.5426C66.2787 61.4513 64.7044 59.8584 62.3761 58.7301C60.9096 58.0166 60.9096 58.0166 58.9127 58.3402C57.297 58.6057 56.4602 60.5055 55.557 61.8661C57.2804 65.6326 56.5844 70.0131 55.8553 74.0866C55.7724 74.5346 55.673 75.0241 55.3333 75.3227C54.7533 75.8371 53.8087 75.5301 53.237 75.0075C52.3173 74.1695 51.903 72.9168 51.6047 71.7138C50.917 68.9595 50.6602 66.0806 51.091 63.2765C51.5219 60.4723 52.6819 57.7511 54.5959 55.6605C56.9822 53.0471 60.4787 51.5372 64.0084 51.3547C67.5464 51.1722 71.0927 52.2673 74.0507 54.2086C75.4178 55.1212 76.7021 56.2329 77.481 57.6848Z" fill="#1A2E35"/>
<path d="M70.5954 80.6073C69.7171 80.1925 68.8388 79.786 67.9522 79.3712C67.8031 79.2965 67.6374 79.2301 67.4717 79.2467C67.2811 79.2716 67.132 79.4126 67.016 79.5537C66.4028 80.3003 66.2454 81.4203 66.726 82.2583C67.1982 83.0962 68.3168 83.5359 69.2034 83.1708C70.1397 82.7809 70.5954 81.6941 70.6699 80.682L70.5954 80.6073Z" fill="#FF9A6C"/>
<path d="M69.2864 83.362C69.2947 83.3868 69.1621 83.4615 68.8969 83.5196C68.6318 83.5694 68.2341 83.586 67.7618 83.4366C67.2978 83.2873 66.7758 82.9223 66.4527 82.3415C66.1212 81.7774 66.0052 80.9809 66.2952 80.2591C66.4361 79.9024 66.6432 79.5871 66.9084 79.3382C67.041 79.2138 67.1818 79.1059 67.3392 79.0147C67.4221 78.9649 67.5215 78.9234 67.6458 78.9151C67.7618 78.9068 67.8695 78.94 67.9524 78.9732C68.1264 79.0478 68.2341 79.1308 68.3667 79.2055C68.4909 79.2801 68.6069 79.3548 68.7229 79.4295C68.9467 79.5705 69.1621 79.7033 69.3692 79.836C70.1564 80.3338 70.6204 80.6656 70.5955 80.7154C70.5707 80.7652 70.0487 80.5163 69.2284 80.0766C69.0212 79.9604 68.7975 79.8443 68.5572 79.7116C68.4412 79.6452 68.3169 79.5788 68.1844 79.5041C68.0601 79.4378 67.9192 79.3465 67.8115 79.305C67.6872 79.2636 67.6375 79.2636 67.5215 79.3299C67.4055 79.4046 67.2812 79.4959 67.1735 79.6037C66.9581 79.8194 66.7758 80.0849 66.6598 80.3919C66.4195 80.9975 66.5024 81.6612 66.7675 82.159C67.0327 82.6651 67.4552 82.9969 67.8612 83.1628C68.2672 83.3288 68.6318 83.3537 68.8804 83.3537C69.1372 83.362 69.2781 83.3371 69.2864 83.362Z" fill="#1A2E35"/>
<path d="M68.4577 71.4402C68.4245 71.4402 68.4577 70.959 68.2505 70.1294C68.0434 69.3163 67.4965 68.1217 66.2785 67.1925C65.6737 66.7362 64.9114 66.3545 64.0331 66.2052C63.1631 66.0559 62.1771 66.0891 61.2408 66.4458C60.7685 66.6117 60.3128 66.8606 59.8985 67.1759C59.476 67.4828 59.0948 67.8645 58.78 68.3042C58.1254 69.1753 57.7608 70.2953 57.7443 71.4485C57.7526 72.6017 58.1254 73.7217 58.78 74.5928C59.0948 75.0325 59.476 75.4141 59.8985 75.7211C60.3128 76.0363 60.7685 76.2852 61.2408 76.4511C62.1771 76.8079 63.1631 76.8411 64.0331 76.6917C64.9114 76.5341 65.6737 76.1525 66.2785 75.7045C67.5048 74.7753 68.0434 73.5806 68.2505 72.7676C68.4577 71.9214 68.4245 71.4402 68.4577 71.4402C68.4577 71.4402 68.466 71.4734 68.466 71.5314C68.466 71.5978 68.466 71.6891 68.466 71.7886C68.466 71.9048 68.4577 72.0458 68.4328 72.2117C68.408 72.3777 68.3914 72.5685 68.3334 72.7759C68.2422 73.199 68.0517 73.7051 67.7451 74.236C67.4385 74.767 66.9828 75.3228 66.3697 75.804C65.7565 76.2769 64.9694 76.6751 64.0663 76.8411C63.1714 76.9987 62.1523 76.9738 61.1828 76.6088C60.694 76.4428 60.2217 76.1857 59.7908 75.8621C59.3517 75.5468 58.954 75.1486 58.6226 74.6923C57.9431 73.788 57.562 72.6266 57.5454 71.4319C57.5537 70.2372 57.9431 69.0757 58.6226 68.1714C58.954 67.7151 59.3517 67.3169 59.7908 67.0017C60.2217 66.6781 60.694 66.4209 61.1828 66.255C62.1523 65.89 63.1714 65.8651 64.0663 66.0227C64.9694 66.1886 65.7483 66.5951 66.3697 67.0597C66.9911 67.5326 67.4385 68.0968 67.7451 68.6277C68.0517 69.1587 68.2422 69.6648 68.3334 70.0879C68.3914 70.2953 68.4162 70.4861 68.4328 70.652C68.4577 70.818 68.466 70.959 68.466 71.0751C68.466 71.1747 68.466 71.266 68.466 71.3323C68.466 71.407 68.4577 71.4402 68.4577 71.4402Z" fill="#1A2E35"/>
<path d="M81.3752 70.9339C81.342 70.9339 81.3752 70.461 81.1763 69.6562C80.9775 68.8598 80.4472 67.6983 79.254 66.794C78.6657 66.3543 77.92 65.981 77.0666 65.8316C76.2132 65.6906 75.2603 65.7155 74.3406 66.0639C73.8849 66.2215 73.4375 66.4621 73.0315 66.7691C72.6172 67.0678 72.2443 67.4411 71.9377 67.8725C71.2997 68.7187 70.9435 69.8139 70.9352 70.9339C70.9435 72.0539 71.2997 73.149 71.9377 73.9952C72.2443 74.4266 72.6172 74.7999 73.0315 75.0986C73.4375 75.4056 73.8849 75.6462 74.3406 75.8038C75.252 76.1522 76.2132 76.1771 77.0666 76.0361C77.92 75.8868 78.6657 75.5134 79.254 75.0737C80.4472 74.1694 80.9692 73.0079 81.1763 72.2115C81.3752 71.3984 81.342 70.9256 81.3752 70.9339C81.3835 70.9339 81.3835 71.05 81.3752 71.274C81.3752 71.3819 81.3669 71.5229 81.342 71.6805C81.3172 71.8382 81.3006 72.029 81.2426 72.2281C81.0603 73.0411 80.5383 74.2358 79.3286 75.1816C78.732 75.6379 77.9697 76.0361 77.0832 76.1937C76.2049 76.3513 75.2189 76.3265 74.266 75.9697C73.7855 75.8038 73.3297 75.5549 72.9072 75.2396C72.4763 74.9327 72.0869 74.5428 71.772 74.1031C71.1092 73.2236 70.7363 72.0953 70.728 70.9256C70.7363 69.7641 71.1092 68.6275 71.772 67.7481C72.0952 67.3001 72.4846 66.9184 72.9072 66.6115C73.3297 66.2962 73.7937 66.0473 74.266 65.8814C75.2106 65.5247 76.2049 65.4998 77.0832 65.6574C77.9615 65.815 78.7237 66.2133 79.3286 66.6696C80.5383 67.607 81.0603 68.81 81.2426 69.623C81.3006 69.8304 81.3172 70.013 81.342 70.1706C81.3669 70.3282 81.3752 70.4693 81.3752 70.5771C81.3835 70.8177 81.3835 70.9339 81.3752 70.9339Z" fill="#1A2E35"/>
<path d="M70.8356 69.7393C70.8108 69.7642 70.6865 69.6563 70.4628 69.5485C70.2391 69.4406 69.8994 69.3328 69.5099 69.3411C69.1288 69.3494 68.7891 69.4655 68.5653 69.5816C68.3416 69.6978 68.2173 69.8139 68.2008 69.789C68.1842 69.7725 68.2671 69.6231 68.4991 69.4655C68.7228 69.3079 69.0873 69.1502 69.5099 69.142C69.9325 69.1337 70.3054 69.2747 70.5291 69.424C70.7528 69.5733 70.8522 69.7227 70.8356 69.7393Z" fill="#1A2E35"/>
<path d="M57.968 70.6683C58.0011 70.7098 56.9406 71.5561 55.6066 72.5599C54.2643 73.5638 53.154 74.3354 53.1209 74.2939C53.0877 74.2524 54.1483 73.4062 55.4823 72.4023C56.8246 71.3984 57.9349 70.6269 57.968 70.6683Z" fill="#1A2E35"/>
<g opacity="0.3">
<path opacity="0.3" d="M53.5021 95.2505C52.9801 100.378 54.9272 105.787 59.0287 108.89C59.3518 109.13 59.7578 109.371 60.1389 109.238C60.4041 109.147 60.5698 108.89 60.7106 108.649C61.8789 106.616 62.2766 104.385 61.9369 102.062C61.2906 103.779 60.7272 105.455 60.0727 107.255C56.4932 105.082 54.2561 100.452 53.5021 95.2505Z" fill="black"/>
</g>
<path opacity="0.3" d="M67.4058 106.907L70.4218 105.803L70.9189 110.905C70.9189 110.905 74.1669 104.974 75.5175 102.269C76.8598 99.5643 76.1721 94.7856 76.1721 94.7856C76.1721 94.7856 76.6526 98.9504 73.3963 104.252L70.9355 108.251V104.061L67.4058 106.907Z" fill="black"/>
<g opacity="0.3">
<path opacity="0.3" d="M32.3486 132.841C31.0063 132.202 29.4569 132.119 27.9821 132.294C26.4243 132.476 24.8583 132.949 23.6403 133.936C22.4223 134.923 21.5938 136.475 21.7429 138.043L21.8921 138.068C22.9443 135.222 25.0323 133.148 27.7335 132.891C30.4263 132.642 33.0612 133.845 34.9089 135.819C34.7349 134.343 33.6909 133.48 32.3486 132.841Z" fill="black"/>
</g>
<g opacity="0.3">
<path opacity="0.3" d="M108.544 135.753C107.533 134.658 106.116 134.002 104.65 133.745C102.081 133.297 99.3222 134.094 97.3916 135.852L97.9633 135.388C99.4216 134.533 101.104 134.027 102.802 134.069C104.492 134.119 106.183 134.741 107.409 135.911C108.536 136.989 109.215 138.433 109.862 139.851C110.11 138.391 109.555 136.848 108.544 135.753Z" fill="black"/>
</g>
<path d="M89.1223 112.059C89.1057 112.05 89.1554 111.909 89.2549 111.644C89.3709 111.345 89.5117 110.98 89.6857 110.549C90.0503 109.62 90.5474 108.342 91.0777 106.923C91.608 105.496 92.0637 104.202 92.3869 103.265C92.5443 102.825 92.6686 102.452 92.7763 102.153C92.8674 101.887 92.9337 101.746 92.942 101.755C92.9586 101.755 92.9171 101.912 92.8509 102.178C92.7763 102.443 92.6686 102.833 92.5194 103.306C92.2211 104.26 91.7903 105.563 91.26 106.99C90.7297 108.417 90.2077 109.686 89.81 110.599C89.6111 111.055 89.4454 111.42 89.3211 111.677C89.2051 111.926 89.1306 112.059 89.1223 112.059Z" fill="#1A2E35"/>
<path d="M41.5624 112.424C41.5126 112.432 41.0984 110.64 40.6509 108.408C40.1952 106.177 39.8721 104.368 39.9301 104.352C39.9798 104.343 40.3941 106.135 40.8498 108.367C41.2972 110.599 41.6204 112.416 41.5624 112.424Z" fill="#1A2E35"/>
<path d="M40.85 134.898C40.966 134.957 39.4663 123.126 39.4663 123.126C39.4663 123.126 40.4109 114.149 40.9494 113.735L40.966 110.565C40.966 110.565 42.4326 109.678 42.822 111.113C42.822 111.113 44.1229 109.985 44.3466 112.673C44.5703 115.361 44.62 118.115 44.62 118.115L47.5117 125.358L47.9923 125.598C47.9923 125.598 48.6137 119.924 48.9783 119.086C49.3429 118.248 49.5914 116.215 50.9586 116.522C52.334 116.829 52.4417 117.966 52.2014 119.816C51.9529 121.666 51.6463 123.582 51.7623 124.777C51.8783 125.972 52.4169 128.61 52.2511 130.701C52.0854 132.791 50.942 134.998 49.7406 136.549C48.5392 138.101 46.244 141.303 45.0012 142.266C44.562 142.606 40.85 134.898 40.85 134.898Z" fill="#FFBF9D"/>
<path d="M42.3165 125.266C42.2999 125.266 42.3082 125.084 42.3248 124.76C42.3496 124.395 42.3828 123.939 42.4159 123.383C42.5071 122.222 42.6396 120.62 42.8053 118.853C42.8882 117.974 42.9711 117.136 43.0373 116.364C43.0788 115.983 43.0953 115.626 43.0539 115.294C43.0125 114.971 42.8799 114.68 42.6893 114.481C42.3082 114.066 41.8193 113.959 41.5045 113.959C41.1813 113.959 41.0156 114.042 41.0156 114.025C41.0156 114.017 41.0571 114 41.1316 113.967C41.2145 113.934 41.3388 113.9 41.5045 113.892C41.8276 113.867 42.3579 113.95 42.7888 114.39C43.0042 114.606 43.1533 114.929 43.2113 115.278C43.2693 115.626 43.2528 116.008 43.2196 116.389C43.1533 117.161 43.0788 117.999 42.9959 118.878C42.8302 120.645 42.6728 122.247 42.5568 123.4C42.4905 123.947 42.4408 124.404 42.3993 124.769C42.3579 125.092 42.3248 125.266 42.3165 125.266Z" fill="#FF9A6C"/>
<path d="M43.8741 120.43C43.899 120.455 43.5758 120.737 43.3604 121.367C43.1284 121.981 43.0455 122.91 42.8798 123.922C42.7224 124.935 42.5733 125.847 42.449 126.511C42.333 127.175 42.2418 127.573 42.217 127.573C42.1921 127.565 42.2253 127.158 42.3164 126.486C42.3993 125.822 42.5318 124.901 42.6893 123.889C42.855 122.885 42.9544 121.948 43.2361 121.317C43.3687 121.002 43.5261 120.77 43.6504 120.629C43.7747 120.48 43.8658 120.421 43.8741 120.43Z" fill="#FF9A6C"/>
<path d="M42.8056 110.955C42.8221 110.955 42.8553 111.088 42.905 111.329C42.9547 111.569 43.021 111.926 43.0956 112.357C43.2364 113.229 43.3938 114.44 43.5016 115.792C43.601 117.136 43.6258 118.364 43.6093 119.252C43.601 119.691 43.5927 120.048 43.5761 120.297C43.5596 120.546 43.543 120.679 43.5347 120.679C43.5016 120.679 43.5016 120.131 43.4767 119.252C43.4518 118.372 43.4104 117.153 43.311 115.809C43.2116 114.465 43.079 113.253 42.9713 112.382C42.8553 111.503 42.7807 110.964 42.8056 110.955Z" fill="#FF9A6C"/>
<path d="M51.1572 122.047C51.182 122.089 50.7346 122.304 50.1795 122.13C49.6243 121.964 49.3675 121.541 49.4172 121.516C49.4586 121.475 49.7486 121.798 50.2375 121.939C50.718 122.097 51.1406 121.989 51.1572 122.047Z" fill="#FF9A6C"/>
<path d="M41.0157 133.422L33.368 136.641H28.8109C28.8109 136.641 24.3035 138.051 23.6158 142.274C22.9198 146.505 22.8203 148.679 24.8006 149.201C26.7809 149.724 32.3737 149.782 35.1495 148.861C37.9252 147.94 45.1834 142.075 45.1834 142.075L45.8794 137.827L41.0157 133.422Z" fill="#FFBF9D"/>
<path d="M42.8056 138.101C42.7973 138.109 42.7227 138.043 42.5901 137.902C42.4576 137.769 42.2836 137.545 42.093 137.271C41.7118 136.707 41.2976 135.853 41.0241 134.849C40.7341 133.853 40.6181 132.916 40.5519 132.244C40.4939 131.572 40.4939 131.149 40.5187 131.149C40.5519 131.149 40.5933 131.563 40.6844 132.227C40.7839 132.891 40.9247 133.812 41.2064 134.791C41.4798 135.778 41.861 136.616 42.2007 137.188C42.557 137.761 42.8304 138.076 42.8056 138.101Z" fill="#FF9A6C"/>
<path d="M46.1364 139.437C46.095 139.42 46.443 138.839 46.5755 137.794C46.6418 137.28 46.6335 136.641 46.4844 135.969C46.3353 135.297 46.0121 134.6 45.5481 133.953C45.0841 133.298 44.5621 132.733 44.123 132.186C43.6756 131.638 43.3193 131.107 43.0873 130.618C42.8553 130.137 42.7476 129.705 42.7061 129.407C42.6647 129.108 42.6813 128.942 42.6896 128.942C42.731 128.934 42.7144 129.614 43.2116 130.551C43.4518 131.016 43.8164 131.53 44.2638 132.061C44.7113 132.601 45.2333 133.165 45.7138 133.829C46.1944 134.492 46.5258 135.222 46.6667 135.919C46.8075 136.616 46.7993 137.271 46.7164 137.802C46.6335 138.333 46.4844 138.748 46.3684 139.022C46.3104 139.163 46.2524 139.263 46.211 139.329C46.1613 139.412 46.1447 139.445 46.1364 139.437Z" fill="#FF9A6C"/>
<path d="M34.3454 121.002C34.2957 121.027 33.4589 119.509 32.4812 117.609C31.5034 115.709 30.7412 114.149 30.7909 114.124C30.8406 114.099 31.6692 115.618 32.6552 117.518C33.6412 119.417 34.3952 120.977 34.3454 121.002Z" fill="white"/>
<path d="M46.7162 107.222C46.6665 107.197 47.1802 105.936 47.8679 104.393C48.5556 102.85 49.1522 101.622 49.2019 101.647C49.2516 101.672 48.7379 102.933 48.0502 104.476C47.3625 106.01 46.7659 107.247 46.7162 107.222Z" fill="white"/>
<path d="M58.8214 116.165C58.78 116.198 58.0011 115.327 57.0897 114.224C56.1782 113.121 55.4657 112.191 55.5071 112.158C55.5485 112.125 56.3274 112.996 57.2388 114.099C58.1585 115.211 58.8628 116.132 58.8214 116.165Z" fill="white"/>
<path d="M56.0377 128.469C55.9963 128.436 56.5763 127.556 57.3469 126.502C58.1092 125.449 58.772 124.619 58.8135 124.644C58.8549 124.677 58.2749 125.557 57.5043 126.619C56.7337 127.672 56.0792 128.502 56.0377 128.469Z" fill="white"/>
<path d="M52.284 145.849C52.2591 145.858 52.0851 145.576 51.8448 145.094C51.5962 144.613 51.2731 143.933 50.95 143.178C50.6268 142.415 50.3617 141.718 50.1877 141.204C50.0137 140.689 49.9225 140.366 49.9474 140.357C49.9723 140.349 50.1048 140.656 50.312 141.154C50.5523 141.718 50.8257 142.373 51.124 143.103C51.4388 143.825 51.7205 144.472 51.9608 145.036C52.1845 145.526 52.3088 145.833 52.284 145.849Z" fill="white"/>
<path d="M62.9395 138.458C62.9312 138.507 61.9038 138.358 60.6527 138.117C59.4015 137.877 58.3907 137.636 58.399 137.578C58.4073 137.528 59.4347 137.678 60.6858 137.918C61.9453 138.167 62.9478 138.408 62.9395 138.458Z" fill="white"/>
<path d="M71.2005 122.222C71.1591 122.189 72.1368 121.06 73.3879 119.716C74.6308 118.372 75.6747 117.31 75.7162 117.344C75.7576 117.377 74.7799 118.497 73.5288 119.849C72.2859 121.201 71.2419 122.263 71.2005 122.222Z" fill="white"/>
<path d="M79.5109 143.875C79.4695 143.908 78.2515 142.498 76.785 140.722C75.3184 138.947 74.1667 137.478 74.2081 137.437C74.2495 137.404 75.4675 138.814 76.9341 140.598C78.4007 142.373 79.5524 143.842 79.5109 143.875Z" fill="white"/>
<path d="M27.9159 134.649C27.9407 134.707 26.8304 135.272 25.6124 136.201C24.3944 137.13 23.5493 138.051 23.5079 138.009C23.4913 137.993 23.6736 137.736 24.0216 137.37C24.3696 136.997 24.875 136.516 25.4964 136.043C26.1096 135.57 26.7144 135.205 27.1619 134.973C27.6093 134.741 27.9076 134.624 27.9159 134.649Z" fill="white"/>
<path d="M31.0229 126.303C31.0644 126.336 30.6749 127.008 30.1364 127.813C29.5978 128.618 29.1338 129.248 29.0841 129.215C29.0426 129.182 29.4321 128.51 29.9706 127.705C30.5092 126.901 30.9815 126.27 31.0229 126.303Z" fill="white"/>
<path d="M38.0248 134.5C37.9833 134.525 37.5856 133.861 37.3868 132.949C37.1796 132.036 37.2459 131.264 37.2956 131.273C37.3536 131.273 37.3702 132.019 37.5773 132.907C37.7762 133.795 38.0828 134.475 38.0248 134.5Z" fill="white"/>
<path d="M39.0685 108.466C39.0768 108.516 38.4222 108.657 37.6185 108.773C36.8065 108.889 36.1436 108.939 36.1353 108.881C36.127 108.831 36.7816 108.69 37.5853 108.574C38.3973 108.466 39.0602 108.416 39.0685 108.466Z" fill="white"/>
<path d="M44.3217 99.1246C44.3465 99.1743 43.7748 99.5394 43.0457 99.9459C42.3165 100.352 41.7034 100.643 41.6785 100.593C41.6537 100.543 42.2254 100.178 42.9545 99.7717C43.6837 99.3734 44.2968 99.0831 44.3217 99.1246Z" fill="white"/>
<path d="M59.1118 103.074C59.0704 103.107 58.4158 102.319 57.6535 101.323C56.8912 100.319 56.3112 99.4898 56.3527 99.4566C56.3941 99.4234 57.0487 100.212 57.811 101.207C58.5733 102.203 59.1615 103.041 59.1118 103.074Z" fill="white"/>
<path d="M77.887 112.465C77.8538 112.498 77.1661 111.793 76.5281 110.764C75.8901 109.736 75.5587 108.806 75.6084 108.79C75.6581 108.765 76.0641 109.644 76.7021 110.656C77.3235 111.669 77.9367 112.424 77.887 112.465Z" fill="white"/>
<path d="M85.0543 114.83C85.104 114.855 84.756 115.726 84.2754 116.779C83.7949 117.833 83.3723 118.671 83.3226 118.654C83.2729 118.629 83.6209 117.758 84.1014 116.696C84.582 115.643 85.0046 114.805 85.0543 114.83Z" fill="white"/>
<path d="M86.0569 105.04C86.0155 105.073 85.1621 104.119 84.1512 102.9C83.1403 101.68 82.3532 100.668 82.3946 100.635C82.4361 100.601 83.2895 101.556 84.3004 102.775C85.3112 103.986 86.0984 104.999 86.0569 105.04Z" fill="white"/>
<path d="M75.1111 97.0837C75.0531 97.0837 74.9785 96.2624 74.9371 95.2502C74.8956 94.2381 74.9122 93.4167 74.9619 93.4084C75.0199 93.4084 75.0945 94.2298 75.1359 95.2419C75.1774 96.2541 75.1691 97.0754 75.1111 97.0837Z" fill="white"/>
<path d="M84.035 96.5862C84.0433 96.636 82.9993 96.8268 81.7067 97.001C80.4141 97.1752 79.3619 97.2748 79.3536 97.2167C79.3453 97.1669 80.3893 96.9761 81.6818 96.8019C82.9744 96.6277 84.0267 96.5281 84.035 96.5862Z" fill="white"/>
<path d="M98.0877 106.923C98.038 106.948 97.4083 105.745 96.6874 104.252C95.9583 102.75 95.4114 101.514 95.4611 101.489C95.5109 101.464 96.1406 102.659 96.8614 104.16C97.5906 105.662 98.1374 106.898 98.0877 106.923Z" fill="white"/>
<path d="M95.7262 115.858C95.6765 115.85 95.8174 114.888 96.0577 113.71C96.2897 112.532 96.5217 111.586 96.5797 111.594C96.6294 111.602 96.4885 112.565 96.2482 113.743C96.008 114.921 95.776 115.867 95.7262 115.858Z" fill="white"/>
<path d="M102.247 122.893C102.197 122.91 101.692 121.616 101.128 119.99C100.565 118.372 100.142 117.036 100.192 117.02C100.242 117.003 100.747 118.297 101.311 119.923C101.874 121.549 102.297 122.877 102.247 122.893Z" fill="white"/>
<path d="M101.336 127.017C101.327 127.067 100.424 126.876 99.4299 126.337C98.4356 125.797 97.781 125.142 97.8142 125.109C97.8556 125.067 98.5516 125.64 99.5211 126.162C100.49 126.693 101.352 126.959 101.336 127.017Z" fill="white"/>
<path d="M109.687 136.408C109.638 136.433 109.331 135.861 109.008 135.131C108.685 134.401 108.461 133.795 108.511 133.77C108.561 133.745 108.867 134.318 109.19 135.048C109.513 135.778 109.737 136.383 109.687 136.408Z" fill="white"/>
<path d="M60.3624 149.508C60.3044 149.517 60.1802 148.762 60.0724 147.832C59.9647 146.903 59.9233 146.14 59.973 146.14C60.031 146.132 60.1553 146.878 60.263 147.816C60.3707 148.737 60.4122 149.5 60.3624 149.508Z" fill="white"/>
<path d="M85.9906 148.861C85.9409 148.853 86.0486 148.114 86.2392 147.226C86.4297 146.33 86.6286 145.617 86.6783 145.634C86.728 145.642 86.6203 146.38 86.4297 147.268C86.2392 148.156 86.0403 148.869 85.9906 148.861Z" fill="white"/>
</g>
</svg>
