<svg width="262" height="149" viewBox="0 0 262 149" fill="none" xmlns="http://www.w3.org/2000/svg">
<mask id="mask0" mask-type="alpha" maskUnits="userSpaceOnUse" x="0" y="0" width="262" height="149">
<rect width="262" height="149" fill="#C4C4C4"/>
</mask>
<g mask="url(#mask0)">
<ellipse rx="86" ry="85.5" transform="matrix(-1 0 0 1 102 135.5)" fill="white"/>
<path d="M204.446 9.82495C204.446 9.82495 213.226 9.95012 209.47 27.1728C205.715 44.3955 206.197 47.6557 206.197 54.4834C206.144 56.7126 206.725 58.9117 207.873 60.8294C209.022 62.7471 210.692 64.306 212.692 65.3279H200.783L192.026 25.1075V9.82495H204.446Z" fill="#E0E0E0"/>
<path d="M207.03 145.433H86.7964L87.8702 28.8741L201.116 23.0137L207.03 145.433Z" fill="#E0E0E0"/>
<path d="M202.901 142.423H82.6733L83.7414 25.8642L200.484 23.6111L202.901 142.423Z" fill="#EBEBEB"/>
<path d="M200.409 139.169H80.4224V22.6155L200.484 22.3367L200.409 139.169Z" fill="#FAFAFA"/>
<path d="M200.41 139.169C200.41 138.082 200.41 92.4166 200.352 22.3366L200.484 22.4675L80.5891 22.7633H80.3996L80.5489 22.6154C80.5489 65.254 80.5489 105.235 80.5489 139.169L80.4226 139.044L200.433 139.169L80.4226 139.3H80.2905V139.169C80.2905 105.235 80.2905 65.254 80.2905 22.6154V22.4675H80.5891L200.467 22.2114H200.599V22.3366C200.49 92.4166 200.41 138.082 200.41 139.169Z" fill="#263238"/>
<path d="M200.484 22.0238C194.283 14.8719 201.478 9.56906 203.901 9.46664L89.6328 9.40406C88.2293 9.40274 86.8424 9.70566 85.5694 10.2916C84.2965 10.8775 83.1683 11.7322 82.2639 12.7958C81.3595 13.8594 80.7009 15.1062 80.3342 16.4487C79.9675 17.7912 79.9016 19.1969 80.1412 20.5672C80.2558 21.1668 80.4112 21.7579 80.6063 22.3367" fill="#F5F5F5"/>
<path d="M203.51 65.328C203.564 65.3197 203.618 65.3197 203.671 65.328H204.13H205.928L212.692 65.2882L212.663 65.4646C211.639 65.1507 210.698 64.6164 209.907 63.8999C209.028 63.0771 208.327 62.0861 207.846 60.9868C207.308 59.7909 206.895 58.5442 206.611 57.2657C206.456 56.6057 206.318 55.923 206.192 55.2288C206.118 54.8791 206.063 54.5259 206.025 54.1705C205.976 53.8065 205.949 53.4398 205.945 53.0724C205.909 51.5536 205.959 50.034 206.094 48.5207C206.209 46.9731 206.387 45.3856 206.577 43.7641C206.967 40.5266 207.461 37.1527 208.041 33.699C208.276 32.2197 208.581 30.7631 208.822 29.335C209.063 27.9069 209.252 26.4902 209.436 25.0734C209.62 23.6567 209.775 22.2969 209.936 20.9541C210.01 20.277 210.102 19.6113 210.119 18.957C210.135 18.3084 210.099 17.6596 210.01 17.0168C209.845 15.7757 209.478 14.5692 208.925 13.4437C208.434 12.3656 207.68 11.4252 206.732 10.7069C205.818 10.089 204.7 9.8425 203.608 10.0185C202.596 10.1464 201.637 10.5392 200.829 11.1564C200.114 11.7419 199.528 12.4661 199.106 13.2844C198.72 14.0169 198.436 14.7978 198.262 15.6058C197.982 16.9042 198.141 18.2581 198.716 19.4577C199.063 20.2247 199.488 20.9548 199.985 21.6369L200.369 22.1717L200.496 22.3538C200.496 22.3538 200.438 22.3025 200.341 22.1888L199.933 21.671C199.416 20.9974 198.973 20.2706 198.612 19.5032C198.006 18.2853 197.825 16.9027 198.096 15.5716C198.265 14.7466 198.547 13.9484 198.934 13.199C199.367 12.3511 199.971 11.5999 200.708 10.9914C201.54 10.3438 202.531 9.92742 203.579 9.78521C204.73 9.6012 205.908 9.85748 206.875 10.5021C207.863 11.232 208.653 12.194 209.172 13.3014C209.742 14.4491 210.12 15.6808 210.292 16.9485C210.387 17.606 210.427 18.2702 210.412 18.9342C210.412 19.6113 210.303 20.2827 210.229 20.9541C210.079 22.3044 209.917 23.6813 209.74 25.0848C209.557 26.4845 209.367 27.9297 209.132 29.3521C208.896 30.7745 208.558 32.2368 208.345 33.7161C207.771 37.1697 207.271 40.5437 206.875 43.7698C206.686 45.3856 206.508 46.9731 206.387 48.515C206.247 50.0109 206.192 51.5134 206.221 53.0155C206.224 53.3734 206.251 53.7307 206.301 54.0852C206.301 54.4323 206.399 54.785 206.456 55.1321C206.582 55.8262 206.714 56.5033 206.869 57.1576C207.145 58.4169 207.545 59.6461 208.064 60.8275C208.53 61.8977 209.208 62.8648 210.056 63.6723C210.821 64.3787 211.735 64.9074 212.732 65.2199L213.306 65.3963H212.732L205.968 65.3508H204.171H203.711C203.644 65.3507 203.576 65.343 203.51 65.328Z" fill="#263238"/>
<path d="M129.512 13.0284C129.557 13.0625 129.213 13.5177 128.874 14.3427C128.679 14.8274 128.535 15.3308 128.443 15.8448C128.342 16.4729 128.311 17.1103 128.352 17.7452C128.407 18.3816 128.537 19.0097 128.736 19.6171C128.906 20.1107 129.128 20.5855 129.397 21.0338C129.862 21.7962 130.27 22.1717 130.229 22.2343C130.189 22.2969 130.103 22.1604 129.919 21.984C129.657 21.7302 129.422 21.4499 129.219 21.1476C128.917 20.6964 128.67 20.2113 128.484 19.7024C128.26 19.0779 128.117 18.4279 128.059 17.7679C128.015 17.1074 128.056 16.4441 128.179 15.7936C128.286 15.2636 128.456 14.7479 128.685 14.2574C128.839 13.9255 129.032 13.6124 129.259 13.3243C129.397 13.1251 129.494 13.017 129.512 13.0284Z" fill="#263238"/>
<path d="M126.658 9C126.092 9.56091 125.584 10.1766 125.142 10.8378C124.117 12.4631 123.731 14.4051 124.057 16.2942C124.44 18.1736 125.507 19.8481 127.054 20.9996C127.708 21.4567 128.407 21.8493 129.138 22.1716C128.92 22.1476 128.707 22.09 128.507 22.001C127.947 21.7915 127.416 21.5123 126.928 21.1703C125.288 20.0257 124.155 18.3003 123.764 16.3511C123.416 14.3868 123.846 12.3652 124.964 10.7069C125.289 10.2156 125.675 9.7664 126.112 9.36983C126.276 9.22216 126.46 9.0977 126.658 9V9Z" fill="#263238"/>
<path d="M191.233 99.9838H190.86H189.758H185.514L169.919 100.035L118.464 100.075H96.127V99.9326C96.127 85.367 96.1672 72.8383 96.1844 63.9396C96.1844 59.5016 96.2131 55.974 96.2246 53.5388C96.2246 52.3383 96.2246 51.4052 96.2246 50.768C96.2246 50.455 96.2246 50.199 96.2246 50.0511C96.2246 49.9031 96.2246 49.8064 96.2246 49.8064C96.2295 49.8879 96.2295 49.9696 96.2246 50.0511C96.2246 50.2217 96.2246 50.455 96.2246 50.768C96.2246 51.4052 96.2246 52.3383 96.2246 53.5388C96.2246 55.974 96.2533 59.5016 96.2705 63.9396C96.2705 72.8383 96.2992 85.367 96.3222 99.9326L96.1786 99.7904H118.487L169.942 99.8359L185.537 99.8814L189.781 99.9099H190.883C191.107 99.9725 191.233 99.9838 191.233 99.9838Z" fill="#263238"/>
<path d="M113.583 87.6033H103.988V97.1108H113.583V87.6033Z" fill="#E8505B"/>
<path d="M127.645 80.804H118.05V97.1049H127.645V80.804Z" fill="#E8505B"/>
<path d="M141.765 73.0886H132.17V97.1105H141.765V73.0886Z" fill="#E8505B"/>
<path d="M155.454 64.4917H145.859V97.105H155.454V64.4917Z" fill="#E8505B"/>
<path d="M169.459 53.4934H159.864V97.1049H169.459V53.4934Z" fill="#E8505B"/>
<path d="M183.361 45.1011H173.766V96.6554H183.361V45.1011Z" fill="#E8505B"/>
<path d="M103.988 77.8455L104.109 77.7488L104.488 77.4984L105.946 76.5255C107.244 75.6834 109.104 74.4601 111.442 72.9353L130.482 60.6057L130.701 60.4635V60.7252C130.701 62.0737 130.701 63.5132 130.701 64.9811L130.471 64.8616L137.97 59.8774L164.424 42.3646L172.463 37.0788L174.656 35.6564L175.231 35.2923L175.431 35.1785C175.376 35.2327 175.314 35.2805 175.248 35.3207L174.674 35.7076L172.509 37.1756L164.522 42.5352L138.108 60.1335C135.541 61.8404 133.032 63.5075 130.603 65.112L130.379 65.2656V60.7138L130.603 60.8333L111.539 73.0946L105.998 76.6165L104.511 77.5496L104.126 77.7829L103.988 77.8455Z" fill="#263238"/>
<path d="M175.46 39.2009C175.369 38.813 175.327 38.4156 175.334 38.0174C175.334 37.3005 175.334 36.3105 175.334 35.1726L175.483 35.3205H175.116C173.887 35.3205 172.779 35.3205 171.969 35.275C171.532 35.2914 171.094 35.2571 170.666 35.1726C171.094 35.0881 171.532 35.0537 171.969 35.0702C172.779 35.0702 173.887 35.0247 175.116 35.0247H175.632V35.1726C175.632 36.3105 175.632 37.3176 175.587 38.0459C175.591 38.4345 175.549 38.8223 175.46 39.2009Z" fill="#263238"/>
<path d="M124.769 107.648C124.769 107.733 121.806 107.802 118.148 107.802C114.49 107.802 111.527 107.733 111.527 107.648C111.527 107.563 114.49 107.5 118.148 107.5C121.806 107.5 124.769 107.568 124.769 107.648Z" fill="#263238"/>
<path d="M117.97 112.143C117.771 111.128 117.771 110.085 117.97 109.07C118.169 110.085 118.169 111.128 117.97 112.143Z" fill="#263238"/>
<path d="M134.197 113.69C134.197 113.776 126.239 113.838 116.397 113.838C106.555 113.838 98.5962 113.776 98.5962 113.69C98.5962 113.605 106.555 113.542 116.397 113.542C126.239 113.542 134.197 113.599 134.197 113.69Z" fill="#263238"/>
<path d="M98.8775 118.054C98.6782 116.643 98.6782 115.21 98.8775 113.799C99.0279 114.497 99.0782 115.214 99.0268 115.927C99.0782 116.639 99.0279 117.356 98.8775 118.054Z" fill="#263238"/>
<path d="M111.528 117.582C111.329 116.369 111.329 115.131 111.528 113.918C111.727 115.131 111.727 116.369 111.528 117.582Z" fill="#263238"/>
<path d="M124.533 117.816C124.334 116.484 124.334 115.13 124.533 113.799C124.732 115.13 124.732 116.484 124.533 117.816Z" fill="#263238"/>
<path d="M134.433 117.815C134.233 116.444 134.233 115.051 134.433 113.679C134.632 115.051 134.632 116.444 134.433 117.815Z" fill="#263238"/>
<path d="M103.293 119.238C101.867 119.384 100.432 119.434 98.9982 119.386C97.5648 119.434 96.1297 119.384 94.7031 119.238C96.1295 119.088 97.5648 119.039 98.9982 119.09C100.432 119.039 101.867 119.088 103.293 119.238Z" fill="#263238"/>
<path d="M114.272 119.238C113.184 119.384 112.085 119.434 110.988 119.386C109.893 119.434 108.795 119.384 107.709 119.238C108.795 119.088 109.893 119.039 110.988 119.09C112.085 119.039 113.184 119.088 114.272 119.238Z" fill="#263238"/>
<path d="M128.248 119.59C127.081 119.74 125.904 119.789 124.728 119.738C123.553 119.79 122.375 119.74 121.208 119.59C122.376 119.444 123.553 119.395 124.728 119.443C125.904 119.395 127.081 119.444 128.248 119.59Z" fill="#263238"/>
<path d="M139.566 118.999C138.319 119.149 137.061 119.198 135.805 119.147C134.551 119.198 133.295 119.149 132.05 118.999C133.296 118.853 134.551 118.803 135.805 118.851C137.061 118.803 138.318 118.853 139.566 118.999Z" fill="#263238"/>
<path d="M98.9984 123.363C98.7994 122.548 98.7994 121.697 98.9984 120.882C99.1974 121.697 99.1974 122.548 98.9984 123.363Z" fill="#263238"/>
<path d="M107.164 123.363C107.164 123.442 103.718 123.511 99.4119 123.511C95.1053 123.511 91.6543 123.442 91.6543 123.363C91.6543 123.283 95.0996 123.215 99.4119 123.215C103.724 123.215 107.164 123.294 107.164 123.363Z" fill="#263238"/>
<path d="M107.163 126.919C106.964 125.746 106.964 124.548 107.163 123.374C107.363 124.548 107.363 125.746 107.163 126.919Z" fill="#263238"/>
<path d="M91.6542 127.158C91.4551 125.904 91.4551 124.628 91.6542 123.374C91.8532 124.628 91.8532 125.904 91.6542 127.158Z" fill="#263238"/>
<path d="M124.849 123.363C124.65 122.548 124.65 121.697 124.849 120.882C125.048 121.697 125.048 122.548 124.849 123.363Z" fill="#263238"/>
<path d="M143.706 123.363C143.706 123.442 137.838 123.511 130.603 123.511C123.368 123.511 117.505 123.442 117.505 123.363C117.505 123.283 123.368 123.215 130.603 123.215C137.838 123.215 143.706 123.294 143.706 123.363Z" fill="#263238"/>
<path d="M133.015 126.919C132.815 125.746 132.815 124.548 133.015 123.374C133.214 124.548 133.214 125.746 133.015 126.919Z" fill="#263238"/>
<path d="M144.24 126.919C144.041 125.746 144.041 124.548 144.24 123.374C144.439 124.548 144.439 125.746 144.24 126.919Z" fill="#263238"/>
<path d="M117.505 127.158C117.306 125.904 117.306 124.628 117.505 123.374C117.704 124.628 117.704 125.904 117.505 127.158Z" fill="#263238"/>
<path d="M94.7087 129.337C93.6979 129.487 92.6746 129.536 91.6539 129.485C90.6332 129.536 89.6099 129.487 88.5991 129.337C89.6103 129.191 90.6332 129.141 91.6539 129.189C92.6746 129.141 93.6976 129.191 94.7087 129.337Z" fill="#263238"/>
<path d="M109.903 128.905C108.807 129.051 107.7 129.1 106.595 129.052C105.492 129.1 104.387 129.051 103.293 128.905C104.387 128.758 105.492 128.709 106.595 128.757C107.7 128.709 108.807 128.758 109.903 128.905Z" fill="#263238"/>
<path d="M120.882 128.905C119.919 129.051 118.943 129.1 117.97 129.053C116.997 129.1 116.022 129.051 115.059 128.905C116.022 128.759 116.997 128.709 117.97 128.757C118.943 128.709 119.919 128.759 120.882 128.905Z" fill="#263238"/>
<path d="M135.673 128.905C134.629 129.051 133.574 129.1 132.52 129.052C131.465 129.1 130.408 129.051 129.362 128.905C130.408 128.758 131.465 128.709 132.52 128.757C133.574 128.709 134.629 128.758 135.673 128.905Z" fill="#263238"/>
<path d="M147.507 128.512C146.446 128.661 145.374 128.711 144.303 128.66C143.233 128.711 142.16 128.661 141.099 128.512C142.16 128.366 143.233 128.316 144.303 128.364C145.374 128.316 146.446 128.366 147.507 128.512Z" fill="#263238"/>
<path d="M191.147 130.816H150.643V105.964H191.147V130.816ZM150.671 130.816H191.119V105.992H150.671V130.816Z" fill="#263238"/>
<path d="M181.363 123.932C178.555 122.879 175.328 125.798 172.578 124.609C170.976 123.915 170.246 122.122 169.465 120.575C168.684 119.027 167.329 117.394 165.589 117.576C163.85 117.758 162.42 119.767 160.726 119.283C159.658 118.976 159.13 117.804 158.86 116.734C158.59 115.665 158.406 114.458 157.596 113.742C156.787 113.025 155.087 113.173 154.955 114.282V127.442H186.611C186.611 127.442 182.333 124.296 181.363 123.932Z" fill="#E8505B"/>
<path d="M187.455 127.437C187.455 127.465 179.784 127.488 170.321 127.488C160.858 127.488 153.187 127.488 153.187 127.437C153.187 127.385 160.858 127.385 170.321 127.385C179.784 127.385 187.455 127.408 187.455 127.437Z" fill="#E0E0E0"/>
<path d="M187.455 121.69C187.455 121.719 179.784 121.741 170.321 121.741C160.858 121.741 153.187 121.741 153.187 121.69C153.187 121.639 160.858 121.639 170.321 121.639C179.784 121.639 187.455 121.656 187.455 121.69Z" fill="#263238"/>
<path d="M187.455 115.966C187.455 115.966 179.784 116.017 170.321 116.017C160.858 116.017 153.187 116.017 153.187 115.966C153.187 115.915 160.858 115.915 170.321 115.915C179.784 115.915 187.455 115.915 187.455 115.966Z" fill="#263238"/>
<path d="M187.455 110.481C187.455 110.481 179.784 110.533 170.321 110.533C160.858 110.533 153.187 110.533 153.187 110.481C153.187 110.43 160.858 110.43 170.321 110.43C179.784 110.43 187.455 110.453 187.455 110.481Z" fill="#263238"/>
<path d="M96.2764 30.7803H96.4946C96.7064 30.7821 96.9176 30.8011 97.1262 30.8372C97.4577 30.9007 97.7785 31.0098 98.0794 31.1615C98.4767 31.3744 98.8233 31.6693 99.0958 32.0263C99.4312 32.4619 99.6611 32.968 99.7676 33.5056C99.8584 34.1318 99.7771 34.7706 99.5322 35.3548C99.405 35.6732 99.2493 35.9798 99.0671 36.2708C98.876 36.5664 98.7016 36.8722 98.5445 37.1869C98.2105 37.8537 97.9746 38.5646 97.844 39.2978V39.349H97.8153L96.3109 39.3091L94.7375 39.2693H94.6858V39.2124C94.6488 38.4754 94.4257 37.7594 94.037 37.13C93.8705 36.8114 93.681 36.5155 93.5087 36.2139C93.3234 35.9308 93.1565 35.6362 93.0092 35.332C92.7546 34.7534 92.6961 34.1086 92.8426 33.4943C92.9524 32.9617 93.1735 32.4578 93.4915 32.0149C93.7548 31.6685 94.0946 31.3863 94.4849 31.1899C94.7843 31.0408 95.1031 30.9335 95.4323 30.8713C95.6388 30.8312 95.848 30.8065 96.0582 30.7973C96.1118 30.7944 96.1654 30.7944 96.219 30.7973H96.0582C95.8519 30.8192 95.6468 30.8514 95.4438 30.8941C95.1204 30.9629 94.8076 31.0739 94.5136 31.2241C94.1262 31.4273 93.7889 31.713 93.5259 32.0605C93.2174 32.4948 93.006 32.9895 92.9058 33.5113C92.762 34.1069 92.8205 34.7329 93.0723 35.2922C93.2213 35.5919 93.3881 35.8826 93.5719 36.1627C93.7441 36.4586 93.9336 36.7601 94.1059 37.0788C94.5022 37.7263 94.7292 38.4617 94.7662 39.2181L94.7146 39.1612L96.2879 39.1953L97.7866 39.2352L97.7292 39.2807C97.8664 38.5379 98.108 37.8178 98.4469 37.1414C98.6034 36.8216 98.7798 36.5119 98.9752 36.2139C99.1576 35.9319 99.3115 35.6327 99.4346 35.3207C99.6807 34.7528 99.7641 34.1288 99.6757 33.517C99.5749 32.9941 99.3571 32.5003 99.0384 32.0718C98.7768 31.711 98.44 31.4103 98.0507 31.1899C97.7571 31.0374 97.4443 30.9245 97.1205 30.8542C96.914 30.8142 96.7048 30.7894 96.4946 30.7803H96.3338H96.2764Z" fill="#263238"/>
<path d="M96.7126 39.1554C96.714 39.1403 96.714 39.125 96.7126 39.1099V38.9676C96.7126 38.8425 96.6782 38.6604 96.6495 38.4271C96.6035 37.9549 96.5289 37.2892 96.4944 36.43C96.4944 36.2195 96.4944 35.9976 96.4944 35.77C96.4944 35.5424 96.4944 35.2978 96.4944 35.0531C96.5165 34.7931 96.5846 34.5389 96.6954 34.3021C96.8175 34.0444 97.0326 33.8414 97.2983 33.7331C97.4387 33.6811 97.5914 33.6712 97.7374 33.7046C97.8834 33.738 98.0163 33.8132 98.1194 33.9209C98.173 33.9759 98.2149 34.041 98.2425 34.1123C98.2701 34.1837 98.2829 34.2598 98.2802 34.3362C98.2708 34.4932 98.2104 34.6429 98.108 34.763C98.0081 34.8868 97.8775 34.9829 97.729 35.0418C97.5833 35.1025 97.4311 35.1464 97.2753 35.1726C96.9565 35.224 96.6337 35.2469 96.3107 35.2409C95.9875 35.2403 95.6648 35.2136 95.346 35.1612C95.1905 35.1298 95.0399 35.0781 94.8981 35.0076C94.7552 34.9394 94.6281 34.8425 94.5249 34.7231C94.4188 34.6091 94.3489 34.4666 94.3239 34.3135C94.2966 34.1621 94.3208 34.006 94.3928 33.8697C94.4635 33.7352 94.5822 33.6318 94.7258 33.5795C94.7961 33.5552 94.8707 33.5456 94.9448 33.5515C95.019 33.5574 95.0911 33.5785 95.1565 33.6136C95.2817 33.6821 95.3881 33.7797 95.4666 33.8981C95.5386 34.0149 95.5873 34.1443 95.6101 34.2793C95.6478 34.5336 95.6632 34.7906 95.6561 35.0474C95.6561 35.5481 95.6561 36.009 95.6561 36.43C95.6561 37.2721 95.6561 37.9549 95.6561 38.4328V39.1611C95.6571 39.1459 95.6571 39.1307 95.6561 39.1156V38.9733C95.6561 38.8482 95.6561 38.6661 95.6561 38.4044C95.6561 37.9264 95.6561 37.2664 95.6159 36.4016C95.6159 35.9806 95.6159 35.5197 95.6159 35.0247C95.6183 34.7677 95.601 34.5109 95.5642 34.2566C95.5406 34.128 95.4939 34.0047 95.4264 33.8924C95.3515 33.7795 95.2488 33.6874 95.1278 33.625C95.0676 33.5928 95.0014 33.5731 94.9333 33.5672C94.8651 33.5613 94.7965 33.5694 94.7316 33.5909C94.5996 33.6416 94.4913 33.7389 94.4273 33.864C94.3588 33.9911 94.3345 34.1371 94.3583 34.2793C94.3891 34.4227 94.4563 34.5559 94.5536 34.6662C94.7643 34.8915 95.0455 35.0399 95.3517 35.0873C95.6667 35.1397 95.9855 35.1663 96.3049 35.1669C96.6161 35.1966 96.9294 35.1985 97.2409 35.1726C97.395 35.1472 97.5454 35.1032 97.6888 35.0418C97.8292 34.9852 97.9534 34.8953 98.0505 34.78C98.1449 34.6672 98.2011 34.5279 98.2113 34.3817C98.2146 34.3106 98.2031 34.2394 98.1774 34.1729C98.1517 34.1063 98.1124 34.0457 98.062 33.9948C97.9644 33.8953 97.8399 33.8258 97.7035 33.7945C97.567 33.7632 97.4244 33.7716 97.2926 33.8185C97.0422 33.9192 96.8379 34.1075 96.7184 34.3476C96.6018 34.5742 96.5334 34.8221 96.5174 35.0759C96.5174 35.3206 96.5174 35.5652 96.4887 35.7928C96.46 36.0204 96.4887 36.2423 96.4887 36.4528C96.5174 37.2949 96.5863 37.9776 96.6322 38.4499C96.6322 38.6832 96.6724 38.8652 96.6839 38.9904V39.127L96.7126 39.1554Z" fill="#263238"/>
<path d="M94.7147 39.1555C94.7147 39.1555 94.7147 39.3433 94.7147 39.6562C94.7147 39.9691 94.7147 40.4528 94.7147 40.9648V40.9307L95.6851 42.1369H95.6335H96.8221H96.7704L97.4078 41.4314L97.7178 41.0843V41.1298C97.7178 40.4414 97.7178 39.7928 97.7523 39.201L97.8155 39.2636L95.6047 39.201L94.9444 39.184H94.709C94.7776 39.1748 94.8471 39.1748 94.9157 39.184H97.8557V39.2466C97.8557 39.8155 97.8557 40.4926 97.8557 41.1754L97.5456 41.5224L96.9312 42.2109H95.6851V42.1824L94.7262 40.9591C94.7262 40.4414 94.7607 39.9976 94.7721 39.6221C94.7401 39.4684 94.7209 39.3123 94.7147 39.1555Z" fill="#263238"/>
<path d="M97.6946 40.9818C97.6946 40.9818 97.6544 40.9818 97.5855 40.9306L97.2812 40.7997C96.9422 40.6693 96.5825 40.6 96.2189 40.5949C95.8565 40.5908 95.4965 40.6525 95.1566 40.777C95.0245 40.8225 94.9212 40.8737 94.8523 40.9021C94.8179 40.9232 94.7813 40.9404 94.7432 40.9533C94.7725 40.9279 94.8054 40.9068 94.8408 40.8908C94.9385 40.8358 95.0402 40.7883 95.1451 40.7485C95.486 40.6117 95.8511 40.5439 96.2189 40.5494C96.7007 40.5488 97.1742 40.6744 97.5913 40.9135L97.6946 40.9818Z" fill="#263238"/>
<path d="M97.7122 40.5153L97.6031 40.4641C97.5342 40.4299 97.4308 40.3787 97.2988 40.3275C96.6138 40.0731 95.8591 40.0731 95.1742 40.3275C95.0702 40.3628 94.9685 40.4047 94.8698 40.4527L94.7607 40.5039C94.7916 40.4762 94.8265 40.4532 94.8641 40.4356C94.9597 40.3805 95.0596 40.333 95.1627 40.2934C95.507 40.1614 95.873 40.0939 96.2422 40.0942C96.6093 40.0999 96.9718 40.1752 97.3102 40.3161C97.4132 40.3584 97.513 40.4078 97.6088 40.4641L97.7122 40.5153Z" fill="#263238"/>
<path d="M97.7005 40.0657L97.5914 40.0145L97.2928 39.8836C96.9538 39.7532 96.5941 39.6839 96.2305 39.6788C95.8666 39.6781 95.5053 39.7397 95.1625 39.8608L94.8581 39.9917C94.8231 40.0099 94.7866 40.0251 94.749 40.0372C94.7812 40.0128 94.8158 39.9918 94.8524 39.9746C94.9486 39.9207 95.0484 39.8732 95.151 39.8324C95.8408 39.552 96.6144 39.552 97.3043 39.8324C97.4069 39.8732 97.5066 39.9207 97.6029 39.9746L97.7005 40.0657Z" fill="#263238"/>
<path d="M108.668 52.3213C108.668 52.3213 107.52 62.8131 109.001 68.5597L123.15 67.9452C123.15 67.9452 120.118 57.5956 122.001 53.0097L108.668 52.3213Z" fill="#EBEBEB"/>
<path d="M108.725 51.98C108.725 51.98 108.823 63.3139 109.403 66.7732L123.758 66.1018C123.758 66.1018 122.495 54.9671 122.983 51.9857L108.725 51.98Z" fill="#0164A8"/>
<path d="M120.784 56.7424C120.784 56.7936 118.636 56.9643 115.978 57.1236C113.319 57.2829 111.166 57.3682 111.16 57.317C111.154 57.2658 113.308 57.0894 115.966 56.9358C118.625 56.7822 120.784 56.6912 120.784 56.7424Z" fill="white"/>
<path d="M120.812 59.1434C120.812 59.1946 118.665 59.3653 116.006 59.5246C113.348 59.6839 111.188 59.7693 111.188 59.7124C111.188 59.6555 113.336 59.4905 115.995 59.3312C118.653 59.1718 120.784 59.0694 120.812 59.1434Z" fill="white"/>
<path d="M118.372 61.4989C118.111 61.5669 117.843 61.6051 117.574 61.6127C117.08 61.6582 116.425 61.7094 115.639 61.7549C114.852 61.8004 114.197 61.8289 113.698 61.846C113.429 61.8798 113.157 61.8798 112.888 61.846C113.151 61.7784 113.421 61.7402 113.692 61.7322C114.186 61.6866 114.84 61.6354 115.627 61.5899C116.414 61.5444 117.068 61.516 117.568 61.4989C117.835 61.4649 118.105 61.4649 118.372 61.4989Z" fill="white"/>
<path d="M141.455 33.5851C141.455 33.6647 133.066 33.733 122.725 33.733C112.383 33.733 103.982 33.6647 103.982 33.5851C103.982 33.5054 112.343 33.4656 122.696 33.4656C133.049 33.4656 141.455 33.4997 141.455 33.5851Z" fill="#263238"/>
<path d="M117.717 36.9648C117.717 37.0502 114.571 37.1128 110.689 37.1128C106.807 37.1128 103.661 37.0502 103.661 36.9648C103.661 36.8795 106.807 36.8169 110.689 36.8169C114.571 36.8169 117.717 36.8795 117.717 36.9648Z" fill="#263238"/>
<path d="M125.182 36.9651C124.287 37.1145 123.378 37.1641 122.472 37.113C121.568 37.164 120.661 37.1144 119.768 36.9651C120.661 36.8191 121.568 36.7695 122.472 36.8171C123.378 36.7694 124.287 36.819 125.182 36.9651Z" fill="#263238"/>
<path d="M203.51 72.662C203.508 72.6184 203.508 72.5748 203.51 72.5312C203.51 72.4288 203.499 72.3036 203.476 72.1557C203.447 71.7915 203.407 71.3022 203.361 70.6877C203.269 69.3905 203.143 67.5527 202.987 65.2996C202.7 60.7478 202.304 54.4436 201.873 47.5079C201.443 40.5721 201.11 34.2907 200.846 29.7162C200.725 27.4403 200.633 25.6196 200.564 24.3167C200.564 23.7022 200.518 23.2129 200.507 22.8487C200.507 22.7008 200.507 22.5756 200.507 22.4675C200.498 22.4243 200.498 22.3799 200.507 22.3367C200.513 22.3801 200.513 22.4241 200.507 22.4675L200.541 22.8487C200.57 23.2072 200.61 23.6965 200.662 24.311C200.748 25.6139 200.874 27.446 201.029 29.6991C201.317 34.2509 201.713 40.5551 202.149 47.4908C202.586 54.4266 202.913 60.708 203.177 65.2882C203.292 67.5641 203.384 69.3791 203.453 70.682C203.453 71.2965 203.499 71.7858 203.51 72.15C203.51 72.3036 203.51 72.4288 203.51 72.5312C203.519 72.5744 203.519 72.6188 203.51 72.662Z" fill="#263238"/>
<path d="M200.484 9.46663C200.484 9.46663 200.37 9.46663 200.151 9.46663H199.175L195.431 9.51214H181.616L136.041 9.47232L88.8636 9.32438C86.5252 9.89989 84.4319 11.197 82.8861 13.0284C81.7407 14.4069 80.9523 16.0417 80.5893 17.7907C80.3506 18.891 80.2752 20.02 80.3653 21.1419C80.3998 21.5231 80.44 21.8133 80.4687 22.0067C80.4974 22.2002 80.5089 22.3026 80.5089 22.3026C80.4159 21.9282 80.3488 21.548 80.3079 21.1646C80.1921 20.0359 80.2502 18.8964 80.4802 17.785C80.8319 16.0083 81.6208 14.3451 82.777 12.943C84.3342 11.0606 86.4594 9.72253 88.8407 9.12524L136.018 9.17645L181.581 9.31869L195.431 9.39835L199.187 9.43249H200.163L200.484 9.46663Z" fill="#263238"/>
<path d="M20.7508 122.917C20.7508 122.917 9.99587 140.73 9.99587 151.363L7.34863 281.037L24.3147 285.046L37.2743 158.324C37.2743 158.324 68.6618 285.375 69.6733 285.375C70.6848 285.375 86.1336 282.627 86.1336 282.627L62.7194 123.504L20.7508 122.917Z" fill="#1E608A"/>
<path d="M36.6975 158.104C36.6975 158.104 36.6184 158.002 36.5157 157.783C36.413 157.564 36.2628 157.243 36.0811 156.828C35.5918 155.631 35.1723 154.408 34.8246 153.163C33.6879 149.046 33.2762 144.766 33.6077 140.51C33.6946 139.265 33.8685 138.051 34.0581 136.893C34.2649 135.781 34.5287 134.681 34.8483 133.596C35.441 131.521 36.0653 129.681 36.6026 128.115C37.14 126.549 37.5983 125.343 37.9302 124.49L38.3253 123.519C38.4201 123.289 38.4755 123.179 38.4913 123.19C38.4717 123.309 38.4427 123.427 38.4043 123.542C38.3174 123.816 38.2068 124.145 38.0803 124.544C37.7801 125.468 37.3692 126.706 36.8792 128.209C36.3893 129.712 35.7887 131.599 35.2118 133.69C34.9274 134.724 34.635 135.812 34.4216 136.955C34.2083 138.098 34.066 139.304 33.9791 140.534C33.6582 144.741 34.0264 148.971 35.0696 153.062C35.4647 154.628 35.8993 155.873 36.1917 156.734C36.3928 157.178 36.5618 157.636 36.6975 158.104Z" fill="#455A64"/>
<path d="M41.51 136.329C41.5193 136.412 41.5193 136.496 41.51 136.579C41.51 136.767 41.51 136.986 41.5495 137.26C41.5495 137.902 41.6127 138.756 41.6601 139.821C41.7391 142.044 41.8497 145.145 41.9762 148.841L41.8656 148.684L48.4086 151.323H48.2268L53.5529 148.136L53.9006 147.933L53.7979 148.081C54.2009 143.806 54.5881 139.782 54.9042 136.336L55.0859 136.532L45.303 136.438L42.5214 136.391H41.7707C41.6815 136.402 41.5913 136.402 41.5021 136.391C41.8151 136.368 42.1294 136.368 42.4424 136.391L45.1845 136.344L55.1334 136.148H55.3309V136.344C55.0227 139.821 54.6671 143.838 54.2799 148.089V148.191L54.193 148.246L53.8453 148.457L48.456 151.691L48.3691 151.746L48.2821 151.707L41.7549 149.029L41.6522 148.982V148.864C41.589 145.122 41.5416 141.982 41.51 139.727C41.51 138.678 41.51 137.832 41.51 137.206C41.4876 136.914 41.4876 136.62 41.51 136.329Z" fill="#455A64"/>
<path d="M16.9182 132.9C16.9182 132.9 16.9182 133.213 16.8076 133.769C16.697 134.325 16.5863 135.155 16.4362 136.118C16.0964 138.177 15.646 141.035 15.077 144.457L15.0059 144.285L19.9448 147.918H19.7709L25.7766 146.258L26.0848 146.172L25.9425 146.313C27.0884 142.437 28.171 138.788 29.1034 135.648L29.2378 135.867L20.3636 133.769L17.8349 133.15C17.5251 133.086 17.2191 133.005 16.9182 132.907C17.2078 132.942 17.4953 132.991 17.7796 133.056L20.2846 133.573L29.3168 135.523L29.5064 135.562L29.4511 135.742C28.5345 138.874 27.4677 142.546 26.3377 146.43V146.54H26.227L25.9188 146.618L19.9132 148.262H19.8183L19.7393 148.207L14.832 144.598L14.7451 144.535V144.426C15.3852 140.972 15.9146 138.091 16.3256 136.008C16.5152 135.045 16.6654 134.27 16.776 133.659C16.805 133.403 16.8526 133.149 16.9182 132.9Z" fill="#455A64"/>
<path d="M28.2655 21.0696C28.8503 22.7452 26.8431 24.2016 25.1047 24.5696C23.3662 24.9376 21.2484 25.2117 20.4503 26.8012C19.7549 28.1793 20.4503 29.9332 19.826 31.3348C18.6249 34.0127 13.7729 33.4489 12.8246 36.2208C12.1213 38.1548 13.9309 40.0889 13.7018 42.0699C13.5042 43.7847 11.9159 44.9592 10.5409 45.9849C9.16592 47.0107 7.6803 48.4592 7.89366 50.1818C8.15443 52.1628 10.5962 53.5331 10.3671 55.522C10.1379 57.5108 7.49065 58.3878 7.10344 60.3218C6.65302 62.6082 9.54522 64.0802 10.4777 66.2257C11.1889 67.87 10.7464 69.9763 11.9475 71.3074C13.1486 72.6385 15.3612 72.4036 17.1629 72.0199L35.1563 68.2458C33.9393 65.427 35.0772 62.1305 36.8157 59.6327C38.5542 57.135 40.8538 54.9347 42.3473 52.2646C43.8408 49.5946 44.3228 46.0006 42.3473 43.6046" fill="#263238"/>
<path d="M59.8744 35.3206C59.754 34.3692 59.5558 33.4291 59.2818 32.5096C59.1432 32.0699 58.896 31.6716 58.5627 31.3507C58.215 31.014 57.7724 31.2254 57.4563 31.7109C56.9358 32.8444 56.6664 34.0752 56.6664 35.3206C56.6664 36.5659 56.9358 37.7967 57.4563 38.9302C57.7487 39.4157 58.2466 39.6271 58.5627 39.2904C58.8862 38.9738 59.1276 38.5843 59.266 38.1551C59.5397 37.2328 59.7379 36.2901 59.8586 35.3362C59.9251 35.5917 59.9465 35.8566 59.9218 36.1192C59.9082 36.8413 59.7939 37.558 59.582 38.249C59.4373 38.7567 59.1655 39.22 58.7918 39.5958C58.6673 39.7145 58.5127 39.7976 58.3443 39.8362C58.1759 39.8748 58.0001 39.8675 57.8356 39.815C57.5089 39.6957 57.2311 39.4727 57.0454 39.1808C56.4477 37.9829 56.1367 36.6647 56.1367 35.3284C56.1367 33.9921 56.4477 32.6738 57.0454 31.476C57.2311 31.1841 57.5089 30.9611 57.8356 30.8417C58.0001 30.7893 58.1759 30.7819 58.3443 30.8205C58.5127 30.8591 58.6673 30.9422 58.7918 31.061C59.1655 31.4368 59.4373 31.9001 59.582 32.4078C59.7946 33.1013 59.909 33.8207 59.9218 34.5454C59.9512 34.8045 59.9352 35.0668 59.8744 35.3206Z" fill="#263238"/>
<path d="M30.5101 51.7407C27.2544 46.2596 26.3219 39.0325 25.5001 32.7527C25.105 29.793 24.4333 25.6274 26.5353 23.7403C28.7795 21.7593 28.9929 18.7056 31.5769 17.1787C34.1609 15.6518 37.6616 15.5266 40.0955 17.2727" fill="#263238"/>
<path d="M39.5263 71.0414C40.7069 71.1296 41.8933 70.9816 43.0149 70.6062C44.1365 70.2307 45.1705 69.6356 46.0552 68.8561C46.9399 68.0766 47.6574 67.1287 48.1648 66.0688C48.6723 65.009 48.9593 63.8588 49.009 62.6867C49.2065 57.926 49.3804 53.1184 49.3804 53.1184C49.3804 53.1184 56.6583 52.4685 57.2115 45.3274C57.7646 38.1864 57.6066 21.7119 57.6066 21.7119C53.6169 19.71 49.1603 18.7996 44.6968 19.0749C40.2334 19.3502 35.9251 20.8012 32.2168 23.2779L32.5882 48.4046L32.5487 61.9194C32.604 66.4217 34.9668 70.6734 39.5263 71.0414Z" fill="#FFBE9D"/>
<path d="M50.0916 36.5893C48.8589 35.0232 46.8359 34.4438 45.1765 35.5087C44.3591 36.0665 43.7682 36.8939 43.5091 37.8432C43.25 38.7926 43.3397 39.8022 43.762 40.6922C44.1342 41.3521 44.6401 41.9286 45.248 42.3854C45.8559 42.8422 46.5526 43.1695 47.2942 43.3466C47.9572 43.4927 48.5429 43.8748 48.9406 44.4203C49.3382 44.9658 49.52 45.6369 49.4515 46.3064C49.2382 48.0995 46.2274 48.7572 44.8683 50.2214C42.7426 52.5235 38.1119 53.4866 34.9905 53.8468C31.8691 54.207 32.288 54.2226 30.51 51.7248C29.3191 50.0252 28.7123 47.9907 28.7794 45.9227L28.4949 30.1294C28.3793 28.2341 28.5067 26.3319 28.8742 24.4683C29.245 22.5785 30.3269 20.8991 31.9007 19.7702C33.655 18.6349 35.8519 18.5409 37.8748 17.9067C40.3719 17.1237 42.4976 15.4794 44.8367 14.3048C47.1757 13.1303 50.0363 12.4335 52.3754 13.6001C54.0506 14.4458 55.1727 16.1136 56.8085 17.0375C59.1318 18.353 62.34 18.0711 63.4226 21.4615C63.8061 22.6455 63.7894 23.921 63.3752 25.0947C61.7948 29.7066 56.0104 31.5545 51.8538 29.5422C51.7748 30.3252 52.5413 32.0713 51.7037 34.5378C51.435 35.3208 51.3402 36.5266 50.1232 36.5501" fill="#263238"/>
<path d="M48.8112 41.0368C48.8112 41.0368 48.8112 41.1699 48.7084 41.35C48.6112 41.4659 48.4908 41.5606 48.3548 41.628C48.2188 41.6954 48.0701 41.734 47.9182 41.7415C47.4123 41.7114 46.9375 41.4898 46.5918 41.1226C46.2462 40.7553 46.0562 40.2705 46.0612 39.7684C46.0428 39.4942 46.0802 39.2191 46.1711 38.9595C46.2621 38.6999 46.4047 38.4611 46.5906 38.2572C46.8931 37.9349 47.2871 37.711 47.7207 37.6151C48.4635 37.4663 48.8902 37.7404 48.8586 37.7874C48.827 37.8343 48.4161 37.7874 47.8234 37.9675C47.4442 38.0782 47.1128 38.3104 46.8811 38.6279C46.6494 38.9453 46.5306 39.3299 46.5432 39.7214C46.5414 40.1073 46.6753 40.4817 46.9219 40.7804C47.1685 41.079 47.5124 41.2832 47.8945 41.3579C48.4951 41.4205 48.74 40.9899 48.8112 41.0368Z" fill="#995037"/>
<path d="M59.8746 34.9758C58.2961 35.4681 56.6742 35.8116 55.0305 36.0016C53.411 36.3422 51.7627 36.531 50.1074 36.5653C51.6859 36.073 53.3078 35.7296 54.9515 35.5396C56.5711 35.1997 58.2194 35.0109 59.8746 34.9758Z" fill="#263238"/>
<path d="M31.0866 58.7012C31.3188 59.133 31.6975 59.4696 32.1559 59.6515C32.6142 59.8335 33.1227 59.8491 33.5916 59.6956C34.5227 59.3622 35.3542 58.8022 36.0097 58.067C36.6617 57.3417 37.4726 56.7738 38.3803 56.407C40.3006 55.8276 42.6554 57.096 44.2675 55.9215C45.7452 54.841 45.5476 52.4058 46.9937 51.3018C47.7839 50.7067 48.827 50.6362 49.6094 50.0646C51.0713 48.9919 50.8263 46.6037 49.6094 45.2804C48.3924 43.9571 46.5354 43.4169 44.789 42.9314L29.3086 49.4695L31.0866 58.7012Z" fill="#263238"/>
<path d="M49.4832 30.9832C49.4832 30.9832 49.4437 30.9832 49.3488 31.0771C49.2177 31.1627 49.0803 31.2386 48.9379 31.3042C48.3923 31.5612 47.82 31.7581 47.231 31.8914C46.3048 32.1026 45.3648 32.2491 44.4179 32.3299C43.1778 32.4192 41.945 32.5892 40.7275 32.8389C39.278 33.119 37.9571 33.8517 36.9582 34.9295C35.9151 36.1275 35.52 37.858 34.7139 39.5258C34.3082 40.4098 33.6895 41.1815 32.9122 41.773C32.0903 42.3506 31.1806 42.7946 30.2176 43.0885C28.3132 43.7227 26.2191 44.0986 24.6386 45.4375C23.8618 46.0689 23.3515 46.9655 23.2083 47.951C23.1214 48.9409 23.1214 49.9364 23.2083 50.9264C23.296 51.9418 23.0963 52.9614 22.6315 53.8705C22.1253 54.7062 21.4057 55.3949 20.5453 55.8672C18.9253 56.8068 17.2264 57.3079 15.8751 58.1614C15.2165 58.5476 14.6481 59.0681 14.2077 59.6883C13.8312 60.2734 13.6134 60.945 13.5755 61.6379C13.5769 62.8661 13.7471 64.0884 14.0813 65.2711C14.31 66.1925 14.3953 67.1431 14.3342 68.0899C14.2952 68.6925 14.1196 69.2786 13.8205 69.8047C13.716 69.9865 13.5825 70.1504 13.4254 70.2902C13.8713 69.633 14.123 68.8656 14.1524 68.0743C14.1777 67.147 14.0659 66.2211 13.8205 65.3259C13.4577 64.1234 13.2636 62.8772 13.2437 61.6223C13.2723 60.868 13.4983 60.1341 13.8995 59.4925C14.3514 58.8268 14.9381 58.2615 15.6222 57.8325C17.0288 56.9242 18.7357 56.4074 20.2766 55.4835C21.1105 55.0698 21.7945 54.4103 22.2346 53.5956C22.6747 52.781 22.8492 51.8512 22.7342 50.9342C22.6433 49.9157 22.6433 48.8912 22.7342 47.8727C22.8908 46.7782 23.4544 45.7812 24.3146 45.0773C26.0373 43.6444 28.2025 43.2764 30.0516 42.6578C30.9704 42.3815 31.8397 41.9641 32.6278 41.4207C33.3534 40.8744 33.9316 40.1589 34.3109 39.3379C35.1012 37.7718 35.5121 35.9709 36.6816 34.6398C37.7584 33.5127 39.1755 32.7625 40.7196 32.5022C41.9559 32.2658 43.2076 32.1166 44.4653 32.0559C45.3932 32.008 46.3171 31.9008 47.231 31.7348C48.0039 31.5549 48.7579 31.3032 49.4832 30.9832Z" fill="#455A64"/>
<path d="M45.3107 33.543C45.3107 33.59 44.7496 33.543 43.8014 33.7544C42.4634 34.0776 41.2546 34.7925 40.3323 35.8059C39.6953 36.4913 39.2226 37.3103 38.9494 38.2019C38.693 39.2492 38.5971 40.3288 38.6649 41.4044C38.7647 42.6503 38.5811 43.9026 38.1276 45.0689C37.8262 45.6842 37.3584 46.2047 36.7763 46.5722C36.2032 46.9368 35.6066 47.2638 34.9904 47.551C34.4109 47.8048 33.8894 48.1724 33.4574 48.6316C33.079 49.0992 32.8653 49.6767 32.8489 50.2759C32.762 51.466 33.0307 52.7972 32.438 53.9325C31.8754 54.9259 31.0395 55.7405 30.0278 56.2815C29.1191 56.8218 28.2419 57.2133 27.4912 57.6596C26.8099 58.0345 26.2044 58.5309 25.7053 59.1239C25.3273 59.5809 25.0573 60.116 24.9151 60.6899C24.8086 61.1775 24.8086 61.6821 24.9151 62.1698C24.8343 62.0609 24.7801 61.9349 24.757 61.8018C24.6593 61.4284 24.6431 61.0386 24.7096 60.6586C24.8233 60.0531 25.0776 59.4821 25.4524 58.9908C25.9528 58.3595 26.5696 57.8281 27.2699 57.4247C28.0602 56.9549 28.9057 56.5321 29.7749 55.9997C30.7107 55.4826 31.4803 54.7146 31.9955 53.7838C32.517 52.7893 32.272 51.5678 32.3432 50.2759C32.3619 49.5826 32.6088 48.9144 33.0465 48.3732C33.5183 47.8579 34.0946 47.447 34.7375 47.1673C35.994 46.5331 37.2188 45.985 37.7483 44.8731C38.1778 43.7719 38.3533 42.5894 38.2619 41.4122C38.2104 40.2946 38.3276 39.1756 38.6096 38.0923C38.9133 37.1539 39.4295 36.2968 40.1189 35.5866C41.0978 34.5487 42.3848 33.8466 43.7935 33.5821C44.1704 33.5067 44.5552 33.4778 44.9393 33.496C45.0647 33.4943 45.1897 33.5101 45.3107 33.543Z" fill="#455A64"/>
<path d="M51.1822 59.7822L49.3094 55.9611L33.0387 55.3503L30.4863 60.3146H50.9214" fill="#E8505B"/>
<path d="M107.114 94.2656C106.996 93.6862 111.421 70.9162 112.646 64.6678C112.682 64.4769 112.675 64.2804 112.625 64.0924C112.576 63.9044 112.486 63.7294 112.361 63.58C112.235 63.4305 112.078 63.3102 111.901 63.2275C111.724 63.1449 111.53 63.102 111.334 63.1018H78.7453C78.4439 63.1008 78.1511 63.2009 77.9143 63.3857C77.6776 63.5705 77.511 63.8292 77.4414 64.1197L70.7719 91.987L54.3433 93.1929L54.9201 94.2656H107.114Z" fill="#455A64"/>
<path d="M105.684 92.2456L110.955 64.6445L78.927 64.8325L71.894 92.2847L105.684 92.2456Z" fill="#EBEBEB"/>
<path d="M71.8701 92.3004L78.9031 64.8403L110.954 64.6445L105.707 92.2612L71.8701 92.3004ZM78.9426 64.8559L71.9175 92.2612H105.668L110.931 64.6993L78.9426 64.8559Z" fill="#263238"/>
<path d="M105.652 92.4331C105.652 92.5506 96.28 92.6367 84.727 92.6367C73.174 92.6367 63.8257 92.5506 63.8257 92.4331C63.8257 92.3156 73.1977 92.2295 84.7586 92.2295C96.3195 92.2295 105.652 92.3235 105.652 92.4331Z" fill="#263238"/>
<path d="M103.448 85.4647C103.311 85.4995 103.17 85.5153 103.029 85.5117H101.828L97.4103 85.5822C93.6883 85.5822 88.5361 85.637 82.8465 85.637H77.9155L77.9787 85.3864C79.1167 81.0407 80.1044 77.2431 80.8314 74.4243C81.187 73.1088 81.4794 72.0753 81.7007 71.2374C81.7924 70.8478 81.9139 70.4656 82.0642 70.0942C82.0208 70.4914 81.9441 70.8842 81.835 71.2688C81.6454 72.0518 81.3925 73.1558 81.0448 74.4869C80.3494 77.2744 79.409 81.0877 78.3343 85.4491L78.1368 85.2063H82.807C88.4966 85.2063 93.6488 85.2063 97.3708 85.269L101.788 85.3316L102.989 85.3708C103.145 85.3823 103.3 85.4139 103.448 85.4647Z" fill="#455A64"/>
<path d="M80.2466 84.4152L80.8472 81.7529H84.9642L84.4348 84.4152H80.2466Z" fill="#E8505B"/>
<path d="M85.8491 84.4156L87.0977 79.1772H91.2147L90.0452 84.4156H85.8491Z" fill="#E8505B"/>
<path d="M91.4517 84.4152L92.0522 81.7529H96.1772L95.6477 84.4152H91.4517Z" fill="#E8505B"/>
<path d="M97.062 84.4152L99.4169 74.2361H103.542L101.25 84.4152H97.062Z" fill="#E8505B"/>
<path d="M83.4787 87.3911C82.9474 87.5905 82.3742 87.6551 81.8113 87.579C80.9026 87.579 80.1519 87.4772 80.1519 87.3597C80.6846 87.1665 81.2563 87.1021 81.8192 87.1718C82.3821 87.1115 82.9514 87.1867 83.4787 87.3911Z" fill="#455A64"/>
<path d="M88.9153 87.3833C87.8206 87.6548 86.6753 87.6548 85.5806 87.3833C86.6753 87.1118 87.8206 87.1118 88.9153 87.3833Z" fill="#455A64"/>
<path d="M94.3439 87.375C93.2519 87.6465 92.1091 87.6465 91.0171 87.375C91.5501 87.1826 92.1215 87.1182 92.6845 87.187C93.2448 87.1167 93.814 87.1812 94.3439 87.375Z" fill="#455A64"/>
<path d="M99.7809 87.3677C99.2475 87.5581 98.6765 87.6224 98.1136 87.5556C97.1969 87.5556 96.4541 87.4538 96.4541 87.3364C96.984 87.1426 97.5532 87.0781 98.1136 87.1485C98.679 87.0899 99.2505 87.165 99.7809 87.3677Z" fill="#455A64"/>
<path d="M91.7918 68.9665C90.2628 69.1722 88.7182 69.2403 87.1769 69.1701C85.6356 69.2403 84.091 69.1722 82.562 68.9665C84.0914 68.7655 85.6356 68.6973 87.1769 68.7629C88.7182 68.6973 90.2624 68.7655 91.7918 68.9665Z" fill="#455A64"/>
<path d="M86.9395 67.8392C86.2771 68.0378 85.582 68.1069 84.8929 68.0428C84.2038 68.1069 83.5087 68.0378 82.8462 67.8392C83.5078 67.6361 84.2038 67.5669 84.8929 67.6356C85.582 67.5669 86.278 67.6361 86.9395 67.8392Z" fill="#455A64"/>
<path d="M78.1052 111.046L96.9598 97.523L96.2565 96.3954C95.2253 94.7336 93.6782 93.4478 91.8471 92.731L88.8996 93.2556L71.4199 95.8943L78.1052 111.046Z" fill="#DC2D22"/>
<path d="M11.0707 107.937L26.7408 101.775L23.2401 88.9177L10.478 93.2164L11.0707 107.937Z" fill="#DC2D22"/>
<path d="M77.4491 111.413C81.3528 109.487 82.3564 104.875 80.452 100.991L64.2208 66.6173C63.8476 65.7679 63.289 65.0111 62.5851 64.4014C60.7632 62.7963 58.6371 61.5667 56.3307 60.7843C54.0242 60.0019 51.5837 59.6823 49.1513 59.8442L32.2169 59.4058C32.2169 59.4058 18.9175 59.4058 13.9312 69.7884C13.5677 70.5715 5.83932 85.7383 0.742393 95.753C0.187686 96.8432 -0.12811 98.0373 -0.184275 99.257C-0.240439 100.477 -0.0357019 101.694 0.416503 102.83C0.868707 103.966 1.55816 104.994 2.43962 105.847C3.32108 106.7 4.37463 107.359 5.53113 107.78C7.60924 108.535 9.89893 108.481 11.9387 107.63C13.9785 106.778 15.6167 105.192 16.5231 103.192L22.0546 90.961L25.5395 108.485L20.5216 122.916L62.4902 123.487L59.2661 104.178L58.2942 90.4051L66.8048 107.796C67.2624 108.731 67.9024 109.567 68.688 110.256C69.4736 110.945 70.3891 111.473 71.3818 111.81C72.3744 112.146 73.4244 112.284 74.4713 112.216C75.5181 112.148 76.5409 111.875 77.4807 111.413H77.4491Z" fill="#DC2D22"/>
<g opacity="0.2">
<path opacity="0.2" d="M26.97 108.149C30.1309 110.498 34.8722 109.715 38.7443 109.072C42.7146 108.506 46.354 106.564 49.0172 103.591C50.258 102.298 50.9411 100.576 50.9216 98.7915C50.7635 97.0298 49.191 95.3306 47.4288 95.542C45.3979 95.7848 44.4181 98.0398 43.4777 99.8173C41.8704 102.606 39.4338 104.834 36.5005 106.199C33.5673 107.564 30.2804 107.999 27.0885 107.444C27.0885 107.444 26.4089 107.726 26.97 108.149Z" fill="black"/>
</g>
<g opacity="0.2">
<path opacity="0.2" d="M52.8892 81.0798C53.8769 88.996 53.4344 88.3931 55.1018 96.1919C55.892 100.029 56.9193 104.022 59.5823 106.927L58.2943 90.4055L52.8892 81.0798Z" fill="black"/>
</g>
<path d="M20.5376 122.916L19.3364 119.447L22.4657 117.38L60.9652 114.232L63.6757 119.29L62.5062 123.487L20.5376 122.916Z" fill="#DC2D22"/>
<path d="M28.4872 57.4647C27.6834 57.7751 26.9605 58.2609 26.3721 58.886C25.7836 59.5111 25.3449 60.2595 25.0883 61.0756C24.8317 61.8917 24.7639 62.7546 24.8899 63.6003C25.016 64.4459 25.3326 65.2526 25.8163 65.9604C26.2228 66.3918 26.4802 66.9403 26.5512 67.5264C26.4721 68.9358 24.1805 68.9749 23.4535 70.1886C23.2639 70.6216 23.2215 71.104 23.3326 71.563C23.4438 72.022 23.7026 72.4328 24.0699 72.7334C24.8155 73.3188 25.6084 73.8425 26.4405 74.2994C26.8578 74.53 27.2098 74.8611 27.4639 75.2621C27.718 75.663 27.8661 76.121 27.8945 76.5936C28.6848 76.5936 29.1747 75.607 29.0562 74.8162C28.8372 74.0512 28.5043 73.3228 28.0684 72.6551C27.8514 72.3189 27.7277 71.932 27.7096 71.5334C27.6916 71.1347 27.7799 70.7384 27.9657 70.3844C28.4951 69.6014 29.5461 69.6013 30.4153 69.2803C31.2234 68.9283 31.8624 68.2799 32.1983 67.4711C32.5342 66.6623 32.5409 65.756 32.217 64.9424C31.6955 63.7993 30.4944 62.6404 31.0791 61.5285C31.4031 60.91 32.1538 60.6751 32.7781 60.3384C33.4167 59.9882 33.9575 59.4865 34.3522 58.8782C34.7468 58.2699 34.983 57.5741 35.0393 56.8531C35.0957 56.1321 34.9706 55.4085 34.6753 54.7472C34.3799 54.086 33.9235 53.5077 33.3471 53.0642" fill="#263238"/>
<path d="M21.9439 92.637C21.7281 93.3168 21.4421 93.9728 21.0904 94.5945C20.5057 95.769 19.6522 97.3742 18.6249 99.1046C17.5977 100.835 16.5783 102.346 15.8197 103.419C15.4404 104.022 14.998 104.584 14.5 105.095C14.8169 104.451 15.1925 103.838 15.6221 103.262C16.3175 102.143 17.2895 100.616 18.3168 98.8932C19.344 97.1706 20.2291 95.5967 20.885 94.4614C21.1845 93.8243 21.5388 93.2139 21.9439 92.637Z" fill="#263238"/>
<path d="M18.2773 99.2302C18.4667 100.194 18.3735 101.191 18.0086 102.104C17.7723 103.06 17.2618 103.927 16.5388 104.602C16.4361 104.531 17.1473 103.466 17.6135 101.986C18.0797 100.507 18.1509 99.2302 18.2773 99.2302Z" fill="#263238"/>
<path d="M79.7642 99.7543C79.6615 99.8012 76.382 92.9969 72.4309 84.5482C68.4798 76.0996 65.3663 69.2169 65.477 69.1699C65.5876 69.1229 68.8591 75.9351 72.8023 84.376C76.7455 92.8168 79.8669 99.7073 79.7642 99.7543Z" fill="#263238"/>
<path d="M59.772 64.6445C59.772 64.7072 59.0608 64.9656 58.0177 65.6076C56.6541 66.4412 55.4916 67.5611 54.6123 68.8883C53.733 70.2155 53.1583 71.7177 52.9287 73.289C52.747 74.4948 52.8023 75.2621 52.7312 75.27C52.5672 74.6116 52.5376 73.9275 52.6442 73.2576C52.7952 71.6186 53.3505 70.0414 54.2614 68.665C55.1722 67.2887 56.4107 66.1554 57.8676 65.3649C58.4456 64.9974 59.0939 64.7521 59.772 64.6445Z" fill="#263238"/>
<path d="M25.508 108.626C25.3974 108.626 23.5088 100.686 21.2882 90.8362C19.0677 80.9859 17.3371 72.9679 17.4794 72.9444C17.6216 72.9209 19.4707 80.8919 21.6912 90.7422C23.9118 100.592 25.6186 108.626 25.508 108.626Z" fill="#263238"/>
<path d="M96.9595 97.5229L104.609 94.2656H94.415L96.6435 97.1236" fill="#FFBE9D"/>
<path d="M81.2104 98.3688C80.5366 97.8525 79.9147 97.273 79.3534 96.6383C78.6987 96.1019 78.098 95.5041 77.5596 94.853C79.0915 95.6538 80.3588 96.8742 81.2104 98.3688Z" fill="#263238"/>
<path d="M67.1287 108.438C66.8783 108.107 66.6613 107.753 66.4807 107.381C66.0856 106.692 65.5403 105.682 64.9003 104.429C63.549 101.923 61.7789 98.4467 59.8745 94.5316C57.97 90.6166 56.1683 87.1635 54.8566 84.65C54.2244 83.4442 53.6949 82.442 53.2761 81.6746C53.0646 81.3203 52.8848 80.9482 52.7388 80.5627C52.9926 80.8872 53.2174 81.2331 53.4105 81.5963C53.8214 82.2775 54.3982 83.272 55.0857 84.5169C56.4686 86.9991 58.2466 90.4756 60.2222 94.3515L65.1373 104.28L66.6229 107.295C66.8239 107.661 66.993 108.043 67.1287 108.438Z" fill="#263238"/>
<path d="M51.9723 97.8052C51.9723 97.8052 51.9723 97.8991 51.9723 98.0714C51.9425 98.3347 51.8977 98.5961 51.838 98.8544C51.622 99.7946 51.2707 100.699 50.7949 101.54C49.151 104.32 46.6614 106.512 43.6829 107.804C40.7368 109.037 37.615 109.809 34.4294 110.091C33.2204 110.224 32.2326 110.302 31.553 110.349C31.2008 110.382 30.8463 110.382 30.4941 110.349C30.8342 110.25 31.1838 110.187 31.5372 110.161L34.3978 109.777C37.5308 109.42 40.5978 108.63 43.5091 107.428C46.4001 106.172 48.8425 104.082 50.5183 101.431C51.1607 100.29 51.6495 99.0713 51.9723 97.8052Z" fill="#263238"/>
<path d="M43.5564 117.975C43.5564 118.085 38.3567 118.539 31.9243 118.985C25.4919 119.431 20.2765 119.706 20.2686 119.596C20.2607 119.486 25.4682 119.024 31.9006 118.578C38.333 118.132 43.5485 117.865 43.5564 117.975Z" fill="#263238"/>
<path d="M50.2655 114.89C50.7565 116.142 51.0419 117.464 51.1111 118.805C51.3158 120.129 51.3158 121.475 51.1111 122.799C50.906 121.488 50.7689 120.168 50.7002 118.844C50.4789 116.66 50.1549 114.89 50.2655 114.89Z" fill="#263238"/>
<path d="M52.9679 112.393C53.1627 112.894 53.2799 113.422 53.3156 113.959C53.6467 116.545 53.4614 119.171 52.7704 121.687C52.6628 122.22 52.4707 122.732 52.2014 123.206C52.075 123.206 52.8178 120.857 52.9916 117.827C53.1655 114.796 52.8415 112.408 52.9679 112.393Z" fill="#263238"/>
<path d="M51.2294 60.0794C48.4268 60.1341 45.6232 60.0478 42.8294 59.821C40.0303 59.7359 37.2372 59.5112 34.4609 59.1476C34.4609 59.038 38.2224 59.1476 42.8531 59.4138C47.4838 59.6801 51.2373 59.9384 51.2294 60.0794Z" fill="#263238"/>
</g>
</svg>
