<svg width="262" height="147" viewBox="0 0 262 147" fill="none" xmlns="http://www.w3.org/2000/svg">
<mask id="mask0" mask-type="alpha" maskUnits="userSpaceOnUse" x="0" y="0" width="262" height="147">
<rect width="262" height="147" fill="#C4C4C4"/>
</mask>
<g mask="url(#mask0)">
<ellipse rx="69.9064" ry="69.5" transform="matrix(-1 0 0 1 93.9998 116.5)" fill="white"/>
<g clip-path="url(#clip0)">
<path d="M48.4465 111.234V121.882C48.4465 126.109 45.0325 129.605 40.7243 129.605H37.8793C37.7167 129.605 37.4728 129.686 37.3103 129.849C37.1477 130.011 37.0664 130.174 37.0664 130.418V130.58H48.3652H67.6301C71.857 130.58 75.3524 127.166 75.3524 122.858V111.234H48.4465Z" fill="#F1F1F1"/>
<path d="M75.4334 122.777V111.234H48.4463L67.7112 130.499C71.9381 130.499 75.4334 127.085 75.4334 122.777Z" fill="#EAEAEA"/>
<path d="M13.0055 40.6772C11.6236 40.6772 10.4043 41.8153 10.4043 43.2784V108.633C10.4043 110.096 11.5423 111.234 13.0055 111.234H114.289C115.752 111.234 116.89 110.096 116.89 108.633V43.2784C116.89 41.8153 115.752 40.6772 114.289 40.6772H13.0055Z" fill="#F2F2F2"/>
<path d="M11.2174 40.6772C9.83551 40.6772 8.61621 41.8153 8.61621 43.2784V108.633C8.61621 110.096 9.75422 111.234 11.2174 111.234H112.5C113.964 111.234 115.102 110.096 115.102 108.633V43.2784C115.102 41.8153 113.964 40.6772 112.5 40.6772H11.2174Z" fill="#353F49"/>
<path d="M109.737 46.0422H14.0625V105.869H109.737V46.0422Z" fill="#ABE0E5"/>
<path d="M99.8201 31.6543H23.8984V105.869H99.8201V31.6543Z" fill="white"/>
<path d="M99.8201 24.0134H23.8984V27.8339H99.8201V24.0134Z" fill="#91D3D9"/>
<path d="M99.8201 27.834H23.8984V31.6545H99.8201V27.834Z" fill="#E6E5E5"/>
<path d="M93.3169 28.9719H30.4824V30.5164H93.3169V28.9719Z" fill="white"/>
<path d="M30.4826 25.9644H23.8984V27.8339H30.4826V25.9644Z" fill="#F68360"/>
<path d="M46.252 25.9644H30.4824V27.8339H46.252V25.9644Z" fill="#E6E5E5"/>
<path d="M29.1821 28.9719H27.6377V30.5164H29.1821V28.9719Z" fill="#CCCBCA"/>
<path d="M26.8247 28.9719H25.2803V30.5164H26.8247V28.9719Z" fill="#CCCBCA"/>
<path d="M98.6011 28.9719H97.0566V30.5164H98.6011V28.9719Z" fill="#CCCBCA"/>
<path d="M96.1626 28.9719H94.6182V30.5164H96.1626V28.9719Z" fill="#CCCBCA"/>
<path d="M80.149 34.9871H43.6514V39.783H80.149V34.9871Z" fill="#CCCBCA"/>
<path d="M80.149 8H43.6514V12.7959H80.149V8Z" fill="#DC2D22"/>
<path d="M99.8201 49.1309H23.8984V72.135H99.8201V49.1309Z" fill="#C4EDF1"/>
<path d="M44.5448 43.1157H32.5957V44.9853H44.5448V43.1157Z" fill="#91D3D9"/>
<path d="M60.0702 43.1157H48.1211V44.9853H60.0702V43.1157Z" fill="#91D3D9"/>
<path d="M75.5966 43.1157H63.6475V44.9853H75.5966V43.1157Z" fill="#91D3D9"/>
<path d="M91.122 43.1157H79.1729V44.9853H91.122V43.1157Z" fill="#91D3D9"/>
<path d="M48.6911 53.1953H33.7344V68.152H48.6911V53.1953Z" fill="#0E67A6"/>
<path d="M90.0656 53.1953H55.4375V55.7152H90.0656V53.1953Z" fill="#91D3D9"/>
<path d="M90.0656 57.5847H55.4375V58.235H90.0656V57.5847Z" fill="white"/>
<path d="M90.0656 59.6982H55.4375V60.3485H90.0656V59.6982Z" fill="white"/>
<path d="M82.0187 61.8118H63.4854V62.4621H82.0187V61.8118Z" fill="white"/>
<path d="M14.9567 76.1995H0V91.1562H14.9567V76.1995Z" fill="#DC2D22"/>
<path d="M12.3559 78.8818H2.60156V80.5076H12.3559V78.8818Z" fill="#ED6D47"/>
<path d="M12.3559 81.6455H2.60156V82.1332H12.3559V81.6455Z" fill="white"/>
<path d="M12.3559 83.3525H2.60156V83.8403H12.3559V83.3525Z" fill="white"/>
<path d="M7.47876 85.0596H2.60156V85.5473H7.47876V85.0596Z" fill="white"/>
<path d="M48.6911 93.3508H33.7344V94.0824H48.6911V93.3508Z" fill="#FFC86D"/>
<path d="M48.6911 95.627H33.7344V96.3585H48.6911V95.627Z" fill="#CCCBCA"/>
<path d="M41.4566 97.8215H33.7344V98.5531H41.4566V97.8215Z" fill="#CCCBCA"/>
<path d="M69.4186 93.3508H54.4619V94.0824H69.4186V93.3508Z" fill="#FFC86D"/>
<path d="M69.4186 95.627H54.4619V96.3585H69.4186V95.627Z" fill="#CCCBCA"/>
<path d="M62.1841 97.8215H54.4619V98.5531H62.1841V97.8215Z" fill="#CCCBCA"/>
<path d="M90.0651 93.3508H75.1084V94.0824H90.0651V93.3508Z" fill="#FFC86D"/>
<path d="M90.0651 95.627H75.1084V96.3585H90.0651V95.627Z" fill="#CCCBCA"/>
<path d="M82.8306 97.8215H75.1084V98.5531H82.8306V97.8215Z" fill="#CCCBCA"/>
<path d="M48.6911 76.1995H33.7344V91.1562H48.6911V76.1995Z" fill="#CCCBCA"/>
<path d="M90.0651 76.1995H75.1084V91.1562H90.0651V76.1995Z" fill="#FFC86D"/>
<path d="M75.1899 91.2375L75.0273 91.0749L89.9841 76.1995L90.1466 76.2807L75.1899 91.2375Z" fill="#FFB959"/>
<path d="M89.9841 91.2375L75.0273 76.2807L75.1899 76.1995L90.1466 91.0749L89.9841 91.2375Z" fill="#FFB959"/>
<path d="M90.1466 91.2375H75.0273V76.1182H90.1466V91.2375ZM75.1899 91.0749H89.9028V76.362H75.1899V91.0749Z" fill="#FFB959"/>
<path d="M69.4186 76.1995H54.4619V91.1562H69.4186V76.1995Z" fill="#ABE0E5"/>
<path d="M54.5434 91.2375L54.3809 91.0749L69.3376 76.1995L69.4189 76.2807L54.5434 91.2375Z" fill="#91D3D9"/>
<path d="M69.3376 91.2375L54.3809 76.2807L54.5434 76.1995L69.4189 91.0749L69.3376 91.2375Z" fill="#91D3D9"/>
<path d="M69.5002 91.2375H54.3809V76.1182H69.5002V91.2375ZM54.5434 91.0749H69.2563V76.362H54.5434V91.0749Z" fill="#91D3D9"/>
<path d="M37.2296 55.6338H36.1729V56.6905H37.2296V55.6338Z" fill="#C4EDF1"/>
<path d="M46.2524 55.6338H37.8799V56.6905H46.2524V55.6338Z" fill="white"/>
<path d="M37.2296 58.0723H36.1729V59.129H37.2296V58.0723Z" fill="#C4EDF1"/>
<path d="M46.2524 58.0723H37.8799V59.129H46.2524V58.0723Z" fill="white"/>
<path d="M43.8132 34.093H43.5693V34.9872H43.8132V34.093Z" fill="#474F59"/>
<path d="M43.8132 32.3046H43.5693V30.435H43.8132V32.3046ZM43.8132 28.5654H43.5693V26.6958H43.8132V28.5654ZM43.8132 24.8262H43.5693V22.9566H43.8132V24.8262ZM43.8132 21.0871H43.5693V19.2175H43.8132V21.0871ZM43.8132 17.4292H43.5693V15.5596H43.8132V17.4292Z" fill="#474F59"/>
<path d="M43.8132 12.7959H43.5693V13.6901H43.8132V12.7959Z" fill="#474F59"/>
<path d="M80.2302 12.7959H79.9863V13.6901H80.2302V12.7959Z" fill="#474F59"/>
<path d="M80.2302 32.3046H79.9863V30.435H80.2302V32.3046ZM80.2302 28.5654H79.9863V26.6958H80.2302V28.5654ZM80.2302 24.8262H79.9863V22.9566H80.2302V24.8262ZM80.2302 21.0871H79.9863V19.2175H80.2302V21.0871ZM80.2302 17.4292H79.9863V15.5596H80.2302V17.4292Z" fill="#474F59"/>
<path d="M80.2302 34.093H79.9863V34.9872H80.2302V34.093Z" fill="#474F59"/>
<path d="M33.7342 76.362H32.5962V76.1182H33.7342V76.362ZM30.8892 76.362H29.1009V76.1182H30.8892V76.362ZM27.3126 76.362H25.5243V76.1182H27.3126V76.362ZM23.8173 76.362H22.029V76.1182H23.8173V76.362ZM20.2407 76.362H18.4524V76.1182H20.2407V76.362ZM16.7453 76.362H14.957V76.1182H16.7453V76.362Z" fill="#474F59"/>
<path d="M33.7342 91.3186H32.5962V91.0747H33.7342V91.3186ZM30.8892 91.3186H29.1009V91.0747H30.8892V91.3186ZM27.3126 91.3186H25.5243V91.0747H27.3126V91.3186ZM23.8173 91.3186H22.029V91.0747H23.8173V91.3186ZM20.2407 91.3186H18.4524V91.0747H20.2407V91.3186ZM16.7453 91.3186H14.957V91.0747H16.7453V91.3186Z" fill="#474F59"/>
</g>
<path d="M146.253 134.855C146.052 134.855 143.613 296.211 143.613 296.211L163.115 295.537L169.877 216.207L171.482 157.966L184.75 211.835L201.3 296.379L220.769 291.486L195.989 133.804L172.653 129.288L146.253 134.855Z" fill="#0164A8"/>
<path d="M188.641 35.1568C190.967 30.5441 191.705 22.2734 189.034 17.6848C186.363 13.0961 180.94 9.79907 175.854 8.29092C175.019 7.9727 174.107 7.91398 173.238 8.12246C172.811 8.24308 172.446 8.52152 172.217 8.90135C171.987 9.28118 171.911 9.73401 172.003 10.1681C171.042 9.38477 169.958 8.76666 168.794 8.33906C168.216 8.12748 167.594 8.06144 166.984 8.14678C166.374 8.23212 165.795 8.4662 165.297 8.8284C165.06 9.02046 164.863 9.25733 164.718 9.52547C164.573 9.7936 164.482 10.0877 164.451 10.391C164.42 10.6943 164.448 11.0007 164.536 11.2929C164.623 11.585 164.767 11.857 164.96 12.0934C164.253 11.7872 163.473 11.6911 162.713 11.8164C161.953 11.9418 161.245 12.2834 160.674 12.8003C160.103 13.3172 159.693 13.9877 159.492 14.7315C159.292 15.4754 159.31 16.2611 159.545 16.9949C160.142 18.5071 161.025 19.8906 162.144 21.0701C162.587 21.5374 162.896 22.1159 163.037 22.7444C163.178 23.3729 163.147 24.0278 162.946 24.6399" fill="#263238"/>
<path d="M169.412 73.1011C169.556 70.8951 169.909 50.8881 169.909 50.7918C169.909 50.6955 162.481 49.8773 162.16 42.489C162.007 38.9192 162.288 31.5469 162.617 24.8405C162.795 21.3883 164.265 18.1293 166.735 15.7112C169.205 13.2931 172.495 11.8928 175.95 11.7886H176.656C184.365 11.9971 188.488 18.6555 188.063 26.3486L187.012 69.1623" fill="#FFBE9D"/>
<path d="M169.877 50.7921C173.289 50.6773 176.596 49.5859 179.407 47.6475C179.407 47.6475 177.193 52.2762 169.78 51.835L169.877 50.7921Z" fill="#EB996E"/>
<path d="M163.853 29.8619C163.859 30.1371 163.972 30.3992 164.168 30.5923C164.364 30.7855 164.628 30.8947 164.903 30.8967C165.038 30.9043 165.174 30.8845 165.301 30.8385C165.428 30.7926 165.544 30.7213 165.643 30.6292C165.742 30.537 165.821 30.4258 165.876 30.3022C165.931 30.1786 165.96 30.0452 165.962 29.91C165.963 29.7709 165.937 29.633 165.885 29.5042C165.833 29.3753 165.755 29.258 165.658 29.1589C165.56 29.0598 165.444 28.9809 165.316 28.9267C165.188 28.8726 165.051 28.8441 164.911 28.8431C164.774 28.8377 164.638 28.86 164.509 28.9088C164.381 28.9576 164.264 29.0318 164.165 29.1269C164.066 29.2221 163.987 29.3362 163.934 29.4625C163.88 29.5888 163.852 29.7246 163.853 29.8619Z" fill="#263238"/>
<path d="M164.318 28.4421C164.454 28.5785 165.232 27.9608 166.363 27.9287C167.494 27.8966 168.353 28.4341 168.473 28.2977C168.593 28.1613 168.393 27.9848 168.016 27.7362C167.517 27.4083 166.928 27.2456 166.331 27.2709C165.749 27.2897 165.187 27.4919 164.727 27.8485C164.358 28.1292 164.261 28.3859 164.318 28.4421Z" fill="#263238"/>
<path d="M175.235 30.0305C175.242 30.3072 175.356 30.5704 175.554 30.7638C175.752 30.9572 176.018 31.0654 176.294 31.0654C176.429 31.0718 176.564 31.0513 176.69 31.0049C176.817 30.9585 176.933 30.8872 177.032 30.7952C177.13 30.7033 177.21 30.5925 177.265 30.4695C177.32 30.3464 177.35 30.2135 177.353 30.0787C177.347 29.802 177.233 29.5388 177.035 29.3454C176.837 29.152 176.571 29.0437 176.294 29.0438C176.159 29.0362 176.024 29.056 175.897 29.102C175.77 29.148 175.653 29.2192 175.554 29.3114C175.455 29.4035 175.376 29.5148 175.321 29.6384C175.267 29.7619 175.237 29.8953 175.235 30.0305Z" fill="#263238"/>
<path d="M175.492 28.3059C175.629 28.4423 176.407 27.8246 177.546 27.7925C178.685 27.7604 179.527 28.3059 179.648 28.1615C179.768 28.0171 179.568 27.8487 179.199 27.6C178.696 27.273 178.105 27.1104 177.506 27.1347C176.923 27.1553 176.361 27.3604 175.901 27.7203C175.532 27.9931 175.42 28.2498 175.492 28.3059Z" fill="#263238"/>
<path d="M171.625 36.8654C171.021 36.7002 170.399 36.6086 169.772 36.5926C169.476 36.5926 169.203 36.5204 169.147 36.3279C169.115 36.0288 169.174 35.7271 169.315 35.4615L170.117 33.2234C171.216 30.0145 171.994 27.4314 171.866 27.3913C171.738 27.3512 170.743 29.8862 169.652 33.071C169.395 33.8732 169.139 34.6032 168.898 35.3171C168.729 35.6723 168.69 36.075 168.786 36.4563C168.83 36.5574 168.898 36.6469 168.983 36.7178C169.067 36.7887 169.167 36.8392 169.275 36.8654C169.438 36.9052 169.605 36.9241 169.772 36.9215C170.39 36.9796 171.012 36.9607 171.625 36.8654Z" fill="#263238"/>
<path d="M174.995 37.5392C174.81 37.5392 174.842 38.7666 173.815 39.6731C172.789 40.5796 171.473 40.4753 171.465 40.6598C171.457 40.8443 171.77 40.8924 172.323 40.8924C173.044 40.8785 173.737 40.6116 174.281 40.1384C174.805 39.6822 175.132 39.0413 175.195 38.3494C175.219 37.828 175.075 37.5312 174.995 37.5392Z" fill="#263238"/>
<path d="M175.051 23.8699C175.171 24.1747 176.303 23.9902 177.642 24.1105C178.982 24.2309 180.049 24.5598 180.233 24.279C180.314 24.1426 180.113 23.8538 179.672 23.5731C179.082 23.2212 178.419 23.0099 177.735 22.9556C177.05 22.9014 176.363 23.0056 175.725 23.2602C175.236 23.4688 175.003 23.7255 175.051 23.8699Z" fill="#263238"/>
<path d="M164.631 25.1448C164.839 25.3935 165.609 25.1047 166.556 25.0646C167.502 25.0245 168.297 25.1769 168.473 24.9042C168.545 24.7678 168.417 24.5191 168.056 24.2865C167.575 23.9938 167.013 23.8618 166.452 23.9094C165.896 23.9335 165.363 24.1329 164.927 24.479C164.639 24.7517 164.534 25.0165 164.631 25.1448Z" fill="#263238"/>
<path d="M187.63 31.8194C187.759 31.7633 192.66 30.1588 192.66 35.2127C192.66 40.2666 187.574 39.2238 187.566 39.0794C187.558 38.935 187.63 31.8194 187.63 31.8194Z" fill="#FFBE9D"/>
<path d="M189.13 37.1708C189.13 37.1708 189.218 37.2269 189.371 37.2991C189.582 37.3823 189.817 37.3823 190.028 37.2991C190.352 37.0889 190.616 36.7978 190.793 36.4545C190.971 36.1113 191.055 35.7277 191.039 35.3417C191.048 34.9089 190.963 34.4792 190.79 34.0823C190.745 33.9223 190.66 33.7762 190.544 33.6572C190.427 33.5382 190.283 33.4499 190.125 33.4004C190.024 33.3738 189.918 33.3833 189.824 33.4273C189.73 33.4714 189.655 33.547 189.611 33.6411C189.539 33.7855 189.571 33.8817 189.547 33.8978C189.523 33.9138 189.435 33.8095 189.475 33.601C189.505 33.475 189.575 33.3623 189.675 33.2801C189.817 33.1783 189.991 33.1326 190.165 33.1517C190.374 33.1968 190.568 33.294 190.729 33.4342C190.89 33.5745 191.014 33.7533 191.087 33.9539C191.299 34.3939 191.403 34.8777 191.392 35.3658C191.414 35.816 191.303 36.2628 191.074 36.6506C190.844 37.0385 190.506 37.3505 190.101 37.5478C189.965 37.5879 189.823 37.5965 189.684 37.5728C189.545 37.5492 189.413 37.494 189.298 37.4114C189.13 37.2911 189.13 37.1788 189.13 37.1708Z" fill="#EB996E"/>
<path d="M159.392 15.3179C158.799 21.8799 166.877 24.6154 170.415 20.9333C172.019 19.2407 173.487 17.1148 175.717 16.3527C176.48 16.1237 177.281 16.049 178.073 16.133C178.865 16.217 179.632 16.4581 180.33 16.8421H180.37C182.456 17.9251 183.683 20.3397 184.004 22.6661C184.453 25.8749 183.94 28.7709 184.806 31.7471C184.883 32.186 185.1 32.5883 185.424 32.8942C185.765 33.0592 186.153 33.0982 186.521 33.0042C186.888 32.9103 187.21 32.6894 187.429 32.3808C188.164 31.4166 188.605 30.2604 188.697 29.0516C189.139 26.3256 189.035 23.5388 188.392 20.8531C187.738 18.1626 186.31 15.7225 184.285 13.8338C181.654 11.5577 178.245 10.3877 174.771 10.5688C171.299 10.7871 167.985 12.0985 165.305 14.3151C164.017 15.2714 162.988 16.5343 162.312 17.9892" fill="#263238"/>
<path d="M164.743 11.7164C164.514 11.6587 164.274 11.6587 164.045 11.7164C163.413 11.8661 162.836 12.1883 162.376 12.647C161.677 13.3311 161.232 14.2342 161.117 15.206C161.016 16.3978 161.362 17.5846 162.088 18.5351C162.783 19.4873 163.73 20.2264 164.823 20.669C165.703 21.0256 166.635 21.2343 167.583 21.2867C168.214 21.3207 168.848 21.2992 169.476 21.2225C169.709 21.217 169.94 21.1708 170.158 21.0862C170.158 21.014 169.163 21.1584 167.607 21.014C166.696 20.9217 165.804 20.6946 164.959 20.3401C163.939 19.9068 163.055 19.2055 162.4 18.3105C161.735 17.4329 161.408 16.3452 161.478 15.2461C161.568 14.3461 161.952 13.5006 162.569 12.8395C162.985 12.3936 163.506 12.0598 164.085 11.8688C164.307 11.8307 164.527 11.7798 164.743 11.7164Z" fill="#455A64"/>
<path d="M168.128 9.39796C168.128 9.39796 167.943 9.3418 167.646 9.4862C167.441 9.59422 167.262 9.74682 167.124 9.93282C166.985 10.1188 166.889 10.3335 166.844 10.5612C166.743 11.2334 166.879 11.9199 167.229 12.5025C167.603 13.199 168.072 13.8391 168.625 14.4037C169.631 15.4731 170.888 16.2731 172.283 16.7301C172.839 16.9509 173.435 17.052 174.032 17.0269C174.032 16.9547 173.374 16.8665 172.38 16.4654C171.08 15.9596 169.907 15.1735 168.946 14.1631C168.421 13.6133 167.968 12.9987 167.598 12.334C167.274 11.823 167.122 11.2212 167.165 10.6173C167.209 10.2142 167.411 9.84497 167.727 9.59048C167.959 9.45411 168.136 9.43004 168.128 9.39796Z" fill="#455A64"/>
<path d="M124.095 74.8979L89.3115 71.5928L83.8084 70.2772C83.8084 70.2772 71.2057 68.023 70.0506 67.654C68.6868 67.2288 68.1493 67.7823 68.029 68.2957C67.8365 69.0979 68.6226 69.9563 69.7858 70.3574C70.1869 70.4938 76.5966 72.4351 76.5966 72.4351C75.8776 72.6205 75.1726 72.8564 74.4868 73.1411C72.9947 73.7106 71.6149 75.7161 70.9811 78.0185C70.3474 80.3208 70.3634 81.0267 71.2539 81.3155C71.423 81.36 71.5999 81.3664 71.7719 81.3345C71.9438 81.3026 72.1066 81.2332 72.2486 81.131C72.7319 80.8219 73.0835 80.3446 73.2353 79.7913C74.3103 76.1172 76.5645 75.7803 76.5645 75.7803L77.2865 75.9488C77.2865 75.9488 75.0082 77.6414 75.1285 79.6229C75.1455 79.9022 75.2192 80.1752 75.3451 80.4251C75.1996 80.9141 75.1792 81.4318 75.2857 81.9308C75.3923 82.4297 75.6223 82.894 75.9548 83.2809C76.3116 83.6751 76.7644 83.9701 77.2691 84.1374C77.7737 84.3047 78.3131 84.3385 78.8347 84.2356C79.3241 84.1233 79.8535 83.8104 79.9097 83.305C79.9165 83.0254 79.8501 82.7488 79.7171 82.5028C79.6562 82.3749 79.6105 82.2402 79.5808 82.1017L81.6665 82.3022C81.6665 82.3022 86.3754 82.5028 88.413 82.8237L121.191 91.4153C122.271 91.6943 123.395 91.7556 124.498 91.5955C125.602 91.4355 126.663 91.0573 127.618 90.4831C128.574 89.9089 129.406 89.1501 130.065 88.251C130.725 87.3519 131.199 86.3305 131.459 85.2463C131.746 84.0757 131.777 82.8571 131.55 81.6734C131.323 80.4897 130.844 79.3688 130.145 78.3869C129.447 77.4049 128.545 76.585 127.501 75.983C126.457 75.3809 125.295 75.0108 124.095 74.8979Z" fill="#FFBE9D"/>
<path d="M88.541 72.5075C88.4836 72.8685 88.3139 73.2022 88.0562 73.4614C87.7985 73.7206 87.4657 73.892 87.1051 73.9515C86.3991 74.128 85.6531 74.0558 84.9391 74.1841C82.7972 74.5612 81.1928 76.5907 79.0349 76.8555C78.7381 76.8956 78.353 76.8555 78.2327 76.5587C78.1123 76.2618 78.361 76.0292 78.5696 75.8367L83.7759 70.855" fill="#FFBE9D"/>
<path d="M83.7927 70.855C83.5653 70.9857 83.3573 71.1477 83.175 71.3363C82.798 71.6652 82.2525 72.1385 81.5706 72.7562L79.2602 74.9061L78.5944 75.5318C78.4019 75.7484 78.0489 75.941 78.0088 76.4383C78.0148 76.5599 78.0581 76.6766 78.1327 76.7728C78.2073 76.8689 78.3097 76.9398 78.4259 76.9758C78.6099 77.0458 78.808 77.0706 79.0035 77.048C79.3538 77.0116 79.6985 76.9335 80.0303 76.8154C81.2039 76.2666 82.3378 75.6367 83.4237 74.9302C83.8992 74.6607 84.4132 74.4659 84.9479 74.3526C85.4452 74.2563 85.9346 74.2563 86.3918 74.2082C86.7623 74.2028 87.1272 74.1168 87.4611 73.9561C87.795 73.7954 88.0898 73.5638 88.3252 73.2776C88.63 72.8284 88.5498 72.4754 88.5337 72.4754C88.4643 72.7175 88.3529 72.9456 88.2048 73.1493C87.9648 73.3901 87.6779 73.5791 87.3619 73.7047C87.046 73.8302 86.7076 73.8897 86.3678 73.8793C85.9266 73.8793 85.4292 73.8793 84.8837 73.9836C84.3083 74.0919 83.7535 74.2895 83.2392 74.5692C82.1578 75.2457 81.0382 75.8591 79.886 76.4062C79.5849 76.515 79.2729 76.5903 78.9554 76.6309C78.6586 76.6309 78.3938 76.5667 78.4179 76.4062C78.442 76.2458 78.6506 76.0051 78.8752 75.7885L79.533 75.1548L81.7952 72.9648C82.4289 72.331 82.9424 71.8176 83.2873 71.4486C83.6322 71.0796 83.8168 70.879 83.7927 70.855Z" fill="#EB996E"/>
<path d="M77.3503 75.8447C76.9022 75.7367 76.4348 75.7367 75.9866 75.8447C75.5149 76.0079 75.1094 76.3206 74.8314 76.7351C74.4786 77.2403 74.2079 77.798 74.0292 78.3877C73.8543 79.0087 73.6178 79.6106 73.3233 80.1846C73.0656 80.6512 72.6892 81.0414 72.2323 81.3157C72.0743 81.3971 71.9001 81.4422 71.7225 81.4477C71.5448 81.4533 71.3682 81.4191 71.2054 81.3478C71.0836 81.2972 70.9761 81.2173 70.8926 81.1152C70.8926 81.1152 71.0209 81.1713 71.2455 81.2515C71.4012 81.2985 71.5652 81.3107 71.726 81.2871C71.8869 81.2635 72.0405 81.2048 72.1761 81.1152C72.5697 80.8296 72.8911 80.456 73.1147 80.0242C73.3906 79.4697 73.6187 78.8927 73.7966 78.2994C73.9633 77.6878 74.2347 77.1097 74.5988 76.5907C74.9151 76.1552 75.3708 75.841 75.8903 75.7003C76.2376 75.611 76.6019 75.611 76.9492 75.7003C77.0935 75.7114 77.2321 75.7613 77.3503 75.8447Z" fill="#EB996E"/>
<path d="M69.3447 70.1968C69.7804 70.2765 70.2075 70.3973 70.6202 70.5578L73.6686 71.5445L76.733 72.4831C77.1655 72.5842 77.5872 72.7266 77.9925 72.9082C77.5497 72.8715 77.1117 72.7909 76.6849 72.6676C75.8827 72.475 74.7837 72.1702 73.5884 71.7932C72.3931 71.4161 71.3182 70.991 70.5561 70.7343C70.1334 70.6011 69.7271 70.4208 69.3447 70.1968Z" fill="#EB996E"/>
<path d="M78.3375 77.7777C78.3375 77.7777 78.2493 77.898 78.0808 78.0986C77.955 78.225 77.8582 78.3773 77.7972 78.545C77.7363 78.7126 77.7126 78.8915 77.7278 79.0692C77.7506 79.1814 77.8016 79.286 77.876 79.373C77.9504 79.46 78.0457 79.5266 78.153 79.5666C78.4253 79.6652 78.7078 79.7325 78.9953 79.7672C79.3538 79.7848 79.6934 79.9332 79.9499 80.1843C80.0701 80.3437 80.1509 80.5293 80.1857 80.7258C80.2206 80.9224 80.2085 81.1244 80.1505 81.3154C80.0921 81.5032 79.9957 81.677 79.8674 81.8261C79.7391 81.9751 79.5815 82.0962 79.4044 82.1818C79.0871 82.3501 78.7268 82.42 78.3696 82.3823C77.8119 82.2804 77.2717 82.0994 76.7652 81.8449C76.4125 81.6845 76.0918 81.4617 75.8186 81.1871C75.7109 81.0923 75.6305 80.9704 75.5859 80.8341C75.5859 80.8341 75.6902 80.9464 75.8908 81.1149C76.1824 81.344 76.5035 81.5328 76.8454 81.6764C77.3583 81.8973 77.8975 82.051 78.4498 82.1337C78.7631 82.1719 79.0803 82.1053 79.3517 81.9442C79.6231 81.783 79.8335 81.5366 79.9499 81.2432C79.9947 81.0931 80.0043 80.9346 79.9778 80.7802C79.9514 80.6257 79.8897 80.4795 79.7975 80.3528C79.585 80.1311 79.3008 79.9918 78.9953 79.9597C78.6867 79.923 78.3845 79.8447 78.0968 79.727C77.9615 79.668 77.8431 79.5762 77.752 79.46C77.661 79.3438 77.6003 79.2067 77.5754 79.0612C77.5647 78.8594 77.6012 78.658 77.6819 78.4727C77.7627 78.2875 77.8855 78.1237 78.0407 77.9943C78.2011 77.7777 78.3295 77.7215 78.3375 77.7777Z" fill="#EB996E"/>
<path d="M79.2272 82.0216C79.2272 82.0216 79.3796 82.0216 79.5802 82.166C79.7244 82.2772 79.8402 82.421 79.9183 82.5855C79.9964 82.75 80.0345 82.9306 80.0294 83.1126C80.0069 83.3808 79.9153 83.6385 79.7634 83.8607C79.6116 84.0828 79.4047 84.2618 79.1631 84.3801C78.5734 84.654 77.9005 84.6885 77.2859 84.4764C76.6684 84.288 76.1264 83.9089 75.7376 83.3934C75.4435 82.9734 75.2638 82.4841 75.2162 81.9735C75.1571 81.6473 75.1571 81.313 75.2162 80.9868C75.2416 80.8622 75.2936 80.7445 75.3686 80.6418C75.301 81.0885 75.301 81.5429 75.3686 81.9896C75.4438 82.463 75.6369 82.9099 75.9302 83.2891C76.3051 83.7231 76.7986 84.0382 77.3501 84.1956C77.8957 84.4006 78.4971 84.4006 79.0427 84.1956C79.2547 84.1009 79.4394 83.9542 79.5797 83.7691C79.7199 83.584 79.8111 83.3665 79.8449 83.1367C79.8579 82.9795 79.8367 82.8214 79.7827 82.6732C79.7287 82.525 79.6432 82.3903 79.5321 82.2783C79.3636 82.0858 79.2272 82.0377 79.2272 82.0216Z" fill="#EB996E"/>
<path d="M84.8908 78.9493C84.8983 78.7311 84.9679 78.5196 85.0914 78.3396C85.3659 77.8548 85.7953 77.4762 86.3107 77.2646V77.4973C86.0348 77.3783 85.7668 77.2416 85.5085 77.0881C84.565 76.5987 83.7783 75.8537 83.2383 74.9382C83.9674 75.6641 84.7745 76.3071 85.6449 76.8555C85.9045 77.0066 86.1723 77.1432 86.4471 77.2646L86.7279 77.393L86.4471 77.4973C85.9722 77.6867 85.5625 78.01 85.2679 78.4278C85.0031 78.7407 84.9229 78.9573 84.8908 78.9493Z" fill="#EB996E"/>
<path d="M73.9734 75.6759C74.0215 75.6278 74.4066 76.0128 74.4708 76.6546C74.5118 76.8407 74.5077 77.0339 74.4588 77.2181C74.41 77.4023 74.3178 77.5722 74.19 77.7135C74.1178 77.7135 74.2702 77.2322 74.19 76.6787C74.1098 76.1252 73.9092 75.724 73.9734 75.6759Z" fill="#EB996E"/>
<path d="M124.713 91.8972L147.415 86.6588C147.415 86.6588 146.244 128.245 146.244 128.646C146.244 129.047 144.375 129.689 144.535 132.705L146.14 136.299L195.877 136.965L197.216 96.5741L201.757 65.288L191.328 58.8704L187.654 53.8887L173.311 68.9541L169.749 56.0386L169.845 52.196L166.299 56.0466L147.175 61.5578L121.897 73.3422L104.81 72.0346L100.374 86.9877L124.713 91.8972Z" fill="#DC2D22"/>
<path d="M171.329 64.301C170.869 64.5576 170.51 64.9619 170.31 65.4481C170.091 66.0046 169.984 66.599 169.997 67.1969C170.033 68.0136 169.916 68.8299 169.652 69.6035L169.484 70.0207L169.307 69.6035C168.828 68.4132 168.453 67.184 168.184 65.9294C167.574 63.3303 167.189 60.9477 166.933 59.223C166.751 58.2976 166.652 57.3581 166.636 56.4153C166.891 57.3213 167.087 58.2432 167.221 59.1749C167.558 60.8836 168.024 63.2501 168.593 65.8332C168.857 67.0636 169.21 68.2729 169.652 69.4511H169.307C169.556 68.7285 169.68 67.9691 169.676 67.2049C169.688 66.5756 169.83 65.9555 170.093 65.3839C170.266 65.0053 170.544 64.6848 170.895 64.4614C171.168 64.2929 171.329 64.2849 171.329 64.301Z" fill="#263238"/>
<path d="M189.747 57.9556C189.617 58.2097 189.452 58.4445 189.258 58.6535C188.929 59.0867 188.456 59.6964 187.822 60.4504C186.586 61.9666 184.862 64.0283 182.944 66.2905L179.88 69.8603L179.639 70.1411L179.551 69.7881C179.118 68.0473 178.749 66.5793 178.532 65.5364C178.436 65.023 178.139 64.7342 177.867 64.7342C177.729 64.7271 177.593 64.7667 177.481 64.8465C177.481 64.8465 177.53 64.6299 177.867 64.6139C177.965 64.6134 178.062 64.6322 178.153 64.6694C178.244 64.7066 178.326 64.7613 178.396 64.8305C178.564 65.0208 178.682 65.2494 178.741 65.4963C179.046 66.5231 179.447 67.9751 179.92 69.7079L179.591 69.6357L182.624 66.0338C184.549 63.7716 186.306 61.742 187.597 60.282C188.239 59.552 188.768 58.9663 189.137 58.5652C189.312 58.3355 189.517 58.1304 189.747 57.9556Z" fill="#263238"/>
<path d="M168.585 124.378C168.573 124.199 168.573 124.02 168.585 123.841C168.585 123.448 168.585 122.934 168.585 122.301C168.585 120.961 168.585 119.02 168.585 116.621C168.641 111.808 168.874 105.206 169.387 97.9135C169.901 90.6214 170.695 84.0273 171.353 79.2783C171.682 76.8716 171.97 74.9865 172.195 73.6628L172.46 72.1466C172.48 71.9662 172.52 71.7886 172.58 71.6172C172.598 71.7959 172.598 71.9759 172.58 72.1547C172.532 72.5477 172.468 73.0612 172.388 73.6869C172.219 75.0667 171.979 76.9759 171.682 79.3023C171.096 84.0594 170.382 90.6375 169.837 97.9215C169.291 105.206 169.034 111.824 168.89 116.613C168.834 118.971 168.786 120.897 168.754 122.284C168.754 122.918 168.754 123.432 168.754 123.825C168.72 124.015 168.664 124.201 168.585 124.378Z" fill="#263238"/>
<path d="M164.542 134.125C164.181 132.972 164.053 131.758 164.165 130.555C164.136 129.357 164.277 128.16 164.583 127.001C164.689 128.189 164.689 129.383 164.583 130.571C164.518 132.528 164.655 134.109 164.542 134.125Z" fill="#263238"/>
<path d="M184.919 122.453C184.506 122.652 184.076 122.813 183.635 122.935C182.833 123.223 181.589 123.609 180.081 124.05C176.138 125.186 172.137 126.116 168.096 126.833C164.055 127.537 159.979 128.032 155.887 128.317C154.282 128.422 153.047 128.486 152.165 128.494C151.711 128.534 151.254 128.534 150.801 128.494C151.248 128.405 151.701 128.354 152.157 128.342L155.863 128.029C158.991 127.74 163.307 127.226 168.024 126.424C172.741 125.622 176.961 124.571 180.001 123.761L183.587 122.782C184.023 122.643 184.468 122.533 184.919 122.453Z" fill="#263238"/>
<path d="M147.15 95.4259C147.038 95.4259 146.966 89.5217 146.99 82.2457C147.014 74.9697 147.126 69.0654 147.247 69.0654C147.367 69.0654 147.431 74.9697 147.407 82.2457C147.383 89.5217 147.263 95.4259 147.15 95.4259Z" fill="#263238"/>
<path d="M200.842 64.6855C200.842 64.6855 207.107 70.0603 207.516 73.1007C207.837 75.4592 213.998 97.5599 216.782 107.451C217.644 110.534 217.458 113.816 216.252 116.781L208.23 136.595L195.274 128.934L201.748 110.347L196.381 94.5757L200.842 64.6855Z" fill="#DC2D22"/>
<path d="M208.246 136.596C208.161 136.569 208.08 136.532 208.006 136.483L207.308 136.098L204.692 134.598L195.202 129.071L195.09 129.007L195.138 128.878C196.951 123.64 199.149 117.271 201.556 110.283V110.42C200.802 108.382 200.008 106.248 199.197 104.082C197.296 98.9642 195.491 94.0868 193.839 89.6426C192.194 86.1931 190.774 82.8639 190.381 79.6711C190.18 78.182 190.223 76.67 190.509 75.1948C190.768 73.9381 191.206 72.7251 191.809 71.5929C192.668 69.9852 193.812 68.5473 195.186 67.3493C195.54 67.0276 195.916 66.7301 196.309 66.4588C196.437 66.3532 196.577 66.2643 196.727 66.1941C196.727 66.1941 196.598 66.3064 196.35 66.507C196.101 66.7075 195.724 67.0204 195.267 67.4455C193.961 68.6648 192.875 70.1004 192.058 71.6892C191.481 72.8064 191.068 74.0005 190.83 75.235C190.566 76.6808 190.536 78.1597 190.742 79.615C191.151 82.7436 192.571 86.0326 194.224 89.4581L199.607 103.898C200.409 106.072 201.211 108.206 201.965 110.243V110.315V110.388L195.443 128.951L195.371 128.766L204.781 134.382L207.356 135.986L208.03 136.411L208.246 136.596Z" fill="#263238"/>
<g opacity="0.3">
<path opacity="0.3" d="M174.85 67.5899C175.282 67.5738 175.707 67.7035 176.056 67.9582C176.406 68.2128 176.659 68.5776 176.776 68.9937C176.936 69.8601 176.816 70.7666 177.04 71.617C177.265 72.4673 178.035 73.2936 178.902 73.1171C179.409 72.9508 179.843 72.6134 180.129 72.1625C181.808 69.8779 183.158 67.3694 184.14 64.71C184.14 64.7741 179.696 69.812 179.696 69.812C179.527 68.5308 179.192 67.277 178.701 66.0817C178.549 65.7047 178.38 65.0469 178.011 64.8784C177.401 64.5977 176.607 65.4801 176.206 66.0095C175.791 66.5512 175.326 67.0534 174.818 67.5097" fill="black"/>
</g>
<g opacity="0.3">
<path opacity="0.3" d="M167.607 63.0097C167.691 65.8301 168.233 68.618 169.212 71.2644C169.303 71.5307 169.451 71.7741 169.645 71.9784C169.747 72.0839 169.881 72.1523 170.027 72.1726C170.172 72.193 170.32 72.1641 170.447 72.0907C170.769 71.5511 171.038 70.9815 171.249 70.39C171.659 69.2428 173.319 69.1386 173.319 69.1386C173.044 67.8428 172.683 66.5671 172.236 65.3201C172.156 65.1144 172.012 64.9394 171.826 64.8198C171.641 64.7003 171.422 64.6424 171.201 64.6542C170.912 64.7507 170.654 64.9228 170.454 65.1528C170.253 65.3827 170.118 65.662 170.062 65.9618C169.813 68.0155 169.846 68.9621 169.541 69.676C168.739 67.486 168.129 64.8628 167.615 62.9375" fill="black"/>
</g>
<g opacity="0.3">
<path opacity="0.3" d="M179.913 123.785C180.102 123.648 180.262 123.475 180.384 123.276C180.505 123.077 180.586 122.855 180.621 122.624C180.656 122.394 180.645 122.158 180.588 121.932C180.531 121.705 180.43 121.493 180.29 121.306C179.992 120.942 179.605 120.662 179.166 120.495C178.726 120.327 178.251 120.278 177.787 120.351C176.86 120.52 175.99 120.914 175.252 121.498C174.49 122.044 173.784 122.678 172.99 123.167C171.024 124.378 168.626 124.651 166.323 124.691C164.016 124.587 161.705 124.689 159.416 124.996C157.154 125.437 154.884 126.6 153.801 128.638C153.833 128.638 173.511 127.202 179.913 123.785Z" fill="black"/>
</g>
<path d="M192.804 152.753C190.695 151.401 188.927 149.581 187.637 147.434C187.649 147.406 187.655 147.376 187.655 147.346C187.655 147.315 187.649 147.285 187.637 147.257C187.588 147.193 187.516 147.151 187.437 147.137C186.886 146.283 186.382 145.399 185.929 144.49C187.533 143.439 189.643 141.859 187.349 141.53C184.533 141.129 182.535 139.757 182.239 139.011C181.942 138.265 182.888 137.591 183.626 138.072C184.484 138.504 185.396 138.817 186.338 139.003C187.089 139.183 187.865 139.231 188.632 139.147C189.113 139.099 190.79 137.944 192.587 137.101C192.838 136.986 193.117 136.95 193.389 136.997L194.071 136.949C194.435 136.923 194.787 136.804 195.092 136.604C195.397 136.403 195.645 136.127 195.812 135.802L198.419 130.796L206.281 135.449L200.056 144.089C197.796 147.105 195.375 149.997 192.804 152.753Z" fill="#FFBE9D"/>
<path d="M194.424 153.658C193.779 153.47 193.167 153.18 192.612 152.8C191.224 151.962 189.969 150.921 188.889 149.711C187.81 148.512 186.912 147.161 186.226 145.7C185.915 145.106 185.696 144.467 185.576 143.807C187.375 147.969 190.47 151.438 194.4 153.698L194.424 153.658Z" fill="#455A64"/>
<path d="M169.653 158.72C169.577 158.708 169.504 158.683 169.436 158.648C169.238 158.554 169.052 158.436 168.883 158.295C168.285 157.739 167.843 157.037 167.599 156.258C167.242 155.128 166.95 153.979 166.725 152.816C166.436 151.525 166.131 150.089 165.842 148.589C165.249 145.572 164.799 142.829 164.511 140.839C164.366 139.845 164.262 139.042 164.198 138.481C164.145 138.193 164.128 137.899 164.15 137.606C164.258 137.879 164.328 138.165 164.358 138.457C164.479 139.099 164.631 139.877 164.799 140.799C165.16 142.773 165.658 145.5 166.251 148.508C166.548 150.001 166.837 151.428 167.102 152.736C167.367 154.044 167.575 155.223 167.904 156.161C168.115 156.91 168.496 157.599 169.019 158.175C169.38 158.552 169.677 158.68 169.653 158.72Z" fill="#455A64"/>
<path d="M168.987 140.703C168.987 140.703 169.115 140.655 169.34 140.703C169.658 140.82 169.921 141.052 170.078 141.353C170.205 141.58 170.264 141.839 170.25 142.098C170.236 142.358 170.148 142.609 169.998 142.821C169.814 143.084 169.555 143.286 169.254 143.401C168.954 143.515 168.626 143.537 168.313 143.463C168.007 143.371 167.734 143.194 167.525 142.953C167.316 142.711 167.18 142.415 167.134 142.099C167.097 141.845 167.124 141.586 167.213 141.345C167.301 141.104 167.447 140.889 167.639 140.719C168.305 140.149 168.907 140.318 168.875 140.358C168.49 140.463 168.137 140.661 167.848 140.936C167.71 141.08 167.608 141.254 167.551 141.446C167.494 141.637 167.483 141.839 167.519 142.035C167.559 142.272 167.664 142.494 167.823 142.675C167.981 142.857 168.187 142.99 168.418 143.062C168.651 143.112 168.894 143.095 169.119 143.013C169.343 142.931 169.54 142.786 169.685 142.596C169.806 142.439 169.881 142.252 169.902 142.056C169.923 141.859 169.89 141.66 169.805 141.481C169.509 140.839 168.955 140.767 168.987 140.703Z" fill="#455A64"/>
<path d="M151.931 137.486C152.12 138.082 152.191 138.708 152.14 139.331C152.082 140.847 151.678 142.33 150.959 143.666C150.24 145.002 149.226 146.156 147.993 147.04C147.496 147.412 146.932 147.685 146.332 147.843C146.332 147.77 146.934 147.458 147.816 146.76C148.952 145.844 149.892 144.71 150.581 143.424C151.27 142.139 151.694 140.728 151.827 139.275C151.939 138.192 151.851 137.494 151.931 137.486Z" fill="#455A64"/>
<path d="M120.798 81.1951C120.836 79.8502 120.97 78.5098 121.199 77.1841C121.294 75.8503 121.49 74.5255 121.785 73.2212C121.904 74.5598 121.847 75.9083 121.616 77.2322C121.523 78.584 121.248 79.917 120.798 81.1951Z" fill="#263238"/>
<path d="M104.81 72.0337C104.805 72.1321 104.786 72.2293 104.754 72.3225C104.698 72.5311 104.634 72.7958 104.546 73.1247C104.337 73.8707 104.048 74.8895 103.695 76.1731C102.893 78.8364 101.842 82.5907 100.551 87.043L100.414 86.8103C104.955 87.9414 110.418 88.8559 116.25 89.9309C119.154 90.4684 121.953 91.062 124.536 91.7038H124.44L140.717 88.0216L145.458 86.9868L146.725 86.7301C146.873 86.6941 147.023 86.6699 147.175 86.6579C147.037 86.7237 146.892 86.7696 146.742 86.7943L145.482 87.1232L140.773 88.2703L124.536 92.0969H124.44C121.865 91.4631 119.073 90.8775 116.169 90.34C110.353 89.2651 104.874 88.3265 100.334 87.1312L100.149 87.0831L100.206 86.9066C101.553 82.4543 102.684 78.7321 103.495 76.0848C103.888 74.8093 104.209 73.7985 104.441 73.0605C104.545 72.7396 104.634 72.4829 104.706 72.2583C104.732 72.1796 104.767 72.1042 104.81 72.0337Z" fill="#263238"/>
</g>
<defs>
<clipPath id="clip0">
<rect width="116.89" height="122.499" fill="white" transform="translate(0 8)"/>
</clipPath>
</defs>
</svg>
