<svg width="198" height="155" viewBox="0 0 198 155" fill="none" xmlns="http://www.w3.org/2000/svg">
<path d="M188.347 104.749C188.347 107.344 185.993 109.467 183.168 109.467H15.0677C12.2425 109.467 9.88818 107.344 9.88818 104.749V4.71842C9.88818 2.12329 12.2425 0 15.0677 0H183.168C185.993 0 188.347 2.12329 188.347 4.71842V104.749Z" fill="#353F49"/>
<path d="M180.814 8.96472H17.4224V99.7943H180.814V8.96472Z" fill="#CCD5D8"/>
<path d="M123.838 46.0047L122.426 45.061L104.062 32.0854C96.0573 43.4096 103.12 51.195 101.472 53.7901C99.5888 56.3852 89.4651 52.6105 81.6958 63.4629L91.584 70.5405L101.472 77.6181C109.242 66.7658 102.414 58.5085 104.297 55.9134C105.946 53.0823 115.834 57.3289 123.838 46.0047ZM93.2321 68.1813L85.9336 62.991C90.8777 63.2269 92.5258 62.5192 94.6447 62.2833C95.8218 62.2833 96.7636 62.0473 97.7053 61.8114C97.7053 61.8114 97.7053 61.8114 97.9407 61.8114C97.9407 62.7551 98.1762 63.9347 98.4116 65.1143C98.8825 67.2376 98.8825 69.5968 100.295 73.3715L93.2321 68.1813ZM103.827 38.9271L110.419 43.6455L117.246 48.3639C113.95 50.9591 110.654 51.195 107.829 51.4309C106.652 51.4309 105.71 51.6668 104.768 51.9027C104.768 50.9591 104.533 49.7795 104.062 48.8358C103.356 46.0047 102.649 42.7018 103.827 38.9271Z" fill="#FFFFF4"/>
<path opacity="0.97" d="M117.246 48.3638C113.95 50.9589 110.654 51.1948 107.829 51.4307C106.652 51.4307 105.71 51.6667 104.768 51.9026C104.768 50.9589 104.533 49.7793 104.062 48.8356C103.356 46.0046 102.649 42.9376 103.826 38.9269L110.419 43.6454L117.246 48.3638Z" fill="#FDC072"/>
<path opacity="0.97" d="M100.295 73.1356L92.9967 67.9454L85.6982 62.7551C90.6424 62.991 92.2904 62.2833 94.4093 62.0473C95.5865 62.0473 96.5282 61.8114 97.4699 61.5755C97.4699 61.5755 97.4699 61.5755 97.7054 61.5755C97.7054 62.5192 97.9408 63.6988 98.1762 64.8784C98.8826 67.0017 98.8825 69.3609 100.295 73.1356Z" fill="#FDC072"/>
<path d="M127.135 44.3535L125.487 46.4768C125.251 46.7127 124.78 46.7127 124.074 46.4768L123.603 46.005L122.19 45.0613L113.715 39.1633L103.827 32.0856L103.356 31.6138C102.885 31.142 102.649 30.6701 102.885 30.4342L104.533 28.3109C104.768 28.075 105.239 28.075 105.945 28.3109L116.305 35.8604L126.899 43.4098C127.135 43.4098 127.37 44.1176 127.135 44.3535Z" fill="#FC6237"/>
<path d="M102.414 79.2694L100.766 81.3927C100.53 81.6287 100.059 81.6287 99.5886 81.3927L88.9941 73.8433L78.635 66.2938C78.1641 66.0579 77.9287 65.3501 78.1641 65.1142L79.8122 62.9909C80.0476 62.755 80.5185 62.755 81.2248 62.9909L81.6956 63.4627L91.5839 70.5404L101.472 77.618L102.178 78.0898C102.414 78.3258 102.649 78.7976 102.414 79.2694Z" fill="#FC6237"/>
<path d="M148.088 51.6668L144.321 58.7444L141.496 63.6988L140.319 66.058L137.258 60.8677L136.081 58.9804L131.843 52.1387L137.729 51.9027C136.552 37.5116 126.899 24.5359 112.302 20.2893C94.6448 15.0991 76.2809 24.0641 69.2179 40.5785L64.7446 38.6912C72.7494 19.8175 93.703 9.67291 113.715 15.8069C130.195 20.5253 141.261 35.3883 142.438 51.9027L148.088 51.6668Z" fill="#0164A8"/>
<path d="M56.5044 57.8006L60.5068 50.723L63.0965 45.7687L64.2737 43.6454L67.3344 48.8356L68.5115 50.723L72.7493 57.8006L66.8635 58.0366C67.8052 72.4277 77.6935 85.4034 92.2904 89.65C109.948 94.8402 128.312 85.8752 135.375 69.3608L139.848 71.2481C131.843 90.1218 110.89 100.266 90.8778 94.1325C74.1619 89.1781 63.0965 74.3151 62.1548 58.0366L56.5044 57.8006Z" fill="#DC2D22"/>
<path d="M198 128.577C198 134.003 193.998 138.486 189.054 138.486H8.94649C4.00238 138.486 0 134.003 0 128.577H198Z" fill="#CCCBCA"/>
<path d="M198 128.577H0L9.65279 109.467H188.347L198 128.577Z" fill="white"/>
<path d="M129.018 126.689C103.12 126.689 90.1712 126.689 64.2734 126.689C65.686 123.622 66.3923 121.971 68.0404 118.904C91.1129 118.904 102.649 118.904 125.486 118.904C126.663 122.207 127.37 123.622 129.018 126.689Z" fill="#AAB3BB"/>
<path opacity="0.42" d="M188.347 67.4735V104.749C188.347 107.344 185.993 109.467 183.403 109.467H162.214L153.974 101.21L140.319 87.5268H149.972V84.4598H146.911V67.4735H188.347Z" fill="#7A8494"/>
<path opacity="0.42" d="M188.112 59.4523H146.675V65.1144H188.112V59.4523Z" fill="#7A8494"/>
<path opacity="0.42" d="M143.379 59.4522V83.0443L116.069 55.6774H140.083V59.4522H143.379Z" fill="#7A8494"/>
<path d="M48.9702 86.1111H40.4946V93.1888H48.9702V86.1111Z" fill="#E5E5E5"/>
<path d="M24.2164 93.5339L19.5024 97.4474L22.807 101.444L27.521 97.531L24.2164 93.5339Z" fill="#E5E5E5"/>
<path d="M65.5957 93.4298L62.2886 97.4242L66.9995 101.341L70.3067 97.3463L65.5957 93.4298Z" fill="#E5E5E5"/>
<path d="M44.7323 91.3016C27.0748 91.3016 12.9487 105.693 12.9487 123.151C12.9487 140.845 27.3102 155 44.7323 155C62.3899 155 76.5159 140.609 76.5159 123.151C76.5159 105.457 62.1544 91.3016 44.7323 91.3016ZM44.7323 148.63C30.6063 148.63 19.3054 137.306 19.3054 123.151C19.3054 108.996 30.6063 97.6715 44.7323 97.6715C58.8584 97.6715 70.1592 108.996 70.1592 123.151C70.1592 137.306 58.6229 148.63 44.7323 148.63Z" fill="#FEBC58"/>
<path d="M44.7321 96.2561C29.8998 96.2561 17.6572 108.288 17.6572 123.387C17.6572 138.25 29.6644 150.518 44.7321 150.518C59.5645 150.518 71.807 138.486 71.807 123.387C71.5716 108.288 59.5645 96.2561 44.7321 96.2561ZM44.7321 148.631C30.6061 148.631 19.3053 137.306 19.3053 123.151C19.3053 108.996 30.6061 97.6716 44.7321 97.6716C58.8582 97.6716 70.159 108.996 70.159 123.151C70.159 137.306 58.8582 148.631 44.7321 148.631Z" fill="#534B64"/>
<path d="M70.1589 123.151C70.1589 137.306 58.8581 148.63 44.732 148.63C30.606 148.63 19.3052 137.306 19.3052 123.151C19.3052 108.995 30.606 97.6711 44.732 97.6711C58.8581 97.6711 70.1589 109.231 70.1589 123.151Z" fill="white"/>
<path opacity="0.43" d="M64.7439 107.344C60.5061 104.041 54.8557 101.918 48.9699 101.918C34.8438 101.918 23.543 113.242 23.543 127.397C23.543 133.295 25.6619 138.721 28.958 143.204C23.0721 138.485 19.3052 131.408 19.3052 123.151C19.3052 108.995 30.606 97.6711 44.732 97.6711C52.7368 97.6711 60.0353 101.446 64.7439 107.344Z" fill="#A5ADB9"/>
<path d="M44.7324 63.9347C36.9631 63.9347 30.8418 70.0686 30.8418 77.854C30.8418 83.988 34.8442 89.4141 40.4946 91.0656V88.7064C36.0213 87.0549 32.9607 82.8084 32.9607 77.854C32.9607 71.2482 38.1403 66.058 44.7324 66.058C51.3246 66.058 56.5041 71.2482 56.5041 77.854C56.5041 82.8084 53.4435 87.2909 48.9702 88.9423V91.3015C54.6206 89.4142 58.623 84.2239 58.623 78.0899C58.623 70.0686 52.2663 63.9347 44.7324 63.9347Z" fill="#FF8000"/>
<path d="M22.9079 89.6944L16.0254 95.4213L19.1837 99.2326L26.0662 93.5058L22.9079 89.6944Z" fill="#F2F2F2"/>
<path d="M50.8535 80.6852H38.3755V87.291H50.8535V80.6852Z" fill="#F2F2F2"/>
<path d="M67.0348 89.6294L63.8765 93.4408L70.759 99.1676L73.9173 95.3563L67.0348 89.6294Z" fill="#F2F2F2"/>
<path d="M43.3196 124.802L39.0818 125.982L38.3755 122.915L42.6133 122.207C42.8487 121.5 43.555 121.028 44.2613 120.792C45.2031 120.556 45.9094 121.028 46.6157 121.5L65.4504 118.433V118.904L46.8511 123.859C46.6157 124.566 45.9094 125.274 45.2031 125.51C44.7322 125.51 43.7905 125.274 43.3196 124.802Z" fill="#C2300C"/>
<path d="M45.2033 124.095C44.497 124.331 44.0262 123.859 43.7907 123.151C43.5553 122.443 44.0262 121.971 44.7325 121.736C45.4388 121.5 45.9096 121.971 46.1451 122.679C46.1451 123.387 45.9096 124.095 45.2033 124.095Z" fill="white"/>
<path d="M63.567 117.017L58.8583 118.196C57.9166 113.714 55.0914 109.467 50.8536 106.872C47.3221 104.749 43.3197 103.805 39.5527 104.277C44.7323 102.389 50.6181 102.861 55.5623 105.928C59.8001 108.287 62.3898 112.534 63.567 117.017Z" fill="#FC6237"/>
</svg>
