<svg width="153" height="139" viewBox="0 0 153 139" fill="none" xmlns="http://www.w3.org/2000/svg">
<path d="M41.2976 88.0562V97.0653C41.2976 100.641 38.3873 103.599 34.7148 103.599H32.2896C32.151 103.599 31.9431 103.667 31.8046 103.805C31.666 103.942 31.5967 104.08 31.5967 104.286V104.424H41.2283H57.6505C61.2537 104.424 64.2333 101.535 64.2333 97.8905V88.0562H41.2976Z" fill="#F8F8F8"/>
<path d="M64.3027 97.8218V88.0562H41.2979L57.72 104.355C61.3232 104.355 64.3027 101.467 64.3027 97.8218Z" fill="#E7E7E7"/>
<path d="M11.1557 28.3618C9.97774 28.3618 8.93835 29.3246 8.93835 30.5625V85.8552C8.93835 87.0931 9.90845 88.0559 11.1557 88.0559H97.4937C98.741 88.0559 99.7111 87.0931 99.7111 85.8552V30.5625C99.7111 29.3246 98.741 28.3618 97.4937 28.3618H11.1557Z" fill="#F2F2F2"/>
<path d="M9.63141 28.3618C8.45345 28.3618 7.41406 29.3246 7.41406 30.5625V85.8552C7.41406 87.0931 8.38415 88.0559 9.63141 88.0559H95.9694C97.2167 88.0559 98.1868 87.0931 98.1868 85.8552V30.5625C98.1868 29.3246 97.2167 28.3618 95.9694 28.3618H9.63141Z" fill="#194760"/>
<path d="M93.5442 32.9009H11.9873V83.5171H93.5442V32.9009Z" fill="#ABE0E5"/>
<path d="M85.1603 20.728H20.4414V83.5169H85.1603V20.728Z" fill="white"/>
<path d="M85.1603 14.2632H20.4414V17.4963H85.1603V14.2632Z" fill="#91D3D9"/>
<path d="M85.1603 17.4956H20.4414V20.7288H85.1603V17.4956Z" fill="#E6E5E5"/>
<path d="M79.6165 18.4585H26.0537V19.7656H79.6165V18.4585Z" fill="white"/>
<path d="M26.0541 15.9141H20.4414V17.4963H26.0541V15.9141Z" fill="#E8807A"/>
<path d="M39.4963 15.9141H26.0537V17.4963H39.4963V15.9141Z" fill="#E6E5E5"/>
<path d="M24.9452 18.4585H23.6287V19.7656H24.9452V18.4585Z" fill="#CCCBCA"/>
<path d="M22.8663 18.4585H21.5498V19.7656H22.8663V18.4585Z" fill="#CCCBCA"/>
<path d="M84.0514 18.4585H82.7349V19.7656H84.0514V18.4585Z" fill="#CCCBCA"/>
<path d="M81.9727 18.4585H80.6561V19.7656H81.9727V18.4585Z" fill="#CCCBCA"/>
<path d="M68.3915 23.5479H37.2793V27.6054H68.3915V23.5479Z" fill="#CCCBCA"/>
<path d="M68.3914 0.715332H37.2792V4.77295H68.3914V0.715332Z" fill="#DC2D22"/>
<path d="M85.1603 35.5142H20.4414V54.9765H85.1603V35.5142Z" fill="#0164A8"/>
<path d="M38.0415 30.4248H27.8555V32.007H38.0415V30.4248Z" fill="#91D3D9"/>
<path d="M51.2761 30.4248H41.0902V32.007H51.2761V30.4248Z" fill="#91D3D9"/>
<path d="M64.511 30.4248H54.325V32.007H64.511V30.4248Z" fill="#91D3D9"/>
<path d="M77.7458 30.4248H67.5598V32.007H77.7458V30.4248Z" fill="#91D3D9"/>
<path d="M41.5754 38.9526H28.8257V51.6066H41.5754V38.9526Z" fill="#91D3D9"/>
<path d="M76.845 38.9526H47.3265V41.0852H76.845V38.9526Z" fill="#91D3D9"/>
<path d="M76.845 42.6675H47.3264V43.2185H76.845V42.6675Z" fill="white"/>
<path d="M76.845 44.4546H47.3264V45.0057H76.845V44.4546Z" fill="white"/>
<path d="M69.9155 46.2422H54.1169V46.7933H69.9155V46.2422Z" fill="white"/>
<path d="M12.7498 58.415H0V71.0691H12.7498V58.415Z" fill="#DC2D22"/>
<path d="M10.5323 60.6851H2.21729V62.0609H10.5323V60.6851Z" fill="#DC2D22"/>
<path d="M10.5323 63.0229H2.21729V63.4363H10.5323V63.0229Z" fill="white"/>
<path d="M10.5323 64.4668H2.21729V64.8802H10.5323V64.4668Z" fill="white"/>
<path d="M6.37488 65.9111H2.21729V66.3246H6.37488V65.9111Z" fill="white"/>
<path d="M41.5758 72.9258H28.826V73.5458H41.5758V72.9258Z" fill="#FFC86D"/>
<path d="M41.575 74.8521H28.8252V75.4719H41.575V74.8521Z" fill="#CCCBCA"/>
<path d="M35.408 76.708H28.8252V77.328H35.408V76.708Z" fill="#CCCBCA"/>
<path d="M59.1763 72.9258H46.4265V73.5458H59.1763V72.9258Z" fill="#FFC86D"/>
<path d="M59.1755 74.8521H46.4258V75.4719H59.1755V74.8521Z" fill="#CCCBCA"/>
<path d="M53.0085 76.708H46.4258V77.328H53.0085V76.708Z" fill="#CCCBCA"/>
<path d="M76.7759 72.9258H64.0261V73.5458H76.7759V72.9258Z" fill="#FFC86D"/>
<path d="M76.7756 74.8521H64.0259V75.4719H76.7756V74.8521Z" fill="#CCCBCA"/>
<path d="M70.6085 76.708H64.0259V77.328H70.6085V76.708Z" fill="#CCCBCA"/>
<path d="M41.5754 58.415H28.8257V71.0691H41.5754V58.415Z" fill="#CCCBCA"/>
<path d="M76.7758 58.4153H64.026V71.0693H76.7758V58.4153Z" fill="#FFC86D"/>
<path d="M64.0953 71.1381L64.026 71.0005L76.7065 58.4153L76.8451 58.4841L64.0953 71.1381Z" fill="#FFB959"/>
<path d="M76.7065 71.1381L64.026 58.4841L64.0953 58.4153L76.8451 71.0005L76.7065 71.1381Z" fill="#FFB959"/>
<path d="M76.8448 71.1378H63.9565V58.3462H76.8448V71.1378ZM64.1644 71.0002H76.7063V58.5525H64.1644V71.0002Z" fill="#FFB959"/>
<path d="M59.1755 58.4153H46.4258V71.0693H59.1755V58.4153Z" fill="#ABE0E5"/>
<path d="M46.4949 71.1381L46.3563 71.0005L59.106 58.4153L59.2446 58.4841L46.4949 71.1381Z" fill="#91D3D9"/>
<path d="M59.106 71.1381L46.3563 58.4841L46.4949 58.4153L59.2446 71.0005L59.106 71.1381Z" fill="#91D3D9"/>
<path d="M59.2451 71.1378H46.3567V58.3462H59.2451V71.1378ZM46.4953 71.0002H59.0372V58.5525H46.4953V71.0002Z" fill="#91D3D9"/>
<path d="M31.7358 41.0156H30.835V41.9099H31.7358V41.0156Z" fill="#C4EDF1"/>
<path d="M39.4965 41.0156H32.3594V41.9099H39.4965V41.0156Z" fill="white"/>
<path d="M31.7357 43.0796H30.835V43.9738H31.7357V43.0796Z" fill="#C4EDF1"/>
<path d="M39.4965 43.0796H32.3594V43.9738H39.4965V43.0796Z" fill="white"/>
<path d="M37.3485 22.791H37.1406V23.5477H37.3485V22.791Z" fill="#474F59"/>
<path d="M37.3485 21.2788H37.1406V19.6971H37.3485V21.2788ZM37.3485 18.1153H37.1406V16.5336H37.3485V18.1153ZM37.3485 14.9518H37.1406V13.3701H37.3485V14.9518ZM37.3485 11.7883H37.1406V10.2065H37.3485V11.7883ZM37.3485 8.69357H37.1406V7.11182H37.3485V8.69357Z" fill="#474F59"/>
<path d="M37.3486 4.77295H37.1407V5.5296H37.3486V4.77295Z" fill="#474F59"/>
<path d="M68.4608 4.77295H68.2529V5.5296H68.4608V4.77295Z" fill="#474F59"/>
<path d="M68.4608 21.2788H68.2529V19.6971H68.4608V21.2788ZM68.4608 18.1153H68.2529V16.5336H68.4608V18.1153ZM68.4608 14.9518H68.2529V13.3701H68.4608V14.9518ZM68.4608 11.7883H68.2529V10.2065H68.4608V11.7883ZM68.4608 8.69357H68.2529V7.11182H68.4608V8.69357Z" fill="#474F59"/>
<path d="M68.4608 22.791H68.2529V23.5477H68.4608V22.791Z" fill="#474F59"/>
<path d="M28.8253 58.5529H27.8552V58.3462H28.8253V58.5529ZM26.3308 58.5529H24.8757V58.3462H26.4001V58.5529H26.3308ZM23.3512 58.5529H21.8268V58.3462H23.3512V58.5529ZM20.3024 58.5529H18.7779V58.3462H20.3024V58.5529ZM17.3228 58.5529H15.7984V58.3462H17.3228V58.5529ZM14.2739 58.5529H12.7495V58.3462H14.2739V58.5529Z" fill="#474F59"/>
<path d="M28.8253 71.2072H27.8552V71.0005H28.8253V71.2072ZM26.3308 71.2072H24.8757V71.0005H26.4001V71.2072H26.3308ZM23.3512 71.2072H21.8268V71.0005H23.3512V71.2072ZM20.3024 71.2072H18.7779V71.0005H20.3024V71.2072ZM17.3228 71.2072H15.7984V71.0005H17.3228V71.2072ZM14.2739 71.2072H12.7495V71.0005H14.2739V71.2072Z" fill="#474F59"/>
<path d="M75.7366 112.814C75.7366 112.332 75.3208 111.988 74.9051 111.988H10.602C10.117 111.988 9.77051 112.401 9.77051 112.814V137.778C9.77051 138.259 10.1863 138.603 10.602 138.603H74.8358C75.3208 138.603 75.6673 138.19 75.6673 137.778V112.814H75.7366Z" fill="#D9D8D7"/>
<path d="M16.0072 119.21C16.0072 119.348 15.9379 119.417 15.7993 119.417H12.7505C12.6119 119.417 12.5426 119.348 12.5426 119.21V116.183C12.5426 116.046 12.6119 115.977 12.7505 115.977H15.7993C15.9379 115.977 16.0072 116.046 16.0072 116.183V119.21Z" fill="white"/>
<path d="M22.3816 123.406C22.3816 123.543 22.3123 123.612 22.1737 123.612H19.1249C18.9863 123.612 18.917 123.543 18.917 123.406V120.379C18.917 120.241 18.9863 120.172 19.1249 120.172H22.1737C22.3123 120.172 22.3816 120.241 22.3816 120.379V123.406Z" fill="white"/>
<path d="M23.3518 127.6C23.3518 127.738 23.2825 127.807 23.1439 127.807H20.0951C19.9565 127.807 19.8872 127.738 19.8872 127.6V124.505C19.8872 124.367 19.9565 124.298 20.0951 124.298H23.1439C23.2825 124.298 23.3518 124.367 23.3518 124.505V127.6Z" fill="white"/>
<path d="M21.2727 131.727C21.2727 131.864 21.2034 131.933 21.0648 131.933H18.016C17.8774 131.933 17.8081 131.864 17.8081 131.727V128.7C17.8081 128.562 17.8774 128.494 18.016 128.494H21.0648C21.2034 128.494 21.2727 128.562 21.2727 128.7V131.727Z" fill="white"/>
<path d="M16.0066 136.471C16.0066 136.608 15.9373 136.677 15.7987 136.677H12.7499C12.6113 136.677 12.542 136.608 12.542 136.471V132.895C12.542 132.757 12.6113 132.688 12.7499 132.688H15.7987C15.9373 132.688 16.0066 132.757 16.0066 132.895V136.471Z" fill="white"/>
<path d="M20.2336 136.471C20.2336 136.608 20.1644 136.677 20.0258 136.677H16.9769C16.8383 136.677 16.769 136.608 16.769 136.471V132.895C16.769 132.757 16.8383 132.688 16.9769 132.688H20.0258C20.1644 132.688 20.2336 132.757 20.2336 132.895V136.471Z" fill="white"/>
<path d="M24.3909 136.471C24.3909 136.608 24.3216 136.677 24.183 136.677H21.1341C20.9956 136.677 20.9263 136.608 20.9263 136.471V132.895C20.9263 132.757 20.9956 132.688 21.1341 132.688H24.183C24.3216 132.688 24.3909 132.757 24.3909 132.895V136.471Z" fill="white"/>
<path d="M60.2839 136.471C60.2839 136.608 60.2146 136.677 60.0761 136.677H57.0272C56.8886 136.677 56.8193 136.608 56.8193 136.471V132.895C56.8193 132.757 56.8886 132.688 57.0272 132.688H60.0761C60.2146 132.688 60.2839 132.757 60.2839 132.895V136.471Z" fill="white"/>
<path d="M64.4417 136.472C64.4417 136.609 64.3724 136.678 64.2338 136.678H61.1849C61.0463 136.678 60.9771 136.609 60.9771 136.472V134.889C60.9771 134.752 61.0463 134.683 61.1849 134.683H64.2338C64.3724 134.683 64.4417 134.752 64.4417 134.889V136.472Z" fill="white"/>
<path d="M72.8953 136.472C72.8953 136.609 72.826 136.678 72.6874 136.678H69.6385C69.5 136.678 69.4307 136.609 69.4307 136.472V134.889C69.4307 134.752 69.5 134.683 69.6385 134.683H72.6874C72.826 134.683 72.8953 134.752 72.8953 134.889V136.472Z" fill="white"/>
<path d="M29.7266 136.471C29.7266 136.608 29.6573 136.677 29.5187 136.677H25.3612C25.2226 136.677 25.1533 136.608 25.1533 136.471V132.895C25.1533 132.757 25.2226 132.688 25.3612 132.688H29.5187C29.6573 132.688 29.7266 132.757 29.7266 132.895V136.471Z" fill="white"/>
<path d="M56.0576 136.471C56.0576 136.608 55.9883 136.677 55.8497 136.677H51.6922C51.5537 136.677 51.4844 136.608 51.4844 136.471V132.895C51.4844 132.757 51.5537 132.688 51.6922 132.688H55.8497C55.9883 132.688 56.0576 132.757 56.0576 132.895V136.471Z" fill="white"/>
<path d="M50.722 136.471C50.722 136.608 50.6528 136.677 50.5142 136.677H30.6273C30.4887 136.677 30.4194 136.608 30.4194 136.471V132.895C30.4194 132.757 30.4887 132.688 30.6273 132.688H50.5142C50.6528 132.688 50.722 132.757 50.722 132.895V136.471Z" fill="white"/>
<path d="M25.4998 131.727C25.4998 131.864 25.4305 131.933 25.2919 131.933H22.243C22.1044 131.933 22.0352 131.864 22.0352 131.727V128.7C22.0352 128.562 22.1044 128.494 22.243 128.494H25.2919C25.4305 128.494 25.4998 128.562 25.4998 128.7V131.727Z" fill="white"/>
<path d="M29.7263 131.727C29.7263 131.864 29.657 131.933 29.5184 131.933H26.4696C26.331 131.933 26.2617 131.864 26.2617 131.727V128.7C26.2617 128.562 26.331 128.494 26.4696 128.494H29.5184C29.657 128.494 29.7263 128.562 29.7263 128.7V131.727Z" fill="white"/>
<path d="M33.884 131.727C33.884 131.864 33.8147 131.933 33.6762 131.933H30.6273C30.4887 131.933 30.4194 131.864 30.4194 131.727V128.7C30.4194 128.562 30.4887 128.494 30.6273 128.494H33.6762C33.8147 128.494 33.884 128.562 33.884 128.7V131.727Z" fill="white"/>
<path d="M38.1106 131.727C38.1106 131.864 38.0413 131.933 37.9027 131.933H34.8539C34.7153 131.933 34.646 131.864 34.646 131.727V128.7C34.646 128.562 34.7153 128.494 34.8539 128.494H37.9027C38.0413 128.494 38.1106 128.562 38.1106 128.7V131.727Z" fill="white"/>
<path d="M42.3376 131.727C42.3376 131.864 42.2684 131.933 42.1298 131.933H39.0809C38.9423 131.933 38.873 131.864 38.873 131.727V128.7C38.873 128.562 38.9423 128.494 39.0809 128.494H42.1298C42.2684 128.494 42.3376 128.562 42.3376 128.7V131.727Z" fill="white"/>
<path d="M46.5642 131.727C46.5642 131.864 46.4949 131.933 46.3563 131.933H43.3075C43.1689 131.933 43.0996 131.864 43.0996 131.727V128.7C43.0996 128.562 43.1689 128.494 43.3075 128.494H46.3563C46.4949 128.494 46.5642 128.562 46.5642 128.7V131.727Z" fill="white"/>
<path d="M50.7219 131.727C50.7219 131.864 50.6526 131.933 50.514 131.933H47.4652C47.3266 131.933 47.2573 131.864 47.2573 131.727V128.7C47.2573 128.562 47.3266 128.494 47.4652 128.494H50.514C50.6526 128.494 50.7219 128.562 50.7219 128.7V131.727Z" fill="white"/>
<path d="M54.949 131.727C54.949 131.864 54.8797 131.933 54.7411 131.933H51.6922C51.5537 131.933 51.4844 131.864 51.4844 131.727V128.7C51.4844 128.562 51.5537 128.494 51.6922 128.494H54.7411C54.8797 128.494 54.949 128.562 54.949 128.7V131.727Z" fill="white"/>
<path d="M59.1755 131.727C59.1755 131.864 59.1062 131.933 58.9677 131.933H55.9188C55.7802 131.933 55.7109 131.864 55.7109 131.727V128.7C55.7109 128.562 55.7802 128.494 55.9188 128.494H58.9677C59.1062 128.494 59.1755 128.562 59.1755 128.7V131.727Z" fill="white"/>
<path d="M63.3333 131.727C63.3333 131.864 63.264 131.933 63.1254 131.933H60.0765C59.9379 131.933 59.8687 131.864 59.8687 131.727V128.7C59.8687 128.562 59.9379 128.494 60.0765 128.494H63.1254C63.264 128.494 63.3333 128.562 63.3333 128.7V131.727Z" fill="white"/>
<path d="M72.8259 131.727C72.8259 131.864 72.7566 131.933 72.6181 131.933H64.3031C64.1645 131.933 64.0952 131.864 64.0952 131.727V128.7C64.0952 128.562 64.1645 128.494 64.3031 128.494H72.6181C72.7566 128.494 72.8259 128.562 72.8259 128.7V131.727Z" fill="white"/>
<path d="M27.5784 127.6C27.5784 127.738 27.5091 127.807 27.3705 127.807H24.3216C24.1831 127.807 24.1138 127.738 24.1138 127.6V124.505C24.1138 124.367 24.1831 124.298 24.3216 124.298H27.3705C27.5091 124.298 27.5784 124.367 27.5784 124.505V127.6Z" fill="white"/>
<path d="M31.7361 127.6C31.7361 127.738 31.6668 127.807 31.5282 127.807H28.4794C28.3408 127.807 28.2715 127.738 28.2715 127.6V124.505C28.2715 124.367 28.3408 124.298 28.4794 124.298H31.5282C31.6668 124.298 31.7361 124.367 31.7361 124.505V127.6Z" fill="white"/>
<path d="M35.9626 127.6C35.9626 127.738 35.8934 127.807 35.7548 127.807H32.7059C32.5673 127.807 32.498 127.738 32.498 127.6V124.505C32.498 124.367 32.5673 124.298 32.7059 124.298H35.7548C35.8934 124.298 35.9626 124.367 35.9626 124.505V127.6Z" fill="white"/>
<path d="M40.1892 127.6C40.1892 127.738 40.1199 127.807 39.9813 127.807H36.9325C36.7939 127.807 36.7246 127.738 36.7246 127.6V124.505C36.7246 124.367 36.7939 124.298 36.9325 124.298H39.9813C40.1199 124.298 40.1892 124.367 40.1892 124.505V127.6Z" fill="white"/>
<path d="M44.4163 127.6C44.4163 127.738 44.347 127.807 44.2084 127.807H41.1595C41.021 127.807 40.9517 127.738 40.9517 127.6V124.505C40.9517 124.367 41.021 124.298 41.1595 124.298H44.2084C44.347 124.298 44.4163 124.367 44.4163 124.505V127.6Z" fill="white"/>
<path d="M48.574 127.6C48.574 127.738 48.5047 127.807 48.3661 127.807H45.3173C45.1787 127.807 45.1094 127.738 45.1094 127.6V124.505C45.1094 124.367 45.1787 124.298 45.3173 124.298H48.3661C48.5047 124.298 48.574 124.367 48.574 124.505V127.6Z" fill="white"/>
<path d="M52.8005 127.6C52.8005 127.738 52.7312 127.807 52.5927 127.807H49.5438C49.4052 127.807 49.3359 127.738 49.3359 127.6V124.505C49.3359 124.367 49.4052 124.298 49.5438 124.298H52.5927C52.7312 124.298 52.8005 124.367 52.8005 124.505V127.6Z" fill="white"/>
<path d="M57.0276 127.6C57.0276 127.738 56.9583 127.807 56.8197 127.807H53.7709C53.6323 127.807 53.563 127.738 53.563 127.6V124.505C53.563 124.367 53.6323 124.298 53.7709 124.298H56.8197C56.9583 124.298 57.0276 124.367 57.0276 124.505V127.6Z" fill="white"/>
<path d="M61.1853 127.6C61.1853 127.738 61.116 127.807 60.9774 127.807H57.9286C57.79 127.807 57.7207 127.738 57.7207 127.6V124.505C57.7207 124.367 57.79 124.298 57.9286 124.298H60.9774C61.116 124.298 61.1853 124.367 61.1853 124.505V127.6Z" fill="white"/>
<path d="M65.412 127.6C65.412 127.738 65.3427 127.807 65.2041 127.807H62.1552C62.0166 127.807 61.9473 127.738 61.9473 127.6V124.505C61.9473 124.367 62.0166 124.298 62.1552 124.298H65.2041C65.3427 124.298 65.412 124.367 65.412 124.505V127.6Z" fill="white"/>
<path d="M69.6384 127.6C69.6384 127.738 69.5691 127.807 69.4306 127.807H66.3817C66.2431 127.807 66.1738 127.738 66.1738 127.6V124.505C66.1738 124.367 66.2431 124.298 66.3817 124.298H69.4306C69.5691 124.298 69.6384 124.367 69.6384 124.505V127.6Z" fill="white"/>
<path d="M26.5388 123.406C26.5388 123.543 26.4695 123.612 26.3309 123.612H23.2821C23.1435 123.612 23.0742 123.543 23.0742 123.406V120.379C23.0742 120.241 23.1435 120.172 23.2821 120.172H26.3309C26.4695 120.172 26.5388 120.241 26.5388 120.379V123.406Z" fill="white"/>
<path d="M30.7659 123.406C30.7659 123.543 30.6966 123.612 30.558 123.612H27.5091C27.3706 123.612 27.3013 123.543 27.3013 123.406V120.379C27.3013 120.241 27.3706 120.172 27.5091 120.172H30.558C30.6966 120.172 30.7659 120.241 30.7659 120.379V123.406Z" fill="white"/>
<path d="M34.9924 123.406C34.9924 123.543 34.9231 123.612 34.7846 123.612H31.7357C31.5971 123.612 31.5278 123.543 31.5278 123.406V120.379C31.5278 120.241 31.5971 120.172 31.7357 120.172H34.7846C34.9231 120.172 34.9924 120.241 34.9924 120.379V123.406Z" fill="white"/>
<path d="M39.1502 123.406C39.1502 123.543 39.0809 123.612 38.9423 123.612H35.9628C35.8242 123.612 35.7549 123.543 35.7549 123.406V120.379C35.7549 120.241 35.8242 120.172 35.9628 120.172H39.0116C39.1502 120.172 39.2195 120.241 39.2195 120.379V123.406H39.1502Z" fill="white"/>
<path d="M43.3767 123.406C43.3767 123.543 43.3074 123.612 43.1688 123.612H40.12C39.9814 123.612 39.9121 123.543 39.9121 123.406V120.379C39.9121 120.241 39.9814 120.172 40.12 120.172H43.1688C43.3074 120.172 43.3767 120.241 43.3767 120.379V123.406Z" fill="white"/>
<path d="M47.6038 123.406C47.6038 123.543 47.5345 123.612 47.3959 123.612H44.347C44.2084 123.612 44.1392 123.543 44.1392 123.406V120.379C44.1392 120.241 44.2084 120.172 44.347 120.172H47.3959C47.5345 120.172 47.6038 120.241 47.6038 120.379V123.406Z" fill="white"/>
<path d="M51.8308 123.406C51.8308 123.543 51.7615 123.612 51.6229 123.612H48.5741C48.4355 123.612 48.3662 123.543 48.3662 123.406V120.379C48.3662 120.241 48.4355 120.172 48.5741 120.172H51.6229C51.7615 120.172 51.8308 120.241 51.8308 120.379V123.406Z" fill="white"/>
<path d="M55.988 123.406C55.988 123.543 55.9187 123.612 55.7802 123.612H52.7313C52.5927 123.612 52.5234 123.543 52.5234 123.406V120.379C52.5234 120.241 52.5927 120.172 52.7313 120.172H55.7802C55.9187 120.172 55.988 120.241 55.988 120.379V123.406Z" fill="white"/>
<path d="M60.2151 123.406C60.2151 123.543 60.1458 123.612 60.0072 123.612H56.9584C56.8198 123.612 56.7505 123.543 56.7505 123.406V120.379C56.7505 120.241 56.8198 120.172 56.9584 120.172H60.0072C60.1458 120.172 60.2151 120.241 60.2151 120.379V123.406Z" fill="white"/>
<path d="M64.4417 123.406C64.4417 123.543 64.3724 123.612 64.2338 123.612H61.1849C61.0463 123.612 60.9771 123.543 60.9771 123.406V120.379C60.9771 120.241 61.0463 120.172 61.1849 120.172H64.2338C64.3724 120.172 64.4417 120.241 64.4417 120.379V123.406Z" fill="white"/>
<path d="M68.5994 123.406C68.5994 123.543 68.5301 123.612 68.3915 123.612H65.3426C65.2041 123.612 65.1348 123.543 65.1348 123.406V120.379C65.1348 120.241 65.2041 120.172 65.3426 120.172H68.3915C68.5301 120.172 68.5994 120.241 68.5994 120.379V123.406Z" fill="white"/>
<path d="M18.1547 123.406C18.1547 123.543 18.0854 123.612 17.9468 123.612H12.7499C12.6113 123.612 12.542 123.543 12.542 123.406V120.379C12.542 120.241 12.6113 120.172 12.7499 120.172H17.9468C18.0854 120.172 18.1547 120.241 18.1547 120.379V123.406Z" fill="white"/>
<path d="M72.8267 119.21C72.8267 119.348 72.7574 119.417 72.6188 119.417H67.4219C67.2833 119.417 67.214 119.348 67.214 119.21V116.183C67.214 116.046 67.2833 115.977 67.4219 115.977H72.6188C72.7574 115.977 72.8267 116.046 72.8267 116.183V119.21Z" fill="white"/>
<path d="M19.1248 127.6C19.1248 127.738 19.0555 127.807 18.9169 127.807H12.7499C12.6113 127.807 12.542 127.738 12.542 127.6V124.505C12.542 124.367 12.6113 124.298 12.7499 124.298H18.9169C19.0555 124.298 19.1248 124.367 19.1248 124.505V127.6Z" fill="white"/>
<path d="M17.1154 131.727C17.1154 131.864 17.0461 131.933 16.9075 131.933H12.8192C12.6806 131.933 12.6113 131.864 12.6113 131.727V128.7C12.6113 128.562 12.6806 128.494 12.8192 128.494H16.9075C17.0461 128.494 17.1154 128.562 17.1154 128.7V131.727Z" fill="white"/>
<path d="M20.234 119.21C20.234 119.348 20.1647 119.417 20.0261 119.417H16.9773C16.8387 119.417 16.7694 119.348 16.7694 119.21V116.183C16.7694 116.046 16.8387 115.977 16.9773 115.977H20.0261C20.1647 115.977 20.234 116.046 20.234 116.183V119.21Z" fill="white"/>
<path d="M24.4608 119.21C24.4608 119.348 24.3915 119.417 24.2529 119.417H21.2041C21.0655 119.417 20.9962 119.348 20.9962 119.21V116.183C20.9962 116.046 21.0655 115.977 21.2041 115.977H24.2529C24.3915 115.977 24.4608 116.046 24.4608 116.183V119.21Z" fill="white"/>
<path d="M28.6183 119.21C28.6183 119.348 28.549 119.417 28.4104 119.417H25.3616C25.223 119.417 25.1537 119.348 25.1537 119.21V116.183C25.1537 116.046 25.223 115.977 25.3616 115.977H28.4104C28.549 115.977 28.6183 116.046 28.6183 116.183V119.21Z" fill="white"/>
<path d="M32.8452 119.21C32.8452 119.348 32.7759 119.417 32.6373 119.417H29.5885C29.4499 119.417 29.3806 119.348 29.3806 119.21V116.183C29.3806 116.046 29.4499 115.977 29.5885 115.977H32.6373C32.7759 115.977 32.8452 116.046 32.8452 116.183V119.21Z" fill="white"/>
<path d="M37.0719 119.21C37.0719 119.348 37.0026 119.417 36.864 119.417H33.8152C33.6766 119.417 33.6073 119.348 33.6073 119.21V116.183C33.6073 116.046 33.6766 115.977 33.8152 115.977H36.864C37.0026 115.977 37.0719 116.046 37.0719 116.183V119.21Z" fill="white"/>
<path d="M41.2988 119.21C41.2988 119.348 41.2295 119.417 41.091 119.417H38.0421C37.9035 119.417 37.8342 119.348 37.8342 119.21V116.183C37.8342 116.046 37.9035 115.977 38.0421 115.977H41.091C41.2295 115.977 41.2988 116.046 41.2988 116.183V119.21Z" fill="white"/>
<path d="M45.4563 119.21C45.4563 119.348 45.387 119.417 45.2484 119.417H42.1996C42.061 119.417 41.9917 119.348 41.9917 119.21V116.183C41.9917 116.046 42.061 115.977 42.1996 115.977H45.2484C45.387 115.977 45.4563 116.046 45.4563 116.183V119.21Z" fill="white"/>
<path d="M49.6832 119.21C49.6832 119.348 49.6139 119.417 49.4753 119.417H46.4265C46.2879 119.417 46.2186 119.348 46.2186 119.21V116.183C46.2186 116.046 46.2879 115.977 46.4265 115.977H49.4753C49.6139 115.977 49.6832 116.046 49.6832 116.183V119.21Z" fill="white"/>
<path d="M53.91 119.21C53.91 119.348 53.8407 119.417 53.7021 119.417H50.6532C50.5146 119.417 50.4453 119.348 50.4453 119.21V116.183C50.4453 116.046 50.5146 115.977 50.6532 115.977H53.7021C53.8407 115.977 53.91 116.046 53.91 116.183V119.21Z" fill="white"/>
<path d="M58.0674 119.21C58.0674 119.348 57.9981 119.417 57.8595 119.417H54.8107C54.6721 119.417 54.6028 119.348 54.6028 119.21V116.183C54.6028 116.046 54.6721 115.977 54.8107 115.977H57.8595C57.9981 115.977 58.0674 116.046 58.0674 116.183V119.21Z" fill="white"/>
<path d="M62.2943 119.21C62.2943 119.348 62.225 119.417 62.0864 119.417H59.0376C58.899 119.417 58.8297 119.348 58.8297 119.21V116.183C58.8297 116.046 58.899 115.977 59.0376 115.977H62.0864C62.225 115.977 62.2943 116.046 62.2943 116.183V119.21Z" fill="white"/>
<path d="M66.521 119.21C66.521 119.348 66.4517 119.417 66.3131 119.417H63.2643C63.1257 119.417 63.0564 119.348 63.0564 119.21V116.183C63.0564 116.046 63.1257 115.977 63.2643 115.977H66.3131C66.4517 115.977 66.521 116.046 66.521 116.183V119.21Z" fill="white"/>
<path d="M65.2041 134.752V136.403C65.2041 136.472 65.2041 136.541 65.2734 136.541C65.3427 136.609 65.3427 136.609 65.412 136.609H68.4608C68.5301 136.609 68.5301 136.609 68.5994 136.541C68.6687 136.472 68.6687 136.472 68.6687 136.403V134.752H65.2041Z" fill="white"/>
<path d="M68.6687 134.546V132.895C68.6687 132.826 68.6687 132.826 68.5994 132.757C68.5301 132.688 68.5301 132.688 68.4608 132.688H65.412C65.3427 132.688 65.3427 132.688 65.2734 132.757C65.2041 132.826 65.2041 132.826 65.2041 132.895V134.546H68.6687Z" fill="white"/>
<path d="M69.5692 120.172C69.4999 120.172 69.4999 120.172 69.4306 120.241C69.3613 120.31 69.3613 120.31 69.3613 120.379V123.405C69.3613 123.473 69.3613 123.473 69.4306 123.542C69.4999 123.611 69.4999 123.611 69.5692 123.611H70.4007V127.6C70.4007 127.668 70.4007 127.668 70.47 127.737C70.5393 127.806 70.5393 127.806 70.6086 127.806H72.6874C72.7567 127.806 72.7567 127.806 72.826 127.737C72.8953 127.668 72.8953 127.668 72.8953 127.6V120.379C72.8953 120.31 72.8953 120.31 72.826 120.241C72.7567 120.172 72.7567 120.172 72.6874 120.172H69.5692Z" fill="white"/>
<path d="M97.1482 133.995C97.1482 136.54 95.0001 138.672 92.4363 138.672H89.041C86.4772 138.672 84.3291 136.54 84.3291 133.995V120.654C84.3291 118.109 86.4772 115.977 89.041 115.977H92.4363C95.0001 115.977 97.1482 118.109 97.1482 120.654V133.995Z" fill="#F8F8F8"/>
<path d="M92.4363 138.672C95.0001 138.672 97.1482 136.54 97.1482 133.995V120.654C97.1482 118.109 95.0001 115.977 92.4363 115.977H90.704V138.672H92.4363Z" fill="#E8E8E8"/>
<path d="M90.8427 115.977H90.5654V119.966H90.8427V115.977Z" fill="#CCCBCA"/>
<path d="M91.8126 120.86C91.8126 121.479 91.3276 121.892 90.7733 121.892C90.1496 121.892 89.7339 121.41 89.7339 120.86C89.7339 120.241 90.2189 119.828 90.7733 119.828C91.3276 119.828 91.8126 120.31 91.8126 120.86Z" fill="#353F49"/>
<path d="M110.383 124.849L106.433 126.774L110.383 128.7V124.849Z" fill="white"/>
<path d="M147.177 124.849H110.383V128.7H147.177V124.849Z" fill="#E8807A"/>
<path d="M147.176 126.775H110.382V128.701H147.176V126.775Z" fill="#DC2D22"/>
<path d="M108.026 126.018L106.433 126.775L108.026 127.531V126.018Z" fill="#474F59"/>
<path d="M147.8 124.849H147.177V128.7H147.8V124.849Z" fill="white"/>
<path d="M147.801 124.849V128.7C148.909 128.7 149.741 127.806 149.741 126.774C149.741 125.674 148.909 124.849 147.801 124.849Z" fill="#474F59"/>
<path d="M106.433 119.897H149.741V111.988H106.433V119.897ZM110.036 115.977C110.036 116.458 109.621 116.871 109.136 116.871C108.65 116.871 108.235 116.458 108.235 115.977C108.235 115.496 108.65 115.083 109.136 115.083C109.621 115.083 110.036 115.427 110.036 115.977Z" fill="#0164A8"/>
<path d="M106.433 115.977H108.165C108.165 115.496 108.581 115.083 109.066 115.083C109.551 115.083 109.967 115.496 109.967 115.977H149.671V111.988H106.364V115.977H106.433Z" fill="#353F49"/>
<path d="M111.976 111.988H111.769V113.777H111.976V111.988Z" fill="white"/>
<path d="M115.579 111.988H115.372V113.777H115.579V111.988Z" fill="white"/>
<path d="M119.183 111.988H118.975V113.777H119.183V111.988Z" fill="white"/>
<path d="M122.786 111.988H122.578V113.777H122.786V111.988Z" fill="white"/>
<path d="M126.389 111.988H126.181V113.777H126.389V111.988Z" fill="white"/>
<path d="M129.992 111.988H129.784V113.777H129.992V111.988Z" fill="white"/>
<path d="M133.595 111.988H133.388V113.777H133.595V111.988Z" fill="white"/>
<path d="M137.199 111.988H136.991V113.777H137.199V111.988Z" fill="white"/>
<path d="M140.802 111.988H140.594V113.777H140.802V111.988Z" fill="white"/>
<path d="M144.474 111.988H144.266V113.777H144.474V111.988Z" fill="white"/>
<path d="M148.078 111.988H147.87V113.777H148.078V111.988Z" fill="white"/>
<path d="M146.276 111.988H146.068V112.883H146.276V111.988Z" fill="white"/>
<path d="M142.673 111.988H142.465V112.883H142.673V111.988Z" fill="white"/>
<path d="M139.069 111.988H138.862V112.883H139.069V111.988Z" fill="white"/>
<path d="M135.466 111.988H135.258V112.883H135.466V111.988Z" fill="white"/>
<path d="M131.863 111.988H131.655V112.883H131.863V111.988Z" fill="white"/>
<path d="M128.26 111.988H128.052V112.883H128.26V111.988Z" fill="white"/>
<path d="M124.588 111.988H124.38V112.883H124.588V111.988Z" fill="white"/>
<path d="M120.984 111.988H120.776V112.883H120.984V111.988Z" fill="white"/>
<path d="M117.381 111.988H117.173V112.883H117.381V111.988Z" fill="white"/>
<path d="M113.778 111.988H113.57V112.883H113.778V111.988Z" fill="white"/>
<path d="M151.473 62.6102C151.057 62.1976 150.572 62.0601 150.018 62.0601H93.198C92.7129 62.0601 92.1586 62.2664 91.7428 62.6102C91.3271 63.0229 91.1885 63.5043 91.1885 64.0544V101.26H152.027V64.0544C152.096 63.573 151.888 63.0229 151.473 62.6102Z" fill="#F2F2F2"/>
<path d="M150.641 62.6102C150.225 62.1976 149.74 62.0601 149.186 62.0601H92.3665C91.8815 62.0601 91.3271 62.2664 90.9114 62.6102C90.4956 63.0229 90.3571 63.5043 90.3571 64.0544V101.26H151.196V64.0544C151.196 63.573 151.057 63.0229 150.641 62.6102Z" fill="#494949"/>
<path d="M121.469 63.642C121.469 63.986 121.192 64.33 120.776 64.33C120.36 64.33 120.083 64.0548 120.083 63.642C120.083 63.2981 120.36 62.9541 120.776 62.9541C121.192 62.9541 121.469 63.2293 121.469 63.642Z" fill="#232E38"/>
<path d="M121.123 63.6427C121.123 63.7805 120.984 63.9183 120.846 63.9183C120.707 63.9183 120.568 63.7805 120.568 63.6427C120.568 63.505 120.707 63.3672 120.846 63.3672C120.984 63.3672 121.123 63.505 121.123 63.6427Z" fill="#CCCBCA"/>
<path d="M148.008 65.1558H93.5446V98.9916H148.008V65.1558Z" fill="#C4EDF1"/>
<path d="M141.911 72.4443H99.7115V98.9216H141.911V72.4443Z" fill="white"/>
<path d="M141.911 68.2495H99.7115V70.3132H141.911V68.2495Z" fill="#0164A8"/>
<path d="M141.911 70.3135H99.7115V72.3772H141.911V70.3135Z" fill="#E6E5E5"/>
<path d="M138.307 71.001H103.384V71.8265H138.307V71.001Z" fill="white"/>
<path d="M103.384 69.2812H99.7115V70.3131H103.384V69.2812Z" fill="#E8807A"/>
<path d="M112.115 69.2812H103.384V70.3131H112.115V69.2812Z" fill="#E6E5E5"/>
<path d="M102.622 71.001H101.79V71.8265H102.622V71.001Z" fill="#CCCBCA"/>
<path d="M101.236 71.001H100.404V71.8265H101.236V71.001Z" fill="#CCCBCA"/>
<path d="M141.148 71.001H140.317V71.8265H141.148V71.001Z" fill="#CCCBCA"/>
<path d="M139.831 71.001H139V71.8265H139.831V71.001Z" fill="#CCCBCA"/>
<path d="M119.946 74.7139H104.147V84.6171H119.946V74.7139Z" fill="#DC2D22"/>
<path d="M112.045 76.8457C110.521 76.8457 109.274 78.0836 109.274 79.5966C109.274 81.1096 110.521 82.3475 112.045 82.3475C113.57 82.3475 114.817 81.1096 114.817 79.5966C114.817 78.0836 113.57 76.8457 112.045 76.8457ZM112.045 80.2843C111.699 80.2843 111.422 80.0092 111.422 79.6654C111.422 79.3215 111.699 79.0464 112.045 79.0464C112.392 79.0464 112.669 79.3215 112.669 79.6654C112.669 80.0092 112.392 80.2843 112.045 80.2843Z" fill="#474F59"/>
<path d="M112.461 76.3647H111.699V76.9836H112.461V76.3647Z" fill="#474F59"/>
<path d="M110.729 76.5713L110.036 76.984L110.382 77.4656L111.006 77.1216L110.729 76.5713Z" fill="#474F59"/>
<path d="M109.341 77.6158L108.959 78.2715L109.499 78.5814L109.881 77.9258L109.341 77.6158Z" fill="#474F59"/>
<path d="M109.343 79.2524H108.719V80.0092H109.343V79.2524Z" fill="#474F59"/>
<path d="M109.525 80.6494L108.985 80.9595L109.367 81.6151L109.907 81.305L109.525 80.6494Z" fill="#474F59"/>
<path d="M110.36 81.7631L110.049 82.2993L110.709 82.6768L111.02 82.1406L110.36 81.7631Z" fill="#474F59"/>
<path d="M111.67 82.3093L111.669 82.9282L112.431 82.9292L112.432 82.3103L111.67 82.3093Z" fill="#474F59"/>
<path d="M113.773 81.7754L113.112 82.1543L113.425 82.6908L114.085 82.3119L113.773 81.7754Z" fill="#474F59"/>
<path d="M114.748 81.5911L115.094 80.9719L114.609 80.6968L114.263 81.3159L114.748 81.5911Z" fill="#474F59"/>
<path d="M115.441 79.2524H114.817V80.0092H115.441V79.2524Z" fill="#474F59"/>
<path d="M114.781 77.6188L114.241 77.9287L114.623 78.5843L115.163 78.2744L114.781 77.6188Z" fill="#474F59"/>
<path d="M114.055 76.984L113.362 76.5713L113.085 77.1216L113.708 77.4656L114.055 76.984Z" fill="#474F59"/>
<path d="M112.046 78.29C111.283 78.29 110.66 78.9092 110.66 79.6659C110.66 80.4226 111.283 81.0417 112.046 81.0417C112.808 81.0417 113.431 80.4226 113.431 79.6659C113.431 78.9092 112.808 78.29 112.046 78.29ZM112.046 80.285C111.699 80.285 111.422 80.0098 111.422 79.6659C111.422 79.3219 111.699 79.0467 112.046 79.0467C112.392 79.0467 112.669 79.3219 112.669 79.6659C112.669 80.0098 112.392 80.285 112.046 80.285Z" fill="white"/>
<path d="M119.945 86.4053H104.146V89.8448H119.945V86.4053Z" fill="#FFD680"/>
<path d="M137.475 86.4053H121.677V89.8448H137.475V86.4053Z" fill="#FFD680"/>
<path d="M137.476 74.7139H122.163V75.4705H137.476V74.7139Z" fill="#CCCBCA"/>
<path d="M137.476 76.5713H122.162V77.328H137.476V76.5713Z" fill="#CCCBCA"/>
<path d="M127.22 78.4282H122.162V79.1849H127.22V78.4282Z" fill="#CCCBCA"/>
<path d="M137.476 91.6318H104.146V92.3882H137.476V91.6318Z" fill="#474F59"/>
<path d="M137.476 93.5581H104.146V94.3148H137.476V93.5581Z" fill="#CCCBCA"/>
<path d="M120.776 95.4141H104.146V96.1705H120.776V95.4141Z" fill="#CCCBCA"/>
<path d="M121.054 101.26V104.356H148.978C149.741 104.356 150.572 104.081 151.196 103.462C151.819 102.842 152.097 102.086 152.097 101.26H121.054Z" fill="#CCCBCA"/>
<path d="M146.484 102.361C146.484 102.43 146.484 102.43 146.553 102.43H148.909C148.978 102.43 148.978 102.361 148.978 102.361V102.086C148.978 102.017 148.978 102.017 148.909 102.017H146.553C146.484 102.017 146.484 102.086 146.484 102.086V102.361Z" fill="#474F59"/>
<path d="M142.95 102.361C142.95 102.43 143.019 102.43 143.019 102.43H145.375C145.445 102.43 145.445 102.361 145.445 102.361V102.086C145.445 102.017 145.375 102.017 145.375 102.017H143.019C142.95 102.017 142.95 102.086 142.95 102.086V102.361Z" fill="#474F59"/>
<path d="M141.911 102.223C141.911 102.36 141.772 102.429 141.703 102.429C141.564 102.429 141.495 102.292 141.495 102.223C141.495 102.086 141.633 102.017 141.703 102.017C141.772 101.948 141.911 102.086 141.911 102.223Z" fill="#474F59"/>
<path d="M67.3521 101.26C67.3521 102.017 67.6292 102.842 68.2528 103.462C68.8765 104.081 69.6387 104.356 70.4702 104.356H121.053C121.816 104.356 122.647 104.081 123.271 103.462C123.894 102.842 124.172 102.086 124.172 101.26H67.3521Z" fill="white"/>
<path d="M80.3789 102.155C80.3789 102.224 80.3096 102.293 80.2403 102.293H75.8749C75.8056 102.293 75.7363 102.224 75.7363 102.155C75.7363 102.086 75.8056 102.017 75.8749 102.017H80.2403C80.3096 101.948 80.3789 102.017 80.3789 102.155Z" fill="#CCCBCA"/>
<path d="M78.0923 101.948H75.9442C75.875 101.948 75.8057 102.017 75.8057 102.086C75.8057 102.155 75.875 102.224 75.9442 102.224H78.0923V101.948Z" fill="#C4EDF1"/>
<path d="M110.451 56.0081C109.066 56.0081 107.957 54.9077 107.957 53.5323V23.2038C107.957 21.8284 109.066 20.728 110.451 20.728H124.864C126.25 20.728 127.359 21.8284 127.359 23.2038V53.5323C127.359 54.9077 126.25 56.0081 124.864 56.0081H110.451Z" fill="#F2F2F2"/>
<path d="M109.551 56.0081C108.165 56.0081 107.056 54.9078 107.056 53.5323V23.2038C107.056 21.8284 108.165 20.728 109.551 20.728H123.963C125.349 20.728 126.458 21.8284 126.458 23.2038V53.5323C126.458 54.9078 125.349 56.0081 123.963 56.0081H109.551Z" fill="#0164A8"/>
<path d="M118.905 53.4636C118.905 53.8076 118.628 54.0828 118.281 54.0828H115.163C114.817 54.0828 114.54 53.8076 114.54 53.4636V53.1885C114.54 52.8445 114.817 52.5693 115.163 52.5693H118.281C118.628 52.5693 118.905 52.8445 118.905 53.1885V53.4636Z" fill="#353F49"/>
<path d="M117.45 23.3422C117.45 23.755 117.103 24.0302 116.757 24.0302C116.341 24.0302 116.064 23.6862 116.064 23.3422C116.064 22.9295 116.41 22.6543 116.757 22.6543C117.103 22.6543 117.45 22.9983 117.45 23.3422Z" fill="#353F49"/>
<path d="M117.034 23.3419C117.034 23.5482 116.896 23.6857 116.688 23.6857C116.48 23.6857 116.341 23.5482 116.341 23.3419C116.341 23.1356 116.48 22.998 116.688 22.998C116.896 23.0668 117.034 23.2044 117.034 23.3419Z" fill="#CCCBCA"/>
<path d="M125.003 26.0234H108.442V50.6438H125.003V26.0234Z" fill="white"/>
<path d="M125.003 26.0234H108.442V28.4999H125.003V26.0234Z" fill="#ABE0E5"/>
<path d="M123.547 31.5254H109.966V39.2966H123.547V31.5254Z" fill="#DC2D22"/>
<path d="M123.547 40.6719H109.966V43.3547H123.547V40.6719Z" fill="#FFD680"/>
<path d="M123.547 44.7983H109.966V45.4183H123.547V44.7983Z" fill="#474F59"/>
<path d="M123.547 46.2432H109.966V46.8631H123.547V46.2432Z" fill="#CCCBCA"/>
<path d="M116.757 47.7563H109.966V48.3762H116.757V47.7563Z" fill="#CCCBCA"/>
</svg>
