<svg width="262" height="199" viewBox="0 0 262 199" fill="none" xmlns="http://www.w3.org/2000/svg">
<mask id="mask0" mask-type="alpha" maskUnits="userSpaceOnUse" x="0" y="0" width="262" height="199">
<rect width="262" height="199" fill="#C4C4C4"/>
</mask>
<g mask="url(#mask0)">
<ellipse cx="97" cy="172.5" rx="86" ry="85.5" fill="white"/>
<path d="M115.003 147.509C115.003 147.509 109.824 150.04 108.001 156.561C106.178 163.081 100.61 180.081 100.61 180.081C100.61 180.081 97.4285 183.831 97.0888 186.61C96.7491 189.389 97.4285 196.109 98.456 197.362C99.4834 198.615 100.942 198.407 100.942 198.407L114.331 197.13L119.609 161.746L115.003 147.509Z" fill="#DC2D22"/>
<path d="M159.314 146.887C159.314 146.887 168.901 149.898 171.287 152.511L163.441 189.065L163.565 200.597H118.134C118.134 200.024 117.728 162.309 117.728 162.309L115.002 147.509L131.143 144.655L134.325 142.149L152.288 143.062L155.014 145.791L159.314 146.887Z" fill="#DC2D22"/>
<g opacity="0.3">
<path opacity="0.3" d="M155.677 178.595C155.818 178.288 156.017 177.948 156.349 177.882C156.895 177.766 157.26 178.413 157.451 178.944C158.925 183.125 160.881 186.975 163.416 190.608L163.532 196.217C160.881 193.985 158.271 191.596 156.581 188.567C154.899 185.548 154.252 181.756 155.677 178.595Z" fill="black"/>
</g>
<path d="M171.287 152.512C171.287 152.512 174.444 156.826 175.753 159.638C177.063 162.451 187.925 186.087 188.588 188.518C189.242 190.957 190.933 198.647 185.97 200.431H175.762L165.512 179.682L164.99 155.606L171.287 152.512Z" fill="#DC2D22"/>
<path d="M175.107 185.448C175.124 185.465 175.331 185.249 175.803 184.975C176.275 184.71 177.005 184.403 177.949 184.195C178.421 184.096 178.943 184.013 179.507 183.98C180.07 183.946 180.683 183.955 181.297 184.096C182.531 184.369 183.766 185.158 184.735 186.253C185.721 187.348 186.326 188.65 186.682 189.878C187.047 191.106 187.196 192.259 187.295 193.222C187.395 194.192 187.428 194.972 187.461 195.52C187.478 195.777 187.486 195.984 187.503 196.142C187.511 196.283 187.519 196.358 187.527 196.358C187.536 196.358 187.536 196.283 187.544 196.142C187.544 195.976 187.544 195.769 187.544 195.511C187.536 194.964 187.519 194.176 187.445 193.205C187.362 192.234 187.221 191.073 186.865 189.82C186.517 188.576 185.895 187.24 184.893 186.12C183.898 184.992 182.631 184.187 181.346 183.913C180.708 183.772 180.079 183.764 179.507 183.814C178.935 183.855 178.405 183.946 177.924 184.063C176.971 184.287 176.242 184.618 175.77 184.909C175.538 185.058 175.372 185.191 175.265 185.282C175.149 185.39 175.099 185.44 175.107 185.448Z" fill="#1A2E35"/>
<path d="M179.946 181.316C179.946 181.3 179.822 181.283 179.607 181.258C179.383 181.233 179.06 181.225 178.662 181.242C178.264 181.258 177.784 181.325 177.27 181.449C176.756 181.582 176.201 181.764 175.646 182.03C175.091 182.295 174.602 182.611 174.171 182.934C173.749 183.258 173.401 183.59 173.135 183.888C172.87 184.187 172.671 184.444 172.547 184.635C172.423 184.826 172.365 184.925 172.373 184.934C172.406 184.959 172.68 184.544 173.235 183.98C173.508 183.698 173.865 183.391 174.279 183.075C174.701 182.768 175.19 182.47 175.729 182.204C176.276 181.947 176.814 181.764 177.311 181.623C177.817 181.499 178.281 181.416 178.67 181.383C179.449 181.308 179.946 181.35 179.946 181.316Z" fill="#1A2E35"/>
<path d="M170.716 180.18C170.716 180.196 170.89 180.18 171.188 180.147C171.486 180.105 171.926 180.064 172.464 180.022C173.541 179.939 175.049 179.923 176.69 180.113C178.33 180.313 179.789 180.686 180.816 181.018C181.33 181.184 181.744 181.333 182.026 181.441C182.308 181.549 182.473 181.598 182.473 181.59C182.482 181.582 182.332 181.499 182.051 181.374C181.777 181.242 181.363 181.076 180.849 180.893C179.822 180.52 178.355 180.122 176.698 179.923C175.041 179.724 173.525 179.765 172.439 179.889C171.901 179.948 171.462 180.014 171.163 180.072C170.873 180.122 170.716 180.163 170.716 180.18Z" fill="#1A2E35"/>
<path d="M141.642 159.987C141.642 159.987 141.683 159.945 141.749 159.862C141.824 159.763 141.915 159.638 142.031 159.489C142.28 159.141 142.628 158.659 143.058 158.062C143.937 156.818 145.171 155.084 146.613 153.043L146.456 153.018C147.002 154.636 147.616 156.419 148.254 158.294L148.295 158.41L148.394 158.344C148.461 158.303 148.535 158.253 148.61 158.211C149.455 157.672 150.201 157.033 150.83 156.328C151.46 155.623 151.982 154.876 152.421 154.13C153.291 152.628 153.813 151.151 154.17 149.898C154.526 148.646 154.708 147.6 154.832 146.887C154.89 146.547 154.94 146.273 154.973 146.066C154.99 145.974 155.006 145.9 155.023 145.858C155.04 145.817 155.048 145.792 155.048 145.792C155.006 145.775 154.899 146.173 154.758 146.879C154.609 147.592 154.41 148.621 154.037 149.865C153.664 151.101 153.134 152.562 152.264 154.038C151.833 154.777 151.311 155.507 150.69 156.195C150.068 156.884 149.331 157.514 148.502 158.037C148.428 158.087 148.361 158.128 148.295 158.17L148.436 158.22C147.79 156.345 147.176 154.561 146.621 152.943L146.563 152.777L146.464 152.927C145.039 154.984 143.837 156.735 142.967 157.987C142.553 158.601 142.222 159.082 141.981 159.439C141.874 159.597 141.791 159.73 141.724 159.829C141.658 159.937 141.633 159.987 141.642 159.987Z" fill="#1A2E35"/>
<g opacity="0.3">
<path opacity="0.3" d="M129.809 177.434C130.232 181.657 129.295 186.012 127.182 189.687C125.07 193.371 121.971 196.648 118.11 198.407C117.985 194.657 118.168 190.235 118.043 186.485L129.809 177.434Z" fill="black"/>
</g>
<path d="M130.24 172.497C130.24 172.497 131.889 172.954 130.655 176.339C129.42 179.724 129.006 179.516 128.177 182.685C127.349 185.855 126.388 188.742 124.946 190.534C123.504 192.326 118.135 195.976 118.135 195.976L113.321 191.43C113.321 191.43 114.116 188.045 113.926 185.747C113.735 183.449 113.255 177.799 113.321 176.836C113.387 175.874 114.423 173.534 114.423 173.534V171.933L116.9 164.309C116.9 164.309 118.276 163.687 118.756 165.894L119.585 163.554C119.585 163.554 120.894 163.347 121.234 166.026C121.574 168.714 120.96 172.431 120.96 172.431L121.648 177.11L122.676 180.279L123.57 180.42C123.57 180.42 124.913 180.055 125.65 177.517C126.388 174.978 128.384 171.95 130.24 172.497Z" fill="#FFBF9D"/>
<path d="M114.936 184.469C114.945 184.469 114.953 184.411 114.961 184.295C114.969 184.162 114.978 183.996 114.994 183.789C115.019 183.324 115.052 182.686 115.094 181.889C115.168 180.246 115.268 177.957 115.392 175.285L115.367 175.343C115.591 175.078 115.98 175.003 116.345 175.086C116.709 175.177 117.033 175.401 117.24 175.742C117.662 176.422 117.687 177.301 117.811 178.156C118.077 180.089 118.325 181.922 118.549 183.598C118.665 184.436 118.781 185.232 118.947 185.971C119.104 186.709 119.328 187.381 119.543 187.979C119.759 188.576 119.941 189.123 120.057 189.613C120.173 190.102 120.223 190.534 120.214 190.891C120.198 191.604 119.991 191.961 120.024 191.969C120.032 191.969 120.073 191.878 120.14 191.704C120.198 191.521 120.272 191.256 120.289 190.891C120.314 190.534 120.272 190.086 120.165 189.588C120.057 189.09 119.875 188.534 119.667 187.929C119.46 187.323 119.245 186.668 119.096 185.929C118.938 185.199 118.831 184.403 118.715 183.573C118.491 181.897 118.251 180.064 117.994 178.131C117.936 177.699 117.886 177.276 117.811 176.853C117.737 176.43 117.621 176.007 117.389 175.642C117.165 175.269 116.784 174.995 116.378 174.904C115.972 174.804 115.491 174.887 115.218 175.227L115.201 175.252V175.285C115.11 177.957 115.027 180.246 114.978 181.889C114.961 182.686 114.945 183.324 114.928 183.789C114.928 183.996 114.928 184.162 114.92 184.295C114.928 184.411 114.928 184.469 114.936 184.469Z" fill="#FF9A6C"/>
<path d="M117.563 175.799C117.571 175.808 117.654 175.65 117.762 175.368C117.878 175.086 118.027 174.663 118.168 174.132C118.309 173.601 118.441 172.962 118.516 172.232C118.549 171.867 118.582 171.485 118.532 171.079C118.491 170.681 118.375 170.257 118.118 169.901C117.903 169.594 117.588 169.345 117.24 169.237L117.165 169.212L117.124 169.279C116.428 170.506 115.823 171.593 115.392 172.381C115.193 172.746 115.036 173.053 114.895 173.302C114.779 173.518 114.729 173.642 114.737 173.651C114.746 173.659 114.82 173.543 114.953 173.335C115.102 173.095 115.284 172.796 115.5 172.439C115.955 171.676 116.585 170.598 117.289 169.37L117.182 169.411C117.488 169.503 117.762 169.718 117.952 170C118.184 170.324 118.292 170.714 118.333 171.087C118.375 171.469 118.358 171.842 118.325 172.199C118.259 172.912 118.143 173.551 118.027 174.082C117.903 174.613 117.778 175.036 117.687 175.327C117.604 175.633 117.555 175.791 117.563 175.799Z" fill="#FF9A6C"/>
<path d="M118.715 176.413C118.732 176.413 118.74 176.256 118.757 175.974C118.773 175.65 118.79 175.252 118.806 174.779C118.84 173.767 118.873 172.365 118.889 170.822C118.898 169.279 118.964 167.877 118.831 166.856C118.765 166.35 118.666 165.943 118.574 165.678C118.483 165.404 118.409 165.271 118.4 165.271C118.367 165.28 118.608 165.869 118.699 166.873C118.798 167.877 118.715 169.27 118.699 170.822C118.674 172.365 118.666 173.767 118.674 174.779C118.682 175.252 118.682 175.65 118.69 175.982C118.69 176.256 118.707 176.413 118.715 176.413Z" fill="#FF9A6C"/>
<path d="M122.784 189.115C122.809 189.09 122.51 188.733 122.137 188.094C121.947 187.771 121.756 187.373 121.574 186.916C121.4 186.46 121.251 185.937 121.143 185.382C121.044 184.826 121.011 184.286 121.011 183.797C121.019 183.307 121.06 182.868 121.127 182.503C121.251 181.773 121.408 181.333 121.375 181.316C121.359 181.308 121.317 181.416 121.234 181.615C121.151 181.814 121.069 182.105 120.986 182.478C120.903 182.851 120.845 183.299 120.828 183.797C120.82 184.295 120.853 184.851 120.953 185.423C121.06 185.995 121.226 186.518 121.408 186.991C121.599 187.456 121.814 187.854 122.021 188.169C122.229 188.484 122.411 188.733 122.552 188.891C122.693 189.04 122.775 189.123 122.784 189.115Z" fill="#FF9A6C"/>
<path d="M114.34 186.742L110.164 188.194C110.164 188.194 106.179 186.129 103.428 188.194C100.677 190.26 98.291 195.702 99.045 197.909C99.045 197.909 100.942 200.257 102.384 200.597C103.826 200.937 109.444 199.577 111.78 199.087C114.125 198.598 118.144 195.976 118.144 195.976L114.34 186.742Z" fill="#FFBF9D"/>
<path d="M113.826 192.906C113.843 192.906 113.851 192.774 113.868 192.533C113.884 192.251 113.901 191.911 113.926 191.521C113.967 190.666 114.025 189.488 114.042 188.186C114.058 186.883 114.025 185.697 113.942 184.842C113.909 184.419 113.859 184.071 113.818 183.838C113.777 183.606 113.744 183.473 113.735 183.473C113.702 183.482 113.768 184.004 113.81 184.851C113.851 185.705 113.868 186.883 113.851 188.186C113.826 189.463 113.81 190.617 113.793 191.521C113.785 191.952 113.793 192.292 113.793 192.533C113.801 192.774 113.81 192.906 113.826 192.906Z" fill="#FF9A6C"/>
<path d="M100.047 188.028C100.08 188.061 100.503 187.464 101.439 186.776C102.351 186.087 103.842 185.357 105.599 185.257C107.363 185.158 108.921 185.722 109.907 186.311C110.91 186.892 111.399 187.439 111.423 187.406C111.432 187.398 111.316 187.257 111.075 187.033C110.843 186.809 110.471 186.502 109.973 186.195C108.987 185.573 107.397 184.967 105.59 185.066C103.784 185.166 102.268 185.946 101.356 186.668C100.892 187.033 100.561 187.373 100.354 187.622C100.138 187.871 100.039 188.02 100.047 188.028Z" fill="#1A2E35"/>
<path d="M100.585 184.544C100.61 184.585 101.173 184.021 102.325 183.581C103.46 183.133 105.217 182.934 107.031 183.44C107.935 183.689 108.755 184.054 109.467 184.453C110.172 184.859 110.76 185.299 111.232 185.697C111.705 186.095 112.061 186.444 112.309 186.693C112.558 186.933 112.691 187.074 112.699 187.058C112.707 187.049 112.591 186.9 112.359 186.634C112.127 186.377 111.787 186.004 111.323 185.589C110.859 185.174 110.271 184.71 109.559 184.295C108.846 183.88 108.009 183.507 107.089 183.25C105.242 182.727 103.427 182.959 102.284 183.449C101.704 183.689 101.273 183.963 100.999 184.179C100.859 184.278 100.759 184.378 100.693 184.436C100.618 184.502 100.585 184.536 100.585 184.544Z" fill="#1A2E35"/>
<path d="M100.552 181.524C100.56 181.565 101.289 181.341 102.507 181.175C103.112 181.092 103.841 181.043 104.645 181.043C105.449 181.051 106.344 181.117 107.255 181.275C108.175 181.441 109.028 181.681 109.791 181.947C110.553 182.221 111.216 182.519 111.754 182.81C112.84 183.382 113.445 183.839 113.469 183.805C113.478 183.797 113.329 183.673 113.055 183.473C112.914 183.366 112.749 183.249 112.533 183.117C112.326 182.984 112.094 182.826 111.821 182.685C111.282 182.378 110.611 182.071 109.849 181.781C109.078 181.507 108.216 181.25 107.28 181.084C106.352 180.926 105.449 180.86 104.629 180.86C103.808 180.868 103.079 180.935 102.466 181.043C102.159 181.084 101.886 181.15 101.646 181.2C101.405 181.25 101.198 181.308 101.041 181.358C100.726 181.449 100.552 181.507 100.552 181.524Z" fill="#1A2E35"/>
<path d="M132.552 144.531C132.552 144.531 132.361 144.896 132.262 145.642C132.162 146.389 132.171 147.501 132.419 148.886C132.543 149.575 132.709 150.338 132.958 151.151C133.215 151.964 133.612 152.794 134.051 153.665C134.955 155.399 136.081 157.299 137.391 159.315L137.54 159.547V159.265C137.54 157.929 137.548 156.527 137.548 155.075L137.399 155.142C138.526 156.046 139.702 157.008 140.92 157.987L140.887 157.946C141.707 160.534 142.238 163.421 142.453 166.425C142.801 171.021 142.519 175.418 142.304 179.408C142.122 183.399 141.997 187 141.873 190.019C141.757 193.039 141.641 195.487 141.55 197.171C141.5 198.009 141.459 198.656 141.434 199.112C141.417 199.328 141.409 199.494 141.401 199.618C141.393 199.734 141.393 199.792 141.393 199.792C141.393 199.792 141.401 199.734 141.417 199.618C141.434 199.494 141.451 199.328 141.467 199.112C141.509 198.672 141.567 198.017 141.616 197.171C141.732 195.487 141.865 193.039 141.997 190.019C142.13 187 142.296 183.399 142.47 179.408C142.693 175.426 142.983 171.021 142.635 166.4C142.42 163.388 141.881 160.485 141.053 157.88L141.045 157.855L141.02 157.838C139.802 156.859 138.617 155.905 137.49 155.001L137.341 154.885V155.075C137.341 156.527 137.349 157.929 137.349 159.265L137.507 159.215C134.913 155.192 132.809 151.69 132.485 148.87C132.229 147.501 132.195 146.389 132.278 145.651C132.311 145.277 132.386 145.004 132.436 144.813C132.527 144.63 132.552 144.531 132.552 144.531Z" fill="#1A2E35"/>
<path d="M139.321 193.255L139.454 193.246C140 193.263 140.489 193.761 140.489 194.308C140.489 194.856 140.009 195.354 139.462 195.379C138.915 195.395 138.401 194.931 138.36 194.383C138.327 193.844 138.774 193.313 139.321 193.255Z" fill="white"/>
<path d="M139.321 178.703L139.454 178.695C140 178.711 140.489 179.209 140.489 179.756C140.489 180.304 140.009 180.802 139.462 180.827C138.915 180.843 138.401 180.379 138.36 179.831C138.327 179.284 138.774 178.753 139.321 178.703Z" fill="white"/>
<path d="M139.462 165.678C138.915 165.694 138.401 165.23 138.36 164.682C138.327 164.135 138.774 163.604 139.321 163.554L139.454 163.546C140 163.562 140.489 164.06 140.489 164.608C140.489 165.155 140.009 165.653 139.462 165.678Z" fill="white"/>
<path d="M155.743 127.473C157.069 126.005 158.403 124.528 159.364 122.803C160.325 121.077 160.905 119.069 160.582 117.12C160.391 115.983 159.911 114.896 159.836 113.743C159.728 112.158 160.4 110.499 159.836 109.014C158.958 106.691 155.834 106.334 153.937 104.725C152.462 103.472 151.741 101.448 150.117 100.394C148.7 99.4734 146.877 99.4983 145.204 99.7306C143.53 99.9712 141.848 100.386 140.174 100.162C138.981 100.004 137.854 99.5149 136.686 99.2328C135.518 98.9424 134.217 98.8678 133.173 99.4734C132.129 100.079 131.549 101.556 132.228 102.551C130.289 101.655 127.829 103.165 127.298 105.239C126.768 107.313 127.829 109.545 129.469 110.914C131.11 112.283 133.239 112.913 135.335 113.312C141.276 114.432 147.723 113.801 152.843 110.582" fill="#1A2E35"/>
<path d="M134.863 147.476C135.153 145.228 135.393 143.345 135.401 143.112C135.401 143.112 127.886 141.42 128.3 133.812C128.499 130.137 129.527 122.595 130.538 115.784C131.623 108.467 138.144 103.224 145.51 103.713L146.239 103.763C154.11 104.75 157.665 112.001 156.455 119.849L152.213 146.165C152.213 146.165 150.398 151.989 146.529 152.993L141.64 159.987L140.828 156.975L137.183 153.798C137.183 153.798 136.346 152.894 135.385 151.118C134.598 149.675 134.763 148.181 134.863 147.476Z" fill="#FFBF9D"/>
<path d="M135.402 143.004C135.402 143.004 140.174 143.718 145.485 140.847C145.485 140.847 142.784 146.165 135.253 144.97L135.402 143.004Z" fill="#FF9A6C"/>
<path d="M132.982 122.322C132.924 122.894 133.355 123.417 133.952 123.483C134.548 123.558 135.078 123.151 135.136 122.579C135.194 122.007 134.764 121.484 134.167 121.409C133.57 121.343 133.04 121.749 132.982 122.322Z" fill="#1A2E35"/>
<path d="M131.922 119.626C132.046 119.775 132.908 119.219 134.076 119.302C135.244 119.368 136.056 120.024 136.197 119.891C136.263 119.833 136.147 119.567 135.791 119.269C135.443 118.97 134.83 118.671 134.109 118.622C133.38 118.58 132.75 118.804 132.386 119.053C131.996 119.31 131.864 119.559 131.922 119.626Z" fill="#1A2E35"/>
<path d="M144.002 123.11C143.944 123.683 144.374 124.205 144.971 124.272C145.568 124.346 146.098 123.94 146.156 123.367C146.214 122.795 145.783 122.272 145.186 122.198C144.59 122.139 144.06 122.538 144.002 123.11Z" fill="#1A2E35"/>
<path d="M143.381 120.613C143.505 120.762 144.367 120.206 145.535 120.289C146.703 120.356 147.515 121.011 147.656 120.878C147.722 120.82 147.606 120.555 147.25 120.256C146.902 119.957 146.289 119.659 145.568 119.609C144.839 119.568 144.209 119.792 143.845 120.04C143.455 120.298 143.314 120.546 143.381 120.613Z" fill="#1A2E35"/>
<path d="M138.567 128.992C138.575 128.926 137.863 128.751 136.694 128.519C136.396 128.469 136.123 128.386 136.081 128.187C136.023 127.963 136.172 127.656 136.338 127.316C136.67 126.611 137.009 125.873 137.374 125.101C138.816 121.949 139.876 119.352 139.752 119.294C139.628 119.236 138.352 121.749 136.918 124.902C136.57 125.682 136.239 126.42 135.924 127.134C135.791 127.466 135.568 127.839 135.692 128.295C135.758 128.527 135.965 128.702 136.156 128.768C136.346 128.843 136.512 128.851 136.661 128.876C137.821 129 138.559 129.058 138.567 128.992Z" fill="#1A2E35"/>
<path d="M143.381 116.017C143.472 116.34 144.648 116.266 146.007 116.523C147.374 116.755 148.443 117.228 148.65 116.954C148.741 116.822 148.567 116.515 148.145 116.174C147.722 115.834 147.035 115.503 146.223 115.353C145.411 115.212 144.648 115.287 144.135 115.461C143.613 115.627 143.339 115.859 143.381 116.017Z" fill="#1A2E35"/>
<path d="M132.576 116.274C132.766 116.556 133.587 116.332 134.556 116.382C135.526 116.398 136.329 116.68 136.536 116.415C136.628 116.282 136.52 116.008 136.18 115.734C135.849 115.461 135.269 115.22 134.606 115.195C133.943 115.17 133.346 115.378 132.998 115.627C132.626 115.875 132.493 116.141 132.576 116.274Z" fill="#1A2E35"/>
<path d="M155.461 125.433C155.594 125.383 160.781 124.238 160.267 129.423C159.753 134.608 154.144 132.916 154.144 132.767C154.16 132.626 155.461 125.433 155.461 125.433Z" fill="#FFBF9D"/>
<path d="M156.447 131.074C156.472 131.057 156.53 131.149 156.679 131.232C156.82 131.315 157.069 131.389 157.35 131.315C157.914 131.165 158.461 130.344 158.585 129.415C158.643 128.942 158.593 128.486 158.461 128.096C158.336 127.697 158.121 127.415 157.848 127.332C157.582 127.241 157.367 127.391 157.292 127.523C157.21 127.664 157.234 127.772 157.201 127.772C157.185 127.78 157.102 127.673 157.16 127.465C157.193 127.366 157.268 127.249 157.392 127.158C157.524 127.067 157.715 127.034 157.906 127.075C158.303 127.142 158.626 127.548 158.767 127.971C158.933 128.403 159.008 128.917 158.933 129.448C158.8 130.493 158.162 131.414 157.392 131.555C157.019 131.613 156.729 131.472 156.58 131.34C156.447 131.199 156.431 131.074 156.447 131.074Z" fill="#FF9A6C"/>
<path d="M130.919 108.699C131.276 110.765 135.46 112.656 138.923 112.557C142.122 112.465 143.696 110.873 146.024 109.744C147.491 109.031 147.491 109.031 149.488 109.354C151.103 109.62 151.94 111.52 152.843 112.88C151.12 116.647 151.816 121.027 152.545 125.101C152.628 125.549 152.727 126.038 153.067 126.337C153.647 126.851 154.592 126.544 155.163 126.022C156.083 125.184 156.497 123.931 156.796 122.728C157.483 119.974 157.74 117.095 157.309 114.291C156.879 111.486 155.719 108.765 153.805 106.675C151.418 104.061 147.922 102.551 144.392 102.369C140.854 102.186 137.308 103.281 134.35 105.223C132.983 106.135 131.698 107.247 130.919 108.699Z" fill="#1A2E35"/>
<path d="M137.805 131.621C138.683 131.207 139.561 130.8 140.448 130.385C140.597 130.311 140.763 130.244 140.928 130.261C141.119 130.286 141.268 130.427 141.384 130.568C141.997 131.314 142.155 132.434 141.674 133.272C141.202 134.11 140.083 134.55 139.197 134.185C138.26 133.795 137.805 132.708 137.73 131.696L137.805 131.621Z" fill="#FF9A6C"/>
<path d="M139.114 134.376C139.106 134.401 139.238 134.476 139.503 134.534C139.769 134.584 140.166 134.6 140.639 134.451C141.103 134.301 141.625 133.936 141.948 133.356C142.279 132.792 142.395 131.995 142.105 131.273C141.964 130.917 141.757 130.601 141.492 130.352C141.359 130.228 141.219 130.12 141.061 130.029C140.978 129.979 140.879 129.938 140.755 129.929C140.639 129.921 140.531 129.954 140.448 129.987C140.274 130.062 140.166 130.145 140.034 130.22C139.909 130.294 139.793 130.369 139.677 130.444C139.454 130.585 139.238 130.717 139.031 130.85C138.244 131.348 137.78 131.68 137.805 131.73C137.83 131.779 138.352 131.53 139.172 131.091C139.379 130.975 139.603 130.858 139.843 130.726C139.959 130.659 140.083 130.593 140.216 130.518C140.34 130.452 140.481 130.361 140.589 130.319C140.713 130.278 140.763 130.278 140.879 130.344C140.995 130.419 141.119 130.51 141.227 130.618C141.442 130.834 141.625 131.099 141.741 131.406C141.981 132.012 141.898 132.675 141.633 133.173C141.368 133.679 140.945 134.011 140.539 134.177C140.133 134.343 139.769 134.368 139.52 134.368C139.263 134.376 139.122 134.351 139.114 134.376Z" fill="#1A2E35"/>
<path d="M139.942 122.454C139.975 122.454 139.942 121.973 140.149 121.144C140.357 120.33 140.903 119.136 142.121 118.207C142.726 117.75 143.489 117.369 144.367 117.219C145.237 117.07 146.223 117.103 147.159 117.46C147.631 117.626 148.087 117.875 148.501 118.19C148.924 118.497 149.305 118.879 149.62 119.318C150.274 120.189 150.639 121.309 150.656 122.463C150.647 123.616 150.274 124.736 149.62 125.607C149.305 126.047 148.924 126.428 148.501 126.735C148.087 127.05 147.631 127.299 147.159 127.465C146.223 127.822 145.237 127.855 144.367 127.706C143.489 127.548 142.726 127.167 142.121 126.719C140.895 125.789 140.357 124.595 140.149 123.782C139.942 122.936 139.975 122.454 139.942 122.454C139.942 122.454 139.934 122.488 139.934 122.546C139.934 122.612 139.934 122.703 139.934 122.803C139.934 122.919 139.942 123.06 139.967 123.226C139.992 123.392 140.009 123.583 140.067 123.79C140.158 124.213 140.348 124.719 140.655 125.25C140.961 125.781 141.417 126.337 142.03 126.818C142.643 127.291 143.431 127.689 144.334 127.855C145.229 128.013 146.248 127.988 147.217 127.623C147.706 127.457 148.178 127.2 148.609 126.876C149.048 126.561 149.446 126.163 149.777 125.706C150.457 124.802 150.838 123.641 150.854 122.446C150.846 121.251 150.457 120.09 149.777 119.186C149.446 118.729 149.048 118.331 148.609 118.016C148.178 117.692 147.706 117.435 147.217 117.269C146.248 116.904 145.229 116.879 144.334 117.037C143.431 117.203 142.652 117.609 142.03 118.074C141.409 118.547 140.961 119.111 140.655 119.642C140.348 120.173 140.158 120.679 140.067 121.102C140.009 121.309 139.984 121.5 139.967 121.666C139.942 121.832 139.934 121.973 139.934 122.089C139.934 122.189 139.934 122.28 139.934 122.346C139.934 122.421 139.942 122.454 139.942 122.454Z" fill="#1A2E35"/>
<path d="M127.025 121.948C127.058 121.948 127.025 121.475 127.224 120.67C127.422 119.874 127.953 118.712 129.146 117.808C129.734 117.368 130.48 116.995 131.333 116.846C132.187 116.705 133.14 116.73 134.059 117.078C134.515 117.236 134.962 117.476 135.368 117.783C135.783 118.082 136.156 118.455 136.462 118.887C137.1 119.733 137.456 120.828 137.465 121.948C137.456 123.068 137.1 124.163 136.462 125.009C136.156 125.441 135.783 125.814 135.368 126.113C134.962 126.42 134.515 126.66 134.059 126.818C133.148 127.166 132.187 127.191 131.333 127.05C130.48 126.901 129.734 126.528 129.146 126.088C127.953 125.184 127.431 124.022 127.224 123.226C127.025 122.413 127.058 121.94 127.025 121.948C127.016 121.948 127.016 122.064 127.025 122.288C127.025 122.396 127.033 122.537 127.058 122.695C127.083 122.852 127.099 123.043 127.157 123.242C127.34 124.055 127.862 125.25 129.071 126.196C129.668 126.652 130.43 127.05 131.317 127.208C132.195 127.366 133.181 127.341 134.134 126.984C134.614 126.818 135.07 126.569 135.493 126.254C135.924 125.947 136.313 125.557 136.628 125.117C137.291 124.238 137.664 123.109 137.672 121.94C137.664 120.778 137.291 119.642 136.628 118.762C136.305 118.314 135.915 117.933 135.493 117.626C135.07 117.31 134.606 117.061 134.134 116.896C133.189 116.539 132.195 116.514 131.317 116.672C130.438 116.829 129.676 117.227 129.071 117.684C127.862 118.621 127.34 119.824 127.157 120.637C127.099 120.845 127.083 121.027 127.058 121.185C127.033 121.342 127.025 121.483 127.025 121.591C127.016 121.832 127.016 121.948 127.025 121.948Z" fill="#1A2E35"/>
<path d="M137.564 120.753C137.589 120.778 137.713 120.67 137.937 120.563C138.161 120.455 138.501 120.347 138.89 120.355C139.271 120.364 139.611 120.48 139.835 120.596C140.058 120.712 140.183 120.828 140.199 120.803C140.216 120.787 140.133 120.637 139.901 120.48C139.677 120.322 139.313 120.164 138.89 120.156C138.467 120.148 138.095 120.289 137.871 120.438C137.647 120.588 137.548 120.737 137.564 120.753Z" fill="#1A2E35"/>
<path d="M150.432 121.683C150.399 121.724 151.46 122.57 152.794 123.574C154.136 124.578 155.246 125.35 155.28 125.308C155.313 125.267 154.252 124.42 152.918 123.416C151.576 122.413 150.466 121.641 150.432 121.683Z" fill="#1A2E35"/>
<g opacity="0.3">
<path opacity="0.3" d="M154.898 146.265C155.42 151.392 153.473 156.801 149.372 159.904C149.049 160.144 148.643 160.385 148.261 160.252C147.996 160.161 147.831 159.904 147.69 159.663C146.521 157.631 146.124 155.399 146.463 153.076C147.11 154.793 147.673 156.469 148.328 158.269C151.907 156.096 154.144 151.466 154.898 146.265Z" fill="black"/>
</g>
<path opacity="0.3" d="M140.995 157.921L137.979 156.817L137.482 161.92C137.482 161.92 134.234 155.988 132.883 153.283C131.541 150.578 132.229 145.8 132.229 145.8C132.229 145.8 131.748 149.965 135.005 155.266L137.465 159.265V155.075L140.995 157.921Z" fill="black"/>
<g opacity="0.3">
<path opacity="0.3" d="M176.052 183.855C177.394 183.216 178.943 183.133 180.418 183.308C181.976 183.49 183.542 183.963 184.76 184.95C185.978 185.938 186.807 187.489 186.657 189.057L186.508 189.082C185.456 186.236 183.368 184.162 180.667 183.905C177.974 183.656 175.339 184.859 173.491 186.834C173.665 185.357 174.709 184.494 176.052 183.855Z" fill="black"/>
</g>
<g opacity="0.3">
<path opacity="0.3" d="M99.8563 186.767C100.867 185.672 102.284 185.017 103.751 184.759C106.319 184.311 109.078 185.108 111.009 186.867L110.437 186.402C108.979 185.548 107.297 185.041 105.598 185.083C103.908 185.133 102.218 185.755 100.991 186.925C99.8645 188.003 99.1851 189.447 98.5388 190.865C98.2903 189.405 98.8454 187.862 99.8563 186.767Z" fill="black"/>
</g>
<path d="M119.278 163.073C119.295 163.065 119.245 162.924 119.146 162.658C119.03 162.359 118.889 161.994 118.715 161.563C118.35 160.634 117.853 159.356 117.323 157.937C116.792 156.511 116.337 155.216 116.014 154.279C115.856 153.839 115.732 153.466 115.624 153.167C115.533 152.902 115.467 152.761 115.458 152.769C115.442 152.769 115.483 152.927 115.55 153.192C115.624 153.457 115.732 153.847 115.881 154.32C116.179 155.274 116.61 156.577 117.14 158.004C117.671 159.431 118.193 160.7 118.59 161.613C118.789 162.069 118.955 162.434 119.079 162.691C119.195 162.94 119.27 163.073 119.278 163.073Z" fill="#1A2E35"/>
<path d="M166.838 163.438C166.887 163.446 167.302 161.654 167.749 159.423C168.205 157.191 168.528 155.382 168.47 155.366C168.42 155.357 168.006 157.149 167.55 159.381C167.103 161.613 166.78 163.43 166.838 163.438Z" fill="#1A2E35"/>
<path d="M167.551 185.913C167.435 185.971 168.935 174.14 168.935 174.14C168.935 174.14 167.99 165.164 167.451 164.749L167.435 161.58C167.435 161.58 165.968 160.692 165.579 162.127C165.579 162.127 164.278 160.999 164.054 163.687C163.831 166.375 163.781 169.129 163.781 169.129L160.889 176.372L160.409 176.612C160.409 176.612 159.787 170.938 159.423 170.1C159.058 169.262 158.809 167.229 157.442 167.536C156.067 167.843 155.959 168.98 156.199 170.83C156.448 172.68 156.755 174.596 156.639 175.791C156.523 176.986 155.984 179.624 156.15 181.715C156.315 183.805 157.459 186.012 158.66 187.564C159.862 189.115 162.157 192.317 163.4 193.28C163.839 193.62 167.551 185.913 167.551 185.913Z" fill="#FFBF9D"/>
<path d="M166.084 176.281C166.1 176.281 166.092 176.098 166.076 175.775C166.051 175.409 166.018 174.953 165.984 174.397C165.893 173.236 165.761 171.635 165.595 169.868C165.512 168.988 165.429 168.15 165.363 167.379C165.322 166.997 165.305 166.64 165.346 166.308C165.388 165.985 165.52 165.694 165.711 165.495C166.092 165.081 166.581 164.973 166.896 164.973C167.219 164.973 167.385 165.056 167.385 165.039C167.385 165.031 167.343 165.014 167.269 164.981C167.186 164.948 167.062 164.915 166.896 164.906C166.573 164.881 166.042 164.964 165.612 165.404C165.396 165.62 165.247 165.943 165.189 166.292C165.131 166.64 165.148 167.022 165.181 167.404C165.247 168.175 165.322 169.013 165.404 169.892C165.57 171.66 165.728 173.261 165.844 174.414C165.91 174.961 165.96 175.418 166.001 175.783C166.042 176.106 166.076 176.281 166.084 176.281Z" fill="#FF9A6C"/>
<path d="M164.526 171.444C164.501 171.469 164.825 171.751 165.04 172.381C165.272 172.995 165.355 173.924 165.521 174.937C165.678 175.949 165.827 176.861 165.951 177.525C166.067 178.189 166.159 178.587 166.183 178.587C166.208 178.579 166.175 178.172 166.084 177.5C166.001 176.836 165.869 175.916 165.711 174.903C165.545 173.9 165.446 172.962 165.164 172.332C165.032 172.016 164.874 171.784 164.75 171.643C164.626 171.494 164.535 171.436 164.526 171.444Z" fill="#FF9A6C"/>
<path d="M165.596 161.969C165.579 161.969 165.546 162.102 165.496 162.343C165.447 162.583 165.38 162.94 165.306 163.372C165.165 164.243 165.008 165.454 164.9 166.806C164.8 168.15 164.776 169.378 164.792 170.266C164.8 170.705 164.809 171.062 164.825 171.311C164.842 171.56 164.858 171.693 164.867 171.693C164.9 171.693 164.9 171.145 164.925 170.266C164.95 169.386 164.991 168.167 165.09 166.823C165.19 165.479 165.322 164.268 165.43 163.396C165.546 162.517 165.621 161.978 165.596 161.969Z" fill="#FF9A6C"/>
<path d="M157.243 173.061C157.218 173.103 157.666 173.319 158.221 173.144C158.776 172.978 159.033 172.555 158.983 172.53C158.942 172.489 158.652 172.813 158.163 172.954C157.682 173.111 157.26 173.003 157.243 173.061Z" fill="#FF9A6C"/>
<path d="M167.385 184.436L175.033 187.655H179.59C179.59 187.655 184.097 189.065 184.785 193.288C185.481 197.519 185.581 199.693 183.6 200.215C181.62 200.738 176.027 200.796 173.251 199.875C170.476 198.954 163.217 193.089 163.217 193.089L162.521 188.841L167.385 184.436Z" fill="#FFBF9D"/>
<path d="M165.596 189.115C165.604 189.123 165.679 189.057 165.811 188.916C165.944 188.783 166.118 188.559 166.308 188.286C166.69 187.721 167.104 186.867 167.377 185.863C167.667 184.867 167.783 183.93 167.85 183.258C167.908 182.586 167.908 182.163 167.883 182.163C167.85 182.163 167.808 182.578 167.717 183.241C167.618 183.905 167.477 184.826 167.195 185.805C166.922 186.792 166.54 187.63 166.201 188.203C165.844 188.775 165.571 189.09 165.596 189.115Z" fill="#FF9A6C"/>
<path d="M162.264 190.451C162.306 190.434 161.958 189.854 161.825 188.808C161.759 188.294 161.767 187.655 161.916 186.983C162.066 186.311 162.389 185.614 162.853 184.967C163.317 184.312 163.839 183.748 164.278 183.2C164.725 182.652 165.082 182.121 165.314 181.632C165.546 181.151 165.653 180.719 165.695 180.421C165.736 180.122 165.72 179.956 165.711 179.956C165.67 179.948 165.686 180.628 165.189 181.566C164.949 182.03 164.584 182.545 164.137 183.076C163.69 183.615 163.168 184.179 162.687 184.843C162.206 185.506 161.875 186.236 161.734 186.933C161.593 187.63 161.602 188.286 161.684 188.817C161.767 189.348 161.916 189.762 162.032 190.036C162.09 190.177 162.148 190.277 162.19 190.343C162.24 190.426 162.256 190.459 162.264 190.451Z" fill="#FF9A6C"/>
<path d="M174.054 172.016C174.104 172.041 174.941 170.523 175.919 168.623C176.896 166.723 177.659 165.163 177.609 165.138C177.559 165.114 176.731 166.632 175.745 168.532C174.759 170.432 174.005 171.991 174.054 172.016Z" fill="white"/>
<path d="M161.684 158.236C161.734 158.211 161.22 156.95 160.532 155.407C159.845 153.864 159.248 152.636 159.198 152.661C159.149 152.686 159.662 153.947 160.35 155.49C161.038 157.025 161.634 158.261 161.684 158.236Z" fill="white"/>
<path d="M149.579 167.179C149.62 167.213 150.399 166.341 151.31 165.238C152.222 164.135 152.934 163.205 152.893 163.172C152.851 163.139 152.073 164.01 151.161 165.114C150.241 166.225 149.537 167.146 149.579 167.179Z" fill="white"/>
<path d="M152.363 179.483C152.405 179.45 151.825 178.57 151.054 177.517C150.292 176.463 149.629 175.633 149.587 175.658C149.546 175.691 150.126 176.571 150.897 177.633C151.667 178.686 152.322 179.516 152.363 179.483Z" fill="white"/>
<path d="M156.116 196.864C156.141 196.872 156.315 196.59 156.556 196.109C156.804 195.627 157.127 194.947 157.45 194.192C157.774 193.429 158.039 192.732 158.213 192.218C158.387 191.703 158.478 191.38 158.453 191.372C158.428 191.363 158.296 191.67 158.088 192.168C157.848 192.732 157.575 193.387 157.276 194.118C156.962 194.839 156.68 195.486 156.44 196.051C156.216 196.54 156.092 196.847 156.116 196.864Z" fill="white"/>
<path d="M145.46 189.472C145.469 189.522 146.496 189.372 147.747 189.132C148.998 188.891 150.009 188.65 150.001 188.592C149.993 188.543 148.965 188.692 147.714 188.932C146.455 189.181 145.452 189.422 145.46 189.472Z" fill="white"/>
<path d="M137.2 173.236C137.241 173.203 136.264 172.074 135.012 170.73C133.77 169.386 132.726 168.325 132.684 168.358C132.643 168.391 133.62 169.511 134.872 170.863C136.114 172.215 137.158 173.277 137.2 173.236Z" fill="white"/>
<path d="M128.889 194.889C128.931 194.922 130.149 193.512 131.615 191.736C133.082 189.961 134.234 188.492 134.192 188.451C134.151 188.418 132.933 189.828 131.466 191.612C130 193.387 128.848 194.856 128.889 194.889Z" fill="white"/>
<path d="M180.485 185.663C180.46 185.722 181.57 186.286 182.788 187.215C184.006 188.144 184.851 189.065 184.893 189.023C184.909 189.007 184.727 188.75 184.379 188.385C184.031 188.011 183.525 187.53 182.904 187.057C182.291 186.584 181.686 186.219 181.239 185.987C180.791 185.755 180.493 185.639 180.485 185.663Z" fill="white"/>
<path d="M177.377 177.317C177.336 177.351 177.725 178.023 178.264 178.827C178.803 179.632 179.267 180.263 179.316 180.229C179.358 180.196 178.968 179.524 178.43 178.719C177.891 177.915 177.419 177.284 177.377 177.317Z" fill="white"/>
<path d="M170.376 185.514C170.418 185.539 170.815 184.875 171.014 183.963C171.221 183.05 171.155 182.279 171.105 182.287C171.047 182.287 171.031 183.034 170.824 183.921C170.625 184.809 170.318 185.489 170.376 185.514Z" fill="white"/>
<path d="M169.332 159.48C169.324 159.53 169.979 159.671 170.782 159.787C171.594 159.903 172.257 159.953 172.266 159.895C172.274 159.845 171.619 159.704 170.816 159.588C170.004 159.48 169.341 159.431 169.332 159.48Z" fill="white"/>
<path d="M164.079 150.139C164.054 150.188 164.626 150.554 165.355 150.96C166.084 151.367 166.697 151.657 166.722 151.607C166.747 151.557 166.175 151.192 165.446 150.786C164.717 150.388 164.104 150.097 164.079 150.139Z" fill="white"/>
<path d="M149.289 154.088C149.33 154.121 149.985 153.333 150.747 152.337C151.509 151.334 152.089 150.504 152.048 150.471C152.006 150.438 151.352 151.226 150.589 152.221C149.827 153.217 149.239 154.055 149.289 154.088Z" fill="white"/>
<path d="M130.513 163.479C130.547 163.512 131.234 162.807 131.872 161.779C132.51 160.75 132.842 159.821 132.792 159.804C132.742 159.779 132.336 160.658 131.698 161.671C131.077 162.683 130.464 163.438 130.513 163.479Z" fill="white"/>
<path d="M123.347 165.844C123.297 165.869 123.645 166.74 124.125 167.793C124.606 168.847 125.029 169.685 125.078 169.668C125.128 169.644 124.78 168.772 124.299 167.71C123.819 166.657 123.396 165.819 123.347 165.844Z" fill="white"/>
<path d="M122.344 156.054C122.385 156.087 123.239 155.133 124.25 153.914C125.261 152.694 126.048 151.682 126.006 151.649C125.965 151.616 125.111 152.57 124.101 153.789C123.09 155.001 122.303 156.013 122.344 156.054Z" fill="white"/>
<path d="M133.289 148.098C133.347 148.098 133.421 147.277 133.463 146.264C133.504 145.252 133.488 144.431 133.438 144.423C133.38 144.423 133.305 145.244 133.264 146.256C133.223 147.268 133.231 148.09 133.289 148.098Z" fill="white"/>
<path d="M124.365 147.6C124.357 147.65 125.401 147.841 126.694 148.015C127.986 148.189 129.039 148.289 129.047 148.231C129.055 148.181 128.011 147.99 126.719 147.816C125.426 147.642 124.374 147.542 124.365 147.6Z" fill="white"/>
<path d="M110.313 157.937C110.362 157.962 110.992 156.759 111.713 155.266C112.442 153.764 112.989 152.528 112.939 152.503C112.89 152.478 112.26 153.673 111.539 155.175C110.81 156.676 110.263 157.912 110.313 157.937Z" fill="white"/>
<path d="M112.675 166.872C112.724 166.864 112.583 165.902 112.343 164.724C112.111 163.546 111.879 162.6 111.821 162.608C111.771 162.617 111.912 163.579 112.153 164.757C112.393 165.935 112.625 166.881 112.675 166.872Z" fill="white"/>
<path d="M106.153 173.908C106.203 173.924 106.708 172.63 107.272 171.004C107.835 169.386 108.258 168.05 108.208 168.034C108.158 168.017 107.653 169.311 107.089 170.938C106.526 172.564 106.103 173.891 106.153 173.908Z" fill="white"/>
<path d="M107.065 178.031C107.074 178.081 107.977 177.89 108.971 177.351C109.965 176.812 110.62 176.156 110.587 176.123C110.545 176.081 109.849 176.654 108.88 177.177C107.91 177.708 107.049 177.973 107.065 178.031Z" fill="white"/>
<path d="M98.713 187.422C98.7627 187.447 99.0693 186.875 99.3924 186.145C99.7156 185.415 99.9393 184.809 99.8896 184.784C99.8399 184.759 99.5333 185.332 99.2101 186.062C98.887 186.792 98.6633 187.398 98.713 187.422Z" fill="white"/>
<path d="M148.038 200.522C148.096 200.531 148.22 199.776 148.328 198.847C148.436 197.917 148.477 197.154 148.427 197.154C148.369 197.146 148.245 197.892 148.137 198.83C148.03 199.751 147.988 200.514 148.038 200.522Z" fill="white"/>
<path d="M122.41 199.875C122.46 199.867 122.352 199.128 122.161 198.241C121.971 197.345 121.772 196.631 121.722 196.648C121.672 196.656 121.78 197.394 121.971 198.282C122.161 199.17 122.36 199.883 122.41 199.875Z" fill="white"/>
<g clip-path="url(#clip0)">
<path d="M100.8 115.2C100.8 141.1 79.8 162.1 53.9 162.1C28 162.1 7 141.1 7 115.2C7 89.3 28 68.3 53.9 68.3C79.8 68.3 100.8 89.3 100.8 115.2Z" fill="#ED6A54"/>
<path d="M53.9004 155.2C31.9004 155.2 13.9004 137.3 13.9004 115.2C13.9004 93.1999 31.8004 75.2 53.9004 75.2C75.9004 75.2 93.9004 93.0999 93.9004 115.2C93.9004 137.3 75.9004 155.2 53.9004 155.2Z" fill="white"/>
<path d="M53.9004 148.2C35.7004 148.2 20.9004 133.4 20.9004 115.2C20.9004 96.9999 35.7004 82.2 53.9004 82.2C72.1004 82.2 86.9004 96.9999 86.9004 115.2C86.9004 133.4 72.1004 148.2 53.9004 148.2Z" fill="#ED6A54"/>
<path d="M53.8998 141.3C39.4998 141.3 27.7998 129.6 27.7998 115.2C27.7998 100.8 39.4998 89.1001 53.8998 89.1001C68.2998 89.1001 79.9998 100.8 79.9998 115.2C79.9998 129.6 68.2998 141.3 53.8998 141.3Z" fill="white"/>
<path d="M53.8998 134.3C43.3998 134.3 34.7998 125.7 34.7998 115.2C34.7998 104.6 43.3998 96.1001 53.8998 96.1001C64.4998 96.1001 72.9998 104.7 72.9998 115.2C72.9998 125.8 64.4998 134.3 53.8998 134.3Z" fill="#ED6A54"/>
<path d="M53.9002 127.4C47.2002 127.4 41.7002 121.9 41.7002 115.2C41.7002 108.5 47.2002 103 53.9002 103C60.6002 103 66.1002 108.5 66.1002 115.2C66.1002 121.9 60.6002 127.4 53.9002 127.4Z" fill="white"/>
<path d="M53.9002 120.4C51.0002 120.4 48.7002 118.1 48.7002 115.2C48.7002 112.3 51.0002 110 53.9002 110C56.8002 110 59.1002 112.4 59.1002 115.2C59.1002 118.1 56.8002 120.4 53.9002 120.4Z" fill="#ED6A54"/>
<path d="M111.4 53.8999L52.3002 113C51.5002 113.8 51.5002 115 52.3002 115.8C53.1002 116.6 54.3002 116.6 55.1002 115.8L114.2 56.6999L111.4 53.8999Z" fill="#6083AB"/>
<path d="M114.2 56.7L121.9 59.4C122.1 59.5 122.2 59.8 122 60L107.4 74.6C107.3 74.7 107.2 74.7 107 74.7L99 71.9L114.2 56.7Z" fill="#F8BF49"/>
<path d="M111.4 53.9L96.2004 69.1L93.4004 61.1C93.4004 61 93.4004 60.8 93.5004 60.7L108.1 46.1C108.3 45.9 108.6 46 108.7 46.2L111.4 53.9Z" fill="#F8BF49"/>
</g>
</g>
<defs>
<clipPath id="clip0">
<rect width="115.1" height="135.9" fill="white" transform="translate(7 46)"/>
</clipPath>
</defs>
</svg>
