<svg width="186" height="149" viewBox="0 0 186 149" fill="none" xmlns="http://www.w3.org/2000/svg">
<path d="M165.075 29.0284V104.393H20.6514V29.0284C20.6514 25.2125 23.797 22.0779 27.6264 22.0779H157.963C162.066 22.0779 165.075 25.2125 165.075 29.0284Z" fill="#37495E"/>
<path d="M25.438 99.7593V29.0284C25.438 27.8018 26.5321 26.7115 27.763 26.7115H158.1C159.331 26.7115 160.425 27.8018 160.425 29.0284V99.7593H25.438Z" fill="#B3DDE4"/>
<path d="M185.863 143.506H0L20.6515 104.529H165.075L185.863 143.506Z" fill="white"/>
<path d="M6.70166 139.145L22.8399 107.255H163.024L179.162 139.145H6.70166Z" fill="#EEF0F5"/>
<path d="M29.4043 110.117L27.4896 114.342H22.1558L24.2072 110.117H29.4043Z" fill="#B8BBC2"/>
<path d="M38.2939 110.117L36.516 114.342H31.1821L33.0968 110.117H38.2939Z" fill="#B8BBC2"/>
<path d="M47.0472 110.117L45.6795 114.342H40.3457L41.8501 110.117H47.0472Z" fill="#B8BBC2"/>
<path d="M55.8 110.117L54.7059 114.342H49.3721L50.603 110.117H55.8Z" fill="#B8BBC2"/>
<path d="M64.6896 110.117L63.869 114.342H58.3984L59.4926 110.117H64.6896Z" fill="#B8BBC2"/>
<path d="M73.4424 110.117L72.8953 114.342H67.5615L68.2453 110.117H73.4424Z" fill="#B8BBC2"/>
<path d="M82.332 110.117L81.9217 114.342H76.5879L77.135 110.117H82.332Z" fill="#B8BBC2"/>
<path d="M91.0853 110.117V114.342H85.7515L85.8882 110.117H91.0853Z" fill="#B8BBC2"/>
<path d="M99.9749 110.117L100.112 114.342H94.7778V110.117H99.9749Z" fill="#B8BBC2"/>
<path d="M108.728 110.117L109.275 114.342H103.804L103.531 110.117H108.728Z" fill="#B8BBC2"/>
<path d="M117.481 110.117L118.301 114.342H112.968L112.284 110.117H117.481Z" fill="#B8BBC2"/>
<path d="M126.37 110.117L127.328 114.342H121.994L121.173 110.117H126.37Z" fill="#B8BBC2"/>
<path d="M135.123 110.117L136.491 114.342H131.157L129.926 110.117H135.123Z" fill="#B8BBC2"/>
<path d="M144.013 110.117L145.517 114.342H140.184L138.816 110.117H144.013Z" fill="#B8BBC2"/>
<path d="M152.766 110.117L154.681 114.342H149.21L147.569 110.117H152.766Z" fill="#B8BBC2"/>
<path d="M161.656 110.117L163.707 114.342H158.373L156.458 110.117H161.656Z" fill="#B8BBC2"/>
<path d="M26.3957 116.931L24.2075 121.701H18.6001L20.9251 116.931H26.3957Z" fill="#B8BBC2"/>
<path d="M35.5586 116.931L33.7807 121.701H28.1733L30.088 116.931H35.5586Z" fill="#B8BBC2"/>
<path d="M44.8589 116.931L43.3545 121.701H37.6104L39.3883 116.931H44.8589Z" fill="#B8BBC2"/>
<path d="M54.0218 116.931L52.7909 121.701H47.1836L48.5512 116.931H54.0218Z" fill="#B8BBC2"/>
<path d="M63.322 116.931L62.3647 121.701H56.7573L57.8514 116.931H63.322Z" fill="#B8BBC2"/>
<path d="M72.4855 116.931L71.9384 121.701H66.3311L67.1516 116.931H72.4855Z" fill="#B8BBC2"/>
<path d="M81.7852 116.931L81.3749 121.701H75.7676L76.3146 116.931H81.7852Z" fill="#B8BBC2"/>
<path d="M91.0854 116.931L90.9487 121.701H85.3413L85.6148 116.931H91.0854Z" fill="#B8BBC2"/>
<path d="M100.248 116.931L100.522 121.701H94.9146L94.7778 116.931H100.248Z" fill="#B8BBC2"/>
<path d="M109.549 116.931L109.959 121.701H104.352L104.078 116.931H109.549Z" fill="#B8BBC2"/>
<path d="M118.712 116.931L119.532 121.701H113.925L113.241 116.931H118.712Z" fill="#B8BBC2"/>
<path d="M128.012 116.931L129.106 121.701H123.498L122.541 116.931H128.012Z" fill="#B8BBC2"/>
<path d="M155.638 116.931L157.689 121.701H152.082L150.304 116.931H155.638Z" fill="#B8BBC2"/>
<path d="M164.938 116.931L167.263 121.701H161.656L159.468 116.931H164.938Z" fill="#B8BBC2"/>
<path d="M22.9764 124.563L20.6514 129.742H14.6338L17.2323 124.563H22.9764Z" fill="#B8BBC2"/>
<path d="M32.6868 124.563L30.6353 129.742H24.7544L26.9426 124.563H32.6868Z" fill="#B8BBC2"/>
<path d="M42.3971 124.563L40.6192 129.742H34.7383L36.653 124.563H42.3971Z" fill="#B8BBC2"/>
<path d="M52.1074 124.563L50.7398 129.742H44.8589L46.3633 124.563H52.1074Z" fill="#B8BBC2"/>
<path d="M129.79 124.563L131.021 129.742H54.8428L56.0737 124.563H129.79Z" fill="#B8BBC2"/>
<path d="M139.5 124.563L141.004 129.742H135.124L133.756 124.563H139.5Z" fill="#B8BBC2"/>
<path d="M146.475 116.931L151.125 129.742H145.108L142.509 121.701H133.072L131.705 116.931H146.475Z" fill="#B8BBC2"/>
<path d="M158.92 124.563L161.109 129.742H155.228L153.176 124.563H158.92Z" fill="#B8BBC2"/>
<path d="M168.631 124.563L171.093 129.742H165.212L162.887 124.563H168.631Z" fill="#B8BBC2"/>
<path d="M185.863 143.506V145.551C185.863 147.186 184.632 148.412 182.991 148.412H2.87206C1.36765 148.412 0 147.186 0 145.551V143.506H185.863Z" fill="#37495E"/>
<path d="M105.856 137.919H80.0073L84.7941 131.513H101.069L105.856 137.919Z" fill="#B8BBC2"/>
<path d="M156.596 1.77168V26.9841C156.596 27.9381 155.775 28.7558 154.818 28.7558H132.662L120.763 39.5221C120.49 39.7947 119.943 39.5221 119.943 39.1133V28.6195H115.156C114.199 28.6195 113.378 27.8018 113.378 26.8478V1.77168C113.378 0.817699 114.199 0 115.156 0H154.954C155.775 0 156.596 0.817699 156.596 1.77168Z" fill="white"/>
<path d="M130.2 11.0389V36.2513C130.2 37.2053 131.021 38.023 131.978 38.023H154.271L166.169 48.7893C166.443 49.0619 166.99 48.7893 166.99 48.3805V37.8867H171.777C172.734 37.8867 173.555 37.069 173.555 36.115V11.0389C173.555 10.0849 172.734 9.26721 171.777 9.26721H131.978C131.021 9.26721 130.2 10.0849 130.2 11.0389Z" fill="#EEF0F5"/>
<path d="M134.987 17.0353C134.987 17.5805 135.534 18.1256 136.081 18.1256H167.674C168.221 18.1256 168.768 17.5805 168.768 17.0353C168.768 16.4902 168.221 15.9451 167.674 15.9451H136.081C135.397 15.9451 134.987 16.3539 134.987 17.0353Z" fill="#B8BBC2"/>
<path d="M134.987 23.5768C134.987 24.122 135.534 24.6671 136.081 24.6671H167.674C168.221 24.6671 168.768 24.122 168.768 23.5768C168.768 23.0317 168.221 22.4866 167.674 22.4866H136.081C135.397 22.4866 134.987 23.0317 134.987 23.5768Z" fill="#B8BBC2"/>
<path d="M134.987 30.2549C134.987 30.8 135.534 31.3451 136.081 31.3451H167.674C168.221 31.3451 168.768 30.8 168.768 30.2549C168.768 29.7097 168.221 29.1646 167.674 29.1646H136.081C135.397 29.1646 134.987 29.5735 134.987 30.2549Z" fill="#B8BBC2"/>
<path d="M113.241 56.1488C114.609 59.4196 113.104 63.0992 109.822 64.4621C106.54 65.8249 102.847 64.3258 101.479 61.055C100.112 57.7842 101.616 54.1045 104.899 52.7417C108.181 51.3789 111.874 53.0143 113.241 56.1488Z" fill="#37495E"/>
<path d="M85.8881 77.9541C86.2984 79.0444 86.2984 80.2709 85.8881 81.2249C85.4778 82.1789 84.6572 83.1329 83.5631 83.5417L81.9219 79.5895L85.8881 77.9541Z" fill="#E94A36"/>
<path d="M80.0074 73.0479L87.3927 90.7647C87.5295 91.3098 87.3927 91.8549 86.8457 91.9912L82.4692 93.7629C81.9221 93.8992 81.3751 93.7629 81.2383 93.2178L73.853 75.501L80.0074 73.0479Z" fill="#37495E"/>
<path d="M74.2631 72.639C75.3572 75.0921 74.1264 77.9541 71.6646 78.908C69.2028 79.9983 67.4249 78.3629 66.3308 75.9098C65.2367 73.4567 65.3734 71.0036 67.972 70.0496C70.4337 68.9594 73.3058 70.1859 74.2631 72.639Z" fill="#37495E"/>
<path d="M109.822 78.908L88.3501 77.2726L80.9648 59.4195L94.9148 43.2018L109.822 78.908Z" fill="white"/>
<path d="M99.2911 39.5222L115.566 78.4992C116.113 79.862 115.429 81.4974 114.062 82.0425C112.694 82.5877 111.053 81.9063 110.506 80.5434L94.2308 41.5664C93.6838 40.2036 94.3676 38.5682 95.7353 38.0231C97.1029 37.4779 98.7441 38.0231 99.2911 39.5222Z" fill="#DC2D22"/>
<path d="M80.9648 59.4195L88.3501 77.4089L75.4942 82.7239C74.4001 83.1328 73.1692 82.5876 72.7589 81.6337L66.8781 67.5965C66.4678 66.5062 67.0148 65.2797 67.9722 64.8708L80.9648 59.4195Z" fill="#DC2D22"/>
<path d="M80.0073 63.6443C80.1441 63.9169 80.0073 64.3257 79.7338 64.462L70.4338 68.278C70.1603 68.4142 69.75 68.278 69.6132 68.0054C69.4765 67.7328 69.6132 67.324 69.8867 67.1877L79.1868 63.3718C79.5971 63.2355 79.8706 63.3718 80.0073 63.6443Z" fill="#E94A36"/>
<path d="M81.6485 67.3241C81.7852 67.5966 81.6485 68.0055 81.3749 68.1418L72.0749 71.9577C71.8014 72.094 71.3911 71.9577 71.2543 71.6851C71.1176 71.4126 71.2543 71.0037 71.5279 70.8674L80.8279 67.0515C81.1014 66.9152 81.5117 67.0515 81.6485 67.3241Z" fill="#E94A36"/>
<path d="M83.1528 71.1399C83.2896 71.4124 83.1528 71.8213 82.8793 71.9576L73.5793 75.7735C73.3058 75.9098 72.8955 75.7735 72.7587 75.5009C72.622 75.2284 72.7587 74.8195 73.0323 74.6832L82.3323 70.8673C82.7426 70.731 83.0161 70.8673 83.1528 71.1399Z" fill="#E94A36"/>
<path d="M84.794 74.9558C84.9307 75.2284 84.794 75.6372 84.5204 75.7735L75.2204 79.4532C74.9469 79.5894 74.5366 79.4531 74.3998 79.1806C74.2631 78.908 74.3998 78.4992 74.6734 78.3629L83.9734 74.547C84.2469 74.4107 84.6572 74.547 84.794 74.9558Z" fill="#E94A36"/>
</svg>
