<svg width="153" height="138" viewBox="0 0 153 138" fill="none" xmlns="http://www.w3.org/2000/svg">
<path d="M71.3761 85.127V84.627H70.8761H17.9419H17.4419V85.127V122.545V123.045H17.9419H70.8761H71.3761V122.545V85.127Z" fill="#DC2D22" stroke="white"/>
<path d="M69.2256 86.5132H19.7188V116.372H69.2256V86.5132Z" fill="#CCCCCC"/>
<path d="M24.7964 119.522C24.7964 120.908 23.6539 122.042 22.2576 122.042C20.8612 122.042 19.7188 120.908 19.7188 119.522C19.7188 118.136 20.8612 117.002 22.2576 117.002C23.6539 117.002 24.7964 118.136 24.7964 119.522Z" fill="#A94F31"/>
<path d="M30.3821 119.522C30.3821 120.908 29.2396 122.042 27.8433 122.042C26.4469 122.042 25.3044 120.908 25.3044 119.522C25.3044 118.136 26.4469 117.002 27.8433 117.002C29.2396 117.002 30.3821 118.136 30.3821 119.522Z" fill="#A94F31"/>
<path d="M21.2424 118.01V120.908L23.7812 119.522L21.2424 118.01Z" stroke="white" stroke-width="0.25" stroke-miterlimit="10" stroke-linecap="round" stroke-linejoin="round"/>
<path d="M49.2959 101.505C49.2959 104.151 47.1379 106.419 44.3452 106.419C41.6795 106.419 39.3945 104.277 39.3945 101.505C39.3945 98.7336 41.5525 96.5918 44.3452 96.5918C47.1379 96.5918 49.2959 98.7336 49.2959 101.505Z" fill="#DC2D22"/>
<path d="M42.5684 98.6074V104.277L47.3921 101.505L42.5684 98.6074Z" fill="white"/>
<path opacity="0.25" d="M49.0424 103.143C48.4077 105.033 46.6305 106.293 44.5994 106.419L42.5684 104.403L47.3921 101.505L49.0424 103.143Z" fill="#216186"/>
<path d="M27.0817 121.034C26.9548 121.034 26.9548 120.908 26.9548 120.908V118.262C26.9548 118.136 27.0817 118.136 27.0817 118.136C27.2086 118.136 27.2086 118.262 27.2086 118.262V120.908C27.2086 120.908 27.2086 121.034 27.0817 121.034Z" fill="white"/>
<path d="M28.478 121.034C28.3511 121.034 28.3511 120.908 28.3511 120.908V118.262C28.3511 118.136 28.478 118.136 28.478 118.136C28.6049 118.136 28.6049 118.262 28.6049 118.262V120.908C28.7318 120.908 28.6049 121.034 28.478 121.034Z" fill="white"/>
<path d="M64.7831 117.758H32.9209V118.64H64.7831V117.758Z" fill="#A94F31"/>
<path d="M34.0634 118.136C34.0634 118.766 33.5556 119.144 33.0478 119.144C32.4131 119.144 32.0322 118.64 32.0322 118.136C32.0322 117.506 32.54 117.128 33.0478 117.128C33.5556 117.128 34.0634 117.632 34.0634 118.136Z" fill="#F2F2F2"/>
<path d="M69.2258 117.758H66.4331V118.514H69.2258V117.758Z" fill="#F2F2F2"/>
<path d="M69.0989 118.64H67.0679V119.396H69.0989V118.64Z" fill="#F2F2F2"/>
<path d="M69.099 119.521H67.7026V120.152H69.099V119.521Z" fill="#F2F2F2"/>
<path d="M69.099 120.529H68.4644V121.285H69.099V120.529Z" fill="#F2F2F2"/>
<path d="M129.396 98.4816C132.315 99.7415 135.362 99.7415 138.027 98.6076L140.82 105.537C136.25 107.301 131.173 107.427 126.349 105.285C116.955 101.127 112.639 90.1664 116.828 80.8433L123.683 83.867C121.271 89.4104 123.81 95.9618 129.396 98.4816Z" fill="#655B79"/>
<path d="M141.455 71.2687C150.849 75.4263 155.165 86.3872 150.976 95.7103C148.945 100.372 145.136 103.647 140.82 105.411L138.028 98.482C140.693 97.4741 142.851 95.4583 144.121 92.6866C146.66 87.1431 144.121 80.5918 138.409 78.072C137.012 77.4421 135.616 77.1901 134.219 77.1901L134.473 69.7568C136.885 69.8828 139.297 70.3868 141.455 71.2687Z" fill="#E9E9E9"/>
<path d="M134.6 69.7564L134.346 77.1897C129.903 77.0637 125.587 79.5835 123.81 83.7411L116.828 80.8434C120.002 73.6621 127.238 69.5045 134.6 69.7564Z" fill="#DC2D22"/>
<path d="M41.6797 70.5123C41.6797 70.1344 41.6797 69.8824 41.6797 69.6304L37.8715 59.4254V59.2994C37.4907 58.5435 36.856 57.9135 35.9674 57.6616L6.39025 52.2441C4.9939 51.9921 3.59756 52.874 3.34368 54.2599L1.69345 63.205L0.0432271 72.1502C-0.210654 73.536 0.677929 74.9219 2.07427 75.1739L31.5245 80.4654C32.413 80.5914 33.4286 80.2134 33.9363 79.5834L41.1719 71.3942C41.5527 71.1423 41.6797 70.7643 41.6797 70.5123ZM37.9984 71.8982C36.856 71.6462 36.0943 70.6383 36.3482 69.5044C36.6021 68.3705 37.6176 67.6146 38.7601 67.8666C39.9025 68.1185 40.6642 69.1265 40.4103 70.2603C40.1564 71.3942 39.1409 72.1502 37.9984 71.8982Z" fill="#F7A601"/>
<path opacity="0.42" d="M38.7599 67.8666C37.6175 67.6146 36.6019 68.3706 36.3481 69.5044L1.69336 63.2051L3.34358 54.2599C3.59746 52.8741 4.99381 51.8662 6.39015 52.2441L35.8403 57.5356C36.7289 57.6616 37.4905 58.2915 37.7444 59.1735V59.2994L41.5526 69.5044C41.6796 69.7564 41.6796 70.1344 41.5526 70.3864L40.1563 70.1344C40.5371 69.1265 39.9024 67.9926 38.7599 67.8666Z" fill="#D5C5B3"/>
<path d="M10.7061 66.6069C10.5792 67.2368 10.3253 67.7408 9.94448 67.9928C9.6906 68.2447 9.30978 68.3707 8.92896 68.4967C8.67508 68.4967 8.42119 68.4967 8.16731 68.4967C7.65955 68.3707 7.27873 68.2447 7.02484 67.8668C6.77096 67.6148 6.64402 67.2368 6.51708 66.8589C6.39014 66.4809 6.39014 66.103 6.51708 65.599L7.78649 65.725C7.78649 66.2289 7.78649 66.6069 8.04037 66.8589C8.16731 67.1109 8.29425 67.1109 8.54813 67.2368C8.80202 67.2368 9.0559 67.2368 9.30978 66.9849C9.43672 66.8589 9.43672 66.7329 9.56366 66.4809C9.6906 66.103 9.56366 65.725 9.30978 65.347C9.0559 65.0951 8.80202 64.5911 8.29425 64.0872C7.91343 63.5832 7.65955 63.2053 7.53261 62.8273C7.40567 62.4494 7.40567 61.9454 7.40567 61.5675C7.53261 60.8115 7.91343 60.1816 8.54813 59.9296C8.92896 59.8036 9.30978 59.6777 9.81754 59.8037C10.1984 59.8037 10.5792 59.9296 10.8331 60.1816C11.087 60.4336 11.2139 60.6856 11.3408 60.9375C11.4678 61.3155 11.4678 61.6934 11.4678 62.0714H10.1984C10.1984 61.6934 10.1984 61.4415 10.0714 61.1895C9.94448 61.0635 9.81754 60.9375 9.56366 60.9375C9.30978 60.9375 9.18284 60.9375 8.92896 61.1895C8.80202 61.3155 8.67508 61.5675 8.67508 61.8194C8.54813 62.1974 8.67508 62.7013 8.92896 63.0793C9.0559 63.2053 9.18284 63.4573 9.43672 63.7092C9.6906 63.9612 9.81754 64.2132 9.94448 64.3392C10.1984 64.5911 10.4522 64.9691 10.5792 65.347C10.5792 65.473 10.7061 65.599 10.7061 65.725C10.7061 66.103 10.7061 66.3549 10.7061 66.6069Z" fill="white"/>
<path d="M13.118 67.2369L12.4833 69.1268L11.0869 68.8748L14.1335 60.5596L15.9106 60.9375L15.7837 69.7567L14.3874 69.5047V67.4889L13.118 67.2369ZM14.6412 62.7014L13.4988 65.9771L14.5143 66.1031L14.6412 62.7014Z" fill="white"/>
<path d="M20.3534 70.6389L16.926 70.009L18.4493 61.4419L19.7187 61.6939L18.3224 69.0011L20.6073 69.3791L20.3534 70.6389Z" fill="white"/>
<path d="M21.2422 70.7654L22.7655 62.1982L26.4468 62.8282L26.1929 64.0881L23.908 63.7101L23.5271 66.1039L25.3043 66.4818L25.0504 67.7417L23.2732 67.3637L22.8924 69.7575L25.3043 70.1355L25.0504 71.3953L21.2422 70.7654Z" fill="white"/>
<path d="M30.0012 66.7337C30.0012 66.9857 29.7473 67.2376 29.4934 67.3636C29.2395 67.4896 28.9857 67.6156 28.7318 67.4896C28.4779 67.4896 28.224 67.2376 27.9701 66.9857C27.8432 66.7337 27.7163 66.4817 27.8432 66.2297L28.351 63.836C28.351 63.584 28.6048 63.332 28.8587 63.08C29.1126 62.954 29.3665 62.8281 29.6203 62.954C29.8742 62.954 30.1281 63.206 30.382 63.458C30.5089 63.71 30.6359 63.9619 30.5089 64.2139L30.0012 66.7337ZM28.4779 66.4817C28.4779 66.6077 28.4779 66.7337 28.4779 66.7337C28.4779 66.8597 28.6048 66.8597 28.7318 66.8597C28.8587 66.8597 28.9856 66.8597 28.9856 66.8597C29.1126 66.8597 29.1126 66.7337 29.1126 66.6077L29.6203 64.2139C29.6203 64.0879 29.6203 63.9619 29.6203 63.9619C29.6203 63.836 29.4934 63.836 29.3665 63.836C29.2395 63.836 29.1126 63.836 29.1126 63.836C28.9857 63.836 28.9856 63.9619 28.9856 64.0879L28.4779 66.4817ZM27.9701 72.1512L27.2085 72.0252L33.3016 63.71L34.0632 63.836L27.9701 72.1512ZM32.54 68.1196C32.7938 68.1196 33.0477 68.3715 33.3016 68.6235C33.4285 68.8755 33.5555 69.1275 33.4285 69.3795L32.9208 71.7732C32.9208 72.0252 32.6669 72.2772 32.413 72.5292C32.1591 72.6552 31.9053 72.7811 31.6514 72.6551C31.3975 72.6551 31.1436 72.4032 30.8897 72.1512C30.7628 71.8992 30.6359 71.6472 30.7628 71.3953L31.2706 69.0015C31.2706 68.7495 31.5244 68.4975 31.7783 68.2456C32.0322 68.1196 32.2861 67.9936 32.54 68.1196ZM32.6669 69.2535C32.6669 69.1275 32.6669 69.0015 32.6669 69.0015C32.6669 68.8755 32.54 68.8755 32.413 68.8755C32.2861 68.8755 32.1591 68.8755 32.1591 68.8755C32.0322 68.8755 32.0322 69.0015 32.0322 69.1275L31.5244 71.5213C31.5244 71.6472 31.5244 71.7732 31.5244 71.7732C31.5244 71.8992 31.6514 71.8992 31.7783 71.8992C31.9053 71.8992 32.0322 71.8992 32.0322 71.8992C32.1591 71.8992 32.1591 71.7732 32.1591 71.6472L32.6669 69.2535Z" fill="white"/>
<path d="M118.352 109.569L87.5052 126.829L87.3782 126.703C86.6166 125.443 85.728 124.183 84.7125 122.546C84.3316 122.042 84.0778 121.538 83.57 121.034C79.7618 118.514 78.4924 117.632 74.6841 114.356C72.1453 112.215 69.3526 108.435 67.7024 105.537H90.8056C93.5983 105.537 95.8833 103.144 95.8833 100.12V77.946C96.6449 78.4499 97.1527 79.0799 97.7874 79.7098C97.6604 78.9539 97.6604 77.946 97.6604 77.1901C97.6604 76.4341 97.4066 75.6782 97.4066 74.7963C97.2796 73.7884 97.5335 72.9065 97.0257 72.0246C96.6449 71.2686 96.1372 70.5127 95.8833 69.7568V69.8828C94.4869 67.111 94.6139 57.662 95.8833 56.0241C96.2641 55.5202 96.7719 55.1422 97.4066 55.0162C98.1682 54.8902 98.676 55.0162 99.1837 55.2682C100.453 55.8981 101.088 57.662 101.469 59.4258C101.976 61.5676 102.23 63.8354 102.992 64.9693C104.515 67.237 106.419 68.8749 107.054 71.6466C107.562 73.9144 108.197 75.9302 109.212 78.072C109.72 79.5838 109.974 81.0957 110.735 82.3556C111.497 83.4895 111.497 85.0013 111.751 86.3872C112.005 88.7809 112.259 91.6787 112.259 93.1905C112.132 94.8283 112.513 96.4662 112.893 98.104C112.893 98.482 113.02 98.734 113.147 99.1119C114.163 102.892 116.194 106.419 118.352 109.569Z" fill="#FFCFBF"/>
<path d="M41.4259 70.7647C44.2186 75.3002 46.2497 76.938 49.804 77.064C56.6588 77.442 61.7364 69.6308 68.2104 70.6387C69.4798 70.8907 70.6223 69.1268 68.9721 68.8749C60.0862 67.489 52.0889 82.3555 44.3455 72.0245C43.2031 70.5127 43.2031 68.7489 40.9181 68.8749C39.3948 69.0008 37.9985 69.8828 38.3793 71.5206C38.6332 72.6545 41.0451 72.0245 40.7912 70.8907L41.4259 70.7647Z" fill="#0164A8"/>
<path d="M67.4485 68.245C66.8138 70.5128 64.5288 71.8987 62.2439 71.3947L55.5161 69.7569C53.2311 69.1269 51.7079 66.8591 52.3426 64.5913C52.9773 62.3235 55.2622 60.8116 57.5471 61.4416L64.275 63.0794C66.5599 63.5834 68.0832 65.9772 67.4485 68.245Z" fill="#FFCFBF"/>
<path d="M79.0005 25.4089C79.0005 28.9365 77.0964 31.9602 74.3037 33.3461V17.4717C77.0964 18.8575 79.0005 21.8812 79.0005 25.4089Z" fill="#DC2D22"/>
<path d="M75.1922 1.22119L75.3191 49.2225L48.5347 35.4898V15.0798L75.1922 1.22119Z" fill="#EDEDED"/>
<path d="M41.5532 26.543V27.047V28.9368V35.2362V35.4882V41.7875V42.0395V48.3389V48.5909V54.8903V55.5202C41.5532 59.1738 38.7605 61.9456 35.3331 61.9456C31.9058 61.9456 29.1131 59.0478 29.24 55.3942V54.7643V53.8824V49.3468V48.4649V48.0869V41.9135V41.5356V35.3622V34.9842V28.8108V26.795V25.7871C30.6363 26.1651 32.0327 26.417 33.556 26.417L41.5532 26.543Z" fill="#CC603B"/>
<path d="M83.4433 26.4174C82.9355 26.4174 82.4277 25.9133 82.4277 25.2831C82.4277 24.653 82.9355 24.1489 83.5702 24.1489H91.9483C92.5831 24.1489 93.0908 24.653 93.0908 25.2831C93.0908 25.9133 92.5831 26.4174 91.9483 26.4174H83.4433Z" fill="white"/>
<path d="M81.5392 19.1094C81.2853 19.1094 81.0315 18.8575 80.9045 18.7315C80.5237 18.2275 80.6507 17.4716 81.1584 17.0936L87.3785 11.9281C87.7593 11.5501 88.521 11.5501 88.9018 12.0541C89.2826 12.5581 89.1557 13.314 88.7748 13.6919L82.5548 18.8575C82.1739 19.1094 81.7931 19.1094 81.5392 19.1094Z" fill="white"/>
<path d="M88.1403 39.1418C88.3942 39.1418 88.6481 38.8898 88.775 38.7638C89.1559 38.2599 89.0289 37.5039 88.5211 37.126L82.3011 31.9605C81.7933 31.5825 81.1586 31.7085 80.7778 32.2125C80.397 32.7164 80.5239 33.4723 80.9047 33.8503L87.1248 39.0158C87.5056 39.1418 87.8865 39.2678 88.1403 39.1418Z" fill="white"/>
<path d="M48.5347 15.0781L48.4077 35.4881H38.6333H34.5712H30.3822C30.0013 35.4881 29.6205 35.4881 29.1127 35.3621C28.605 35.2361 28.2242 35.2361 27.7164 35.1101C26.8278 34.8582 25.9392 34.3542 25.0506 33.8503C24.9237 33.7243 24.6698 33.5983 24.5429 33.4723C22.131 31.5825 20.6077 28.6848 20.7347 25.2831C20.7347 22.5114 21.8771 19.8657 23.6543 18.1018C25.4315 16.212 27.8433 15.0781 30.5091 15.2041H34.5712L48.5347 15.0781Z" fill="#0164A8"/>
<path d="M34.698 15.0781H32.2861V35.4881H34.698V15.0781Z" fill="white"/>
<path d="M75.3187 0.715332H70.495V49.2206H75.3187V0.715332Z" fill="#C45C39"/>
<path d="M90.9326 38.5117H66.687C63.8943 38.5117 61.6094 40.9055 61.6094 43.9292V100.246C61.6094 103.269 63.8943 105.663 66.687 105.663H90.9326C93.7253 105.663 96.0103 103.269 96.0103 100.246V43.9292C96.0103 40.9055 93.7253 38.5117 90.9326 38.5117ZM93.7253 96.97H64.0212V47.0789H93.7253V96.97Z" fill="#655B79"/>
<path d="M93.7251 47.0791H64.021V96.8443H93.7251V47.0791Z" fill="#73C9CA"/>
<path d="M84.8396 42.9216C84.8396 43.2997 84.5857 43.5517 84.2049 43.5517H73.415C73.0342 43.5517 72.7803 43.2997 72.7803 42.9216C72.7803 42.5435 73.0342 42.2915 73.415 42.2915H84.2049C84.5857 42.2915 84.8396 42.5435 84.8396 42.9216Z" fill="#6DBED3"/>
<path d="M61.7365 91.8045L61.6096 91.6785V91.9305C60.9749 92.1825 60.3402 92.3085 59.8324 92.3085C58.563 92.3085 57.4206 91.6785 56.9128 90.6707L56.7859 90.4187L54.6279 86.3871C54.374 85.8832 54.2471 85.2532 54.374 84.7493V84.6233V84.4973C54.374 84.3713 54.374 84.3713 54.374 84.2453V84.1194V83.9934C54.501 83.7414 54.6279 83.4894 54.7548 83.3634C55.1357 82.7335 55.6434 82.2296 56.4051 81.8516C57.0398 81.5996 57.6745 81.3477 58.3092 81.3477C58.4361 81.3477 58.4361 81.3477 58.563 81.3477H58.69C59.8324 81.4736 60.848 81.9776 61.3557 82.9855L61.6096 83.4894L63.6406 87.269C64.4023 88.7809 63.6406 90.9226 61.7365 91.8045Z" fill="#FFCFBF"/>
<path d="M61.6094 98.7337C61.6094 98.8597 61.6094 98.8597 61.6094 98.7337C60.9747 99.1116 60.34 99.2376 59.7053 99.2376C58.6898 99.2376 57.6743 98.7337 57.1665 97.8517L55.2624 94.1981C55.0085 93.5682 54.8816 92.9382 55.1355 92.3083V92.1823C55.1355 92.0563 55.1355 92.0563 55.2624 91.9303C55.2624 91.9303 55.2624 91.8043 55.3893 91.8043C55.3893 91.8043 55.3893 91.6783 55.5163 91.6783C55.7702 91.1744 56.2779 90.7964 56.7857 90.4185L56.9126 90.6704C57.4204 91.6783 58.5628 92.3083 59.8322 92.3083C60.4669 92.3083 61.1016 92.1823 61.6094 91.9303V91.6783L61.7363 91.9303L63.2596 94.828C64.0213 96.0879 63.2596 97.8518 61.6094 98.7337Z" fill="#FFCFBF"/>
<path opacity="0.42" d="M70.8761 110.199V117.254C70.2414 116.624 69.7336 115.868 69.0989 115.238C67.8295 113.726 66.814 111.963 65.9254 110.577H64.783C61.9903 110.577 59.7053 108.183 59.7053 105.159V103.773C59.0706 104.025 58.4359 104.277 57.9282 104.277C56.9127 104.277 55.8971 103.773 55.5163 102.892L53.6122 99.2379C53.3583 98.608 53.2314 97.978 53.4853 97.3481V97.2221C53.4853 97.0961 53.4853 97.0961 53.6122 96.9701C53.6122 96.9701 53.6122 96.8441 53.7391 96.8441C53.7391 96.8441 53.7391 96.7181 53.8661 96.7181C54.12 96.2142 54.6277 95.8362 55.1355 95.4583L52.9775 91.4267C52.7236 90.9227 52.5967 90.2928 52.5967 89.7888V89.6628V89.5369C52.5967 89.4109 52.5967 89.4109 52.5967 89.2849V89.1589V89.0329C52.7236 88.7809 52.8506 88.5289 52.9775 88.403C53.3583 87.773 53.8661 87.2691 54.6277 86.8911H54.7547L56.7857 90.7967C56.278 91.1747 55.8971 91.5527 55.5163 92.0566C55.5163 92.0566 55.5163 92.1826 55.3894 92.1826C55.3894 92.1826 55.3894 92.3086 55.2624 92.3086C55.2624 92.4346 55.2624 92.4346 55.1355 92.5606V92.6865C54.8816 93.3165 55.0085 94.0724 55.2624 94.5764L57.1665 98.23C57.6743 99.1119 58.5629 99.6159 59.5784 99.6159C60.2131 99.6159 60.8478 99.4899 61.3556 99.1119V100.246C61.3556 103.27 63.6405 105.663 66.4332 105.663H67.5756C67.9565 106.293 68.3373 107.049 68.8451 107.679C69.6067 108.561 70.2414 109.317 70.8761 110.199Z" fill="#7A8494"/>
<path d="M63.1326 76.686C63.7673 78.1978 63.0057 80.0876 61.3554 80.8436L61.1015 80.9695C59.4513 81.7255 57.5472 81.0955 56.7855 79.5837L54.8814 75.4261C54.2467 73.9143 55.0084 72.0245 56.6586 71.2686L56.9125 71.1426C58.5627 70.3867 60.4668 71.0166 61.2285 72.5284L63.1326 76.686Z" fill="#FFCFBF"/>
<path d="M126.857 115.994C117.336 126.955 104.261 134.766 89.2825 137.538L84.3318 128.719L87.6322 126.829L118.352 109.569L121.652 107.679L126.857 115.994Z" fill="#0164A8"/>
<path d="M141.074 59.4258L109.593 53.1264L117.336 20.6216L119.748 21.1255L112.512 51.2366L141.582 57.032L141.074 59.4258Z" fill="#CCCCCC"/>
<path d="M131.427 20.8732C131.427 27.9286 125.587 33.724 118.479 33.724C111.37 33.724 105.531 27.9286 105.531 20.8732C105.531 13.8179 111.37 8.02246 118.479 8.02246C125.714 8.02246 131.427 13.8179 131.427 20.8732Z" fill="#E9E9E9"/>
<path d="M120.129 52.2444C120.129 57.158 116.067 61.1896 111.116 61.1896C106.166 61.1896 102.104 57.158 102.104 52.2444C102.104 47.3309 106.166 43.2993 111.116 43.2993C116.067 43.2993 120.129 47.2049 120.129 52.2444Z" fill="#F2F2F2"/>
<path d="M151.61 57.4101C151.61 63.0795 147.04 67.6151 141.328 67.6151C135.616 67.6151 131.046 63.0795 131.046 57.4101C131.046 51.7406 135.616 47.2051 141.328 47.2051C146.913 47.2051 151.61 51.7406 151.61 57.4101Z" fill="#F2F2F2"/>
<path d="M112.259 24.779V30.3224H124.826V24.779L124.445 24.527L122.033 23.6451L121.272 23.3931L120.764 22.3852H120.637V21.2513C121.399 20.6214 122.033 19.6135 122.287 18.3536C122.541 18.2276 122.795 17.7237 122.795 17.2197C122.922 16.4638 122.668 15.8339 122.287 15.8339V15.5819C122.287 15.3299 122.414 15.3299 122.414 15.2039C122.541 14.952 122.795 14.7 122.795 14.448C122.795 14.196 122.541 13.9441 122.414 13.6921C121.652 12.4322 120.256 11.5503 118.733 11.5503C117.59 11.5503 115.94 12.0542 116.067 13.6921C115.813 13.4401 115.432 13.4401 115.178 13.6921C114.798 14.07 114.798 14.196 114.671 14.574C114.544 15.2039 114.671 15.5819 114.798 15.9599C114.417 16.0858 114.163 16.7158 114.29 17.3457C114.417 17.9757 114.671 18.3536 115.051 18.4796C115.305 19.6135 115.813 20.6214 116.575 21.2513V22.3852H116.448L115.94 23.3931L115.178 23.6451L112.259 24.779Z" fill="#DC2D22"/>
<path d="M146.787 60.6855V65.095H136.758V60.6855L137.012 60.5595L138.916 59.8036L139.424 59.5516L139.805 58.7957H139.932V57.9138C139.297 57.4098 138.789 56.5279 138.662 55.646C138.409 55.52 138.282 55.142 138.282 54.7641C138.155 54.1341 138.409 53.6302 138.662 53.6302C138.662 53.6302 138.662 53.5042 138.662 53.3782C138.662 53.1262 138.535 53.1262 138.535 53.0003C138.409 52.7483 138.282 52.6223 138.282 52.3703C138.282 52.1183 138.409 51.9924 138.535 51.7404C139.17 50.7325 140.313 49.9766 141.455 49.9766C142.344 49.9766 143.74 50.3545 143.613 51.6144C143.867 51.4884 144.121 51.3624 144.375 51.6144C144.629 51.8664 144.756 51.9924 144.756 52.3703C144.883 52.8743 144.756 53.1262 144.629 53.5042C144.883 53.5042 145.136 54.1341 145.009 54.6381C144.883 55.142 144.756 55.52 144.502 55.52C144.248 56.4019 143.867 57.1578 143.232 57.7878V58.6697H143.359L143.74 59.4256L144.375 59.6776L146.787 60.6855Z" fill="#655B79"/>
<path d="M115.559 54.5124V58.418H106.546V54.5124L106.8 54.3864L107.816 54.0085L108.451 53.7565V53.8825L109.339 53.5045V52.6226C109.339 52.6226 109.339 52.6226 109.466 52.6226C109.466 52.6226 109.466 52.6226 109.339 52.6226V52.7486C107.943 53.5045 107.181 51.3627 107.308 49.9769C107.435 49.2209 107.816 48.213 108.324 47.5831C108.958 46.9532 109.212 46.4492 110.608 46.4492C111.624 46.4492 112.386 46.7012 113.147 47.5831C113.528 48.213 113.782 48.465 114.163 49.3469C114.417 50.2288 114.417 50.8588 114.163 51.4887C113.909 52.1187 113.274 53.2525 112.259 52.7486V53.6305L113.274 54.0085V53.8825L113.909 54.1345L115.559 54.5124Z" fill="#4FA0CA"/>
<path d="M73.5419 59.1738H66.3063V66.3551H73.5419V59.1738Z" fill="#DC2D22"/>
<path d="M82.6814 59.1738H75.4458V66.3551H82.6814V59.1738Z" fill="#FCF018"/>
<path d="M91.6943 59.1738H84.4587V66.3551H91.6943V59.1738Z" fill="#655B79"/>
<path d="M73.5417 67.9932H66.3062V75.1744H73.5417V67.9932Z" fill="#655B79"/>
<path d="M82.6814 67.9932H75.4458V75.1744H82.6814V67.9932Z" fill="#00A0C6"/>
<path d="M91.6943 67.9932H84.4587V75.1744H91.6943V67.9932Z" fill="white"/>
<path d="M73.5417 76.812H66.3062V83.9934H73.5417V76.812Z" fill="#0164A8"/>
<path d="M82.6814 76.812H75.4458V83.9934H82.6814V76.812Z" fill="#4FA0CA"/>
<path d="M91.6943 76.812H84.4587V83.9934H91.6943V76.812Z" fill="#DC2D22"/>
<path d="M73.5417 85.7573H66.3062V92.9387H73.5417V85.7573Z" fill="#655B79"/>
<path d="M82.6814 85.7573H75.4458V92.9387H82.6814V85.7573Z" fill="#FCF018"/>
<path d="M91.6943 85.7573H84.4587V92.9387H91.6943V85.7573Z" fill="white"/>
<path d="M66.4331 55.2679C66.4331 55.7719 66.9409 56.2758 67.4486 56.2758H90.6788C91.3135 56.2758 91.6943 55.7719 91.6943 55.2679V52.1182C91.6943 51.4883 91.1866 51.1104 90.6788 51.1104H67.4486C66.8139 51.1104 66.4331 51.6143 66.4331 52.1182V55.2679Z" fill="#F5F5F5"/>
<path d="M91.6945 55.2679C91.6945 55.7719 91.1867 56.2758 90.6789 56.2758H87.5054C86.8707 56.2758 86.4899 55.7719 86.4899 55.2679V52.1182C86.4899 51.4883 86.9976 51.1104 87.5054 51.1104H90.6789C91.3136 51.1104 91.6945 51.6143 91.6945 52.1182V55.2679Z" fill="#DC2D22"/>
<path d="M87.5055 52.4965C86.9977 53.0006 87.1246 53.8827 87.7593 54.2608C88.1402 54.6389 88.7749 54.6389 89.2826 54.3868L90.4251 55.269C90.552 55.395 90.679 55.395 90.679 55.395C90.8059 55.395 90.9329 55.395 90.9329 55.269C91.0598 55.143 91.0598 54.8909 90.9329 54.7649L89.7904 53.8827C89.9173 53.3786 89.7904 52.7485 89.4096 52.4965C88.6479 51.8663 87.8863 51.9924 87.5055 52.4965ZM89.0287 52.6225C89.2826 52.8745 89.4096 53.2526 89.4096 53.5047C89.4096 53.6307 89.2826 53.7567 89.2826 53.8827C89.1557 54.0088 89.0288 54.1348 88.9018 54.1348C88.6479 54.2608 88.2671 54.2608 88.0132 54.0088C87.6324 53.7567 87.5054 53.1266 87.8863 52.7485C88.0132 52.3704 88.6479 52.2444 89.0287 52.6225Z" fill="#F2F2F2"/>
<path d="M67.9565 54.6392C68.0835 54.7652 68.3373 54.8912 68.4643 54.8912C68.7182 54.8912 68.8451 54.7652 68.8451 54.6392C68.8451 54.5132 68.7182 54.3872 68.4643 54.3872L68.2104 54.2611C67.9565 54.1351 67.8296 54.0091 67.8296 53.6311C67.8296 53.253 68.0835 53.001 68.5912 53.001C68.8451 53.001 69.099 53.127 69.226 53.253L68.9721 53.505C68.8451 53.379 68.7182 53.379 68.4643 53.379C68.2104 53.379 68.0835 53.505 68.0835 53.6311C68.0835 53.7571 68.2104 53.8831 68.4643 53.8831L68.7182 54.0091C68.9721 54.1351 69.099 54.2611 69.099 54.6392C69.099 55.0173 68.8451 55.2693 68.3373 55.2693C68.0835 55.2693 67.7026 55.1433 67.5757 55.0173L67.9565 54.6392Z" fill="#686868"/>
<path d="M70.2414 53.5049C70.6222 53.5049 70.8761 53.7569 70.8761 54.261C70.8761 54.387 70.8761 54.387 70.8761 54.387H69.8606C69.8606 54.6391 70.1145 54.8911 70.3683 54.8911C70.4953 54.8911 70.6222 54.8911 70.7492 54.7651L70.8761 55.0172C70.7492 55.1432 70.4953 55.1432 70.3683 55.1432C69.8606 55.1432 69.6067 54.8911 69.6067 54.261C69.4797 53.883 69.8606 53.5049 70.2414 53.5049ZM70.6222 54.261C70.6222 54.009 70.4953 53.883 70.2414 53.883C69.9875 53.883 69.8606 54.009 69.8606 54.261H70.6222Z" fill="#686868"/>
<path d="M72.1456 54.135C72.1456 54.009 72.0186 53.8829 71.8917 53.8829C71.7647 53.8829 71.6378 54.009 71.3839 54.009L71.257 53.7569C71.3839 53.6309 71.6378 53.5049 71.8917 53.5049C72.2725 53.5049 72.5264 53.7569 72.5264 54.135V55.1431H72.2725V55.0171C72.1456 55.1431 72.0186 55.2692 71.7647 55.2692C71.5109 55.2692 71.257 55.0171 71.257 54.7651C71.13 54.387 71.5109 54.261 72.1456 54.135ZM71.7647 54.8911C71.8917 54.8911 72.0186 54.7651 72.1456 54.7651V54.387C71.7647 54.387 71.5109 54.513 71.5109 54.7651C71.5109 54.8911 71.6378 54.8911 71.7647 54.8911Z" fill="#686868"/>
<path d="M72.9072 53.6309H73.1611V53.8829C73.288 53.6309 73.415 53.5049 73.6688 53.5049C73.7958 53.5049 73.7958 53.5049 73.7958 53.5049L73.6688 53.8829H73.5419C73.415 53.8829 73.288 54.009 73.1611 54.261V55.2692H72.7803V53.6309H72.9072Z" fill="#686868"/>
<path d="M74.8115 53.5049C75.0653 53.5049 75.1923 53.6309 75.3192 53.6309L75.1923 53.883C75.0653 53.7569 75.0653 53.7569 74.9384 53.7569C74.6845 53.7569 74.5576 54.009 74.5576 54.261C74.5576 54.6391 74.6845 54.7651 74.9384 54.7651C75.0653 54.7651 75.1923 54.6391 75.3192 54.6391L75.4462 54.8911C75.3192 55.0172 75.0653 55.1432 74.9384 55.1432C74.5576 55.1432 74.1768 54.8911 74.1768 54.261C74.0498 53.883 74.4306 53.5049 74.8115 53.5049Z" fill="#686868"/>
<path d="M75.6998 52.875H76.0807V53.5051V53.7571C76.2076 53.6311 76.3345 53.5051 76.5884 53.5051C76.9692 53.5051 77.0962 53.7571 77.0962 54.1352V55.1434H76.7154V54.1352C76.7154 53.8832 76.5884 53.7571 76.4615 53.7571C76.3345 53.7571 76.2076 53.8832 76.0807 54.0092V55.1434H75.6998V52.875Z" fill="#686868"/>
<path d="M77.731 54.7642C77.8579 54.7642 77.9849 54.8903 77.9849 55.0165C77.9849 55.1427 77.8579 55.2689 77.731 55.2689C77.604 55.2689 77.4771 55.1427 77.4771 55.0165C77.4771 54.8903 77.604 54.7642 77.731 54.7642Z" fill="#686868"/>
<path d="M78.6196 54.7642C78.7466 54.7642 78.8735 54.8903 78.8735 55.0165C78.8735 55.1427 78.7466 55.2689 78.6196 55.2689C78.4927 55.2689 78.3657 55.1427 78.3657 55.0165C78.3657 54.8903 78.4927 54.7642 78.6196 54.7642Z" fill="#686868"/>
<path d="M79.5081 54.7642C79.635 54.7642 79.762 54.8903 79.762 55.0165C79.762 55.1427 79.635 55.2689 79.5081 55.2689C79.3811 55.2689 79.2542 55.1427 79.2542 55.0165C79.2542 54.8903 79.3811 54.7642 79.5081 54.7642Z" fill="#686868"/>
</svg>
