<svg width="262" height="148" viewBox="0 0 262 148" fill="none" xmlns="http://www.w3.org/2000/svg">
<mask id="mask0" mask-type="alpha" maskUnits="userSpaceOnUse" x="0" y="0" width="262" height="148">
<rect width="262" height="148" fill="#C4C4C4"/>
</mask>
<g mask="url(#mask0)">
<ellipse cx="92" cy="134.5" rx="86" ry="85.5" fill="white"/>
<path d="M148.432 28.635L145.396 63.6008L127.941 62.2326C127.865 60.1803 127.941 52.275 127.941 52.275C127.941 52.275 120.655 51.1348 120.58 43.8376C120.504 40.265 121.035 32.9678 121.566 26.4307C122.173 19.1335 128.472 13.6606 135.758 14.0406C143.347 14.4967 149.039 21.1098 148.432 28.635Z" fill="#FFBE9D"/>
<path d="M127.941 52.1991C127.941 52.1991 132.571 52.5792 137.428 49.4626C137.428 49.4626 135.151 54.7075 127.941 54.0234V52.1991Z" fill="#EB996E"/>
<path d="M123.539 31.5235C123.539 32.0556 123.994 32.5117 124.526 32.5877C125.133 32.5877 125.588 32.2076 125.588 31.6755C125.588 31.1434 125.133 30.6874 124.602 30.6113C124.07 30.5353 123.539 30.9914 123.539 31.5235Z" fill="#263238"/>
<path d="M123.16 30.0793C123.312 30.2313 124.071 29.6232 125.209 29.6232C126.347 29.6232 127.182 30.1553 127.258 30.0793C127.334 30.0033 127.182 29.7753 126.803 29.5472C126.423 29.3192 125.816 29.0151 125.133 29.0151C124.45 29.0151 123.843 29.2432 123.539 29.5472C123.236 29.7753 123.084 30.0033 123.16 30.0793Z" fill="#263238"/>
<path d="M134.545 31.5235C134.545 32.0556 135 32.5117 135.532 32.5877C136.139 32.5877 136.594 32.2076 136.594 31.6755C136.594 31.1434 136.139 30.6874 135.607 30.6113C135.076 30.5353 134.545 30.9914 134.545 31.5235Z" fill="#263238"/>
<path d="M134.165 30.3073C134.317 30.4594 135.076 29.8513 136.214 29.8513C137.353 29.8513 138.187 30.3834 138.263 30.3073C138.339 30.2313 138.187 30.0033 137.808 29.7753C137.429 29.5472 136.821 29.2432 136.138 29.2432C135.455 29.2432 134.848 29.4712 134.545 29.7753C134.165 30.0033 134.089 30.2313 134.165 30.3073Z" fill="#263238"/>
<path d="M130.066 38.5927C130.066 38.5167 129.383 38.4407 128.245 38.2886C127.941 38.2886 127.713 38.2126 127.638 37.9846C127.562 37.7566 127.713 37.4525 127.865 37.1485C128.169 36.4643 128.396 35.7042 128.7 34.9441C129.838 31.8276 130.749 29.3192 130.597 29.2431C130.446 29.1671 129.383 31.6755 128.245 34.7921C127.941 35.5522 127.713 36.3123 127.41 36.9964C127.334 37.3005 127.106 37.6805 127.258 38.1366C127.334 38.3647 127.562 38.5167 127.713 38.5167C127.865 38.5927 128.093 38.5927 128.169 38.5927C129.383 38.6687 130.066 38.6687 130.066 38.5927Z" fill="#263238"/>
<path d="M133.405 39.3528C133.253 39.3528 133.253 40.569 132.191 41.4051C131.128 42.2413 129.838 42.1653 129.838 42.3173C129.838 42.3933 130.141 42.5453 130.673 42.5453C131.204 42.5453 131.963 42.3933 132.646 41.8612C133.253 41.3291 133.557 40.645 133.557 40.1129C133.557 39.6568 133.481 39.3528 133.405 39.3528Z" fill="#263238"/>
<path d="M133.86 25.8986C133.936 26.2026 135.074 26.0506 136.364 26.2026C137.655 26.3547 138.717 26.7347 138.945 26.4307C139.021 26.2787 138.869 26.0506 138.413 25.7466C137.958 25.4425 137.351 25.1385 136.516 25.0625C135.757 24.9864 134.998 25.1385 134.543 25.2905C134.012 25.5185 133.784 25.7466 133.86 25.8986Z" fill="#263238"/>
<path d="M123.539 26.8867C123.767 27.1147 124.525 26.8867 125.436 26.8867C126.347 26.8107 127.182 27.0387 127.334 26.8107C127.409 26.6587 127.258 26.4306 126.954 26.2026C126.65 25.9746 126.043 25.7465 125.436 25.8225C124.829 25.8225 124.222 26.0506 123.918 26.3546C123.615 26.5066 123.463 26.7347 123.539 26.8867Z" fill="#263238"/>
<path d="M149.951 24.1503C149.572 27.7229 148.585 32.1316 148.281 35.7802C148.281 36.0842 148.205 36.4643 148.054 36.7684C147.522 37.4525 146.308 38.9727 145.701 38.3646C144.183 36.9204 143.576 32.9677 143.272 30.8394C142.969 28.787 143.045 26.6587 142.741 24.6063C142.741 24.5303 142.741 24.5303 142.741 24.4543C142.514 23.0101 141.755 21.6419 140.616 20.7297C140.313 20.5777 140.085 20.3496 139.781 20.2736C137.656 19.5135 134.089 20.8817 131.964 21.7179C130.902 22.0979 129.839 22.63 128.701 23.0861C126.272 24.2263 123.389 23.9982 121.188 22.478C119.897 21.5658 119.746 18.6013 120.353 16.701C121.871 11.6082 128.246 9.8599 136.442 11.8362C144.487 13.6605 150.786 16.8531 149.951 24.1503Z" fill="#263238"/>
<path d="M146.005 31.9796C146.157 31.9036 151.014 30.5354 150.863 35.4762C150.711 40.493 145.778 39.2768 145.778 39.1248C145.702 38.9728 146.005 31.9796 146.005 31.9796Z" fill="#FFBE9D"/>
<path d="M147.295 37.3005C147.295 37.3005 147.371 37.3765 147.523 37.4525C147.675 37.5285 147.903 37.6045 148.206 37.4525C148.737 37.3005 149.193 36.4643 149.269 35.5522C149.269 35.0961 149.193 34.64 149.041 34.336C148.889 33.9559 148.661 33.7279 148.434 33.6519C148.206 33.5758 147.978 33.7279 147.903 33.8799C147.827 34.0319 147.827 34.1079 147.827 34.1079C147.827 34.1079 147.751 34.0319 147.751 33.8039C147.751 33.7279 147.827 33.5758 147.978 33.4998C148.13 33.4238 148.282 33.3478 148.434 33.4238C148.813 33.4998 149.117 33.8039 149.345 34.26C149.496 34.64 149.648 35.1721 149.572 35.6282C149.496 36.6163 148.965 37.5285 148.206 37.7565C147.827 37.8326 147.599 37.7565 147.447 37.6045C147.295 37.3765 147.22 37.3005 147.295 37.3005Z" fill="#EB996E"/>
<path d="M149.875 24.5303C149.951 24.6064 148.433 25.4425 146.308 25.4425C144.183 25.5185 142.665 24.6824 142.741 24.6064C142.817 24.4543 144.335 25.0624 146.308 25.0624C148.357 25.0624 149.875 24.3783 149.875 24.5303Z" fill="#455A64"/>
<path d="M149.724 25.8987C149.8 25.9747 148.358 26.8108 146.309 26.8108C144.26 26.8868 142.818 26.0507 142.893 25.9747C142.969 25.8227 144.411 26.4308 146.309 26.4308C148.206 26.4308 149.724 25.8227 149.724 25.8987Z" fill="#455A64"/>
<path d="M147.599 289.282L126.652 160.365V132.544L155.188 135.205C155.568 136.269 164.902 289.434 164.902 289.434L161.943 289.282H147.599Z" fill="#0164A8"/>
<path d="M110.259 130.568L98.4199 210.913L124.907 204.452L135.683 133.228L110.259 130.568Z" fill="#0164A8"/>
<path d="M134.771 137.409C134.771 137.409 134.771 137.561 134.771 137.789C134.771 138.093 134.847 138.473 134.923 138.929C135.075 139.993 135.227 141.438 135.455 143.338C135.91 147.215 136.593 152.763 137.504 159.605C139.249 173.363 141.981 192.29 144.865 213.194C146.307 223.683 147.597 233.641 148.736 242.686C149.039 244.967 149.267 247.171 149.571 249.3C149.874 251.428 150.254 253.556 150.557 255.533C151.164 259.561 151.696 263.286 152.227 266.706C153.289 273.548 154.048 279.096 154.58 282.897C154.883 284.797 155.035 286.318 155.187 287.306C155.263 287.838 155.263 288.218 155.338 288.446C155.338 288.598 155.338 288.674 155.338 288.75C155.338 288.826 155.263 288.75 155.263 288.75H155.338C155.338 288.674 155.338 288.598 155.338 288.446C155.338 288.218 155.338 287.762 155.263 287.306C155.187 286.318 154.959 284.797 154.731 282.897C154.276 279.02 153.441 273.548 152.455 266.63C151.923 263.21 151.392 259.485 150.785 255.457C150.481 253.48 150.178 251.352 149.874 249.224C149.571 247.095 149.343 244.891 149.039 242.61C147.901 233.565 146.611 223.531 145.169 213.118C142.285 192.214 139.553 173.287 137.731 159.605C136.821 152.763 136.062 147.215 135.606 143.338C135.379 141.438 135.151 139.917 134.999 138.929C134.923 138.397 134.847 138.017 134.847 137.789C134.771 137.561 134.771 137.409 134.771 137.409Z" fill="#455A64"/>
<path d="M118.835 286.09C118.835 286.09 118.835 285.938 118.759 285.71C118.683 285.482 118.683 285.102 118.607 284.569C118.455 283.581 118.227 282.137 117.848 280.313C117.165 276.588 116.254 271.191 115.116 264.578C112.763 251.276 109.5 232.957 105.933 212.738C105.705 211.521 105.553 210.229 105.705 209.013C105.857 207.797 106.085 206.505 106.236 205.288C106.616 202.78 106.995 200.348 107.375 197.991C108.134 193.202 108.893 188.566 109.576 184.157C111.018 175.339 112.46 167.434 113.674 160.821C114.964 154.208 116.027 148.887 116.861 145.162C117.241 143.338 117.62 141.894 117.848 140.906C117.924 140.45 118.076 140.07 118.076 139.841C118.152 139.613 118.152 139.461 118.152 139.461C118.152 139.461 118.076 139.613 118.076 139.841C118 140.07 117.924 140.45 117.772 140.906C117.544 141.894 117.165 143.262 116.71 145.086C115.799 148.735 114.66 154.056 113.37 160.669C112.08 167.282 110.638 175.187 109.196 184.005C108.437 188.414 107.678 193.05 106.919 197.839C106.54 200.272 106.16 202.704 105.781 205.136C105.629 206.353 105.402 207.645 105.25 208.861C105.098 210.153 105.174 211.445 105.477 212.738C109.12 232.957 112.384 251.276 114.812 264.578C116.027 271.191 117.013 276.588 117.696 280.313C118.076 282.137 118.303 283.581 118.531 284.569C118.607 285.026 118.683 285.406 118.759 285.71C118.759 286.014 118.835 286.09 118.835 286.09Z" fill="#455A64"/>
<path d="M73.7533 83.0599L90.8292 96.0581C90.8292 96.0581 106.691 68.9215 108.133 67.2493C109.499 65.577 113.066 63.7527 113.066 63.7527L111.093 98.4905C111.093 98.4905 102.517 120.458 90.7533 119.242C81.7221 118.33 66.1641 94.4618 66.1641 94.4618L73.7533 83.0599Z" fill="#DC2D22"/>
<g opacity="0.2">
<g opacity="0.2">
<g opacity="0.2">
<path opacity="0.2" d="M90.4498 95.678C88.0971 99.3266 87.4141 104.039 88.7043 108.144C88.856 108.6 89.0078 108.98 89.3873 109.208C89.9944 109.512 90.7534 109.208 91.0569 108.6C91.4364 108.068 91.4364 107.308 91.5123 106.7C91.8159 107.308 92.1953 107.992 92.8025 108.372C93.4096 108.752 94.2444 108.828 94.6998 108.296C95.2311 107.688 94.9275 106.7 94.6239 105.94C93.1819 102.671 91.74 99.3266 90.298 96.058" fill="black"/>
</g>
</g>
</g>
<path d="M78.0035 87.0125C78.0794 87.0885 76.3339 90.053 74.133 93.5496C71.8562 97.1222 69.9589 99.9347 69.8071 99.8586C69.7312 99.7826 71.4767 96.8941 73.6776 93.3215C76.0303 89.749 77.9276 86.9365 78.0035 87.0125Z" fill="#263238"/>
<path d="M73.6765 86.4804C73.6006 86.4043 73.8283 86.2523 74.2078 86.3283C74.3596 86.4043 74.5872 86.5564 74.6631 86.8604C74.739 87.1645 74.5113 87.5445 74.2837 87.6206C73.9801 87.7726 73.6006 87.7726 73.373 87.5445C73.1453 87.3165 73.1453 87.0885 73.2212 86.8604C73.2971 86.5564 73.6765 86.4804 73.6765 86.4804C73.6765 86.5564 73.5247 86.7084 73.5247 86.9364C73.5247 87.1645 73.7524 87.4685 74.056 87.2405C74.3596 87.0885 74.2837 86.7844 74.056 86.6324C73.9042 86.5564 73.6765 86.5564 73.6765 86.4804Z" fill="#263238"/>
<path d="M90.8299 104.343C90.754 104.42 90.071 102.595 90.071 100.239C89.9951 97.8824 90.6022 96.0581 90.754 96.1341C90.9058 96.1341 90.5263 97.9584 90.6022 100.239C90.5263 102.443 90.9817 104.267 90.8299 104.343Z" fill="#263238"/>
<path d="M94.0923 104.191C94.0164 104.267 92.878 102.595 91.8914 100.315C90.9048 98.0344 90.5253 96.1341 90.6012 96.0581C90.753 96.0581 91.3601 97.8824 92.3467 100.087C93.3334 102.367 94.2441 104.115 94.0923 104.191Z" fill="#263238"/>
<path d="M148.735 60.4842L146.155 55.3914H127.485L124.525 61.1683L112.99 63.7527L108.057 138.169C108.057 139.081 108.284 140.069 108.74 140.906L154.048 142.654L155.869 143.414C157.463 142.426 156.476 138.245 156.476 136.345L157.083 99.4787L166.039 70.0618L148.735 60.4842Z" fill="#DC2D22"/>
<g opacity="0.2">
<g opacity="0.2">
<g opacity="0.2">
<path opacity="0.2" d="M129.383 63.0686C130.445 62.0044 131.584 60.8642 132.646 59.8001C133.86 62.7646 135.151 65.7291 136.365 68.7696C140.615 66.2611 144.713 63.4487 148.508 60.2561C144.334 61.6244 140.16 62.9166 135.985 64.2848C134.923 61.4723 133.86 58.6599 132.798 55.8474C132.039 58.4318 130.977 60.8642 129.61 63.1446" fill="black"/>
</g>
</g>
</g>
<path d="M181.901 153.828L169.682 154.436V119.318L157.084 99.4025L166.039 69.9856C167.861 70.7457 181.825 105.712 185.316 115.213C185.847 116.581 186.075 118.026 185.999 119.47L181.901 153.828Z" fill="#DC2D22"/>
<path d="M112.99 79.1833C113.142 79.1833 112.535 86.4046 111.624 95.222C110.713 104.115 109.954 111.261 109.803 111.261C109.651 111.261 110.258 104.039 111.169 95.222C112.079 86.3285 112.914 79.1833 112.99 79.1833Z" fill="#263238"/>
<path d="M132.797 55.8476C132.949 55.9236 131.886 58.584 130.596 61.8526C130.52 62.0806 130.444 62.2326 130.369 62.4607C130.293 62.6887 130.217 62.9168 129.989 63.0688C129.761 63.2968 129.382 63.2208 129.154 63.1448C128.927 63.0688 128.775 62.9168 128.623 62.8407C128.016 62.4607 127.485 62.0806 126.953 61.7006C126.043 61.0164 125.436 60.6364 125.436 60.5604C125.436 60.4843 126.119 60.8644 127.105 61.3965C127.636 61.7006 128.244 62.0806 128.851 62.4607C129.154 62.6887 129.534 62.9168 129.686 62.7647C129.913 62.6127 129.989 62.0806 130.217 61.7006C131.431 58.356 132.645 55.7716 132.797 55.8476Z" fill="#263238"/>
<path d="M147.597 60.4082C147.597 60.4842 146.535 60.9402 144.713 61.5483C142.968 62.2325 140.463 63.0686 137.731 63.9807C137.2 64.1328 136.745 64.3608 136.213 64.5128L135.986 64.5889L135.91 64.3608C134.923 62.0044 134.088 59.9521 133.557 58.5078C132.95 56.9876 132.647 56.0754 132.722 56.0754C132.798 56.0754 133.178 56.9116 133.861 58.3558C134.544 59.8001 135.379 61.8524 136.365 64.2088L136.062 64.0568C136.517 63.9047 137.048 63.7527 137.58 63.5247C140.312 62.6125 142.816 61.7764 144.638 61.1683C146.459 60.6362 147.597 60.3321 147.597 60.4082Z" fill="#263238"/>
<path d="M164.141 71.05C164.141 71.2021 161.561 71.8862 158.525 73.2544C155.489 74.6226 153.213 76.0669 153.137 75.9909C153.137 75.9149 153.668 75.5348 154.579 74.9267C155.489 74.3186 156.855 73.5585 158.373 72.8744C159.891 72.1902 161.333 71.7342 162.472 71.4301C163.458 71.1261 164.141 71.05 164.141 71.05Z" fill="#263238"/>
<path d="M132.797 55.8474C132.797 55.8474 132.797 55.9234 132.797 56.0754C132.797 56.2275 132.797 56.4555 132.797 56.7596C132.797 57.3677 132.873 58.2038 132.873 59.268C132.873 61.4723 132.873 64.5889 132.721 68.5415C132.418 76.3708 131.431 87.0886 129.913 98.9466C129.154 104.876 128.319 110.5 127.788 115.593C127.257 120.686 126.953 125.323 127.029 129.276C127.105 133.152 127.409 136.345 127.788 138.473C127.94 139.537 128.092 140.373 128.168 140.982C128.243 141.21 128.243 141.438 128.243 141.666C128.243 141.818 128.243 141.894 128.243 141.894C128.243 141.894 128.243 141.818 128.168 141.666C128.092 141.514 128.092 141.286 128.016 141.058C127.94 140.525 127.712 139.689 127.56 138.625C127.181 136.497 126.801 133.304 126.65 129.428C126.498 125.551 126.726 120.838 127.257 115.745C127.788 110.576 128.623 105.028 129.382 99.0986C130.9 87.3166 131.962 76.5989 132.342 68.7696C132.569 64.8929 132.569 61.7004 132.645 59.572C132.645 58.5079 132.645 57.6717 132.645 57.0636C132.645 56.8356 132.645 56.6075 132.645 56.3795C132.721 55.9234 132.721 55.8474 132.797 55.8474Z" fill="#263238"/>
<path d="M182.583 148.431C182.583 148.583 179.7 148.507 176.133 148.355C172.566 148.203 169.682 147.899 169.682 147.823C169.682 147.671 172.566 147.747 176.133 147.899C179.7 148.051 182.583 148.279 182.583 148.431Z" fill="#263238"/>
<g opacity="0.2">
<g opacity="0.2">
<g opacity="0.2">
<path opacity="0.2" d="M157.235 99.4026C155.945 96.9702 154.579 94.6138 153.289 92.1814C151.695 104.876 152.605 117.798 155.945 130.112C156.324 119.926 156.78 109.74 157.159 99.4786" fill="black"/>
</g>
</g>
</g>
<path d="M137.048 86.1765C137.048 86.1765 137.276 86.1765 137.731 86.1005C138.263 86.1005 139.021 86.1005 139.856 86.0245C141.678 86.0245 144.334 85.9485 147.597 85.9485H147.825V86.1765C147.597 88.989 147.37 92.2575 147.142 95.6781V95.8301L147.066 95.9061C146.914 95.9822 146.763 96.0582 146.611 96.1342C144.789 97.0463 143.12 97.9585 141.45 98.8706L141.298 98.9467L141.222 98.8706C139.477 97.4264 137.883 96.1342 136.441 94.918L136.365 94.842V94.766C136.593 92.1815 136.745 90.0532 136.896 88.4569C136.972 87.7728 137.048 87.1647 137.048 86.7086C136.972 86.3285 137.048 86.1005 137.048 86.1765C137.048 86.1765 137.048 86.4046 137.048 86.8606C137.048 87.3167 136.972 87.9248 136.972 88.6089C136.896 90.2052 136.745 92.2575 136.593 94.842L136.517 94.6899C137.959 95.8301 139.629 97.1224 141.374 98.5666H141.146C142.74 97.7305 144.486 96.8183 146.307 95.8301C146.459 95.7541 146.611 95.6781 146.763 95.6021L146.611 95.7541C146.914 92.2575 147.142 89.065 147.37 86.2525L147.597 86.4806C144.486 86.4806 141.905 86.4046 140.008 86.4046C139.097 86.4046 138.414 86.3285 137.807 86.3285C137.352 86.1765 137.048 86.1765 137.048 86.1765Z" fill="#263238"/>
<path d="M114.66 141.286C114.66 141.438 113.673 141.21 113.066 140.297C112.459 139.385 112.611 138.473 112.763 138.473C112.914 138.473 112.915 139.233 113.446 140.069C113.977 140.83 114.66 141.134 114.66 141.286Z" fill="#263238"/>
<path d="M115.797 140.83C115.722 140.906 114.887 140.069 114.507 138.701C114.128 137.333 114.507 136.193 114.659 136.269C114.811 136.269 114.659 137.333 114.963 138.625C115.342 139.841 115.949 140.677 115.797 140.83Z" fill="#263238"/>
<path d="M150.025 135.661C150.177 135.661 150.253 137.485 149.342 139.385C148.431 141.362 146.989 142.426 146.914 142.35C146.838 142.274 148.052 141.058 148.963 139.233C149.797 137.409 149.873 135.661 150.025 135.661Z" fill="#263238"/>
<path d="M72.7674 84.5043C72.7674 84.5043 58.9549 74.0146 57.0576 73.3304C53.8701 72.1903 53.1112 72.4943 53.1112 72.4943L60.7005 80.6277C60.7005 80.6277 52.7317 83.3641 52.1246 83.6682C51.5174 84.0482 51.2898 85.7205 53.1871 85.7205C54.7808 85.7205 62.446 85.8725 62.446 85.8725L68.7451 90.5093L72.7674 84.5043Z" fill="#FFBE9D"/>
<path d="M45.5032 61.9963H12.3906V81.1966H45.5032V61.9963Z" fill="#76D0DE"/>
<path d="M43.175 59.667H10.0625V78.8672H43.175V59.667Z" fill="#ADECF7"/>
<path d="M42.1664 60.6743H11.0684V77.8601H42.1664V60.6743Z" fill="#76D0DE"/>
<path d="M41.0968 61.6814H12.0762V76.7898H41.0968V61.6814Z" fill="#ADECF7"/>
<path d="M20.8262 69.2356C20.8262 66.0251 23.4072 63.4441 26.6177 63.4441C29.8282 63.4441 32.4093 66.0251 32.4093 69.2356C32.4093 72.4462 29.8282 75.0272 26.6177 75.0272C23.4072 75.0272 20.8262 72.4462 20.8262 69.2356Z" fill="#76D0DE"/>
<path d="M27.1214 69.6765H26.0513C25.6106 69.6765 25.1699 69.4876 24.8552 69.1729C24.5404 68.8581 24.3516 68.4175 24.3516 67.9768C24.3516 67.5361 24.5404 67.0955 24.8552 66.7807C25.1699 66.466 25.6106 66.2771 26.0513 66.2771H28.3805V67.0955H26.0513C25.7994 67.0955 25.6106 67.1584 25.4847 67.3473C25.2958 67.4732 25.2329 67.725 25.2329 67.9138C25.2329 68.1657 25.2958 68.3545 25.4847 68.4804C25.6735 68.6693 25.8624 68.7322 26.0513 68.7322H27.1214V69.6765Z" fill="#ADECF7"/>
<path d="M27.1222 72.1946H24.793V71.3763H27.1222C27.374 71.3763 27.5628 71.3133 27.6887 71.1244C27.8146 70.9985 27.9405 70.7467 27.9405 70.5579C27.9405 70.3061 27.8776 70.1172 27.6887 69.9913C27.4999 69.8025 27.311 69.7395 27.1222 69.7395H26.052V68.9211H27.1222C27.5628 68.9211 28.0035 69.11 28.3183 69.4248C28.633 69.7395 28.8219 70.1802 28.8219 70.6208C28.8219 71.0615 28.633 71.5022 28.3183 71.8169C28.0035 72.0058 27.6258 72.1946 27.1222 72.1946Z" fill="#ADECF7"/>
<path d="M26.9961 66.0254H26.1777V72.5094H26.9961V66.0254Z" fill="#ADECF7"/>
<path d="M42.1667 65.3325V60.6111H37.4453C37.886 63.0662 39.7745 64.9547 42.1667 65.3325Z" fill="#76D0DE"/>
<path d="M11.0684 73.1384V77.8598H15.7897C15.3491 75.4047 13.4605 73.5161 11.0684 73.1384Z" fill="#76D0DE"/>
<path d="M11.0684 65.3325C13.4605 64.8918 15.3491 63.0032 15.7897 60.6111H11.0684V65.3325Z" fill="#76D0DE"/>
<path d="M37.4453 77.8598H42.1667V73.1384C39.7745 73.5161 37.886 75.4047 37.4453 77.8598Z" fill="#76D0DE"/>
<path d="M32.9102 66.2177V29.0691H91.3994V66.2177H32.9102Z" fill="#F5F5F5" stroke="#828282"/>
<path d="M87.1785 76.4126L77.5469 66.781H87.1785V76.4126Z" fill="white"/>
<path d="M46.8895 43.8032H40.7832V48.9023H46.8895V43.8032Z" fill="#0164A8"/>
<path d="M56.0184 36.4382H49.9121V48.9026H56.0184V36.4382Z" fill="#D9D8D7"/>
<path d="M65.2079 40.53H59.1016V48.9026H65.2079V40.53Z" fill="#D9D8D7"/>
<path d="M74.3993 19.0635H68.293V48.9025H74.3993V19.0635Z" fill="#DC2D22"/>
<path d="M83.5282 33.7942H77.4219V48.9026H83.5282V33.7942Z" fill="#D9D8D7"/>
<path d="M83.5903 52.05H40.7832V53.9386H83.5903V52.05Z" fill="#0164A8"/>
<path d="M83.5903 55.8271H40.7832V57.7157H83.5903V55.8271Z" fill="#CCCBCA"/>
<path d="M62.1867 59.6672H40.7832V61.5558H62.1867V59.6672Z" fill="#CCCBCA"/>
<path d="M23.5975 25.7988C23.5975 29.5129 20.5759 32.5975 16.7988 32.5975C13.0846 32.5975 10 29.5759 10 25.7988C10 22.0846 13.0217 19 16.7988 19C20.5759 19.063 23.5975 22.0846 23.5975 25.7988Z" fill="#FDCA5C"/>
<path d="M22.2749 25.7991C22.2749 28.8208 19.8828 31.2129 16.8611 31.2129C13.8394 31.2129 11.4473 28.8208 11.4473 25.7991C11.4473 22.7774 13.9024 20.3853 16.8611 20.3853C19.8198 20.3853 22.2749 22.8404 22.2749 25.7991Z" fill="#FFDB79"/>
<path d="M17.429 26.2396H16.2958C15.7922 26.2396 15.3516 26.0508 15.0368 25.736C14.7221 25.4213 14.5332 24.9806 14.5332 24.477C14.5332 23.9734 14.7221 23.5327 15.0368 23.218C15.3516 22.9032 15.7922 22.7144 16.2958 22.7144H18.751V23.5957H16.2958C16.044 23.5957 15.8552 23.6586 15.6663 23.8475C15.4775 24.0363 15.4145 24.2252 15.4145 24.477C15.4145 24.7288 15.4775 24.9177 15.6663 25.1065C15.8552 25.2954 16.044 25.3583 16.2958 25.3583H17.429V26.2396Z" fill="#FDCA5C"/>
<path d="M17.4297 28.9464H14.9746V28.0651H17.4297C17.6815 28.0651 17.8704 28.0022 18.0592 27.8133C18.2481 27.6244 18.311 27.4356 18.311 27.1838C18.311 26.932 18.2481 26.7431 18.0592 26.5543C17.8704 26.3654 17.6815 26.3025 17.4297 26.3025H16.2966V25.4211H17.4297C17.9333 25.4211 18.374 25.61 18.6888 25.9248C19.0035 26.2395 19.1924 26.6802 19.1924 27.1838C19.1924 27.6874 19.0035 28.1281 18.6888 28.4428C18.311 28.7576 17.8704 28.9464 17.4297 28.9464Z" fill="#FDCA5C"/>
<path d="M17.2407 22.3997H16.3594V29.1984H17.2407V22.3997Z" fill="#FDCA5C"/>
<path d="M39.2089 42.1664C39.2089 45.8806 36.1872 48.9652 32.4101 48.9652C28.696 48.9652 25.6113 45.9435 25.6113 42.1664C25.6113 38.4523 28.633 35.3677 32.4101 35.3677C36.1872 35.3677 39.2089 38.3894 39.2089 42.1664Z" fill="#FDCA5C"/>
<path d="M37.8238 42.1665C37.8238 45.1882 35.4316 47.5804 32.4099 47.5804C29.3883 47.5804 26.9961 45.1882 26.9961 42.1665C26.9961 39.1448 29.4512 36.7527 32.4099 36.7527C35.4316 36.7527 37.8238 39.1448 37.8238 42.1665Z" fill="#FFDB79"/>
<path d="M32.9758 42.6066H31.8427C31.3391 42.6066 30.8984 42.4177 30.5837 42.103C30.2689 41.7882 30.0801 41.3476 30.0801 40.8439C30.0801 40.3403 30.2689 39.8997 30.5837 39.5849C30.8984 39.2702 31.3391 39.0813 31.8427 39.0813H34.2978V39.9626H31.8427C31.5909 39.9626 31.4021 40.0256 31.2132 40.2144C31.0243 40.4033 30.9614 40.5921 30.9614 40.8439C30.9614 41.0958 31.0243 41.2846 31.2132 41.4735C31.4021 41.6623 31.5909 41.7253 31.8427 41.7253H32.9758V42.6066Z" fill="#FDCA5C"/>
<path d="M32.9766 45.2506H30.5215V44.3693H32.9766C33.2284 44.3693 33.4173 44.3064 33.6061 44.1175C33.795 43.9286 33.8579 43.7398 33.8579 43.488C33.8579 43.2362 33.795 43.0473 33.6061 42.8585C33.4173 42.6696 33.2284 42.6067 32.9766 42.6067H31.8435V41.7253H32.9766C33.4802 41.7253 33.9209 41.9142 34.2356 42.229C34.5504 42.5437 34.7392 42.9844 34.7392 43.488C34.7392 43.9916 34.5504 44.4323 34.2356 44.747C33.9209 45.0618 33.4802 45.2506 32.9766 45.2506Z" fill="#FDCA5C"/>
<path d="M32.8501 38.7666H31.9688V45.5654H32.8501V38.7666Z" fill="#FDCA5C"/>
</g>
</svg>
